digraph "/home/man/Documents/graph-tool-cmake/src/graph/base64.hh"
{
 // LATEX_PDF_SIZE
  bgcolor="transparent";
  edge [fontname=Helvetica,fontsize=10,labelfontname=Helvetica,labelfontsize=10];
  node [fontname=Helvetica,fontsize=10,shape=box,height=0.2,width=0.4];
  Node1 [label="/home/man/Documents\l/graph-tool-cmake/src\l/graph/base64.hh",height=0.2,width=0.4,color="gray40", fillcolor="grey60", style="filled", fontcolor="black",tooltip=" "];
  Node1 -> Node2 [dir="back",color="steelblue1",style="solid"];
  Node2 [label="/home/man/Documents\l/graph-tool-cmake/src\l/graph/base64.cc",height=0.2,width=0.4,color="grey40", fillcolor="white", style="filled",URL="$base64_8cc.html",tooltip=" "];
  Node1 -> Node3 [dir="back",color="steelblue1",style="solid"];
  Node3 [label="/home/man/Documents\l/graph-tool-cmake/src\l/graph/gml.hh",height=0.2,width=0.4,color="grey40", fillcolor="white", style="filled",URL="$gml_8hh.html",tooltip=" "];
  Node3 -> Node4 [dir="back",color="steelblue1",style="solid"];
  Node4 [label="/home/man/Documents\l/graph-tool-cmake/src\l/graph/graph_io.cc",height=0.2,width=0.4,color="grey40", fillcolor="white", style="filled",URL="$graph__io_8cc.html",tooltip=" "];
  Node1 -> Node5 [dir="back",color="steelblue1",style="solid"];
  Node5 [label="/home/man/Documents\l/graph-tool-cmake/src\l/graph/graphml.cpp",height=0.2,width=0.4,color="grey40", fillcolor="white", style="filled",URL="$graphml_8cpp.html",tooltip=" "];
}
