digraph "/home/man/Documents/graph-tool-cmake/src/graph/inference/loops/bundled_vacate_loop.hh"
{
 // LATEX_PDF_SIZE
  bgcolor="transparent";
  edge [fontname=Helvetica,fontsize=10,labelfontname=Helvetica,labelfontsize=10];
  node [fontname=Helvetica,fontsize=10,shape=box,height=0.2,width=0.4];
  Node1 [label="/home/man/Documents\l/graph-tool-cmake/src\l/graph/inference/loops\l/bundled_vacate_loop.hh",height=0.2,width=0.4,color="gray40", fillcolor="grey60", style="filled", fontcolor="black",tooltip=" "];
  Node1 -> Node2 [color="steelblue1",style="solid"];
  Node2 [label="config.h",height=0.2,width=0.4,color="grey60", fillcolor="#E0E0E0", style="filled",tooltip=" "];
  Node1 -> Node3 [color="steelblue1",style="solid"];
  Node3 [label="queue",height=0.2,width=0.4,color="grey60", fillcolor="#E0E0E0", style="filled",tooltip=" "];
  Node1 -> Node4 [color="steelblue1",style="solid"];
  Node4 [label="tuple",height=0.2,width=0.4,color="grey60", fillcolor="#E0E0E0", style="filled",tooltip=" "];
  Node1 -> Node5 [color="steelblue1",style="solid"];
  Node5 [label="hash_map_wrap.hh",height=0.2,width=0.4,color="grey40", fillcolor="white", style="filled",URL="$hash__map__wrap_8hh.html",tooltip=" "];
  Node5 -> Node2 [color="steelblue1",style="solid"];
  Node5 -> Node6 [color="steelblue1",style="solid"];
  Node6 [label="unordered_set",height=0.2,width=0.4,color="grey60", fillcolor="#E0E0E0", style="filled",tooltip=" "];
  Node5 -> Node7 [color="steelblue1",style="solid"];
  Node7 [label="unordered_map",height=0.2,width=0.4,color="grey60", fillcolor="#E0E0E0", style="filled",tooltip=" "];
  Node5 -> Node4 [color="steelblue1",style="solid"];
  Node5 -> Node8 [color="steelblue1",style="solid"];
  Node8 [label="vector",height=0.2,width=0.4,color="grey60", fillcolor="#E0E0E0", style="filled",tooltip=" "];
  Node5 -> Node9 [color="steelblue1",style="solid"];
  Node9 [label="utility",height=0.2,width=0.4,color="grey60", fillcolor="#E0E0E0", style="filled",tooltip=" "];
  Node5 -> Node10 [color="steelblue1",style="solid"];
  Node10 [label="limits",height=0.2,width=0.4,color="grey60", fillcolor="#E0E0E0", style="filled",tooltip=" "];
  Node5 -> Node11 [color="steelblue1",style="solid"];
  Node11 [label="graph_adjacency.hh",height=0.2,width=0.4,color="grey40", fillcolor="white", style="filled",URL="$graph__adjacency_8hh.html",tooltip=" "];
  Node11 -> Node8 [color="steelblue1",style="solid"];
  Node11 -> Node12 [color="steelblue1",style="solid"];
  Node12 [label="deque",height=0.2,width=0.4,color="grey60", fillcolor="#E0E0E0", style="filled",tooltip=" "];
  Node11 -> Node9 [color="steelblue1",style="solid"];
  Node11 -> Node13 [color="steelblue1",style="solid"];
  Node13 [label="boost/iterator.hpp",height=0.2,width=0.4,color="grey60", fillcolor="#E0E0E0", style="filled",tooltip=" "];
  Node11 -> Node14 [color="steelblue1",style="solid"];
  Node14 [label="boost/graph/graph_traits.hpp",height=0.2,width=0.4,color="grey60", fillcolor="#E0E0E0", style="filled",tooltip=" "];
  Node11 -> Node15 [color="steelblue1",style="solid"];
  Node15 [label="boost/range/irange.hpp",height=0.2,width=0.4,color="grey60", fillcolor="#E0E0E0", style="filled",tooltip=" "];
  Node11 -> Node16 [color="steelblue1",style="solid"];
  Node16 [label="boost/property_map\l/property_map.hpp",height=0.2,width=0.4,color="grey60", fillcolor="#E0E0E0", style="filled",tooltip=" "];
  Node11 -> Node17 [color="steelblue1",style="solid"];
  Node17 [label="boost/graph/properties.hpp",height=0.2,width=0.4,color="grey60", fillcolor="#E0E0E0", style="filled",tooltip=" "];
  Node11 -> Node18 [color="steelblue1",style="solid"];
  Node18 [label="boost/iterator/iterator\l_facade.hpp",height=0.2,width=0.4,color="grey60", fillcolor="#E0E0E0", style="filled",tooltip=" "];
  Node11 -> Node19 [color="steelblue1",style="solid"];
  Node19 [label="transform_iterator.hh",height=0.2,width=0.4,color="grey40", fillcolor="white", style="filled",URL="$transform__iterator_8hh.html",tooltip=" "];
  Node19 -> Node20 [color="steelblue1",style="solid"];
  Node20 [label="iterator",height=0.2,width=0.4,color="grey60", fillcolor="#E0E0E0", style="filled",tooltip=" "];
  Node19 -> Node21 [color="steelblue1",style="solid"];
  Node21 [label="boost/iterator/transform\l_iterator.hpp",height=0.2,width=0.4,color="grey60", fillcolor="#E0E0E0", style="filled",tooltip=" "];
}
