digraph "boost::unchecked_vector_property_map::get_checked"
{
 // LATEX_PDF_SIZE
  bgcolor="transparent";
  edge [fontname=Helvetica,fontsize=10,labelfontname=Helvetica,labelfontsize=10];
  node [fontname=Helvetica,fontsize=10,shape=box,height=0.2,width=0.4];
  rankdir="RL";
  Node1 [label="boost::unchecked_vector\l_property_map::get_checked",height=0.2,width=0.4,color="gray40", fillcolor="grey60", style="filled", fontcolor="black",tooltip=" "];
  Node1 -> Node2 [dir="back",color="steelblue1",style="solid"];
  Node2 [label="boost::get_checked",height=0.2,width=0.4,color="grey40", fillcolor="white", style="filled",URL="$namespaceboost.html#ada8a47a56f9322b096906b4fb6d6e405",tooltip=" "];
  Node2 -> Node3 [dir="back",color="steelblue1",style="solid"];
  Node3 [label="get_edmonds_karp_max\l_flow::operator()",height=0.2,width=0.4,color="grey40", fillcolor="white", style="filled",URL="$structget__edmonds__karp__max__flow.html#af6474f419d253aa0613692a99d085465",tooltip=" "];
  Node1 -> Node4 [dir="back",color="steelblue1",style="solid"];
  Node4 [label="graph_tool::LatentClosure\l::LatentClosureState::modify_edge_g",height=0.2,width=0.4,color="grey40", fillcolor="white", style="filled",URL="$classgraph__tool_1_1LatentClosure_1_1LatentClosureState.html#a9faa5aeb149c088a31dc3395c3b066d0",tooltip=" "];
  Node1 -> Node3 [dir="back",color="steelblue1",style="solid"];
  Node1 -> Node5 [dir="back",color="steelblue1",style="solid"];
  Node5 [label="get_push_relabel_max\l_flow::operator()",height=0.2,width=0.4,color="grey40", fillcolor="white", style="filled",URL="$structget__push__relabel__max__flow.html#a77e1196e7d56bebf101273bdb66ddf28",tooltip=" "];
}
