digraph "graph_tool::OverlapBlockState&lt; Ts &gt;"
{
 // LATEX_PDF_SIZE
  bgcolor="transparent";
  edge [fontname=Helvetica,fontsize=10,labelfontname=Helvetica,labelfontsize=10];
  node [fontname=Helvetica,fontsize=10,shape=box,height=0.2,width=0.4];
  Node1 [shape=record,label="{graph_tool::OverlapBlock\lState\< Ts \>\n|+ _bg\l+ _c_mrs\l+ _c_brec\l+ _c_bdrec\l+ _recsum\l+ _recx2\l+ _dBdx\l+ _LdBdx\l+ _rdelta\l+ _B_E\land 6 more...\l|+ OverlapBlockState()\l+ OverlapBlockState()\l+ modify_vertex()\l+ get_B_E()\l+ get_B_E_D()\l+ remove_vertex()\l+ add_vertex()\l+ allow_move()\l+ move_vertex()\l+ move_vertices()\land 70 more...\l}",height=0.2,width=0.4,color="gray40", fillcolor="grey60", style="filled", fontcolor="black",tooltip=" "];
  Node2 -> Node1 [dir="back",color="steelblue1",style="solid",arrowtail="onormal"];
  Node2 [shape=record,label="{OverlapBlockStateVirtual\lBase\< Ts... \>\n||}",height=0.2,width=0.4,color="gray40", fillcolor="white", style="filled",tooltip=" "];
  Node3 -> Node1 [dir="back",color="steelblue1",style="solid",arrowtail="onormal"];
  Node3 [shape=record,label="{graph_tool::BlockStateVirtualBase\n||+ entropy()\l+ add_partition_node()\l+ remove_partition_node()\l+ set_vertex_weight()\l+ coupled_resize_vertex()\l+ get_coupled_state()\l+ virtual_move()\l+ sample_branch()\l+ copy_branch()\l+ sample_block()\land 20 more...\l}",height=0.2,width=0.4,color="gray40", fillcolor="white", style="filled",URL="$classgraph__tool_1_1BlockStateVirtualBase.html",tooltip=" "];
  Node4 -> Node1 [color="grey25",style="solid",label=" +_candidate_groups\n+_empty_groups" ,arrowhead="odiamond"];
  Node4 [shape=record,label="{idx_set\< size_t \>\n||+ idx_set()\l+ idx_set()\l+ get_pos()\l+ insert()\l+ erase()\l+ erase()\l+ find()\l+ clear()\l+ shrink_to_fit()\l+ begin()\l+ end()\l+ size()\l+ empty()\l}",height=0.2,width=0.4,color="gray40", fillcolor="white", style="filled",URL="$classidx__set.html",tooltip=" "];
  Node5 -> Node1 [color="grey25",style="solid",label=" +_egroups" ,arrowhead="odiamond"];
  Node5 [shape=record,label="{graph_tool::EGroups\n||+ init()\l+ add_block()\l+ clear()\l+ empty()\l+ insert_edge()\l+ insert_edge()\l+ sample_edge()\l+ check()\l}",height=0.2,width=0.4,color="gray40", fillcolor="white", style="filled",URL="$classgraph__tool_1_1EGroups.html",tooltip=" "];
  Node6 -> Node1 [color="grey25",style="solid",label=" +_overlap_stats" ,arrowhead="odiamond"];
  Node6 [shape=record,label="{graph_tool::overlap\l_stats_t\n|+ _null\l|+ overlap_stats_t()\l+ add_half_edge()\l+ remove_half_edge()\l+ get_block_size()\l+ virtual_remove_size()\l+ virtual_add_size()\l+ virtual_move_deg_dS()\l+ virtual_move_parallel_dS()\l+ sample_half_edge()\l+ get_node()\land 7 more...\l}",height=0.2,width=0.4,color="gray40", fillcolor="white", style="filled",URL="$classgraph__tool_1_1overlap__stats__t.html",tooltip=" "];
  Node7 -> Node1 [color="grey25",style="solid",label=" +_m_entries" ,arrowhead="odiamond"];
  Node7 [shape=record,label="{graph_tool::SingleEntrySet\l\< g_t, bg_t, std::vector\l\< double \>, std::vector\<\l double \> \>\n|+ _self_eweight\l+ _p_entries\l|+ SingleEntrySet()\l+ SingleEntrySet()\l+ set_move()\l+ get_move()\l+ insert_delta_rnr()\l+ get_delta()\l+ get_delta()\l+ clear()\l+ get_entries()\l+ get_edelta()\l+ get_null_edge()\l+ get_mes()\l+ get_me()\l}",height=0.2,width=0.4,color="gray40", fillcolor="white", style="filled",URL="$classgraph__tool_1_1SingleEntrySet.html",tooltip=" "];
  Node8 -> Node1 [color="grey25",style="solid",label=" +_eweight" ,arrowhead="odiamond"];
  Node8 [shape=record,label="{graph_tool::UnityProperty\lMap\< int, GraphInterface\l::edge_t \>\n||+ operator[]()\l}",height=0.2,width=0.4,color="gray40", fillcolor="white", style="filled",URL="$classgraph__tool_1_1UnityPropertyMap.html",tooltip=" "];
  Node9 -> Node8 [dir="back",color="steelblue1",style="solid",arrowtail="onormal"];
  Node9 [shape=record,label="{boost::put_get_helper\l\< int, UnityPropertyMap\l\< int, GraphInterface::\ledge_t \> \>\n||}",height=0.2,width=0.4,color="gray40", fillcolor="white", style="filled",tooltip=" "];
  Node10 -> Node1 [color="grey25",style="solid",label=" +_vweight" ,arrowhead="odiamond"];
  Node10 [shape=record,label="{graph_tool::UnityProperty\lMap\< int, GraphInterface\l::vertex_t \>\n||+ operator[]()\l}",height=0.2,width=0.4,color="gray40", fillcolor="white", style="filled",URL="$classgraph__tool_1_1UnityPropertyMap.html",tooltip=" "];
  Node11 -> Node10 [dir="back",color="steelblue1",style="solid",arrowtail="onormal"];
  Node11 [shape=record,label="{boost::put_get_helper\l\< int, UnityPropertyMap\l\< int, GraphInterface::\lvertex_t \> \>\n||}",height=0.2,width=0.4,color="gray40", fillcolor="white", style="filled",tooltip=" "];
  Node3 -> Node1 [color="grey25",style="solid",label=" +_coupled_state" ,arrowhead="odiamond"];
  Node12 -> Node1 [color="grey25",style="solid",label=" +_coupled_entropy_args" ,arrowhead="odiamond"];
  Node12 [shape=record,label="{graph_tool::entropy\l_args_t\n|+ dense\l+ multigraph\l+ exact\l+ adjacency\l+ recs\l+ deg_entropy\l+ partition_dl\l+ degree_dl\l+ degree_dl_kind\l+ edges_dl\l+ recs_dl\l+ beta_dl\l+ Bfield\l|}",height=0.2,width=0.4,color="gray40", fillcolor="white", style="filled",URL="$structgraph__tool_1_1entropy__args__t.html",tooltip=" "];
}
