digraph "graph_tool::SBMFugacities"
{
 // LATEX_PDF_SIZE
  bgcolor="transparent";
  edge [fontname=Helvetica,fontsize=10,labelfontname=Helvetica,labelfontsize=10];
  node [fontname=Helvetica,fontsize=10,shape=box,height=0.2,width=0.4];
  Node1 [shape=record,label="{graph_tool::SBMFugacities\n||+ SBMFugacities()\l+ norm()\l+ pack()\l+ unpack()\l+ get_f()\l+ get_diff()\l+ new_x()\l+ export_args()\l}",height=0.2,width=0.4,color="gray40", fillcolor="grey60", style="filled", fontcolor="black",tooltip=" "];
}
