digraph "graph_tool::get_triangulation&lt; Triang, IsPeriodic &gt;::edge_inserter&lt; Graph, VertexMap &gt;"
{
 // LATEX_PDF_SIZE
  bgcolor="transparent";
  edge [fontname=Helvetica,fontsize=10,labelfontname=Helvetica,labelfontsize=10];
  node [fontname=Helvetica,fontsize=10,shape=box,height=0.2,width=0.4];
  Node1 [shape=record,label="{graph_tool::get_triangulation\l\< Triang, IsPeriodic \>::edge\l_inserter\< Graph, VertexMap \>\n||+ edge_inserter()\l+ operator++()\l+ operator++()\l+ operator*()\l+ operator=()\l}",height=0.2,width=0.4,color="gray40", fillcolor="grey60", style="filled", fontcolor="black",tooltip=" "];
}
