digraph "graph_tool::HistD&lt; VT &gt;::HistState&lt; Ts &gt;"
{
 // LATEX_PDF_SIZE
  bgcolor="transparent";
  edge [fontname=Helvetica,fontsize=10,labelfontname=Helvetica,labelfontsize=10];
  node [fontname=Helvetica,fontsize=10,shape=box,height=0.2,width=0.4];
  Node1 [shape=record,label="{graph_tool::HistD\<\l VT \>::HistState\< Ts \>\n|+ _N\l+ _D\l+ _bins\l+ _bounds\l+ _bounded\l+ _discrete\l+ _hist\l+ _chist\l+ _mgroups\l+ _r_temp\l+ _rs\l+ _crs\l|+ HistState()\l+ get_bin()\l+ get_hist()\l+ get_chist()\l+ to_group()\l+ to_cgroup()\l+ get_hist()\l+ get_hist()\l+ update_hist()\l+ update_hist()\land 15 more...\l}",height=0.2,width=0.4,color="gray40", fillcolor="grey60", style="filled", fontcolor="black",tooltip=" "];
  Node2 -> Node1 [dir="back",color="steelblue1",style="solid",arrowtail="onormal"];
  Node2 [shape=record,label="{HistStateBase\< Ts... \>\n||}",height=0.2,width=0.4,color="gray40", fillcolor="white", style="filled",tooltip=" "];
}
