digraph "graph_tool::OverlapBlockState&lt; Ts &gt;"
{
 // LATEX_PDF_SIZE
  bgcolor="transparent";
  edge [fontname=Helvetica,fontsize=10,labelfontname=Helvetica,labelfontsize=10];
  node [fontname=Helvetica,fontsize=10,shape=box,height=0.2,width=0.4];
  Node1 [shape=record,label="{graph_tool::OverlapBlock\lState\< Ts \>\n|+ _bg\l+ _candidate_groups\l+ _empty_groups\l+ _c_mrs\l+ _c_brec\l+ _c_bdrec\l+ _recsum\l+ _recx2\l+ _dBdx\l+ _LdBdx\land 15 more...\l|+ OverlapBlockState()\l+ OverlapBlockState()\l+ modify_vertex()\l+ get_B_E()\l+ get_B_E_D()\l+ remove_vertex()\l+ add_vertex()\l+ allow_move()\l+ move_vertex()\l+ move_vertices()\land 70 more...\l}",height=0.2,width=0.4,color="gray40", fillcolor="grey60", style="filled", fontcolor="black",tooltip=" "];
  Node2 -> Node1 [dir="back",color="steelblue1",style="solid",arrowtail="onormal"];
  Node2 [shape=record,label="{OverlapBlockStateVirtual\lBase\< Ts... \>\n||}",height=0.2,width=0.4,color="gray40", fillcolor="white", style="filled",tooltip=" "];
  Node3 -> Node1 [dir="back",color="steelblue1",style="solid",arrowtail="onormal"];
  Node3 [shape=record,label="{graph_tool::BlockStateVirtualBase\n||+ entropy()\l+ add_partition_node()\l+ remove_partition_node()\l+ set_vertex_weight()\l+ coupled_resize_vertex()\l+ get_coupled_state()\l+ virtual_move()\l+ sample_branch()\l+ copy_branch()\l+ sample_block()\land 20 more...\l}",height=0.2,width=0.4,color="gray40", fillcolor="white", style="filled",URL="$classgraph__tool_1_1BlockStateVirtualBase.html",tooltip=" "];
}
