digraph "graph_tool::LayeredBlockStateVirtualBase::add_layer_node"
{
 // LATEX_PDF_SIZE
  bgcolor="transparent";
  edge [fontname=Helvetica,fontsize=10,labelfontname=Helvetica,labelfontsize=10];
  node [fontname=Helvetica,fontsize=10,shape=box,height=0.2,width=0.4];
  rankdir="RL";
  Node1 [label="graph_tool::LayeredBlock\lStateVirtualBase::add\l_layer_node",height=0.2,width=0.4,color="gray40", fillcolor="grey60", style="filled", fontcolor="black",tooltip=" "];
  Node1 -> Node2 [dir="back",color="steelblue1",style="solid"];
  Node2 [label="graph_tool::Layers\l::LayeredBlockState\l::LayerState::get_block_map",height=0.2,width=0.4,color="grey40", fillcolor="white", style="filled",URL="$classgraph__tool_1_1Layers_1_1LayeredBlockState_1_1LayerState.html#ae684d366c35f80d87b235ce115eb7ecd",tooltip=" "];
}
