digraph "gibbs_sweep_dispatch&lt; State &gt;"
{
 // LATEX_PDF_SIZE
  bgcolor="transparent";
  edge [fontname=Helvetica,fontsize=10,labelfontname=Helvetica,labelfontsize=10];
  node [fontname=Helvetica,fontsize=10,shape=box,height=0.2,width=0.4];
  Node1 [shape=record,label="{gibbs_sweep_dispatch\l\< State \>\n||+ gibbs_sweep_dispatch()\l+ ~gibbs_sweep_dispatch()\l+ run()\l+ gibbs_sweep_dispatch()\l+ ~gibbs_sweep_dispatch()\l+ run()\l+ gibbs_sweep_dispatch()\l+ ~gibbs_sweep_dispatch()\l+ run()\l+ gibbs_sweep_dispatch()\l+ ~gibbs_sweep_dispatch()\l+ run()\l}",height=0.2,width=0.4,color="gray40", fillcolor="grey60", style="filled", fontcolor="black",tooltip=" "];
  Node2 -> Node1 [dir="back",color="steelblue1",style="solid",arrowtail="onormal"];
  Node2 [shape=record,label="{gibbs_sweep_base\n||+ run()\l+ run()\l+ run()\l+ run()\l}",height=0.2,width=0.4,color="gray40", fillcolor="white", style="filled",URL="$classgibbs__sweep__base.html",tooltip=" "];
}
