digraph "graph_tool::BlockStateVirtualBase::get_b"
{
 // LATEX_PDF_SIZE
  bgcolor="transparent";
  edge [fontname=Helvetica,fontsize=10,labelfontname=Helvetica,labelfontsize=10];
  node [fontname=Helvetica,fontsize=10,shape=box,height=0.2,width=0.4];
  rankdir="RL";
  Node1 [label="graph_tool::BlockStateVirtual\lBase::get_b",height=0.2,width=0.4,color="gray40", fillcolor="grey60", style="filled", fontcolor="black",tooltip=" "];
  Node1 -> Node2 [dir="back",color="steelblue1",style="solid"];
  Node2 [label="graph_tool::BlockState\l::add_partition_node",height=0.2,width=0.4,color="grey40", fillcolor="white", style="filled",URL="$classgraph__tool_1_1BlockState.html#a735739ee4bad76e70a2cae7d7cffcf69",tooltip=" "];
  Node2 -> Node3 [dir="back",color="steelblue1",style="solid"];
  Node3 [label="graph_tool::BlockState\l::modify_vertex",height=0.2,width=0.4,color="grey40", fillcolor="white", style="filled",URL="$classgraph__tool_1_1BlockState.html#a791816a532ef510d7b3a0bae26088b42",tooltip=" "];
  Node2 -> Node4 [dir="back",color="steelblue1",style="solid"];
  Node4 [label="graph_tool::BlockState\l::move_vertex",height=0.2,width=0.4,color="grey40", fillcolor="white", style="filled",URL="$classgraph__tool_1_1BlockState.html#a7f90ab5729180fe379abc912a407a515",tooltip=" "];
  Node4 -> Node5 [dir="back",color="steelblue1",style="solid"];
  Node5 [label="graph_tool::BlockState\l::move_vertex",height=0.2,width=0.4,color="grey40", fillcolor="white", style="filled",URL="$classgraph__tool_1_1BlockState.html#adc2aaf33b2c5950801d94b1f57fe28dc",tooltip=" "];
  Node4 -> Node6 [dir="back",color="steelblue1",style="solid"];
  Node6 [label="graph_tool::BlockState\l::move_vertices",height=0.2,width=0.4,color="grey40", fillcolor="white", style="filled",URL="$classgraph__tool_1_1BlockState.html#abc051468cdd761a2d81a0767296cdb75",tooltip=" "];
  Node6 -> Node7 [dir="back",color="steelblue1",style="solid"];
  Node7 [label="graph_tool::BlockState\l::move_vertices",height=0.2,width=0.4,color="grey40", fillcolor="white", style="filled",URL="$classgraph__tool_1_1BlockState.html#a7684338bbb111a33e6e0bbd69d5b0e7c",tooltip=" "];
  Node4 -> Node8 [dir="back",color="steelblue1",style="solid"];
  Node8 [label="graph_tool::BlockState\l::set_partition",height=0.2,width=0.4,color="grey40", fillcolor="white", style="filled",URL="$classgraph__tool_1_1BlockState.html#ad3297c3d52cbd9987f3da12ff91aea51",tooltip=" "];
  Node1 -> Node9 [dir="back",color="steelblue1",style="solid"];
  Node9 [label="graph_tool::BlockState\l::allow_move",height=0.2,width=0.4,color="grey40", fillcolor="white", style="filled",URL="$classgraph__tool_1_1BlockState.html#a1761add9c8c212d838f7c454d7020da9",tooltip=" "];
  Node9 -> Node4 [dir="back",color="steelblue1",style="solid"];
  Node9 -> Node10 [dir="back",color="steelblue1",style="solid"];
  Node10 [label="graph_tool::BlockState\l::virtual_move",height=0.2,width=0.4,color="grey40", fillcolor="white", style="filled",URL="$classgraph__tool_1_1BlockState.html#a04982f72a2079c5f0f95f4d05641451c",tooltip=" "];
  Node10 -> Node11 [dir="back",color="steelblue1",style="solid"];
  Node11 [label="graph_tool::BlockState\l::virtual_move",height=0.2,width=0.4,color="grey40", fillcolor="white", style="filled",URL="$classgraph__tool_1_1BlockState.html#a501c5ade99b74b073d23ea898ca2c4c4",tooltip=" "];
  Node1 -> Node12 [dir="back",color="steelblue1",style="solid"];
  Node12 [label="graph_tool::OverlapBlock\lState::allow_move",height=0.2,width=0.4,color="grey40", fillcolor="white", style="filled",URL="$classgraph__tool_1_1OverlapBlockState.html#aef36dc220e68f892fefc5c5c4aa48e52",tooltip=" "];
  Node12 -> Node13 [dir="back",color="steelblue1",style="solid"];
  Node13 [label="graph_tool::OverlapBlock\lState::move_vertex",height=0.2,width=0.4,color="grey40", fillcolor="white", style="filled",URL="$classgraph__tool_1_1OverlapBlockState.html#a06bef8480e1ac522ee68f78a24d84f5c",tooltip=" "];
  Node13 -> Node14 [dir="back",color="steelblue1",style="solid"];
  Node14 [label="graph_tool::OverlapBlock\lState::move_vertices",height=0.2,width=0.4,color="grey40", fillcolor="white", style="filled",URL="$classgraph__tool_1_1OverlapBlockState.html#a3353612aac7c56e55b88a7fb09db4c40",tooltip=" "];
  Node14 -> Node15 [dir="back",color="steelblue1",style="solid"];
  Node15 [label="graph_tool::OverlapBlock\lState::move_vertices",height=0.2,width=0.4,color="grey40", fillcolor="white", style="filled",URL="$classgraph__tool_1_1OverlapBlockState.html#a1a774c60e87eccd0052976095924a473",tooltip=" "];
  Node13 -> Node16 [dir="back",color="steelblue1",style="solid"];
  Node16 [label="graph_tool::OverlapBlock\lState::set_partition",height=0.2,width=0.4,color="grey40", fillcolor="white", style="filled",URL="$classgraph__tool_1_1OverlapBlockState.html#a30607be0893e9be7d77a6c93142da6be",tooltip=" "];
  Node12 -> Node17 [dir="back",color="steelblue1",style="solid"];
  Node17 [label="graph_tool::OverlapBlock\lState::virtual_move",height=0.2,width=0.4,color="grey40", fillcolor="white", style="filled",URL="$classgraph__tool_1_1OverlapBlockState.html#a65d2b51183a3ffbcd9cfcc924a846d01",tooltip=" "];
  Node17 -> Node18 [dir="back",color="steelblue1",style="solid"];
  Node18 [label="graph_tool::OverlapBlock\lState::virtual_move",height=0.2,width=0.4,color="grey40", fillcolor="white", style="filled",URL="$classgraph__tool_1_1OverlapBlockState.html#adaf6c45629747fb4035bb7ce8787d8a3",tooltip=" "];
  Node1 -> Node19 [dir="back",color="steelblue1",style="solid"];
  Node19 [label="graph_tool::BlockState\l::copy_branch",height=0.2,width=0.4,color="grey40", fillcolor="white", style="filled",URL="$classgraph__tool_1_1BlockState.html#a3cfd7d94db99becfd38690b9a16b2942",tooltip=" "];
  Node1 -> Node20 [dir="back",color="steelblue1",style="solid"];
  Node20 [label="graph_tool::Layers\l::LayeredBlockState\l::LayerState::get_block_map",height=0.2,width=0.4,color="grey40", fillcolor="white", style="filled",URL="$classgraph__tool_1_1Layers_1_1LayeredBlockState_1_1LayerState.html#ae684d366c35f80d87b235ce115eb7ecd",tooltip=" "];
  Node1 -> Node21 [dir="back",color="steelblue1",style="solid"];
  Node21 [label="graph_tool::BlockState\l::get_delta_partition_dl",height=0.2,width=0.4,color="grey40", fillcolor="white", style="filled",URL="$classgraph__tool_1_1BlockState.html#aa554114c9619cf9241e6a8d71588547d",tooltip=" "];
  Node21 -> Node10 [dir="back",color="steelblue1",style="solid"];
  Node1 -> Node22 [dir="back",color="steelblue1",style="solid"];
  Node22 [label="graph_tool::OverlapBlock\lState::get_delta_partition_dl",height=0.2,width=0.4,color="grey40", fillcolor="white", style="filled",URL="$classgraph__tool_1_1OverlapBlockState.html#a952b75a2a07a4e04c0e8229df6a96c37",tooltip=" "];
  Node22 -> Node17 [dir="back",color="steelblue1",style="solid"];
  Node1 -> Node23 [dir="back",color="steelblue1",style="solid"];
  Node23 [label="graph_tool::BlockState\l::get_empty_block",height=0.2,width=0.4,color="grey40", fillcolor="white", style="filled",URL="$classgraph__tool_1_1BlockState.html#affa9b3c6d5140a7b0da43c7524599f5c",tooltip=" "];
  Node23 -> Node24 [dir="back",color="steelblue1",style="solid"];
  Node24 [label="graph_tool::BlockState\l::sample_block",height=0.2,width=0.4,color="grey40", fillcolor="white", style="filled",URL="$classgraph__tool_1_1BlockState.html#a1b246187f8f5e9fe2e456c78ebd2329b",tooltip=" "];
  Node23 -> Node25 [dir="back",color="steelblue1",style="solid"];
  Node25 [label="graph_tool::BlockState\l::sample_branch",height=0.2,width=0.4,color="grey40", fillcolor="white", style="filled",URL="$classgraph__tool_1_1BlockState.html#a1e56fa25c69d2833201c6e177e3aec6a",tooltip=" "];
  Node1 -> Node26 [dir="back",color="steelblue1",style="solid"];
  Node26 [label="graph_tool::OverlapBlock\lState::get_empty_block",height=0.2,width=0.4,color="grey40", fillcolor="white", style="filled",URL="$classgraph__tool_1_1OverlapBlockState.html#a9ce7e72573be045e9324679a7a652c48",tooltip=" "];
  Node26 -> Node27 [dir="back",color="steelblue1",style="solid"];
  Node27 [label="graph_tool::OverlapBlock\lState::sample_block",height=0.2,width=0.4,color="grey40", fillcolor="white", style="filled",URL="$classgraph__tool_1_1OverlapBlockState.html#afdfa21880f03fe2639c91d98cf2d8a26",tooltip=" "];
  Node1 -> Node13 [dir="back",color="steelblue1",style="solid"];
  Node1 -> Node28 [dir="back",color="steelblue1",style="solid"];
  Node28 [label="graph_tool::BlockState\l::remove_partition_node",height=0.2,width=0.4,color="grey40", fillcolor="white", style="filled",URL="$classgraph__tool_1_1BlockState.html#aba7a7ed10433a1ac1c91a34beb44daf3",tooltip=" "];
  Node28 -> Node3 [dir="back",color="steelblue1",style="solid"];
  Node28 -> Node4 [dir="back",color="steelblue1",style="solid"];
  Node1 -> Node8 [dir="back",color="steelblue1",style="solid"];
}
