digraph "graph_tool::LatentClosure&lt; BlockState &gt;::LatentClosureState&lt; Ts &gt;"
{
 // LATEX_PDF_SIZE
  bgcolor="transparent";
  edge [fontname=Helvetica,fontsize=10,labelfontname=Helvetica,labelfontsize=10];
  node [fontname=Helvetica,fontsize=10,shape=box,height=0.2,width=0.4];
  Node1 [shape=record,label="{graph_tool::LatentClosure\l\< BlockState \>::LatentClosureState\< Ts \>\n|+ _l\l+ _a\l+ _aw\l+ _gc\l+ _gw\l+ _m\l+ _x\l+ _ebstate\l+ _pbstate\l+ _g\land 10 more...\l|+ get_vs()\l+ get_ws()\l+ LatentClosureState()\l+ set_cstates()\l+ get_m()\l+ entropy()\l+ internal_move_proposal()\l+ modify_edge_dS()\l+ modify_edge()\l+ modify_edge_g_dS()\l+ modify_edge_a_dS()\l+ modify_edge_g()\l+ modify_edge_a()\l+ check()\l}",height=0.2,width=0.4,color="gray40", fillcolor="grey60", style="filled", fontcolor="black",tooltip=" "];
  Node2 -> Node1 [dir="back",color="steelblue1",style="solid",arrowtail="onormal"];
  Node2 [shape=record,label="{LatentClosureStateBase\l\< Ts... \>\n||}",height=0.2,width=0.4,color="gray40", fillcolor="white", style="filled",tooltip=" "];
}
