digraph "graph_tool::CIsingBaseState"
{
 // LATEX_PDF_SIZE
  bgcolor="transparent";
  edge [fontname=Helvetica,fontsize=10,labelfontname=Helvetica,labelfontsize=10];
  node [fontname=Helvetica,fontsize=10,shape=box,height=0.2,width=0.4];
  Node1 [shape=record,label="{graph_tool::CIsingBaseState\n|+ _h\l|+ CIsingBaseState()\l+ set_params()\l+ set_params()\l+ log_P()\l}",height=0.2,width=0.4,color="gray40", fillcolor="grey60", style="filled", fontcolor="black",tooltip=" "];
  Node1 -> Node2 [dir="back",color="steelblue1",style="solid",arrowtail="onormal"];
  Node2 [shape=record,label="{graph_tool::CIsingGlauber\lState\n||+ CIsingGlauberState()\l+ log_P()\l}",height=0.2,width=0.4,color="gray40", fillcolor="white", style="filled",URL="$classgraph__tool_1_1CIsingGlauberState.html",tooltip=" "];
  Node1 -> Node3 [dir="back",color="steelblue1",style="solid",arrowtail="onormal"];
  Node3 [shape=record,label="{graph_tool::PseudoCIsing\lState\n||+ PseudoCIsingState()\l}",height=0.2,width=0.4,color="gray40", fillcolor="white", style="filled",URL="$classgraph__tool_1_1PseudoCIsingState.html",tooltip=" "];
}
