digraph "graph_tool::Gibbs&lt; State &gt;::GibbsBlockState&lt; Ts &gt;"
{
 // LATEX_PDF_SIZE
  bgcolor="transparent";
  edge [fontname=Helvetica,fontsize=10,labelfontname=Helvetica,labelfontsize=10];
  node [fontname=Helvetica,fontsize=10,shape=box,height=0.2,width=0.4];
  Node1 [shape=record,label="{graph_tool::Gibbs\<\l State \>::GibbsBlockState\< Ts \>\n|+ _entropy_args\l+ _c\l+ _candidate_groups\l+ _nr\l+ _c\l|+ GET_PARAMS_USING()\l+ get_moves()\l+ node_state()\l+ node_weight()\l+ virtual_move_dS()\l+ perform_move()\l+ GET_PARAMS_USING()\l+ get_moves()\l+ node_state()\l+ node_weight()\l+ virtual_move_dS()\l+ perform_move()\l}",height=0.2,width=0.4,color="gray40", fillcolor="grey60", style="filled", fontcolor="black",tooltip=" "];
  Node2 -> Node1 [dir="back",color="steelblue1",style="solid",arrowtail="onormal"];
  Node2 [shape=record,label="{GibbsBlockStateBase\l\< Ts... \>\n||}",height=0.2,width=0.4,color="gray40", fillcolor="white", style="filled",tooltip=" "];
}
