digraph "boost::unchecked_vector_property_map::resize"
{
 // LATEX_PDF_SIZE
  bgcolor="transparent";
  edge [fontname=Helvetica,fontsize=10,labelfontname=Helvetica,labelfontsize=10];
  node [fontname=Helvetica,fontsize=10,shape=box,height=0.2,width=0.4];
  rankdir="RL";
  Node1 [label="boost::unchecked_vector\l_property_map::resize",height=0.2,width=0.4,color="gray40", fillcolor="grey60", style="filled", fontcolor="black",tooltip=" "];
  Node1 -> Node2 [dir="back",color="steelblue1",style="solid"];
  Node2 [label="do_get_radial::operator()",height=0.2,width=0.4,color="grey40", fillcolor="white", style="filled",URL="$structdo__get__radial.html#acf0e135e7325eb6a8c9286a3110487ef",tooltip=" "];
  Node1 -> Node3 [dir="back",color="steelblue1",style="solid"];
  Node3 [label="graph_tool::BlockState\l::resize_degs",height=0.2,width=0.4,color="grey40", fillcolor="white", style="filled",URL="$classgraph__tool_1_1BlockState.html#a464990a5d3e391a6ec0538863660618e",tooltip=" "];
}
