digraph "graph_tool::MCMC&lt; State &gt;::MCMCBlockStateImp&lt; Ts &gt;"
{
 // LATEX_PDF_SIZE
  bgcolor="transparent";
  edge [fontname=Helvetica,fontsize=10,labelfontname=Helvetica,labelfontsize=10];
  node [fontname=Helvetica,fontsize=10,shape=box,height=0.2,width=0.4];
  Node1 [shape=record,label="{graph_tool::MCMC\< State\l \>::MCMCBlockStateImp\< Ts \>\n|+ _has_b_min\l+ _entropy_args\l+ _null_group\l+ _pmovelabel\l+ _psrandom\l+ _psscatter\l+ _pscoalesce\l+ _null_group\l|+ GET_PARAMS_USING()\l+ iter_nodes()\l+ iter_groups()\l+ get_group()\l+ sample_new_group()\l+ move_node()\l+ reserve_empty_groups()\l+ allow_move()\l+ virtual_move()\l+ sample_group()\land 50 more...\l}",height=0.2,width=0.4,color="gray40", fillcolor="grey60", style="filled", fontcolor="black",tooltip=" "];
  Node2 -> Node1 [dir="back",color="steelblue1",style="solid",arrowtail="onormal"];
  Node2 [shape=record,label="{MCMCBlockStateBase\l\< Ts... \>\n||}",height=0.2,width=0.4,color="gray40", fillcolor="white", style="filled",tooltip=" "];
  Node3 -> Node1 [color="grey25",style="solid",label=" +_bh\n+_hpclabel" ,arrowhead="odiamond"];
  Node3 [shape=record,label="{graph_tool::vprop_map\l_t\< int32_t \>\n||}",height=0.2,width=0.4,color="gray40", fillcolor="white", style="filled",URL="$structgraph__tool_1_1vprop__map__t.html",tooltip=" "];
  Node4 -> Node1 [color="grey25",style="solid",label=" +_rs" ,arrowhead="odiamond"];
  Node4 [shape=record,label="{idx_set\< size_t \>\n||+ idx_set()\l+ idx_set()\l+ get_pos()\l+ insert()\l+ erase()\l+ erase()\l+ find()\l+ clear()\l+ shrink_to_fit()\l+ begin()\l+ end()\l+ size()\l+ empty()\l}",height=0.2,width=0.4,color="gray40", fillcolor="white", style="filled",URL="$classidx__set.html",tooltip=" "];
}
