digraph "graph_tool::HashedDescriptorMap&lt; IndexMap, Value &gt;"
{
 // LATEX_PDF_SIZE
  bgcolor="transparent";
  edge [fontname=Helvetica,fontsize=10,labelfontname=Helvetica,labelfontsize=10];
  node [fontname=Helvetica,fontsize=10,shape=box,height=0.2,width=0.4];
  Node1 [shape=record,label="{graph_tool::HashedDescriptor\lMap\< IndexMap, Value \>\n||+ HashedDescriptorMap()\l+ HashedDescriptorMap()\l+ operator[]()\l+ operator[]()\l}",height=0.2,width=0.4,color="gray40", fillcolor="grey60", style="filled", fontcolor="black",tooltip=" "];
  Node2 -> Node1 [dir="back",color="steelblue1",style="solid",arrowtail="onormal"];
  Node2 [shape=record,label="{boost::put_get_helper\l\< Value &, HashedDescriptor\lMap\< IndexMap, Value \> \>\n||}",height=0.2,width=0.4,color="gray40", fillcolor="white", style="filled",tooltip=" "];
}
