digraph "boost::adj_list::set_keep_epos"
{
 // LATEX_PDF_SIZE
  bgcolor="transparent";
  edge [fontname=Helvetica,fontsize=10,labelfontname=Helvetica,labelfontsize=10];
  node [fontname=Helvetica,fontsize=10,shape=box,height=0.2,width=0.4];
  rankdir="RL";
  Node1 [label="boost::adj_list::set\l_keep_epos",height=0.2,width=0.4,color="gray40", fillcolor="grey60", style="filled", fontcolor="black",tooltip=" "];
  Node1 -> Node2 [dir="back",color="steelblue1",style="solid"];
  Node2 [label="graph_tool::maximum\l_bipartite_weighted\l_perfect_matching",height=0.2,width=0.4,color="grey40", fillcolor="white", style="filled",URL="$namespacegraph__tool.html#a35462bc5ea627d1ee91177535c680038",tooltip=" "];
  Node2 -> Node3 [dir="back",color="steelblue1",style="solid"];
  Node3 [label="graph_tool::maximum\l_bipartite_weighted\l_imperfect_matching",height=0.2,width=0.4,color="grey40", fillcolor="white", style="filled",URL="$namespacegraph__tool.html#a0c7a350aa83d4a65efed62a2db888884",tooltip=" "];
  Node3 -> Node4 [dir="back",color="steelblue1",style="solid"];
  Node4 [label="graph_tool::maximum\l_bipartite_weighted\l_matching",height=0.2,width=0.4,color="grey40", fillcolor="white", style="filled",URL="$namespacegraph__tool.html#adecc3b94387297164c5746bfbb1ff4ca",tooltip=" "];
  Node4 -> Node5 [dir="back",color="steelblue1",style="solid"];
  Node5 [label="graph_tool::PartitionMode\lState::align_mode",height=0.2,width=0.4,color="grey40", fillcolor="white", style="filled",URL="$classgraph__tool_1_1PartitionModeState.html#ab2c18cdd114f17fb2453246ca1153f55",tooltip=" "];
  Node5 -> Node6 [dir="back",color="steelblue1",style="solid"];
  Node6 [label="export_partition_mode",height=0.2,width=0.4,color="grey40", fillcolor="white", style="filled",URL="$graph__partition__mode_8cc.html#a5d5ff6a7a64cf2a1c328796ed057c478",tooltip=" "];
  Node6 -> Node7 [dir="back",color="steelblue1",style="solid"];
  Node7 [label="BOOST_PYTHON_MODULE",height=0.2,width=0.4,color="grey40", fillcolor="white", style="filled",URL="$graph__inference_8cc.html#aa52d8fe13d2a62317b6e603933a10b92",tooltip=" "];
  Node4 -> Node8 [dir="back",color="steelblue1",style="solid"];
  Node8 [label="get_max_bip_weighted\l_matching",height=0.2,width=0.4,color="grey40", fillcolor="white", style="filled",URL="$graph__matching_8cc.html#aac3d6e99fcd196c42365ced9337ab997",tooltip=" "];
  Node8 -> Node9 [dir="back",color="steelblue1",style="solid"];
  Node9 [label="export_matching",height=0.2,width=0.4,color="grey40", fillcolor="white", style="filled",URL="$graph__matching_8cc.html#a2e2a5590c4db61727ff8b14fedf27f5a",tooltip=" "];
  Node9 -> Node10 [dir="back",color="steelblue1",style="solid"];
  Node10 [label="BOOST_PYTHON_MODULE",height=0.2,width=0.4,color="grey40", fillcolor="white", style="filled",URL="$graph__topology_8cc.html#a1f8068349bfdbea49136a3447b5239ac",tooltip=" "];
  Node4 -> Node11 [dir="back",color="steelblue1",style="solid"];
  Node11 [label="graph_tool::partition\l_align_labels",height=0.2,width=0.4,color="grey40", fillcolor="white", style="filled",URL="$namespacegraph__tool.html#af77d906003ccb5ae226b3a5cce40486a",tooltip=" "];
  Node11 -> Node6 [dir="back",color="steelblue1",style="solid"];
  Node11 -> Node12 [dir="back",color="steelblue1",style="solid"];
  Node12 [label="graph_tool::nested\l_partition_align_labels",height=0.2,width=0.4,color="grey40", fillcolor="white", style="filled",URL="$namespacegraph__tool.html#a04c3cbf7fbb0902c501b1cda62e185bf",tooltip=" "];
  Node12 -> Node6 [dir="back",color="steelblue1",style="solid"];
  Node12 -> Node13 [dir="back",color="steelblue1",style="solid"];
  Node13 [label="graph_tool::nested\l_partition_overlap_center",height=0.2,width=0.4,color="grey40", fillcolor="white", style="filled",URL="$namespacegraph__tool.html#a792f3f8880ee630c7bb68ce9e36f726f",tooltip=" "];
  Node13 -> Node6 [dir="back",color="steelblue1",style="solid"];
  Node11 -> Node14 [dir="back",color="steelblue1",style="solid"];
  Node14 [label="graph_tool::partition\l_overlap_center",height=0.2,width=0.4,color="grey40", fillcolor="white", style="filled",URL="$namespacegraph__tool.html#a8be77613ee98975fa50682ad57b26ec5",tooltip=" "];
  Node14 -> Node6 [dir="back",color="steelblue1",style="solid"];
  Node4 -> Node15 [dir="back",color="steelblue1",style="solid"];
  Node15 [label="graph_tool::partition\l_overlap",height=0.2,width=0.4,color="grey40", fillcolor="white", style="filled",URL="$namespacegraph__tool.html#aec361e4f422207e564910d58891ec693",tooltip=" "];
  Node15 -> Node6 [dir="back",color="steelblue1",style="solid"];
  Node4 -> Node16 [dir="back",color="steelblue1",style="solid"];
  Node16 [label="graph_tool::ModeClusterState\l::relabel_mode",height=0.2,width=0.4,color="grey40", fillcolor="white", style="filled",URL="$classgraph__tool_1_1ModeClusterState.html#a437a09b4faf9a0d2def6883affee9244",tooltip=" "];
  Node16 -> Node16 [dir="back",color="steelblue1",style="solid"];
  Node16 -> Node17 [dir="back",color="steelblue1",style="solid"];
  Node17 [label="graph_tool::ModeClusterState\l::relabel_modes",height=0.2,width=0.4,color="grey40", fillcolor="white", style="filled",URL="$classgraph__tool_1_1ModeClusterState.html#a06176f21320005a4d0dca279999ab81c",tooltip=" "];
  Node4 -> Node18 [dir="back",color="steelblue1",style="solid"];
  Node18 [label="graph_tool::PartitionMode\lState::relabel_partition",height=0.2,width=0.4,color="grey40", fillcolor="white", style="filled",URL="$classgraph__tool_1_1PartitionModeState.html#a1c10cee70c308acb670d04e275c9db6d",tooltip=" "];
  Node18 -> Node19 [dir="back",color="steelblue1",style="solid"];
  Node19 [label="graph_tool::PartitionMode\lState::add_partition",height=0.2,width=0.4,color="grey40", fillcolor="white", style="filled",URL="$classgraph__tool_1_1PartitionModeState.html#afe42ac0a084a1f2fb9293b5962107d49",tooltip=" "];
  Node18 -> Node6 [dir="back",color="steelblue1",style="solid"];
  Node18 -> Node20 [dir="back",color="steelblue1",style="solid"];
  Node20 [label="graph_tool::PartitionMode\lState::virtual_change_partition",height=0.2,width=0.4,color="grey40", fillcolor="white", style="filled",URL="$classgraph__tool_1_1PartitionModeState.html#a9a176ace6f2ac1fce21a0b6adbf83f8f",tooltip=" "];
  Node4 -> Node21 [dir="back",color="steelblue1",style="solid"];
  Node21 [label="graph_tool::Multilevel\l::relabel_rs",height=0.2,width=0.4,color="grey40", fillcolor="white", style="filled",URL="$structgraph__tool_1_1Multilevel.html#a7967251ea77bb868c18e680633016018",tooltip=" "];
  Node21 -> Node22 [dir="back",color="steelblue1",style="solid"];
  Node22 [label="graph_tool::Multilevel\l::gibbs_sweep",height=0.2,width=0.4,color="grey40", fillcolor="white", style="filled",URL="$structgraph__tool_1_1Multilevel.html#ac15abbb6e44eb62fd06e44b609e0112e",tooltip=" "];
  Node21 -> Node23 [dir="back",color="steelblue1",style="solid"];
  Node23 [label="graph_tool::Multilevel\l::mh_sweep_prob",height=0.2,width=0.4,color="grey40", fillcolor="white", style="filled",URL="$structgraph__tool_1_1Multilevel.html#aa481910dbb3989412fd57110f6c0752e",tooltip=" "];
  Node23 -> Node24 [dir="back",color="steelblue1",style="solid"];
  Node24 [label="graph_tool::Multilevel\l::stage_multilevel",height=0.2,width=0.4,color="grey40", fillcolor="white", style="filled",URL="$structgraph__tool_1_1Multilevel.html#ae5f2a1c73005717ee33c5f4de4acca8f",tooltip=" "];
  Node24 -> Node25 [dir="back",color="steelblue1",style="solid"];
  Node25 [label="graph_tool::Multilevel\l::move_proposal",height=0.2,width=0.4,color="grey40", fillcolor="white", style="filled",URL="$structgraph__tool_1_1Multilevel.html#a2d2fb774193324f6d242041f01d9aaf5",tooltip=" "];
  Node21 -> Node24 [dir="back",color="steelblue1",style="solid"];
}
