digraph "graph_tool::PseudoIsingState"
{
 // LATEX_PDF_SIZE
  bgcolor="transparent";
  edge [fontname=Helvetica,fontsize=10,labelfontname=Helvetica,labelfontsize=10];
  node [fontname=Helvetica,fontsize=10,shape=box,height=0.2,width=0.4];
  Node1 [shape=record,label="{graph_tool::PseudoIsingState\n||+ PseudoIsingState()\l}",height=0.2,width=0.4,color="gray40", fillcolor="grey60", style="filled", fontcolor="black",tooltip=" "];
  Node2 -> Node1 [dir="back",color="steelblue1",style="solid",arrowtail="onormal"];
  Node2 [shape=record,label="{graph_tool::DiscreteState\lBase\< PseudoIsingState,\l true, false, false \>\n|# _t\l# _s\l# _T\l# _m\l# _m_temp\l|+ DiscreteStateBase()\l+ reset_m()\l+ check_m()\l+ iter_time_compressed()\l+ iter_time_uncompressed()\l+ iter_time()\l+ update_edge()\l+ get_edge_dS()\l+ get_node_prob()\l}",height=0.2,width=0.4,color="gray40", fillcolor="white", style="filled",URL="$classgraph__tool_1_1DiscreteStateBase.html",tooltip=" "];
  Node3 -> Node2 [color="grey25",style="solid",label=" #_st" ,arrowhead="odiamond"];
  Node3 [shape=record,label="{graph_tool::vprop_map\l_t\< int \>\n||}",height=0.2,width=0.4,color="gray40", fillcolor="white", style="filled",URL="$structgraph__tool_1_1vprop__map__t.html",tooltip=" "];
  Node4 -> Node2 [color="grey25",style="solid",label=" #_pos" ,arrowhead="odiamond"];
  Node4 [shape=record,label="{graph_tool::vprop_map\l_t\< size_t \>\n||}",height=0.2,width=0.4,color="gray40", fillcolor="white", style="filled",URL="$structgraph__tool_1_1vprop__map__t.html",tooltip=" "];
  Node5 -> Node1 [dir="back",color="steelblue1",style="solid",arrowtail="onormal"];
  Node5 [shape=record,label="{graph_tool::IsingBaseState\n|+ _h\l|+ IsingBaseState()\l+ set_params()\l+ set_params()\l+ log_P()\l+ log_P()\l}",height=0.2,width=0.4,color="gray40", fillcolor="white", style="filled",URL="$classgraph__tool_1_1IsingBaseState.html",tooltip=" "];
}
