digraph "graph_tool::SBMFugacities::unpack"
{
 // LATEX_PDF_SIZE
  bgcolor="transparent";
  edge [fontname=Helvetica,fontsize=10,labelfontname=Helvetica,labelfontsize=10];
  node [fontname=Helvetica,fontsize=10,shape=box,height=0.2,width=0.4];
  rankdir="RL";
  Node1 [label="graph_tool::SBMFugacities\l::unpack",height=0.2,width=0.4,color="gray40", fillcolor="grey60", style="filled", fontcolor="black",tooltip=" "];
  Node1 -> Node2 [dir="back",color="steelblue1",style="solid"];
  Node2 [label="export_maxent_sbm",height=0.2,width=0.4,color="grey40", fillcolor="white", style="filled",URL="$graph__maxent__sbm_8cc.html#a33cdb06d0e3c73dc4fca2d94597f1fac",tooltip=" "];
  Node2 -> Node3 [dir="back",color="steelblue1",style="solid"];
  Node3 [label="BOOST_PYTHON_MODULE",height=0.2,width=0.4,color="grey40", fillcolor="white", style="filled",URL="$graph__generation_8cc.html#ad7bbbb1fc2ba89024c959696bbe3788a",tooltip=" "];
}
