digraph "graph_tool::Layers::LayeredBlockState::couple_state"
{
 // LATEX_PDF_SIZE
  bgcolor="transparent";
  edge [fontname=Helvetica,fontsize=10,labelfontname=Helvetica,labelfontsize=10];
  node [fontname=Helvetica,fontsize=10,shape=box,height=0.2,width=0.4];
  rankdir="LR";
  Node1 [label="graph_tool::Layers\l::LayeredBlockState\l::couple_state",height=0.2,width=0.4,color="gray40", fillcolor="grey60", style="filled", fontcolor="black",tooltip=" "];
  Node1 -> Node1 [color="steelblue1",style="solid"];
  Node1 -> Node2 [color="steelblue1",style="solid"];
  Node2 [label="graph_tool::LayeredBlock\lStateVirtualBase::get_layer",height=0.2,width=0.4,color="grey40", fillcolor="white", style="filled",URL="$classgraph__tool_1_1LayeredBlockStateVirtualBase.html#a7cd4a8d48ddde182e8093ddd5ccfd5fe",tooltip=" "];
}
