digraph "graph_tool::UndirectedStrat::SampleDegrees"
{
 // LATEX_PDF_SIZE
  bgcolor="transparent";
  edge [fontname=Helvetica,fontsize=10,labelfontname=Helvetica,labelfontsize=10];
  node [fontname=Helvetica,fontsize=10,shape=box,height=0.2,width=0.4];
  rankdir="LR";
  Node1 [label="graph_tool::UndirectedStrat\l::SampleDegrees",height=0.2,width=0.4,color="gray40", fillcolor="grey60", style="filled", fontcolor="black",tooltip=" "];
  Node1 -> Node2 [color="steelblue1",style="solid"];
  Node2 [label="graph_tool::UndirectedStrat\l::is_graphical",height=0.2,width=0.4,color="grey40", fillcolor="white", style="filled",URL="$classgraph__tool_1_1UndirectedStrat.html#a84f32bfed8c71c895f3e27df598c0670",tooltip=" "];
  Node1 -> Node3 [color="steelblue1",style="solid"];
  Node3 [label="graph_tool::UndirectedStrat\l::is_graphical_parallel",height=0.2,width=0.4,color="grey40", fillcolor="white", style="filled",URL="$classgraph__tool_1_1UndirectedStrat.html#a0688d8d3ad7464616332d009deedafa6",tooltip=" "];
  Node1 -> Node4 [color="steelblue1",style="solid"];
  Node4 [label="graph_tool::print_progress",height=0.2,width=0.4,color="grey40", fillcolor="white", style="filled",URL="$namespacegraph__tool.html#a201f60aa3540024e649d11587c8d53e9",tooltip=" "];
  Node1 -> Node5 [color="steelblue1",style="solid"];
  Node5 [label="graph_tool::print_update",height=0.2,width=0.4,color="grey40", fillcolor="white", style="filled",URL="$namespacegraph__tool.html#a302096f6a0b754d7b0910b609c794a35",tooltip=" "];
  Node1 -> Node6 [color="steelblue1",style="solid"];
  Node6 [label="boost::vertices",height=0.2,width=0.4,color="grey40", fillcolor="white", style="filled",URL="$namespaceboost.html#a0bc22071c353fa26cd0d16cc817ddde2",tooltip=" "];
  Node6 -> Node7 [color="steelblue1",style="solid"];
  Node7 [label="boost::undirected_adaptor\l::original_graph",height=0.2,width=0.4,color="grey40", fillcolor="white", style="filled",URL="$classboost_1_1undirected__adaptor.html#a11e557bb4f3d7c15354f98390f1d3644",tooltip=" "];
  Node6 -> Node6 [color="steelblue1",style="solid"];
}
