digraph "graph_tool::MCMC::MCMCBlockState::node_state"
{
 // LATEX_PDF_SIZE
  bgcolor="transparent";
  edge [fontname=Helvetica,fontsize=10,labelfontname=Helvetica,labelfontsize=10];
  node [fontname=Helvetica,fontsize=10,shape=box,height=0.2,width=0.4];
  rankdir="RL";
  Node1 [label="graph_tool::MCMC::MCMCBlock\lState::node_state",height=0.2,width=0.4,color="gray40", fillcolor="grey60", style="filled", fontcolor="black",tooltip=" "];
  Node1 -> Node2 [dir="back",color="steelblue1",style="solid"];
  Node2 [label="graph_tool::MCMC::MCMCBlock\lState::move_proposal",height=0.2,width=0.4,color="grey40", fillcolor="white", style="filled",URL="$classgraph__tool_1_1MCMC_1_1MCMCBlockState.html#a752dad589003f22c2d889c9044393023",tooltip=" "];
  Node1 -> Node3 [dir="back",color="steelblue1",style="solid"];
  Node3 [label="graph_tool::MCMC::MCMCBlock\lState::virtual_move_dS",height=0.2,width=0.4,color="grey40", fillcolor="white", style="filled",URL="$classgraph__tool_1_1MCMC_1_1MCMCBlockState.html#a4f9a958f5f9d78bc2bef9a9c6fb687df",tooltip=" "];
}
