digraph "graph_tool::InitializedPropertyMap&lt; Container &gt;"
{
 // LATEX_PDF_SIZE
  bgcolor="transparent";
  edge [fontname=Helvetica,fontsize=10,labelfontname=Helvetica,labelfontsize=10];
  node [fontname=Helvetica,fontsize=10,shape=box,height=0.2,width=0.4];
  Node1 [shape=record,label="{graph_tool::InitializedProperty\lMap\< Container \>\n||+ InitializedPropertyMap()\l+ InitializedPropertyMap()\l+ operator[]()\l+ operator[]()\l+ get()\l}",height=0.2,width=0.4,color="gray40", fillcolor="grey60", style="filled", fontcolor="black",tooltip=" "];
  Node2 -> Node1 [dir="back",color="steelblue1",style="solid",arrowtail="onormal"];
  Node2 [shape=record,label="{boost::put_get_helper\l\< Container::value_type\l::second_type &, InitializedProperty\lMap\< Container \> \>\n||}",height=0.2,width=0.4,color="gray40", fillcolor="white", style="filled",tooltip=" "];
}
