digraph "graph_tool::OverlapBlockState::virtual_move"
{
 // LATEX_PDF_SIZE
  bgcolor="transparent";
  edge [fontname=Helvetica,fontsize=10,labelfontname=Helvetica,labelfontsize=10];
  node [fontname=Helvetica,fontsize=10,shape=box,height=0.2,width=0.4];
  rankdir="LR";
  Node1 [label="graph_tool::OverlapBlock\lState::virtual_move",height=0.2,width=0.4,color="gray40", fillcolor="grey60", style="filled", fontcolor="black",tooltip=" "];
  Node1 -> Node2 [color="steelblue1",style="solid"];
  Node2 [label="graph_tool::OverlapBlock\lState::virtual_move",height=0.2,width=0.4,color="grey40", fillcolor="white", style="filled",URL="$classgraph__tool_1_1OverlapBlockState.html#a65d2b51183a3ffbcd9cfcc924a846d01",tooltip=" "];
  Node2 -> Node3 [color="steelblue1",style="solid"];
  Node3 [label="graph_tool::OverlapBlock\lState::allow_move",height=0.2,width=0.4,color="grey40", fillcolor="white", style="filled",URL="$classgraph__tool_1_1OverlapBlockState.html#aef36dc220e68f892fefc5c5c4aa48e52",tooltip=" "];
  Node3 -> Node4 [color="steelblue1",style="solid"];
  Node4 [label="graph_tool::BlockStateVirtual\lBase::allow_move",height=0.2,width=0.4,color="grey40", fillcolor="white", style="filled",URL="$classgraph__tool_1_1BlockStateVirtualBase.html#a5cbdd463abbd989438163e87ce5c2643",tooltip=" "];
  Node3 -> Node5 [color="steelblue1",style="solid"];
  Node5 [label="graph_tool::BlockStateVirtual\lBase::get_b",height=0.2,width=0.4,color="grey40", fillcolor="white", style="filled",URL="$classgraph__tool_1_1BlockStateVirtualBase.html#a19317063fd7aa6ea0b8567a541ec53bf",tooltip=" "];
  Node2 -> Node6 [color="steelblue1",style="solid"];
  Node6 [label="graph_tool::entries_op",height=0.2,width=0.4,color="grey40", fillcolor="white", style="filled",URL="$namespacegraph__tool.html#ad076be20504dd10a1ca143e4812ddf61",tooltip=" "];
  Node2 -> Node7 [color="steelblue1",style="solid"];
  Node7 [label="graph_tool::OverlapBlock\lState::get_delta_partition_dl",height=0.2,width=0.4,color="grey40", fillcolor="white", style="filled",URL="$classgraph__tool_1_1OverlapBlockState.html#a952b75a2a07a4e04c0e8229df6a96c37",tooltip=" "];
  Node7 -> Node5 [color="steelblue1",style="solid"];
  Node7 -> Node8 [color="steelblue1",style="solid"];
  Node8 [label="graph_tool::BlockStateVirtual\lBase::get_delta_partition_dl",height=0.2,width=0.4,color="grey40", fillcolor="white", style="filled",URL="$classgraph__tool_1_1BlockStateVirtualBase.html#a1e8d6fe36f5c8794c0efc21605aca944",tooltip=" "];
  Node7 -> Node9 [color="steelblue1",style="solid"];
  Node9 [label="graph_tool::OverlapBlock\lState::get_partition_stats",height=0.2,width=0.4,color="grey40", fillcolor="white", style="filled",URL="$classgraph__tool_1_1OverlapBlockState.html#a94246797c54944a17cb491c45bc4fa68",tooltip=" "];
  Node9 -> Node10 [color="steelblue1",style="solid"];
  Node10 [label="graph_tool::OverlapBlock\lState::init_partition_stats",height=0.2,width=0.4,color="grey40", fillcolor="white", style="filled",URL="$classgraph__tool_1_1OverlapBlockState.html#abad0164cb4cae793c40777fad3f66826",tooltip=" "];
  Node10 -> Node11 [color="steelblue1",style="solid"];
  Node11 [label="graph_tool::overlap\l_stats_t::get_node",height=0.2,width=0.4,color="grey40", fillcolor="white", style="filled",URL="$classgraph__tool_1_1overlap__stats__t.html#a22c1ab81602bc633ebe78ba8ca93f525",tooltip=" "];
  Node10 -> Node12 [color="steelblue1",style="solid"];
  Node12 [label="boost::num_vertices",height=0.2,width=0.4,color="grey40", fillcolor="white", style="filled",URL="$namespaceboost.html#ac848f876a7fa2caa8fb1879b7c522ebc",tooltip=" "];
  Node12 -> Node12 [color="steelblue1",style="solid"];
  Node12 -> Node13 [color="steelblue1",style="solid"];
  Node13 [label="boost::undirected_adaptor\l::original_graph",height=0.2,width=0.4,color="grey40", fillcolor="white", style="filled",URL="$classboost_1_1undirected__adaptor.html#a11e557bb4f3d7c15354f98390f1d3644",tooltip=" "];
  Node10 -> Node14 [color="steelblue1",style="solid"];
  Node14 [label="graph_tool::OverlapBlock\lState::reset_partition_stats",height=0.2,width=0.4,color="grey40", fillcolor="white", style="filled",URL="$classgraph__tool_1_1OverlapBlockState.html#ab5206ab2aa3b27f0cc4bbcaa53f02068",tooltip=" "];
  Node10 -> Node15 [color="steelblue1",style="solid"];
  Node15 [label="boost::vertices",height=0.2,width=0.4,color="grey40", fillcolor="white", style="filled",URL="$namespaceboost.html#a0bc22071c353fa26cd0d16cc817ddde2",tooltip=" "];
  Node15 -> Node13 [color="steelblue1",style="solid"];
  Node15 -> Node15 [color="steelblue1",style="solid"];
  Node10 -> Node16 [color="steelblue1",style="solid"];
  Node16 [label="graph_tool::vertices\l_range",height=0.2,width=0.4,color="grey40", fillcolor="white", style="filled",URL="$namespacegraph__tool.html#a92ab479b81d8c9a030d42854fefabf1a",tooltip=" "];
  Node16 -> Node17 [color="steelblue1",style="solid"];
  Node17 [label="graph_tool::mk_range",height=0.2,width=0.4,color="grey40", fillcolor="white", style="filled",URL="$namespacegraph__tool.html#a6ecc1e46efb4f620acabfe5728f7a2a6",tooltip=" "];
  Node16 -> Node15 [color="steelblue1",style="solid"];
  Node7 -> Node18 [color="steelblue1",style="solid"];
  Node18 [label="graph_tool::overlap\l_stats_t::virtual_remove_size",height=0.2,width=0.4,color="grey40", fillcolor="white", style="filled",URL="$classgraph__tool_1_1overlap__stats__t.html#afbc1e53a86757a08503eda04ed4f8d7d",tooltip=" "];
  Node2 -> Node19 [color="steelblue1",style="solid"];
  Node19 [label="graph_tool::OverlapBlock\lState::get_move_entries",height=0.2,width=0.4,color="grey40", fillcolor="white", style="filled",URL="$classgraph__tool_1_1OverlapBlockState.html#af086cb914cf6c759c4b1758cbb192e9c",tooltip=" "];
  Node19 -> Node20 [color="steelblue1",style="solid"];
  Node20 [label="graph_tool::move_entries",height=0.2,width=0.4,color="grey40", fillcolor="white", style="filled",URL="$namespacegraph__tool.html#aed5c8e84219c5fea36f27b5f2a978ba1",tooltip=" "];
  Node19 -> Node12 [color="steelblue1",style="solid"];
  Node2 -> Node9 [color="steelblue1",style="solid"];
  Node2 -> Node12 [color="steelblue1",style="solid"];
  Node2 -> Node21 [color="steelblue1",style="solid"];
  Node21 [label="graph_tool::BlockStateVirtual\lBase::propagate_entries_dS",height=0.2,width=0.4,color="grey40", fillcolor="white", style="filled",URL="$classgraph__tool_1_1BlockStateVirtualBase.html#a1e77072b7c7c928d82371aaf2e02521e",tooltip=" "];
  Node2 -> Node22 [color="steelblue1",style="solid"];
  Node22 [label="graph_tool::rec_entries_dS",height=0.2,width=0.4,color="grey40", fillcolor="white", style="filled",URL="$namespacegraph__tool.html#ad391cb89c7da9e131ad5e12731408dcc",tooltip=" "];
  Node22 -> Node23 [color="steelblue1",style="solid"];
  Node23 [label="graph_tool::wentries_op",height=0.2,width=0.4,color="grey40", fillcolor="white", style="filled",URL="$namespacegraph__tool.html#a69444024c2f2c444c670884c3497e464",tooltip=" "];
  Node2 -> Node24 [color="steelblue1",style="solid"];
  Node24 [label="graph_tool::overlap\l_stats_t::virtual_move\l_deg_dS",height=0.2,width=0.4,color="grey40", fillcolor="white", style="filled",URL="$classgraph__tool_1_1overlap__stats__t.html#acf701c5067f515d8a7f15f04ae5e8edf",tooltip=" "];
  Node24 -> Node25 [color="steelblue1",style="solid"];
  Node25 [label="graph_tool::lgamma_fast",height=0.2,width=0.4,color="grey40", fillcolor="white", style="filled",URL="$namespacegraph__tool.html#ae308495dc111f97fa85b7b4ab66bc264",tooltip=" "];
  Node25 -> Node26 [color="steelblue1",style="solid"];
  Node26 [label="graph_tool::init_lgamma",height=0.2,width=0.4,color="grey40", fillcolor="white", style="filled",URL="$namespacegraph__tool.html#aab67a0fc53c44fafc91b5cb2911aff3b",tooltip=" "];
  Node2 -> Node18 [color="steelblue1",style="solid"];
  Node2 -> Node23 [color="steelblue1",style="solid"];
}
