digraph "SharedHistogram&lt; Histogram &gt;"
{
 // LATEX_PDF_SIZE
  bgcolor="transparent";
  edge [fontname=Helvetica,fontsize=10,labelfontname=Helvetica,labelfontsize=10];
  node [fontname=Helvetica,fontsize=10,shape=box,height=0.2,width=0.4];
  Node1 [shape=record,label="{SharedHistogram\< Histogram \>\n||+ SharedHistogram()\l+ ~SharedHistogram()\l+ gather()\l}",height=0.2,width=0.4,color="gray40", fillcolor="grey60", style="filled", fontcolor="black",tooltip=" "];
  Node2 -> Node1 [dir="back",color="steelblue1",style="solid",arrowtail="onormal"];
  Node2 [shape=record,label="{Histogram\< ValueType,\l CountType, Dim \>\n|# _counts\l# _bins\l# _data_range\l# _const_width\l|+ Histogram()\l+ put_value()\l+ get_array()\l+ get_data_range()\l+ get_bins()\l}",height=0.2,width=0.4,color="gray40", fillcolor="white", style="filled",URL="$classHistogram.html",tooltip=" "];
}
