digraph "graph_tool::BlockState::init_partition_stats"
{
 // LATEX_PDF_SIZE
  bgcolor="transparent";
  edge [fontname=Helvetica,fontsize=10,labelfontname=Helvetica,labelfontsize=10];
  node [fontname=Helvetica,fontsize=10,shape=box,height=0.2,width=0.4];
  rankdir="RL";
  Node1 [label="graph_tool::BlockState\l::init_partition_stats",height=0.2,width=0.4,color="gray40", fillcolor="grey60", style="filled", fontcolor="black",tooltip=" "];
  Node1 -> Node2 [dir="back",color="steelblue1",style="solid"];
  Node2 [label="graph_tool::BlockState\l::BlockState",height=0.2,width=0.4,color="grey40", fillcolor="white", style="filled",URL="$classgraph__tool_1_1BlockState.html#a1812c8a54635904e8a4498e268edb575",tooltip=" "];
  Node1 -> Node3 [dir="back",color="steelblue1",style="solid"];
  Node3 [label="graph_tool::BlockState\l::get_partition_stats",height=0.2,width=0.4,color="grey40", fillcolor="white", style="filled",URL="$classgraph__tool_1_1BlockState.html#aa8b66daefbbca4b7c6ccaa5f1da157b1",tooltip=" "];
  Node3 -> Node4 [dir="back",color="steelblue1",style="solid"];
  Node4 [label="graph_tool::BlockState\l::add_partition_node",height=0.2,width=0.4,color="grey40", fillcolor="white", style="filled",URL="$classgraph__tool_1_1BlockState.html#a735739ee4bad76e70a2cae7d7cffcf69",tooltip=" "];
  Node4 -> Node5 [dir="back",color="steelblue1",style="solid"];
  Node5 [label="graph_tool::BlockState\l::modify_vertex",height=0.2,width=0.4,color="grey40", fillcolor="white", style="filled",URL="$classgraph__tool_1_1BlockState.html#a791816a532ef510d7b3a0bae26088b42",tooltip=" "];
  Node4 -> Node6 [dir="back",color="steelblue1",style="solid"];
  Node6 [label="graph_tool::BlockState\l::move_vertex",height=0.2,width=0.4,color="grey40", fillcolor="white", style="filled",URL="$classgraph__tool_1_1BlockState.html#a7f90ab5729180fe379abc912a407a515",tooltip=" "];
  Node6 -> Node7 [dir="back",color="steelblue1",style="solid"];
  Node7 [label="graph_tool::BlockState\l::move_vertex",height=0.2,width=0.4,color="grey40", fillcolor="white", style="filled",URL="$classgraph__tool_1_1BlockState.html#adc2aaf33b2c5950801d94b1f57fe28dc",tooltip=" "];
  Node6 -> Node8 [dir="back",color="steelblue1",style="solid"];
  Node8 [label="graph_tool::BlockState\l::move_vertices",height=0.2,width=0.4,color="grey40", fillcolor="white", style="filled",URL="$classgraph__tool_1_1BlockState.html#abc051468cdd761a2d81a0767296cdb75",tooltip=" "];
  Node8 -> Node9 [dir="back",color="steelblue1",style="solid"];
  Node9 [label="graph_tool::BlockState\l::move_vertices",height=0.2,width=0.4,color="grey40", fillcolor="white", style="filled",URL="$classgraph__tool_1_1BlockState.html#a7684338bbb111a33e6e0bbd69d5b0e7c",tooltip=" "];
  Node6 -> Node10 [dir="back",color="steelblue1",style="solid"];
  Node10 [label="graph_tool::BlockState\l::set_partition",height=0.2,width=0.4,color="grey40", fillcolor="white", style="filled",URL="$classgraph__tool_1_1BlockState.html#ad3297c3d52cbd9987f3da12ff91aea51",tooltip=" "];
  Node3 -> Node11 [dir="back",color="steelblue1",style="solid"];
  Node11 [label="graph_tool::BlockState\l::edge_entropy_term",height=0.2,width=0.4,color="grey40", fillcolor="white", style="filled",URL="$classgraph__tool_1_1BlockState.html#afef9843e4a12cdb436f000699c0804c5",tooltip=" "];
  Node3 -> Node12 [dir="back",color="steelblue1",style="solid"];
  Node12 [label="graph_tool::BlockState\l::get_delta_partition_dl",height=0.2,width=0.4,color="grey40", fillcolor="white", style="filled",URL="$classgraph__tool_1_1BlockState.html#aa554114c9619cf9241e6a8d71588547d",tooltip=" "];
  Node12 -> Node13 [dir="back",color="steelblue1",style="solid"];
  Node13 [label="graph_tool::BlockState\l::virtual_move",height=0.2,width=0.4,color="grey40", fillcolor="white", style="filled",URL="$classgraph__tool_1_1BlockState.html#a04982f72a2079c5f0f95f4d05641451c",tooltip=" "];
  Node13 -> Node14 [dir="back",color="steelblue1",style="solid"];
  Node14 [label="graph_tool::BlockState\l::virtual_move",height=0.2,width=0.4,color="grey40", fillcolor="white", style="filled",URL="$classgraph__tool_1_1BlockState.html#a501c5ade99b74b073d23ea898ca2c4c4",tooltip=" "];
  Node3 -> Node15 [dir="back",color="steelblue1",style="solid"];
  Node15 [label="graph_tool::BlockState\l::modify_edge",height=0.2,width=0.4,color="grey40", fillcolor="white", style="filled",URL="$classgraph__tool_1_1BlockState.html#a58c36036816047d556483a17e5df3343",tooltip=" "];
  Node3 -> Node16 [dir="back",color="steelblue1",style="solid"];
  Node16 [label="graph_tool::BlockState\l::remove_partition_node",height=0.2,width=0.4,color="grey40", fillcolor="white", style="filled",URL="$classgraph__tool_1_1BlockState.html#aba7a7ed10433a1ac1c91a34beb44daf3",tooltip=" "];
  Node16 -> Node5 [dir="back",color="steelblue1",style="solid"];
  Node16 -> Node6 [dir="back",color="steelblue1",style="solid"];
  Node3 -> Node13 [dir="back",color="steelblue1",style="solid"];
}
