digraph "graph_tool::LatentLayers&lt; BlockState &gt;::LatentLayersState&lt; Ts &gt;"
{
 // LATEX_PDF_SIZE
  bgcolor="transparent";
  edge [fontname=Helvetica,fontsize=10,labelfontname=Helvetica,labelfontsize=10];
  node [fontname=Helvetica,fontsize=10,shape=box,height=0.2,width=0.4];
  Node1 [shape=record,label="{graph_tool::LatentLayers\l\< BlockState \>::LatentLayersState\< Ts \>\n|+ _g\l+ _block_state\l+ _null_edge\l+ _u_edges\l+ _edges\l+ _eweight_c\l+ _pe\l+ _E\l+ _Es\l+ _g_orig\l+ _dummy\l+ _mstate\l|+ GET_PARAMS_USING()\l+ LatentLayersState()\l+ _get_edge()\l+ get_u_edge()\l+ get_edge()\l+ entropy()\l+ remove_edge_dS()\l+ add_edge_dS()\l+ remove_edge()\l+ add_edge()\l+ set_hparams()\l+ get_N()\l+ get_X()\l+ get_T()\l+ get_M()\l}",height=0.2,width=0.4,color="gray40", fillcolor="grey60", style="filled", fontcolor="black",tooltip=" "];
  Node2 -> Node1 [dir="back",color="steelblue1",style="solid",arrowtail="onormal"];
  Node2 [shape=record,label="{LatentLayersStateBase\l\< Ts... \>\n||}",height=0.2,width=0.4,color="gray40", fillcolor="white", style="filled",tooltip=" "];
  Node3 -> Node1 [color="grey25",style="solid",label=" +_uea" ,arrowhead="odiamond"];
  Node3 [shape=record,label="{graph_tool::uentropy\l_args_t\n|+ latent_edges\l+ density\l|+ uentropy_args_t()\l}",height=0.2,width=0.4,color="gray40", fillcolor="white", style="filled",URL="$structgraph__tool_1_1uentropy__args__t.html",tooltip=" "];
  Node4 -> Node3 [dir="back",color="steelblue1",style="solid",arrowtail="onormal"];
  Node4 [shape=record,label="{graph_tool::entropy\l_args_t\n|+ dense\l+ multigraph\l+ exact\l+ adjacency\l+ recs\l+ deg_entropy\l+ partition_dl\l+ degree_dl\l+ degree_dl_kind\l+ edges_dl\l+ recs_dl\l+ beta_dl\l+ Bfield\l|}",height=0.2,width=0.4,color="gray40", fillcolor="white", style="filled",URL="$structgraph__tool_1_1entropy__args__t.html",tooltip=" "];
}
