digraph "BlockPairHist"
{
 // LATEX_PDF_SIZE
  bgcolor="transparent";
  edge [fontname=Helvetica,fontsize=10,labelfontname=Helvetica,labelfontsize=10];
  node [fontname=Helvetica,fontsize=10,shape=box,height=0.2,width=0.4];
  Node1 [shape=record,label="{BlockPairHist\n||+ get_state()\l+ set_state()\l+ get_item()\l+ set_item()\l}",height=0.2,width=0.4,color="gray40", fillcolor="grey60", style="filled", fontcolor="black",tooltip=" "];
  Node2 -> Node1 [dir="back",color="steelblue1",style="solid",arrowtail="onormal"];
  Node2 [shape=record,label="{gt_hash_map\< std::pair\l\< int32_t, int32_t \>,\l size_t \>\n||+ gt_hash_map()\l+ gt_hash_map()\l+ gt_hash_map()\l+ gt_hash_map()\l+ resize()\l}",height=0.2,width=0.4,color="gray40", fillcolor="white", style="filled",URL="$classgt__hash__map.html",tooltip=" "];
  Node3 -> Node2 [dir="back",color="steelblue1",style="solid",arrowtail="onormal"];
  Node3 [shape=record,label="{std::unordered_map\l\< std::pair\< int32_t,\l int32_t \> , size_t ,\l std::hash\<std::pair\<\l int32_t, int32_t \> \> ,\l std::equal_to\<std::pair\l\< int32_t, int32_t \> \> ,\l std::allocator\<std::pair\l\<const std::pair\< int32_t,\l int32_t \> , size_t \>\>  \>\n||}",height=0.2,width=0.4,color="gray40", fillcolor="white", style="filled",tooltip=" "];
}
