digraph "graph_tool::HistD::HistState::sample"
{
 // LATEX_PDF_SIZE
  bgcolor="transparent";
  edge [fontname=Helvetica,fontsize=10,labelfontname=Helvetica,labelfontsize=10];
  node [fontname=Helvetica,fontsize=10,shape=box,height=0.2,width=0.4];
  rankdir="LR";
  Node1 [label="graph_tool::HistD::\lHistState::sample",height=0.2,width=0.4,color="gray40", fillcolor="grey60", style="filled", fontcolor="black",tooltip=" "];
  Node1 -> Node2 [color="steelblue1",style="solid"];
  Node2 [label="graph_tool::HistD::\lHistState::get_bin",height=0.2,width=0.4,color="grey40", fillcolor="white", style="filled",URL="$classgraph__tool_1_1HistD_1_1HistState.html#acc395afa17a12f50066d2d77b1d8c9ec",tooltip=" "];
  Node1 -> Node3 [color="steelblue1",style="solid"];
  Node3 [label="graph_tool::Sampler\l::sample",height=0.2,width=0.4,color="grey40", fillcolor="white", style="filled",URL="$classgraph__tool_1_1Sampler.html#af3e807cbef2bbf3e5226e428bc6fc3b3",tooltip=" "];
  Node1 -> Node4 [color="steelblue1",style="solid"];
  Node4 [label="graph_tool::HistD::\lHistState::to_cgroup",height=0.2,width=0.4,color="grey40", fillcolor="white", style="filled",URL="$classgraph__tool_1_1HistD_1_1HistState.html#a81cda48641a0e85b3bcfddf17a737089",tooltip=" "];
}
