digraph "gt_hash_set&lt; Key, Hash, Pred, Alloc &gt;"
{
 // LATEX_PDF_SIZE
  bgcolor="transparent";
  edge [fontname=Helvetica,fontsize=10,labelfontname=Helvetica,labelfontsize=10];
  node [fontname=Helvetica,fontsize=10,shape=box,height=0.2,width=0.4];
  Node1 [shape=record,label="{gt_hash_set\< Key, Hash,\l Pred, Alloc \>\n||+ gt_hash_set()\l+ gt_hash_set()\l+ gt_hash_set()\l+ gt_hash_set()\l+ resize()\l}",height=0.2,width=0.4,color="gray40", fillcolor="grey60", style="filled", fontcolor="black",tooltip=" "];
  Node2 -> Node1 [dir="back",color="steelblue1",style="solid",arrowtail="onormal"];
  Node2 [shape=record,label="{std::unordered_set\l\< Key, std::hash\< Key\l \>, std::equal_to\< Key\l \>, std::allocator\< Key \> \>\n||}",height=0.2,width=0.4,color="gray40", fillcolor="white", style="filled",tooltip=" "];
}
