digraph "graph_tool::majority_voter_state::update_node"
{
 // LATEX_PDF_SIZE
  bgcolor="transparent";
  edge [fontname=Helvetica,fontsize=10,labelfontname=Helvetica,labelfontsize=10];
  node [fontname=Helvetica,fontsize=10,shape=box,height=0.2,width=0.4];
  rankdir="LR";
  Node1 [label="graph_tool::majority\l_voter_state::update_node",height=0.2,width=0.4,color="gray40", fillcolor="grey60", style="filled", fontcolor="black",tooltip=" "];
  Node1 -> Node2 [color="steelblue1",style="solid"];
  Node2 [label="idx_map::begin",height=0.2,width=0.4,color="grey40", fillcolor="white", style="filled",URL="$classidx__map.html#adfc59aadc681d10ca019307696b1ccc0",tooltip=" "];
  Node1 -> Node3 [color="steelblue1",style="solid"];
  Node3 [label="idx_map::empty",height=0.2,width=0.4,color="grey40", fillcolor="white", style="filled",URL="$classidx__map.html#ac432e85d4c473e6b3cedeca5767ce7e4",tooltip=" "];
  Node1 -> Node4 [color="steelblue1",style="solid"];
  Node4 [label="idx_map::end",height=0.2,width=0.4,color="grey40", fillcolor="white", style="filled",URL="$classidx__map.html#a263b32ec4987f44a80d78076b42d4cf4",tooltip=" "];
  Node1 -> Node5 [color="steelblue1",style="solid"];
  Node5 [label="graph_tool::in_or_out\l_neighbors_range",height=0.2,width=0.4,color="grey40", fillcolor="white", style="filled",URL="$namespacegraph__tool.html#a9e0146b335aeb9ee8250e066457318bf",tooltip=" "];
  Node5 -> Node6 [color="steelblue1",style="solid"];
  Node6 [label="graph_tool::mk_range",height=0.2,width=0.4,color="grey40", fillcolor="white", style="filled",URL="$namespacegraph__tool.html#a6ecc1e46efb4f620acabfe5728f7a2a6",tooltip=" "];
  Node1 -> Node7 [color="steelblue1",style="solid"];
  Node7 [label="graph_tool::uniform\l_sample",height=0.2,width=0.4,color="grey40", fillcolor="white", style="filled",URL="$namespacegraph__tool.html#ac2ce214a2fffea5829defd8952abf538",tooltip=" "];
  Node7 -> Node8 [color="steelblue1",style="solid"];
  Node8 [label="graph_tool::uniform\l_sample_iter",height=0.2,width=0.4,color="grey40", fillcolor="white", style="filled",URL="$namespacegraph__tool.html#a6c076e169c88286ce322852b779e1cdf",tooltip=" "];
}
