digraph "graph_tool::Dynamics::DynamicsState::get_u_edge"
{
 // LATEX_PDF_SIZE
  bgcolor="transparent";
  edge [fontname=Helvetica,fontsize=10,labelfontname=Helvetica,labelfontsize=10];
  node [fontname=Helvetica,fontsize=10,shape=box,height=0.2,width=0.4];
  rankdir="RL";
  Node1 [label="graph_tool::Dynamics\l::DynamicsState::get\l_u_edge",height=0.2,width=0.4,color="gray40", fillcolor="grey60", style="filled", fontcolor="black",tooltip=" "];
  Node1 -> Node2 [dir="back",color="steelblue1",style="solid"];
  Node2 [label="graph_tool::Dynamics\l::DynamicsState::add\l_edge_dS",height=0.2,width=0.4,color="grey40", fillcolor="white", style="filled",URL="$classgraph__tool_1_1Dynamics_1_1DynamicsState.html#a04b645f6d1e5bcf2879cfd3169ce17c7",tooltip=" "];
  Node1 -> Node3 [dir="back",color="steelblue1",style="solid"];
  Node3 [label="graph_tool::Dynamics\l::DynamicsState::remove_edge",height=0.2,width=0.4,color="grey40", fillcolor="white", style="filled",URL="$classgraph__tool_1_1Dynamics_1_1DynamicsState.html#a38941aa3fb623c186b107db488443c6e",tooltip=" "];
  Node1 -> Node4 [dir="back",color="steelblue1",style="solid"];
  Node4 [label="graph_tool::Dynamics\l::DynamicsState::remove\l_edge_dS",height=0.2,width=0.4,color="grey40", fillcolor="white", style="filled",URL="$classgraph__tool_1_1Dynamics_1_1DynamicsState.html#a444bf7c0c5f0a5543d0c9e473eb88667",tooltip=" "];
  Node1 -> Node5 [dir="back",color="steelblue1",style="solid"];
  Node5 [label="graph_tool::Dynamics\l::DynamicsState::update_edge",height=0.2,width=0.4,color="grey40", fillcolor="white", style="filled",URL="$classgraph__tool_1_1Dynamics_1_1DynamicsState.html#a9d6c15adf1a3700b4cd5deb852fd70c5",tooltip=" "];
}
