digraph "graph_tool::Dynamics&lt; BlockState, DState &gt;::DynamicsState&lt; Ts &gt;"
{
 // LATEX_PDF_SIZE
  bgcolor="transparent";
  edge [fontname=Helvetica,fontsize=10,labelfontname=Helvetica,labelfontsize=10];
  node [fontname=Helvetica,fontsize=10,shape=box,height=0.2,width=0.4];
  Node1 [shape=record,label="{graph_tool::Dynamics\l\< BlockState, DState\l \>::DynamicsState\< Ts \>\n|+ smap_t\l+ _block_state\l+ _t\l+ _s\l+ _u\l+ _eweight\l+ _null_edge\l+ _u_edges\l+ _pe\l+ _E\l+ _dstate\l+ _xc\l|+ DynamicsState()\l+ _get_edge()\l+ get_u_edge()\l+ get_node_prob()\l+ entropy()\l+ remove_edge_dS()\l+ add_edge_dS()\l+ update_edge_dS()\l+ remove_edge()\l+ add_edge()\l+ update_edge()\l+ set_params()\l}",height=0.2,width=0.4,color="gray40", fillcolor="grey60", style="filled", fontcolor="black",tooltip=" "];
  Node2 -> Node1 [dir="back",color="steelblue1",style="solid",arrowtail="onormal"];
  Node2 [shape=record,label="{DynamicsStateBase\<\l Ts... \>\n||}",height=0.2,width=0.4,color="gray40", fillcolor="white", style="filled",tooltip=" "];
}
