digraph "graph_tool::BlockState::sample_block"
{
 // LATEX_PDF_SIZE
  bgcolor="transparent";
  edge [fontname=Helvetica,fontsize=10,labelfontname=Helvetica,labelfontsize=10];
  node [fontname=Helvetica,fontsize=10,shape=box,height=0.2,width=0.4];
  rankdir="LR";
  Node1 [label="graph_tool::BlockState\l::sample_block",height=0.2,width=0.4,color="gray40", fillcolor="grey60", style="filled", fontcolor="black",tooltip=" "];
  Node1 -> Node2 [color="steelblue1",style="solid"];
  Node2 [label="graph_tool::EGroups\l::empty",height=0.2,width=0.4,color="grey40", fillcolor="white", style="filled",URL="$classgraph__tool_1_1EGroups.html#acd87dfc948d982abf2eafcb1a8fbbaea",tooltip=" "];
  Node1 -> Node3 [color="steelblue1",style="solid"];
  Node3 [label="graph_tool::BlockState\l::get_empty_block",height=0.2,width=0.4,color="grey40", fillcolor="white", style="filled",URL="$classgraph__tool_1_1BlockState.html#affa9b3c6d5140a7b0da43c7524599f5c",tooltip=" "];
  Node3 -> Node4 [color="steelblue1",style="solid"];
  Node4 [label="graph_tool::BlockState\l::add_block",height=0.2,width=0.4,color="grey40", fillcolor="white", style="filled",URL="$classgraph__tool_1_1BlockState.html#ac0a93d81a9507a1abf6d91c5c7c23008",tooltip=" "];
  Node4 -> Node5 [color="steelblue1",style="solid"];
  Node5 [label="graph_tool::EGroups\l::add_block",height=0.2,width=0.4,color="grey40", fillcolor="white", style="filled",URL="$classgraph__tool_1_1EGroups.html#aa974e634af051d148e18c59faa9f7896",tooltip=" "];
  Node4 -> Node6 [color="steelblue1",style="solid"];
  Node6 [label="boost::add_vertex",height=0.2,width=0.4,color="grey40", fillcolor="white", style="filled",URL="$namespaceboost.html#a9440b0ee2e6a885ba5cd53babca04ae8",tooltip=" "];
  Node6 -> Node6 [color="steelblue1",style="solid"];
  Node6 -> Node7 [color="steelblue1",style="solid"];
  Node7 [label="boost::undirected_adaptor\l::original_graph",height=0.2,width=0.4,color="grey40", fillcolor="white", style="filled",URL="$classboost_1_1undirected__adaptor.html#a11e557bb4f3d7c15354f98390f1d3644",tooltip=" "];
  Node4 -> Node8 [color="steelblue1",style="solid"];
  Node8 [label="graph_tool::BlockStateVirtual\lBase::coupled_resize_vertex",height=0.2,width=0.4,color="grey40", fillcolor="white", style="filled",URL="$classgraph__tool_1_1BlockStateVirtualBase.html#ae2810a799479c4462d065ec704ce371d",tooltip=" "];
  Node4 -> Node2 [color="steelblue1",style="solid"];
  Node4 -> Node9 [color="steelblue1",style="solid"];
  Node9 [label="idx_set::insert",height=0.2,width=0.4,color="grey40", fillcolor="white", style="filled",URL="$classidx__set.html#afbbd9253a38901eb7ec6c27b1b8c692e",tooltip=" "];
  Node9 -> Node10 [color="steelblue1",style="solid"];
  Node10 [label="idx_set::begin",height=0.2,width=0.4,color="grey40", fillcolor="white", style="filled",URL="$classidx__set.html#a859da6be3bf8f1e8a7e82a7eb1eebad6",tooltip=" "];
  Node9 -> Node11 [color="steelblue1",style="solid"];
  Node11 [label="idx_set::get_pos",height=0.2,width=0.4,color="grey40", fillcolor="white", style="filled",URL="$classidx__set.html#a56e207910e0227f4eeccfd5de78d1220",tooltip=" "];
  Node4 -> Node12 [color="steelblue1",style="solid"];
  Node12 [label="boost::num_vertices",height=0.2,width=0.4,color="grey40", fillcolor="white", style="filled",URL="$namespaceboost.html#ac848f876a7fa2caa8fb1879b7c522ebc",tooltip=" "];
  Node12 -> Node12 [color="steelblue1",style="solid"];
  Node12 -> Node7 [color="steelblue1",style="solid"];
  Node3 -> Node13 [color="steelblue1",style="solid"];
  Node13 [label="idx_set::empty",height=0.2,width=0.4,color="grey40", fillcolor="white", style="filled",URL="$classidx__set.html#a7c97d995e93d7328f6023d7c1e06f5a8",tooltip=" "];
  Node3 -> Node14 [color="steelblue1",style="solid"];
  Node14 [label="idx_set::end",height=0.2,width=0.4,color="grey40", fillcolor="white", style="filled",URL="$classidx__set.html#af92eda91ac7fdd6512c6ceb32d22d15d",tooltip=" "];
  Node3 -> Node15 [color="steelblue1",style="solid"];
  Node15 [label="graph_tool::BlockStateVirtual\lBase::get_b",height=0.2,width=0.4,color="grey40", fillcolor="white", style="filled",URL="$classgraph__tool_1_1BlockStateVirtualBase.html#a19317063fd7aa6ea0b8567a541ec53bf",tooltip=" "];
  Node3 -> Node16 [color="steelblue1",style="solid"];
  Node16 [label="graph_tool::BlockStateVirtual\lBase::get_pclabel",height=0.2,width=0.4,color="grey40", fillcolor="white", style="filled",URL="$classgraph__tool_1_1BlockStateVirtualBase.html#a47bd389967c38b2ffb82ba157a910d45",tooltip=" "];
  Node1 -> Node16 [color="steelblue1",style="solid"];
  Node1 -> Node17 [color="steelblue1",style="solid"];
  Node17 [label="graph_tool::EGroups\l::init",height=0.2,width=0.4,color="grey40", fillcolor="white", style="filled",URL="$classgraph__tool_1_1EGroups.html#a3ecfdb9f6776ac28f2b34034bb8ebccd",tooltip=" "];
  Node17 -> Node18 [color="steelblue1",style="solid"];
  Node18 [label="graph_tool::EGroups\l::check",height=0.2,width=0.4,color="grey40", fillcolor="white", style="filled",URL="$classgraph__tool_1_1EGroups.html#a8794e839040f02696750728f9fd47603",tooltip=" "];
  Node18 -> Node19 [color="steelblue1",style="solid"];
  Node19 [label="boost::edge",height=0.2,width=0.4,color="grey40", fillcolor="white", style="filled",URL="$namespaceboost.html#a598b4480c610319f1d97be25667c6e56",tooltip=" "];
  Node19 -> Node19 [color="steelblue1",style="solid"];
  Node19 -> Node7 [color="steelblue1",style="solid"];
  Node18 -> Node20 [color="steelblue1",style="solid"];
  Node20 [label="graph_tool::edges_range",height=0.2,width=0.4,color="grey40", fillcolor="white", style="filled",URL="$namespacegraph__tool.html#a84f027f8994c1005336b0a12eb0c9dc4",tooltip=" "];
  Node20 -> Node21 [color="steelblue1",style="solid"];
  Node21 [label="boost::edges",height=0.2,width=0.4,color="grey40", fillcolor="white", style="filled",URL="$namespaceboost.html#a3ac91f028a5f50644ba12e9e803bb2f8",tooltip=" "];
  Node21 -> Node21 [color="steelblue1",style="solid"];
  Node21 -> Node7 [color="steelblue1",style="solid"];
  Node20 -> Node22 [color="steelblue1",style="solid"];
  Node22 [label="graph_tool::mk_range",height=0.2,width=0.4,color="grey40", fillcolor="white", style="filled",URL="$namespacegraph__tool.html#a6ecc1e46efb4f620acabfe5728f7a2a6",tooltip=" "];
  Node18 -> Node2 [color="steelblue1",style="solid"];
  Node18 -> Node23 [color="steelblue1",style="solid"];
  Node23 [label="graph_tool::is_directed",height=0.2,width=0.4,color="grey40", fillcolor="white", style="filled",URL="$namespacegraph__tool.html#a815c22620d9f5756b899dc94e405e2f3",tooltip=" "];
  Node18 -> Node24 [color="steelblue1",style="solid"];
  Node24 [label="graph_tool::source",height=0.2,width=0.4,color="grey40", fillcolor="white", style="filled",URL="$namespacegraph__tool.html#a0b44c0af404cec1513acb7b9602557f8",tooltip=" "];
  Node24 -> Node21 [color="steelblue1",style="solid"];
  Node24 -> Node24 [color="steelblue1",style="solid"];
  Node24 -> Node25 [color="steelblue1",style="solid"];
  Node25 [label="graph_tool::target",height=0.2,width=0.4,color="grey40", fillcolor="white", style="filled",URL="$namespacegraph__tool.html#aff9f07ca294560a9de57ab80deffa0cc",tooltip=" "];
  Node25 -> Node21 [color="steelblue1",style="solid"];
  Node25 -> Node24 [color="steelblue1",style="solid"];
  Node25 -> Node25 [color="steelblue1",style="solid"];
  Node18 -> Node25 [color="steelblue1",style="solid"];
  Node17 -> Node26 [color="steelblue1",style="solid"];
  Node26 [label="graph_tool::EGroups\l::clear",height=0.2,width=0.4,color="grey40", fillcolor="white", style="filled",URL="$classgraph__tool_1_1EGroups.html#a0a90abd0ae978a434de159ff2fd8c33a",tooltip=" "];
  Node17 -> Node20 [color="steelblue1",style="solid"];
  Node17 -> Node27 [color="steelblue1",style="solid"];
  Node27 [label="graph_tool::EGroups\l::insert_edge",height=0.2,width=0.4,color="grey40", fillcolor="white", style="filled",URL="$classgraph__tool_1_1EGroups.html#a63514f51a1f0cfe25671fe2a78a98e95",tooltip=" "];
  Node27 -> Node27 [color="steelblue1",style="solid"];
  Node17 -> Node12 [color="steelblue1",style="solid"];
  Node17 -> Node24 [color="steelblue1",style="solid"];
  Node17 -> Node25 [color="steelblue1",style="solid"];
  Node1 -> Node28 [color="steelblue1",style="solid"];
  Node28 [label="graph_tool::random\l_neighbor",height=0.2,width=0.4,color="grey40", fillcolor="white", style="filled",URL="$namespacegraph__tool.html#a211580326cc5f6a3a01d147b4c3348d0",tooltip=" "];
  Node28 -> Node29 [color="steelblue1",style="solid"];
  Node29 [label="boost::all_neighbors",height=0.2,width=0.4,color="grey40", fillcolor="white", style="filled",URL="$namespaceboost.html#aa79739d31ce142279771d2b585c3dc8a",tooltip=" "];
  Node29 -> Node30 [color="steelblue1",style="solid"];
  Node30 [label="boost::out_neighbors",height=0.2,width=0.4,color="grey40", fillcolor="white", style="filled",URL="$namespaceboost.html#a57f92469ea1bdd1e62a67f2bbd781fea",tooltip=" "];
  Node30 -> Node29 [color="steelblue1",style="solid"];
  Node30 -> Node7 [color="steelblue1",style="solid"];
  Node28 -> Node31 [color="steelblue1",style="solid"];
  Node31 [label="graph_tool::uniform\l_sample_iter",height=0.2,width=0.4,color="grey40", fillcolor="white", style="filled",URL="$namespacegraph__tool.html#a6c076e169c88286ce322852b779e1cdf",tooltip=" "];
  Node1 -> Node32 [color="steelblue1",style="solid"];
  Node32 [label="graph_tool::BlockStateVirtual\lBase::sample_branch",height=0.2,width=0.4,color="grey40", fillcolor="white", style="filled",URL="$classgraph__tool_1_1BlockStateVirtualBase.html#a5ffcff9c7c6bf1c6bec5c6094a7ab4df",tooltip=" "];
  Node1 -> Node33 [color="steelblue1",style="solid"];
  Node33 [label="graph_tool::EGroups\l::sample_edge",height=0.2,width=0.4,color="grey40", fillcolor="white", style="filled",URL="$classgraph__tool_1_1EGroups.html#a109d8e7b1fbf97d77f817d3872ab3bd6",tooltip=" "];
  Node1 -> Node34 [color="steelblue1",style="solid"];
  Node34 [label="idx_set::size",height=0.2,width=0.4,color="grey40", fillcolor="white", style="filled",URL="$classidx__set.html#a055eb517bcf242f28f911d3b4dc1537d",tooltip=" "];
  Node1 -> Node35 [color="steelblue1",style="solid"];
  Node35 [label="graph_tool::uniform\l_sample",height=0.2,width=0.4,color="grey40", fillcolor="white", style="filled",URL="$namespacegraph__tool.html#ac2ce214a2fffea5829defd8952abf538",tooltip=" "];
  Node35 -> Node31 [color="steelblue1",style="solid"];
}
