digraph "boost::unchecked_vector_property_map::copy"
{
 // LATEX_PDF_SIZE
  bgcolor="transparent";
  edge [fontname=Helvetica,fontsize=10,labelfontname=Helvetica,labelfontsize=10];
  node [fontname=Helvetica,fontsize=10,shape=box,height=0.2,width=0.4];
  rankdir="LR";
  Node1 [label="boost::unchecked_vector\l_property_map::copy",height=0.2,width=0.4,color="gray40", fillcolor="grey60", style="filled", fontcolor="black",tooltip=" "];
  Node1 -> Node2 [color="steelblue1",style="solid"];
  Node2 [label="boost::checked_vector\l_property_map::copy",height=0.2,width=0.4,color="grey40", fillcolor="white", style="filled",URL="$classboost_1_1checked__vector__property__map.html#a0f582e8322314eefcaf997b85aa10343",tooltip=" "];
  Node1 -> Node3 [color="steelblue1",style="solid"];
  Node3 [label="boost::checked_vector\l_property_map::get_unchecked",height=0.2,width=0.4,color="grey40", fillcolor="white", style="filled",URL="$classboost_1_1checked__vector__property__map.html#afc8aa547b3e8b4df8662342d55f6fd15",tooltip=" "];
  Node3 -> Node4 [color="steelblue1",style="solid"];
  Node4 [label="boost::checked_vector\l_property_map::reserve",height=0.2,width=0.4,color="grey40", fillcolor="white", style="filled",URL="$classboost_1_1checked__vector__property__map.html#ad42f677fcb713ec7f22a3f9629fd40db",tooltip=" "];
}
