digraph "graph_tool::DynamicSampler::sample"
{
 // LATEX_PDF_SIZE
  bgcolor="transparent";
  edge [fontname=Helvetica,fontsize=10,labelfontname=Helvetica,labelfontsize=10];
  node [fontname=Helvetica,fontsize=10,shape=box,height=0.2,width=0.4];
  rankdir="LR";
  Node1 [label="graph_tool::DynamicSampler\l::sample",height=0.2,width=0.4,color="gray40", fillcolor="grey60", style="filled", fontcolor="black",tooltip=" "];
  Node1 -> Node2 [color="steelblue1",style="solid"];
  Node2 [label="graph_tool::DynamicSampler\l::sample_idx",height=0.2,width=0.4,color="grey40", fillcolor="white", style="filled",URL="$classgraph__tool_1_1DynamicSampler.html#ab41000a810f0ac161457086588927446",tooltip=" "];
  Node2 -> Node3 [color="steelblue1",style="solid"];
  Node3 [label="graph_tool::DynamicSampler\l::get_left",height=0.2,width=0.4,color="grey40", fillcolor="white", style="filled",URL="$classgraph__tool_1_1DynamicSampler.html#a45da955a3071553d80b15d5281225568",tooltip=" "];
  Node2 -> Node4 [color="steelblue1",style="solid"];
  Node4 [label="graph_tool::DynamicSampler\l::get_right",height=0.2,width=0.4,color="grey40", fillcolor="white", style="filled",URL="$classgraph__tool_1_1DynamicSampler.html#acd599d9b976470139c26f66df1252c45",tooltip=" "];
  Node2 -> Node1 [color="steelblue1",style="solid"];
}
