digraph "graph_tool::partition_stats::get_deg_dl_ent"
{
 // LATEX_PDF_SIZE
  bgcolor="transparent";
  edge [fontname=Helvetica,fontsize=10,labelfontname=Helvetica,labelfontsize=10];
  node [fontname=Helvetica,fontsize=10,shape=box,height=0.2,width=0.4];
  rankdir="RL";
  Node1 [label="graph_tool::partition\l_stats::get_deg_dl_ent",height=0.2,width=0.4,color="gray40", fillcolor="grey60", style="filled", fontcolor="black",tooltip=" "];
  Node1 -> Node2 [dir="back",color="steelblue1",style="solid"];
  Node2 [label="graph_tool::partition\l_stats::get_deg_dl",height=0.2,width=0.4,color="grey40", fillcolor="white", style="filled",URL="$classgraph__tool_1_1partition__stats.html#a7709f1e0085c2e2cf1a74851978311cb",tooltip=" "];
  Node2 -> Node3 [dir="back",color="steelblue1",style="solid"];
  Node3 [label="graph_tool::BlockState\l::edge_entropy_term",height=0.2,width=0.4,color="grey40", fillcolor="white", style="filled",URL="$classgraph__tool_1_1BlockState.html#afef9843e4a12cdb436f000699c0804c5",tooltip=" "];
  Node2 -> Node4 [dir="back",color="steelblue1",style="solid"];
  Node4 [label="graph_tool::PPState\l::entropy",height=0.2,width=0.4,color="grey40", fillcolor="white", style="filled",URL="$classgraph__tool_1_1PPState.html#a3a7ec97197071b97f08eed83667afc88",tooltip=" "];
  Node2 -> Node5 [dir="back",color="steelblue1",style="solid"];
  Node5 [label="graph_tool::partition\l_stats::get_deg_dl",height=0.2,width=0.4,color="grey40", fillcolor="white", style="filled",URL="$classgraph__tool_1_1partition__stats.html#a232e0e78506c70e88c6901c84a22611d",tooltip=" "];
}
