digraph "graph_tool::MCMC&lt; State &gt;::MCMCBlockState&lt; Ts &gt;"
{
 // LATEX_PDF_SIZE
  bgcolor="transparent";
  edge [fontname=Helvetica,fontsize=10,labelfontname=Helvetica,labelfontsize=10];
  node [fontname=Helvetica,fontsize=10,shape=box,height=0.2,width=0.4];
  Node1 [shape=record,label="{graph_tool::MCMC\< State\l \>::MCMCBlockState\< Ts \>\n|+ _m_entries\l+ _entropy_args\l+ _entropy_args\l+ _null_move\l|+ GET_PARAMS_USING()\l+ node_state()\l+ skip_node()\l+ move_proposal()\l+ virtual_move_dS()\l+ perform_move()\l+ is_deterministic()\l+ is_sequential()\l+ get_vlist()\l+ get_beta()\land 18 more...\l}",height=0.2,width=0.4,color="gray40", fillcolor="grey60", style="filled", fontcolor="black",tooltip=" "];
  Node2 -> Node1 [dir="back",color="steelblue1",style="solid",arrowtail="onormal"];
  Node2 [shape=record,label="{MCMCBlockStateBase\l\< Ts... \>\n||}",height=0.2,width=0.4,color="gray40", fillcolor="white", style="filled",tooltip=" "];
  Node3 -> Node1 [dir="back",color="steelblue1",style="solid",arrowtail="onormal"];
  Node3 [shape=record,label="{graph_tool::MergeSplit\l\< MCMCBlockStateImp\< Ts...\l \>, size_t, size_t, iset,\l imap, iset, gmap_t, false,\l false \>\n|+ _nodes\l+ _nmoves\l+ _bstack\l+ _rlist\l+ _vs\l+ _move\l+ _bnext\l+ _btemp\l+ _N\l+ _dS\l+ _a\l+ _vlist\l+ _null_move\l|+ MergeSplit()\l+ _push_b_dispatch()\l+ _push_b_dispatch()\l+ push_b()\l+ pop_b()\l+ node_state()\l+ skip_node()\l+ move_node()\l+ get_group_vs()\l+ get_wr()\land 24 more...\l}",height=0.2,width=0.4,color="gray40", fillcolor="white", style="filled",URL="$structgraph__tool_1_1MergeSplit.html",tooltip=" "];
  Node4 -> Node3 [dir="back",color="steelblue1",style="solid",arrowtail="onormal"];
  Node4 [shape=record,label="{graph_tool::MCMC\< State\l \>::MCMCBlockStateImp\l\< Ts... \>\n|+ _has_b_min\l+ _entropy_args\l+ _null_group\l+ _null_group\l+ _pmovelabel\l+ _psrandom\l+ _psscatter\l+ _pscoalesce\l|+ GET_PARAMS_USING()\l+ GET_PARAMS_USING()\l+ GET_PARAMS_USING()\l+ GET_PARAMS_USING()\l+ iter_nodes()\l+ iter_nodes()\l+ iter_nodes()\l+ iter_nodes()\l+ iter_groups()\l+ iter_groups()\land 50 more...\l}",height=0.2,width=0.4,color="gray40", fillcolor="white", style="filled",URL="$classgraph__tool_1_1MCMC_1_1MCMCBlockStateImp.html",tooltip=" "];
  Node2 -> Node4 [dir="back",color="steelblue1",style="solid",arrowtail="onormal"];
  Node5 -> Node4 [color="grey25",style="solid",label=" +_bh\n+_hpclabel" ,arrowhead="odiamond"];
  Node5 [shape=record,label="{graph_tool::vprop_map\l_t\< int32_t \>\n||}",height=0.2,width=0.4,color="gray40", fillcolor="white", style="filled",URL="$structgraph__tool_1_1vprop__map__t.html",tooltip=" "];
  Node6 -> Node4 [color="grey25",style="solid",label=" +_rs" ,arrowhead="odiamond"];
  Node6 [shape=record,label="{idx_set\< size_t \>\n||+ idx_set()\l+ idx_set()\l+ get_pos()\l+ insert()\l+ erase()\l+ erase()\l+ find()\l+ clear()\l+ shrink_to_fit()\l+ begin()\l+ end()\l+ size()\l+ empty()\l}",height=0.2,width=0.4,color="gray40", fillcolor="white", style="filled",URL="$classidx__set.html",tooltip=" "];
  Node7 -> Node3 [color="grey25",style="solid",label=" +_groups" ,arrowhead="odiamond"];
  Node7 [shape=record,label="{graph_tool::MCMC\< State\l \>::gmap_t\n||+ operator[]()\l+ operator[]()\l+ operator[]()\l+ operator[]()\l}",height=0.2,width=0.4,color="gray40", fillcolor="white", style="filled",URL="$classgraph__tool_1_1MCMC_1_1gmap__t.html",tooltip=" "];
  Node8 -> Node7 [dir="back",color="steelblue1",style="solid",arrowtail="onormal"];
  Node8 [shape=record,label="{idx_map\< size_t, idx\l_set\< size_t, true \> \>\n||+ idx_map()\l+ idx_map()\l+ get_pos()\l+ insert()\l+ erase()\l+ erase()\l+ operator[]()\l+ find()\l+ find()\l+ clear()\land 7 more...\l}",height=0.2,width=0.4,color="gray40", fillcolor="white", style="filled",URL="$classidx__map.html",tooltip=" "];
  Node9 -> Node3 [color="grey25",style="solid",label=" +_move_sampler" ,arrowhead="odiamond"];
  Node9 [shape=record,label="{graph_tool::Sampler\l\< move_t, mpl::false_ \>\n||+ Sampler()\l+ Sampler()\l+ sample()\l+ size()\l+ empty()\l+ has_n()\l+ prob_sum()\l+ operator[]()\l+ items()\l+ begin()\l+ end()\l}",height=0.2,width=0.4,color="gray40", fillcolor="white", style="filled",URL="$classgraph__tool_1_1Sampler.html",tooltip=" "];
  Node10 -> Node3 [color="grey25",style="solid",label=" +_stage_sampler" ,arrowhead="odiamond"];
  Node10 [shape=record,label="{graph_tool::Sampler\l\< stage_t, mpl::false_ \>\n||+ Sampler()\l+ Sampler()\l+ sample()\l+ size()\l+ empty()\l+ has_n()\l+ prob_sum()\l+ operator[]()\l+ items()\l+ begin()\l+ end()\l}",height=0.2,width=0.4,color="gray40", fillcolor="white", style="filled",URL="$classgraph__tool_1_1Sampler.html",tooltip=" "];
  Node11 -> Node1 [dir="back",color="steelblue1",style="solid",arrowtail="onormal"];
  Node11 [shape=record,label="{graph_tool::Multilevel\l\< MCMCBlockStateImp\< Ts...\l \>, size_t, size_t, iset,\l imap, iset, imap, gmap_t,\l false, false \>\n|+ _nodes\l+ _nmoves\l+ _bstack\l+ _rlist\l+ _vs\l+ _move\l+ _rs\l+ _rs_prev\l+ _best_merge\l+ _past_merges\land 11 more...\l+ _null_move\l+ _phi\l|+ Multilevel()\l+ push_b()\l+ pop_b()\l+ node_state()\l+ skip_node()\l+ move_node()\l+ get_group_vs()\l+ get_wr()\l+ mh_sweep()\l+ mh_sweep_prob()\land 20 more...\l}",height=0.2,width=0.4,color="gray40", fillcolor="white", style="filled",URL="$structgraph__tool_1_1Multilevel.html",tooltip=" "];
  Node4 -> Node11 [dir="back",color="steelblue1",style="solid",arrowtail="onormal"];
  Node7 -> Node11 [color="grey25",style="solid",label=" +_groups" ,arrowhead="odiamond"];
  Node9 -> Node11 [color="grey25",style="solid",label=" +_move_sampler" ,arrowhead="odiamond"];
  Node12 -> Node1 [dir="back",color="steelblue1",style="solid",arrowtail="onormal"];
  Node12 [shape=record,label="{graph_tool::MergeSplit\l\< MCMCBlockStateImp\< Ts...\l \>, size_t, size_t, iset,\l imap, iset, gmap_t, false, true \>\n|+ _nodes\l+ _nmoves\l+ _bstack\l+ _rlist\l+ _vs\l+ _move\l+ _bnext\l+ _btemp\l+ _N\l+ _dS\l+ _a\l+ _vlist\l+ _null_move\l|+ MergeSplit()\l+ _push_b_dispatch()\l+ _push_b_dispatch()\l+ push_b()\l+ pop_b()\l+ node_state()\l+ skip_node()\l+ move_node()\l+ get_group_vs()\l+ get_wr()\land 24 more...\l}",height=0.2,width=0.4,color="gray40", fillcolor="white", style="filled",URL="$structgraph__tool_1_1MergeSplit.html",tooltip=" "];
  Node4 -> Node12 [dir="back",color="steelblue1",style="solid",arrowtail="onormal"];
  Node7 -> Node12 [color="grey25",style="solid",label=" +_groups" ,arrowhead="odiamond"];
  Node9 -> Node12 [color="grey25",style="solid",label=" +_move_sampler" ,arrowhead="odiamond"];
  Node10 -> Node12 [color="grey25",style="solid",label=" +_stage_sampler" ,arrowhead="odiamond"];
  Node13 -> Node1 [dir="back",color="steelblue1",style="solid",arrowtail="onormal"];
  Node13 [shape=record,label="{graph_tool::Multilevel\l\< MCMCBlockStateImp\< Ts...\l \>, size_t, size_t, iset,\l imap, iset, imap, gmap_t,\l false, true \>\n|+ _nodes\l+ _nmoves\l+ _bstack\l+ _rlist\l+ _vs\l+ _move\l+ _rs\l+ _rs_prev\l+ _best_merge\l+ _past_merges\land 11 more...\l+ _null_move\l+ _phi\l|+ Multilevel()\l+ push_b()\l+ pop_b()\l+ node_state()\l+ skip_node()\l+ move_node()\l+ get_group_vs()\l+ get_wr()\l+ mh_sweep()\l+ mh_sweep_prob()\land 20 more...\l}",height=0.2,width=0.4,color="gray40", fillcolor="white", style="filled",URL="$structgraph__tool_1_1Multilevel.html",tooltip=" "];
  Node4 -> Node13 [dir="back",color="steelblue1",style="solid",arrowtail="onormal"];
  Node7 -> Node13 [color="grey25",style="solid",label=" +_groups" ,arrowhead="odiamond"];
  Node9 -> Node13 [color="grey25",style="solid",label=" +_move_sampler" ,arrowhead="odiamond"];
}
