digraph "graph_tool::EGroups::check"
{
 // LATEX_PDF_SIZE
  bgcolor="transparent";
  edge [fontname=Helvetica,fontsize=10,labelfontname=Helvetica,labelfontsize=10];
  node [fontname=Helvetica,fontsize=10,shape=box,height=0.2,width=0.4];
  rankdir="LR";
  Node1 [label="graph_tool::EGroups\l::check",height=0.2,width=0.4,color="gray40", fillcolor="grey60", style="filled", fontcolor="black",tooltip=" "];
  Node1 -> Node2 [color="steelblue1",style="solid"];
  Node2 [label="boost::edge",height=0.2,width=0.4,color="grey40", fillcolor="white", style="filled",URL="$namespaceboost.html#a598b4480c610319f1d97be25667c6e56",tooltip=" "];
  Node2 -> Node2 [color="steelblue1",style="solid"];
  Node2 -> Node3 [color="steelblue1",style="solid"];
  Node3 [label="boost::undirected_adaptor\l::original_graph",height=0.2,width=0.4,color="grey40", fillcolor="white", style="filled",URL="$classboost_1_1undirected__adaptor.html#a11e557bb4f3d7c15354f98390f1d3644",tooltip=" "];
  Node1 -> Node4 [color="steelblue1",style="solid"];
  Node4 [label="graph_tool::edges_range",height=0.2,width=0.4,color="grey40", fillcolor="white", style="filled",URL="$namespacegraph__tool.html#a84f027f8994c1005336b0a12eb0c9dc4",tooltip=" "];
  Node4 -> Node5 [color="steelblue1",style="solid"];
  Node5 [label="boost::edges",height=0.2,width=0.4,color="grey40", fillcolor="white", style="filled",URL="$namespaceboost.html#a3ac91f028a5f50644ba12e9e803bb2f8",tooltip=" "];
  Node5 -> Node5 [color="steelblue1",style="solid"];
  Node5 -> Node3 [color="steelblue1",style="solid"];
  Node4 -> Node6 [color="steelblue1",style="solid"];
  Node6 [label="graph_tool::mk_range",height=0.2,width=0.4,color="grey40", fillcolor="white", style="filled",URL="$namespacegraph__tool.html#a6ecc1e46efb4f620acabfe5728f7a2a6",tooltip=" "];
  Node1 -> Node7 [color="steelblue1",style="solid"];
  Node7 [label="graph_tool::EGroups\l::empty",height=0.2,width=0.4,color="grey40", fillcolor="white", style="filled",URL="$classgraph__tool_1_1EGroups.html#acd87dfc948d982abf2eafcb1a8fbbaea",tooltip=" "];
  Node1 -> Node8 [color="steelblue1",style="solid"];
  Node8 [label="graph_tool::is_directed",height=0.2,width=0.4,color="grey40", fillcolor="white", style="filled",URL="$namespacegraph__tool.html#a815c22620d9f5756b899dc94e405e2f3",tooltip=" "];
  Node1 -> Node9 [color="steelblue1",style="solid"];
  Node9 [label="graph_tool::source",height=0.2,width=0.4,color="grey40", fillcolor="white", style="filled",URL="$namespacegraph__tool.html#a0b44c0af404cec1513acb7b9602557f8",tooltip=" "];
  Node9 -> Node5 [color="steelblue1",style="solid"];
  Node9 -> Node9 [color="steelblue1",style="solid"];
  Node9 -> Node10 [color="steelblue1",style="solid"];
  Node10 [label="graph_tool::target",height=0.2,width=0.4,color="grey40", fillcolor="white", style="filled",URL="$namespacegraph__tool.html#aff9f07ca294560a9de57ab80deffa0cc",tooltip=" "];
  Node10 -> Node5 [color="steelblue1",style="solid"];
  Node10 -> Node9 [color="steelblue1",style="solid"];
  Node10 -> Node10 [color="steelblue1",style="solid"];
  Node1 -> Node10 [color="steelblue1",style="solid"];
}
