digraph "graph_tool::BlockState::remove_vertex"
{
 // LATEX_PDF_SIZE
  bgcolor="transparent";
  edge [fontname=Helvetica,fontsize=10,labelfontname=Helvetica,labelfontsize=10];
  node [fontname=Helvetica,fontsize=10,shape=box,height=0.2,width=0.4];
  rankdir="LR";
  Node1 [label="graph_tool::BlockState\l::remove_vertex",height=0.2,width=0.4,color="gray40", fillcolor="grey60", style="filled", fontcolor="black",tooltip=" "];
  Node1 -> Node2 [color="steelblue1",style="solid"];
  Node2 [label="graph_tool::BlockState\l::remove_vertex",height=0.2,width=0.4,color="grey40", fillcolor="white", style="filled",URL="$classgraph__tool_1_1BlockState.html#a3487657674597197f1d6223f10e2e1eb",tooltip=" "];
}
