digraph "graph_tool::QuadTree::get_branch"
{
 // LATEX_PDF_SIZE
  bgcolor="transparent";
  edge [fontname=Helvetica,fontsize=10,labelfontname=Helvetica,labelfontsize=10];
  node [fontname=Helvetica,fontsize=10,shape=box,height=0.2,width=0.4];
  rankdir="RL";
  Node1 [label="graph_tool::QuadTree\l::get_branch",height=0.2,width=0.4,color="gray40", fillcolor="grey60", style="filled", fontcolor="black",tooltip=" "];
  Node1 -> Node2 [dir="back",color="steelblue1",style="solid"];
  Node2 [label="graph_tool::QuadTree\l::put_pos",height=0.2,width=0.4,color="grey40", fillcolor="white", style="filled",URL="$classgraph__tool_1_1QuadTree.html#ae61b2a9c3329040488d2aa5a4db907e4",tooltip=" "];
  Node2 -> Node3 [dir="back",color="steelblue1",style="solid"];
  Node3 [label="graph_tool::get_sfdp\l_layout",height=0.2,width=0.4,color="grey40", fillcolor="white", style="filled",URL="$namespacegraph__tool.html#a5dd47589d108282023fd0c0b53f6e0c5",tooltip=" "];
  Node3 -> Node4 [dir="back",color="steelblue1",style="solid"];
  Node4 [label="sfdp_layout",height=0.2,width=0.4,color="grey40", fillcolor="white", style="filled",URL="$graph__sfdp_8cc.html#a12709d4a5399118d6fbb3f562167ff9c",tooltip=" "];
  Node4 -> Node5 [dir="back",color="steelblue1",style="solid"];
  Node5 [label="export_sfdp",height=0.2,width=0.4,color="grey40", fillcolor="white", style="filled",URL="$graph__sfdp_8cc.html#a317333a14741be59a250941e26ce839c",tooltip=" "];
  Node5 -> Node6 [dir="back",color="steelblue1",style="solid"];
  Node6 [label="BOOST_PYTHON_MODULE",height=0.2,width=0.4,color="grey40", fillcolor="white", style="filled",URL="$graph__bind__layout_8cc.html#a6cf538bfe4af993e9e942cc261c85467",tooltip=" "];
  Node2 -> Node2 [dir="back",color="steelblue1",style="solid"];
}
