digraph "graph_tool::discrete_state_base&lt; Value &gt;"
{
 // LATEX_PDF_SIZE
  bgcolor="transparent";
  edge [fontname=Helvetica,fontsize=10,labelfontname=Helvetica,labelfontsize=10];
  node [fontname=Helvetica,fontsize=10,shape=box,height=0.2,width=0.4];
  Node1 [shape=record,label="{graph_tool::discrete\l_state_base\< Value \>\n|+ _s\l+ _s_temp\l+ _active\l|+ discrete_state_base()\l+ update_node()\l+ is_absorbing()\l+ has_absorbing()\l+ update_sync()\l}",height=0.2,width=0.4,color="gray40", fillcolor="grey60", style="filled", fontcolor="black",tooltip=" "];
  Node1 -> Node2 [dir="back",color="steelblue1",style="solid",arrowtail="onormal"];
  Node2 [shape=record,label="{graph_tool::SI_state\l\< exposed, weighted,\l constant_beta \>\n|# _beta\l# _epsilon\l# _r\l# _m\l# _m_temp\l# _prob\l|+ SI_state()\l+ expose()\l+ get_p()\l+ infect()\l+ update_node()\l+ update_sync()\l+ is_absorbing()\l+ has_absorbing()\l}",height=0.2,width=0.4,color="gray40", fillcolor="white", style="filled",URL="$classgraph__tool_1_1SI__state.html",tooltip=" "];
  Node2 -> Node3 [dir="back",color="steelblue1",style="solid",arrowtail="onormal"];
  Node3 [shape=record,label="{graph_tool::SIS_state\l\< exposed, true, weighted,\l constant_beta \>\n|+ _m\l+ _m_temp\l# _gamma\l|+ SIS_state()\l+ recover()\l+ update_node()\l+ is_absorbing()\l+ has_absorbing()\l}",height=0.2,width=0.4,color="gray40", fillcolor="white", style="filled",URL="$classgraph__tool_1_1SIS__state.html",tooltip=" "];
  Node3 -> Node4 [dir="back",color="steelblue1",style="solid",arrowtail="onormal"];
  Node4 [shape=record,label="{graph_tool::SIRS_state\l\< exposed, weighted, constant\l_beta \>\n||+ SIRS_state()\l+ update_node()\l+ is_absorbing()\l+ has_absorbing()\l}",height=0.2,width=0.4,color="gray40", fillcolor="white", style="filled",URL="$classgraph__tool_1_1SIRS__state.html",tooltip=" "];
  Node2 -> Node5 [dir="back",color="steelblue1",style="solid",arrowtail="onormal"];
  Node5 [shape=record,label="{graph_tool::SIS_state\l\< exposed, recovered,\l weighted, constant_beta \>\n|+ _m\l+ _m_temp\l# _gamma\l|+ SIS_state()\l+ recover()\l+ update_node()\l+ is_absorbing()\l+ has_absorbing()\l}",height=0.2,width=0.4,color="gray40", fillcolor="white", style="filled",URL="$classgraph__tool_1_1SIS__state.html",tooltip=" "];
  Node1 -> Node6 [dir="back",color="steelblue1",style="solid",arrowtail="onormal"];
  Node6 [shape=record,label="{graph_tool::binary\l_threshold_state\<\>\n||+ binary_threshold_state()\l+ update_node()\l}",height=0.2,width=0.4,color="gray40", fillcolor="white", style="filled",URL="$classgraph__tool_1_1binary__threshold__state.html",tooltip=" "];
  Node1 -> Node7 [dir="back",color="steelblue1",style="solid",arrowtail="onormal"];
  Node7 [shape=record,label="{graph_tool::ising_glauber\l_state\<\>\n||+ ising_glauber_state()\l+ update_node()\l}",height=0.2,width=0.4,color="gray40", fillcolor="white", style="filled",URL="$classgraph__tool_1_1ising__glauber__state.html",tooltip=" "];
  Node1 -> Node8 [dir="back",color="steelblue1",style="solid",arrowtail="onormal"];
  Node8 [shape=record,label="{graph_tool::ising_metropolis\l_state\<\>\n||+ ising_metropolis_state()\l+ update_node()\l}",height=0.2,width=0.4,color="gray40", fillcolor="white", style="filled",URL="$classgraph__tool_1_1ising__metropolis__state.html",tooltip=" "];
  Node1 -> Node9 [dir="back",color="steelblue1",style="solid",arrowtail="onormal"];
  Node9 [shape=record,label="{graph_tool::kirman\l_state\<\>\n||+ kirman_state()\l+ update_node()\l}",height=0.2,width=0.4,color="gray40", fillcolor="white", style="filled",URL="$classgraph__tool_1_1kirman__state.html",tooltip=" "];
  Node1 -> Node10 [dir="back",color="steelblue1",style="solid",arrowtail="onormal"];
  Node10 [shape=record,label="{graph_tool::majority\l_voter_state\<\>\n||+ majority_voter_state()\l+ update_node()\l}",height=0.2,width=0.4,color="gray40", fillcolor="white", style="filled",URL="$classgraph__tool_1_1majority__voter__state.html",tooltip=" "];
  Node1 -> Node11 [dir="back",color="steelblue1",style="solid",arrowtail="onormal"];
  Node11 [shape=record,label="{graph_tool::potts_glauber\l_state\<\>\n||+ potts_glauber_state()\l+ update_node()\l}",height=0.2,width=0.4,color="gray40", fillcolor="white", style="filled",URL="$classgraph__tool_1_1potts__glauber__state.html",tooltip=" "];
  Node1 -> Node12 [dir="back",color="steelblue1",style="solid",arrowtail="onormal"];
  Node12 [shape=record,label="{graph_tool::potts_metropolis\l_state\<\>\n||+ potts_metropolis_state()\l+ update_node()\l}",height=0.2,width=0.4,color="gray40", fillcolor="white", style="filled",URL="$classgraph__tool_1_1potts__metropolis__state.html",tooltip=" "];
  Node1 -> Node13 [dir="back",color="steelblue1",style="solid",arrowtail="onormal"];
  Node13 [shape=record,label="{graph_tool::voter_state\<\>\n||+ voter_state()\l+ update_node()\l}",height=0.2,width=0.4,color="gray40", fillcolor="white", style="filled",URL="$classgraph__tool_1_1voter__state.html",tooltip=" "];
}
