digraph "graph_tool::MCMC&lt; State &gt;::MCMCLatentLayersState&lt; Ts &gt;"
{
 // LATEX_PDF_SIZE
  bgcolor="transparent";
  edge [fontname=Helvetica,fontsize=10,labelfontname=Helvetica,labelfontsize=10];
  node [fontname=Helvetica,fontsize=10,shape=box,height=0.2,width=0.4];
  Node1 [shape=record,label="{graph_tool::MCMC\< State\l \>::MCMCLatentLayersState\< Ts \>\n|+ _block_state\l+ _measured\l+ _edges\l+ _e\l+ _edge_sampler\l+ _vlist\l+ _null_move\l|+ GET_PARAMS_USING()\l+ get_edge()\l+ node_state()\l+ total_node_state()\l+ node_state()\l+ skip_node()\l+ move_proposal()\l+ virtual_move_dS()\l+ perform_move()\l+ is_deterministic()\l+ is_sequential()\l+ get_vlist()\l+ get_beta()\l+ get_niter()\l+ step()\l}",height=0.2,width=0.4,color="gray40", fillcolor="grey60", style="filled", fontcolor="black",tooltip=" "];
  Node2 -> Node1 [dir="back",color="steelblue1",style="solid",arrowtail="onormal"];
  Node2 [shape=record,label="{MCMCLatentLayersBase\l\< Ts... \>\n||}",height=0.2,width=0.4,color="gray40", fillcolor="white", style="filled",tooltip=" "];
}
