digraph "openmp_scoped_lock::unlock"
{
 // LATEX_PDF_SIZE
  bgcolor="transparent";
  edge [fontname=Helvetica,fontsize=10,labelfontname=Helvetica,labelfontsize=10];
  node [fontname=Helvetica,fontsize=10,shape=box,height=0.2,width=0.4];
  rankdir="RL";
  Node1 [label="openmp_scoped_lock\l::unlock",height=0.2,width=0.4,color="gray40", fillcolor="grey60", style="filled", fontcolor="black",tooltip=" "];
  Node1 -> Node2 [dir="back",color="steelblue1",style="solid"];
  Node2 [label="openmp_scoped_lock\l::~openmp_scoped_lock",height=0.2,width=0.4,color="grey40", fillcolor="white", style="filled",URL="$classopenmp__scoped__lock.html#a3b498f2f04a5146ddf5bd3cba47444e1",tooltip=" "];
}
