digraph "parallel_rng::init"
{
 // LATEX_PDF_SIZE
  bgcolor="transparent";
  edge [fontname=Helvetica,fontsize=10,labelfontname=Helvetica,labelfontsize=10];
  node [fontname=Helvetica,fontsize=10,shape=box,height=0.2,width=0.4];
  rankdir="RL";
  Node1 [label="parallel_rng::init",height=0.2,width=0.4,color="gray40", fillcolor="grey60", style="filled", fontcolor="black",tooltip=" "];
  Node1 -> Node2 [dir="back",color="steelblue1",style="solid"];
  Node2 [label="graph_tool::discrete\l_iter_sync",height=0.2,width=0.4,color="grey40", fillcolor="white", style="filled",URL="$namespacegraph__tool.html#a2d75a54cff83e5f8e888b4e4d1e54cde",tooltip=" "];
  Node2 -> Node3 [dir="back",color="steelblue1",style="solid"];
  Node3 [label="WrappedState::iterate_sync",height=0.2,width=0.4,color="grey40", fillcolor="white", style="filled",URL="$classWrappedState.html#a0860ac7696071b36472a543597e5544e",tooltip=" "];
  Node1 -> Node4 [dir="back",color="steelblue1",style="solid"];
  Node4 [label="do_gibbs_sweep_parallel",height=0.2,width=0.4,color="grey40", fillcolor="white", style="filled",URL="$graph__blockmodel__gibbs_8cc.html#af3db6d27c13ed2e3fe7b5d5c598d961a",tooltip=" "];
  Node4 -> Node5 [dir="back",color="steelblue1",style="solid"];
  Node5 [label="export_blockmodel_gibbs",height=0.2,width=0.4,color="grey40", fillcolor="white", style="filled",URL="$graph__blockmodel__gibbs_8cc.html#a333fec8a628e2e6e82d0f7226f75abd4",tooltip=" "];
  Node5 -> Node6 [dir="back",color="steelblue1",style="solid"];
  Node6 [label="BOOST_PYTHON_MODULE",height=0.2,width=0.4,color="grey40", fillcolor="white", style="filled",URL="$graph__inference_8cc.html#aa52d8fe13d2a62317b6e603933a10b92",tooltip=" "];
  Node1 -> Node7 [dir="back",color="steelblue1",style="solid"];
  Node7 [label="do_mcmc_sweep_parallel",height=0.2,width=0.4,color="grey40", fillcolor="white", style="filled",URL="$graph__blockmodel__mcmc_8cc.html#a6068aeaf32f5d8dc7dd199a06c9a5678",tooltip=" "];
  Node7 -> Node8 [dir="back",color="steelblue1",style="solid"];
  Node8 [label="export_blockmodel_mcmc",height=0.2,width=0.4,color="grey40", fillcolor="white", style="filled",URL="$graph__blockmodel__mcmc_8cc.html#a65be6a85587d7b34c877263d13991571",tooltip=" "];
  Node8 -> Node6 [dir="back",color="steelblue1",style="solid"];
  Node1 -> Node9 [dir="back",color="steelblue1",style="solid"];
  Node9 [label="do_multiflip_mcmc_sweep\l_parallel",height=0.2,width=0.4,color="grey40", fillcolor="white", style="filled",URL="$graph__blockmodel__multiflip__mcmc_8cc.html#a437de341e835f1c3aeb043603471010b",tooltip=" "];
  Node9 -> Node10 [dir="back",color="steelblue1",style="solid"];
  Node10 [label="export_blockmodel_multiflip_mcmc",height=0.2,width=0.4,color="grey40", fillcolor="white", style="filled",URL="$graph__blockmodel__multiflip__mcmc_8cc.html#a10b67fabc5e9e4ec90eae48771bdb2c3",tooltip=" "];
  Node10 -> Node6 [dir="back",color="steelblue1",style="solid"];
  Node1 -> Node11 [dir="back",color="steelblue1",style="solid"];
  Node11 [label="do_multilevel_mcmc\l_sweep_parallel",height=0.2,width=0.4,color="grey40", fillcolor="white", style="filled",URL="$graph__blockmodel__multilevel__mcmc_8cc.html#ae9cf27a75f73dcdff521a1bbb04e1748",tooltip=" "];
  Node11 -> Node12 [dir="back",color="steelblue1",style="solid"];
  Node12 [label="export_blockmodel_multilevel_mcmc",height=0.2,width=0.4,color="grey40", fillcolor="white", style="filled",URL="$graph__blockmodel__multilevel__mcmc_8cc.html#a955d9031c83119b498e27e308f0a51ef",tooltip=" "];
  Node12 -> Node6 [dir="back",color="steelblue1",style="solid"];
  Node1 -> Node13 [dir="back",color="steelblue1",style="solid"];
  Node13 [label="graph_tool::gen_knn",height=0.2,width=0.4,color="grey40", fillcolor="white", style="filled",URL="$namespacegraph__tool.html#aedecff9ccc775204c28a9c0594253fba",tooltip=" "];
  Node1 -> Node14 [dir="back",color="steelblue1",style="solid"];
  Node14 [label="graph_tool::get_diff_sync",height=0.2,width=0.4,color="grey40", fillcolor="white", style="filled",URL="$namespacegraph__tool.html#ac3f907a9b454217b3ec23f46c762244e",tooltip=" "];
  Node14 -> Node15 [dir="back",color="steelblue1",style="solid"];
  Node15 [label="WrappedCState::get\l_diff_sync",height=0.2,width=0.4,color="grey40", fillcolor="white", style="filled",URL="$classWrappedCState.html#a6045ee94a807814e8cc370859939bdfa",tooltip=" "];
  Node1 -> Node16 [dir="back",color="steelblue1",style="solid"];
  Node16 [label="gibbs_layered_overlap\l_sweep_parallel",height=0.2,width=0.4,color="grey40", fillcolor="white", style="filled",URL="$graph__blockmodel__layers__overlap__gibbs_8cc.html#a886ebbc1724f3c3b08a65f9c0e669a38",tooltip=" "];
  Node16 -> Node17 [dir="back",color="steelblue1",style="solid"];
  Node17 [label="export_layered_overlap\l_blockmodel_gibbs",height=0.2,width=0.4,color="grey40", fillcolor="white", style="filled",URL="$graph__blockmodel__layers__overlap__gibbs_8cc.html#aac135de7ad77c911e2ce889da240ec08",tooltip=" "];
  Node17 -> Node6 [dir="back",color="steelblue1",style="solid"];
  Node1 -> Node18 [dir="back",color="steelblue1",style="solid"];
  Node18 [label="gibbs_layered_sweep\l_parallel",height=0.2,width=0.4,color="grey40", fillcolor="white", style="filled",URL="$graph__blockmodel__layers__gibbs_8cc.html#a22d7512108c4fcb1f5903a8e72d6b1ac",tooltip=" "];
  Node18 -> Node19 [dir="back",color="steelblue1",style="solid"];
  Node19 [label="export_layered_blockmodel\l_gibbs",height=0.2,width=0.4,color="grey40", fillcolor="white", style="filled",URL="$graph__blockmodel__layers__gibbs_8cc.html#afa2107b97ce42e62c14152177a5b05fe",tooltip=" "];
  Node19 -> Node6 [dir="back",color="steelblue1",style="solid"];
  Node1 -> Node20 [dir="back",color="steelblue1",style="solid"];
  Node20 [label="gibbs_overlap_sweep\l_parallel",height=0.2,width=0.4,color="grey40", fillcolor="white", style="filled",URL="$graph__blockmodel__overlap__gibbs_8cc.html#a095fb3db5bbbd04d61fc860509156661",tooltip=" "];
  Node20 -> Node21 [dir="back",color="steelblue1",style="solid"];
  Node21 [label="export_overlap_blockmodel\l_gibbs",height=0.2,width=0.4,color="grey40", fillcolor="white", style="filled",URL="$graph__blockmodel__overlap__gibbs_8cc.html#a3a43075418526f0570e174df6845db48",tooltip=" "];
  Node21 -> Node6 [dir="back",color="steelblue1",style="solid"];
  Node1 -> Node22 [dir="back",color="steelblue1",style="solid"];
  Node22 [label="marginal_graph_sample",height=0.2,width=0.4,color="grey40", fillcolor="white", style="filled",URL="$graph__blockmodel__uncertain__marginal_8cc.html#a31e057eba3aac1825aa23b7bd3f4cb7f",tooltip=" "];
  Node22 -> Node23 [dir="back",color="steelblue1",style="solid"];
  Node23 [label="export_uncertain_state",height=0.2,width=0.4,color="grey40", fillcolor="white", style="filled",URL="$graph__blockmodel__uncertain_8cc.html#acfa6c36830a0a904dcbf017f82a07c40",tooltip=" "];
  Node23 -> Node6 [dir="back",color="steelblue1",style="solid"];
  Node1 -> Node24 [dir="back",color="steelblue1",style="solid"];
  Node24 [label="marginal_multigraph\l_sample",height=0.2,width=0.4,color="grey40", fillcolor="white", style="filled",URL="$graph__blockmodel__uncertain__marginal_8cc.html#a58be5f88881fd68217a1582b4438495c",tooltip=" "];
  Node24 -> Node23 [dir="back",color="steelblue1",style="solid"];
  Node1 -> Node25 [dir="back",color="steelblue1",style="solid"];
  Node25 [label="mcmc_layered_overlap\l_sweep_parallel",height=0.2,width=0.4,color="grey40", fillcolor="white", style="filled",URL="$graph__blockmodel__layers__overlap__mcmc_8cc.html#a485bd749b1d992137546d1bf6ea47fc0",tooltip=" "];
  Node25 -> Node26 [dir="back",color="steelblue1",style="solid"];
  Node26 [label="export_layered_overlap\l_blockmodel_mcmc",height=0.2,width=0.4,color="grey40", fillcolor="white", style="filled",URL="$graph__blockmodel__layers__overlap__mcmc_8cc.html#aaa7517c6d7d5f4c44ae0c2bd83a2e4b1",tooltip=" "];
  Node26 -> Node6 [dir="back",color="steelblue1",style="solid"];
  Node1 -> Node27 [dir="back",color="steelblue1",style="solid"];
  Node27 [label="mcmc_layered_sweep\l_parallel",height=0.2,width=0.4,color="grey40", fillcolor="white", style="filled",URL="$graph__blockmodel__layers__mcmc_8cc.html#a1cb8a42111d43590683a0cf67bd17d45",tooltip=" "];
  Node27 -> Node28 [dir="back",color="steelblue1",style="solid"];
  Node28 [label="export_layered_blockmodel_mcmc",height=0.2,width=0.4,color="grey40", fillcolor="white", style="filled",URL="$graph__blockmodel__layers__mcmc_8cc.html#a8d705280cb62e4047843d7a6931bb0b8",tooltip=" "];
  Node28 -> Node6 [dir="back",color="steelblue1",style="solid"];
  Node1 -> Node29 [dir="back",color="steelblue1",style="solid"];
  Node29 [label="multiflip_mcmc_layered\l_overlap_sweep_parallel",height=0.2,width=0.4,color="grey40", fillcolor="white", style="filled",URL="$graph__blockmodel__layers__overlap__multiflip__mcmc_8cc.html#ab90ee342c94e13810212f68434f8d8f4",tooltip=" "];
  Node29 -> Node30 [dir="back",color="steelblue1",style="solid"];
  Node30 [label="export_layered_overlap\l_blockmodel_multiflip_mcmc",height=0.2,width=0.4,color="grey40", fillcolor="white", style="filled",URL="$graph__blockmodel__layers__overlap__multiflip__mcmc_8cc.html#a917fbbb9dc2d4572e683f58aadd799d5",tooltip=" "];
  Node30 -> Node6 [dir="back",color="steelblue1",style="solid"];
  Node1 -> Node31 [dir="back",color="steelblue1",style="solid"];
  Node31 [label="multiflip_mcmc_layered\l_sweep_parallel",height=0.2,width=0.4,color="grey40", fillcolor="white", style="filled",URL="$graph__blockmodel__layers__multiflip__mcmc_8cc.html#a5bebb5a93b77d1862afa81e18e6077d8",tooltip=" "];
  Node31 -> Node32 [dir="back",color="steelblue1",style="solid"];
  Node32 [label="export_layered_blockmodel\l_multiflip_mcmc",height=0.2,width=0.4,color="grey40", fillcolor="white", style="filled",URL="$graph__blockmodel__layers__multiflip__mcmc_8cc.html#a2a98cb6f005eb5b05419573f685eaf8a",tooltip=" "];
  Node32 -> Node6 [dir="back",color="steelblue1",style="solid"];
  Node1 -> Node33 [dir="back",color="steelblue1",style="solid"];
  Node33 [label="multilevel_mcmc_layered\l_overlap_sweep_parallel",height=0.2,width=0.4,color="grey40", fillcolor="white", style="filled",URL="$graph__blockmodel__layers__overlap__multilevel__mcmc_8cc.html#a9a9642a52d7f45472616ca9cdddfdedc",tooltip=" "];
  Node33 -> Node34 [dir="back",color="steelblue1",style="solid"];
  Node34 [label="export_layered_overlap\l_blockmodel_multilevel_mcmc",height=0.2,width=0.4,color="grey40", fillcolor="white", style="filled",URL="$graph__blockmodel__layers__overlap__multilevel__mcmc_8cc.html#ae1d8d761c87aed27df7cb58a9c448196",tooltip=" "];
  Node34 -> Node6 [dir="back",color="steelblue1",style="solid"];
  Node1 -> Node35 [dir="back",color="steelblue1",style="solid"];
  Node35 [label="multilevel_mcmc_layered\l_sweep_parallel",height=0.2,width=0.4,color="grey40", fillcolor="white", style="filled",URL="$graph__blockmodel__layers__multilevel__mcmc_8cc.html#a1a8ddef38fa01b2ab6367add8386a3e6",tooltip=" "];
  Node35 -> Node36 [dir="back",color="steelblue1",style="solid"];
  Node36 [label="export_layered_blockmodel\l_multilevel_mcmc",height=0.2,width=0.4,color="grey40", fillcolor="white", style="filled",URL="$graph__blockmodel__layers__multilevel__mcmc_8cc.html#a8242c639ed6afee813567a034f7b4e1a",tooltip=" "];
  Node36 -> Node6 [dir="back",color="steelblue1",style="solid"];
  Node1 -> Node37 [dir="back",color="steelblue1",style="solid"];
  Node37 [label="overlap_mcmc_sweep\l_parallel",height=0.2,width=0.4,color="grey40", fillcolor="white", style="filled",URL="$graph__blockmodel__overlap__mcmc_8cc.html#a402d3ae69236f7a0d2f085e8217fbd0d",tooltip=" "];
  Node37 -> Node38 [dir="back",color="steelblue1",style="solid"];
  Node38 [label="export_overlap_blockmodel_mcmc",height=0.2,width=0.4,color="grey40", fillcolor="white", style="filled",URL="$graph__blockmodel__overlap__mcmc_8cc.html#a44ae3ea9e281b9779e5b947fe92ce968",tooltip=" "];
  Node38 -> Node6 [dir="back",color="steelblue1",style="solid"];
  Node1 -> Node39 [dir="back",color="steelblue1",style="solid"];
  Node39 [label="overlap_multiflip_mcmc\l_sweep_parallel",height=0.2,width=0.4,color="grey40", fillcolor="white", style="filled",URL="$graph__blockmodel__overlap__multiflip__mcmc_8cc.html#ad3939adfddfa725621f1d7b87d6cb36e",tooltip=" "];
  Node39 -> Node40 [dir="back",color="steelblue1",style="solid"];
  Node40 [label="export_overlap_blockmodel\l_multiflip_mcmc",height=0.2,width=0.4,color="grey40", fillcolor="white", style="filled",URL="$graph__blockmodel__overlap__multiflip__mcmc_8cc.html#a89dda131640a998cb0ed1321dd526956",tooltip=" "];
  Node40 -> Node6 [dir="back",color="steelblue1",style="solid"];
  Node1 -> Node41 [dir="back",color="steelblue1",style="solid"];
  Node41 [label="overlap_multilevel\l_mcmc_sweep_parallel",height=0.2,width=0.4,color="grey40", fillcolor="white", style="filled",URL="$graph__blockmodel__overlap__multilevel__mcmc_8cc.html#a0bba759f7b063035423cf2915c694c52",tooltip=" "];
  Node41 -> Node42 [dir="back",color="steelblue1",style="solid"];
  Node42 [label="export_overlap_blockmodel\l_multilevel_mcmc",height=0.2,width=0.4,color="grey40", fillcolor="white", style="filled",URL="$graph__blockmodel__overlap__multilevel__mcmc_8cc.html#a2a7227af82685d6a31744702d534c7aa",tooltip=" "];
  Node42 -> Node6 [dir="back",color="steelblue1",style="solid"];
}
