digraph "graph_tool::DynamicSampler::get_left"
{
 // LATEX_PDF_SIZE
  bgcolor="transparent";
  edge [fontname=Helvetica,fontsize=10,labelfontname=Helvetica,labelfontsize=10];
  node [fontname=Helvetica,fontsize=10,shape=box,height=0.2,width=0.4];
  rankdir="RL";
  Node1 [label="graph_tool::DynamicSampler\l::get_left",height=0.2,width=0.4,color="gray40", fillcolor="grey60", style="filled", fontcolor="black",tooltip=" "];
  Node1 -> Node2 [dir="back",color="steelblue1",style="solid"];
  Node2 [label="graph_tool::DynamicSampler\l::insert",height=0.2,width=0.4,color="grey40", fillcolor="white", style="filled",URL="$classgraph__tool_1_1DynamicSampler.html#a70b5a918f177097163e1aa7886684c68",tooltip=" "];
  Node2 -> Node3 [dir="back",color="steelblue1",style="solid"];
  Node3 [label="graph_tool::DynamicSampler\l::DynamicSampler",height=0.2,width=0.4,color="grey40", fillcolor="white", style="filled",URL="$classgraph__tool_1_1DynamicSampler.html#a6ed1df7bbaa359db15ce3d42257a50ad",tooltip=" "];
  Node2 -> Node4 [dir="back",color="steelblue1",style="solid"];
  Node4 [label="graph_tool::get_price\l::operator()",height=0.2,width=0.4,color="grey40", fillcolor="white", style="filled",URL="$structgraph__tool_1_1get__price.html#a1093b495861da3741be957a002e121f7",tooltip=" "];
  Node2 -> Node5 [dir="back",color="steelblue1",style="solid"];
  Node5 [label="graph_tool::DynamicSampler\l::rebuild",height=0.2,width=0.4,color="grey40", fillcolor="white", style="filled",URL="$classgraph__tool_1_1DynamicSampler.html#a501a9ff355f3dd615cd3cec1120e67cb",tooltip=" "];
  Node2 -> Node6 [dir="back",color="steelblue1",style="solid"];
  Node6 [label="graph_tool::SBMEdgeSampler\l::SBMEdgeSampler",height=0.2,width=0.4,color="grey40", fillcolor="white", style="filled",URL="$classgraph__tool_1_1SBMEdgeSampler.html#ac69af3d31cfe7245b3f7d86832305d1e",tooltip=" "];
  Node2 -> Node7 [dir="back",color="steelblue1",style="solid"];
  Node7 [label="graph_tool::SBMEdgeSampler\l::update_edge",height=0.2,width=0.4,color="grey40", fillcolor="white", style="filled",URL="$classgraph__tool_1_1SBMEdgeSampler.html#ab218bbd4bcb8af9381f33382811f0cd0",tooltip=" "];
  Node7 -> Node8 [dir="back",color="steelblue1",style="solid"];
  Node8 [label="graph_tool::MCMC::MCMCLatent\lLayersState::perform_move",height=0.2,width=0.4,color="grey40", fillcolor="white", style="filled",URL="$classgraph__tool_1_1MCMC_1_1MCMCLatentLayersState.html#a5cdade635f348124be3de20cfaf9cbd3",tooltip=" "];
  Node7 -> Node9 [dir="back",color="steelblue1",style="solid"];
  Node9 [label="graph_tool::MCMC::MCMCUncertain\lState::perform_move",height=0.2,width=0.4,color="grey40", fillcolor="white", style="filled",URL="$classgraph__tool_1_1MCMC_1_1MCMCUncertainState.html#a2e14451a695a7a5fbc6c09cfa330471a",tooltip=" "];
  Node7 -> Node10 [dir="back",color="steelblue1",style="solid"];
  Node10 [label="graph_tool::MCMC::MCMCDynamics\lState::perform_move",height=0.2,width=0.4,color="grey40", fillcolor="white", style="filled",URL="$classgraph__tool_1_1MCMC_1_1MCMCDynamicsState.html#a6eaae334bd95464f6e11cf4bd9d68efe",tooltip=" "];
  Node1 -> Node11 [dir="back",color="steelblue1",style="solid"];
  Node11 [label="graph_tool::DynamicSampler\l::sample_idx",height=0.2,width=0.4,color="grey40", fillcolor="white", style="filled",URL="$classgraph__tool_1_1DynamicSampler.html#ab41000a810f0ac161457086588927446",tooltip=" "];
  Node11 -> Node12 [dir="back",color="steelblue1",style="solid"];
  Node12 [label="graph_tool::DynamicSampler\l::sample",height=0.2,width=0.4,color="grey40", fillcolor="white", style="filled",URL="$classgraph__tool_1_1DynamicSampler.html#a2689e01b5afa0849c416051139e5d210",tooltip=" "];
  Node12 -> Node4 [dir="back",color="steelblue1",style="solid"];
  Node12 -> Node13 [dir="back",color="steelblue1",style="solid"];
  Node13 [label="graph_tool::SBMEdgeSampler\l::sample",height=0.2,width=0.4,color="grey40", fillcolor="white", style="filled",URL="$classgraph__tool_1_1SBMEdgeSampler.html#adf71d9cbf23169a8b4fe63de012209b4",tooltip=" "];
  Node13 -> Node14 [dir="back",color="steelblue1",style="solid"];
  Node14 [label="graph_tool::MCMC::MCMCDynamics\lState::move_proposal",height=0.2,width=0.4,color="grey40", fillcolor="white", style="filled",URL="$classgraph__tool_1_1MCMC_1_1MCMCDynamicsState.html#a589c7f40dd2d31edc3912c9ba498c962",tooltip=" "];
  Node13 -> Node15 [dir="back",color="steelblue1",style="solid"];
  Node15 [label="graph_tool::MCMC::MCMCLatent\lLayersState::move_proposal",height=0.2,width=0.4,color="grey40", fillcolor="white", style="filled",URL="$classgraph__tool_1_1MCMC_1_1MCMCLatentLayersState.html#aedbb8efa84415ce24bf0b803e862cb36",tooltip=" "];
  Node13 -> Node16 [dir="back",color="steelblue1",style="solid"];
  Node16 [label="graph_tool::MCMC::MCMCUncertain\lState::move_proposal",height=0.2,width=0.4,color="grey40", fillcolor="white", style="filled",URL="$classgraph__tool_1_1MCMC_1_1MCMCUncertainState.html#ade3018c83741087fd3de08ea0572b919",tooltip=" "];
  Node12 -> Node11 [dir="back",color="steelblue1",style="solid"];
}
