digraph "graph_tool::OState&lt; BState &gt;::RankedState&lt; Ts &gt;"
{
 // LATEX_PDF_SIZE
  bgcolor="transparent";
  edge [fontname=Helvetica,fontsize=10,labelfontname=Helvetica,labelfontsize=10];
  node [fontname=Helvetica,fontsize=10,shape=box,height=0.2,width=0.4];
  Node1 [shape=record,label="{graph_tool::OState\l\< BState \>::RankedState\< Ts \>\n|+ _ustate\l+ _g\l+ _b\l+ _eweight\l+ _E\l+ _u_c\l|+ RankedState()\l+ stream_dir()\l+ add_block()\l+ virtual_move()\l+ move_vertex()\l+ get_empty_block()\l+ sample_u()\l+ sample_block()\l+ sample_block_local()\l+ get_move_prob()\land 14 more...\l}",height=0.2,width=0.4,color="gray40", fillcolor="grey60", style="filled", fontcolor="black",tooltip=" "];
  Node2 -> Node1 [dir="back",color="steelblue1",style="solid",arrowtail="onormal"];
  Node2 [shape=record,label="{RankedStateBase\< Ts... \>\n||}",height=0.2,width=0.4,color="gray40", fillcolor="white", style="filled",tooltip=" "];
  Node3 -> Node1 [color="grey25",style="solid",label=" +_delta" ,arrowhead="odiamond"];
  Node3 [shape=record,label="{gt_hash_map\< size_t,\l int \>\n||+ gt_hash_map()\l+ gt_hash_map()\l+ gt_hash_map()\l+ gt_hash_map()\l+ resize()\l}",height=0.2,width=0.4,color="gray40", fillcolor="white", style="filled",URL="$classgt__hash__map.html",tooltip=" "];
  Node4 -> Node3 [dir="back",color="steelblue1",style="solid",arrowtail="onormal"];
  Node4 [shape=record,label="{std::unordered_map\l\< size_t , int , std\l::hash\<size_t \> , std\l::equal_to\<size_t \> ,\l std::allocator\<std::pair\l\<const size_t , int \>\>  \>\n||}",height=0.2,width=0.4,color="gray40", fillcolor="white", style="filled",tooltip=" "];
}
