digraph "graph_tool::BlockState::modify_edge"
{
 // LATEX_PDF_SIZE
  bgcolor="transparent";
  edge [fontname=Helvetica,fontsize=10,labelfontname=Helvetica,labelfontsize=10];
  node [fontname=Helvetica,fontsize=10,shape=box,height=0.2,width=0.4];
  rankdir="LR";
  Node1 [label="graph_tool::BlockState\l::modify_edge",height=0.2,width=0.4,color="gray40", fillcolor="grey60", style="filled", fontcolor="black",tooltip=" "];
  Node1 -> Node2 [color="steelblue1",style="solid"];
  Node2 [label="graph_tool::BlockStateVirtual\lBase::add_edge",height=0.2,width=0.4,color="grey40", fillcolor="white", style="filled",URL="$classgraph__tool_1_1BlockStateVirtualBase.html#a90f3aa193c09571e1f6ab51bbc6361b2",tooltip=" "];
  Node1 -> Node3 [color="steelblue1",style="solid"];
  Node3 [label="boost::add_edge",height=0.2,width=0.4,color="grey40", fillcolor="white", style="filled",URL="$namespaceboost.html#a2ca660300636fcb45d338069833665ae",tooltip=" "];
  Node3 -> Node3 [color="steelblue1",style="solid"];
  Node3 -> Node4 [color="steelblue1",style="solid"];
  Node4 [label="boost::undirected_adaptor\l::original_graph",height=0.2,width=0.4,color="grey40", fillcolor="white", style="filled",URL="$classboost_1_1undirected__adaptor.html#a11e557bb4f3d7c15354f98390f1d3644",tooltip=" "];
  Node1 -> Node5 [color="steelblue1",style="solid"];
  Node5 [label="graph_tool::partition\l_stats::add_vertex",height=0.2,width=0.4,color="grey40", fillcolor="white", style="filled",URL="$classgraph__tool_1_1partition__stats.html#a848812b9c3ea55a00b3955ce0420bf8e",tooltip=" "];
  Node5 -> Node6 [color="steelblue1",style="solid"];
  Node6 [label="graph_tool::partition\l_stats::change_vertex",height=0.2,width=0.4,color="grey40", fillcolor="white", style="filled",URL="$classgraph__tool_1_1partition__stats.html#ac357fa5fcff273692faa17c480f07279",tooltip=" "];
  Node5 -> Node7 [color="steelblue1",style="solid"];
  Node7 [label="graph_tool::partition\l_stats::change_vertex_degs",height=0.2,width=0.4,color="grey40", fillcolor="white", style="filled",URL="$classgraph__tool_1_1partition__stats.html#aaae8474415c66e614178ac8a8cf5fd25",tooltip=" "];
  Node7 -> Node8 [color="steelblue1",style="solid"];
  Node8 [label="graph_tool::get_deg",height=0.2,width=0.4,color="grey40", fillcolor="white", style="filled",URL="$namespacegraph__tool.html#a2c092e7392dd5baf377a0a7c5d845cb3",tooltip=" "];
  Node8 -> Node9 [color="steelblue1",style="solid"];
  Node9 [label="boost::out_degree",height=0.2,width=0.4,color="grey40", fillcolor="white", style="filled",URL="$namespaceboost.html#ac2aab26c4c5fb471f6eef10ae4496089",tooltip=" "];
  Node9 -> Node10 [color="steelblue1",style="solid"];
  Node10 [label="boost::degree",height=0.2,width=0.4,color="grey40", fillcolor="white", style="filled",URL="$namespaceboost.html#ac08426adc887cd2f50850eb97baaae7d",tooltip=" "];
  Node10 -> Node9 [color="steelblue1",style="solid"];
  Node9 -> Node4 [color="steelblue1",style="solid"];
  Node8 -> Node11 [color="steelblue1",style="solid"];
  Node11 [label="boost::vertex",height=0.2,width=0.4,color="grey40", fillcolor="white", style="filled",URL="$namespaceboost.html#acf010cb431c640031d53bfe55c84ef46",tooltip=" "];
  Node11 -> Node4 [color="steelblue1",style="solid"];
  Node11 -> Node11 [color="steelblue1",style="solid"];
  Node5 -> Node12 [color="steelblue1",style="solid"];
  Node12 [label="graph_tool::partition\l_stats::get_r",height=0.2,width=0.4,color="grey40", fillcolor="white", style="filled",URL="$classgraph__tool_1_1partition__stats.html#a6aa0b2efe2267ce7aceea05786db07ae",tooltip=" "];
  Node1 -> Node13 [color="steelblue1",style="solid"];
  Node13 [label="graph_tool::partition\l_stats::change_E",height=0.2,width=0.4,color="grey40", fillcolor="white", style="filled",URL="$classgraph__tool_1_1partition__stats.html#a552661477c0348e312603d6a4bc6955f",tooltip=" "];
  Node1 -> Node14 [color="steelblue1",style="solid"];
  Node14 [label="graph_tool::EGroups\l::clear",height=0.2,width=0.4,color="grey40", fillcolor="white", style="filled",URL="$classgraph__tool_1_1EGroups.html#a0a90abd0ae978a434de159ff2fd8c33a",tooltip=" "];
  Node1 -> Node15 [color="steelblue1",style="solid"];
  Node15 [label="graph_tool::EGroups\l::empty",height=0.2,width=0.4,color="grey40", fillcolor="white", style="filled",URL="$classgraph__tool_1_1EGroups.html#acd87dfc948d982abf2eafcb1a8fbbaea",tooltip=" "];
  Node1 -> Node16 [color="steelblue1",style="solid"];
  Node16 [label="graph_tool::BlockState\l::get_partition_stats",height=0.2,width=0.4,color="grey40", fillcolor="white", style="filled",URL="$classgraph__tool_1_1BlockState.html#aa8b66daefbbca4b7c6ccaa5f1da157b1",tooltip=" "];
  Node16 -> Node17 [color="steelblue1",style="solid"];
  Node17 [label="graph_tool::BlockState\l::init_partition_stats",height=0.2,width=0.4,color="grey40", fillcolor="white", style="filled",URL="$classgraph__tool_1_1BlockState.html#a3967ed1fee83a8a7993a41b3667f1241",tooltip=" "];
  Node17 -> Node18 [color="steelblue1",style="solid"];
  Node18 [label="boost::num_vertices",height=0.2,width=0.4,color="grey40", fillcolor="white", style="filled",URL="$namespaceboost.html#ac848f876a7fa2caa8fb1879b7c522ebc",tooltip=" "];
  Node18 -> Node18 [color="steelblue1",style="solid"];
  Node18 -> Node4 [color="steelblue1",style="solid"];
  Node17 -> Node19 [color="steelblue1",style="solid"];
  Node19 [label="graph_tool::BlockState\l::reset_partition_stats",height=0.2,width=0.4,color="grey40", fillcolor="white", style="filled",URL="$classgraph__tool_1_1BlockState.html#af2d30e205b3a1cf6324bc216a357ab17",tooltip=" "];
  Node17 -> Node20 [color="steelblue1",style="solid"];
  Node20 [label="boost::vertices",height=0.2,width=0.4,color="grey40", fillcolor="white", style="filled",URL="$namespaceboost.html#a0bc22071c353fa26cd0d16cc817ddde2",tooltip=" "];
  Node20 -> Node4 [color="steelblue1",style="solid"];
  Node20 -> Node20 [color="steelblue1",style="solid"];
  Node17 -> Node21 [color="steelblue1",style="solid"];
  Node21 [label="graph_tool::vertices\l_range",height=0.2,width=0.4,color="grey40", fillcolor="white", style="filled",URL="$namespacegraph__tool.html#a92ab479b81d8c9a030d42854fefabf1a",tooltip=" "];
  Node21 -> Node22 [color="steelblue1",style="solid"];
  Node22 [label="graph_tool::mk_range",height=0.2,width=0.4,color="grey40", fillcolor="white", style="filled",URL="$namespacegraph__tool.html#a6ecc1e46efb4f620acabfe5728f7a2a6",tooltip=" "];
  Node21 -> Node20 [color="steelblue1",style="solid"];
  Node1 -> Node23 [color="steelblue1",style="solid"];
  Node23 [label="graph_tool::BlockStateVirtual\lBase::remove_edge",height=0.2,width=0.4,color="grey40", fillcolor="white", style="filled",URL="$classgraph__tool_1_1BlockStateVirtualBase.html#ac7e5f50166b87405aba0892d7546346e",tooltip=" "];
  Node1 -> Node24 [color="steelblue1",style="solid"];
  Node24 [label="boost::remove_edge",height=0.2,width=0.4,color="grey40", fillcolor="white", style="filled",URL="$namespaceboost.html#a45af224fa845fa533ba00155abf50467",tooltip=" "];
  Node24 -> Node25 [color="steelblue1",style="solid"];
  Node25 [label="boost::edge",height=0.2,width=0.4,color="grey40", fillcolor="white", style="filled",URL="$namespaceboost.html#a598b4480c610319f1d97be25667c6e56",tooltip=" "];
  Node25 -> Node25 [color="steelblue1",style="solid"];
  Node25 -> Node4 [color="steelblue1",style="solid"];
  Node24 -> Node24 [color="steelblue1",style="solid"];
  Node1 -> Node26 [color="steelblue1",style="solid"];
  Node26 [label="graph_tool::partition\l_stats::remove_vertex",height=0.2,width=0.4,color="grey40", fillcolor="white", style="filled",URL="$classgraph__tool_1_1partition__stats.html#a97a3645b2141dc604f380f0ac4a4ed35",tooltip=" "];
  Node26 -> Node6 [color="steelblue1",style="solid"];
  Node26 -> Node7 [color="steelblue1",style="solid"];
  Node26 -> Node12 [color="steelblue1",style="solid"];
}
