digraph "graph_tool::EGroups::empty"
{
 // LATEX_PDF_SIZE
  bgcolor="transparent";
  edge [fontname=Helvetica,fontsize=10,labelfontname=Helvetica,labelfontsize=10];
  node [fontname=Helvetica,fontsize=10,shape=box,height=0.2,width=0.4];
  rankdir="RL";
  Node1 [label="graph_tool::EGroups\l::empty",height=0.2,width=0.4,color="gray40", fillcolor="grey60", style="filled", fontcolor="black",tooltip=" "];
  Node1 -> Node2 [dir="back",color="steelblue1",style="solid"];
  Node2 [label="graph_tool::BlockState\l::add_block",height=0.2,width=0.4,color="grey40", fillcolor="white", style="filled",URL="$classgraph__tool_1_1BlockState.html#ac0a93d81a9507a1abf6d91c5c7c23008",tooltip=" "];
  Node2 -> Node3 [dir="back",color="steelblue1",style="solid"];
  Node3 [label="graph_tool::BlockState\l::copy_branch",height=0.2,width=0.4,color="grey40", fillcolor="white", style="filled",URL="$classgraph__tool_1_1BlockState.html#a3cfd7d94db99becfd38690b9a16b2942",tooltip=" "];
  Node2 -> Node4 [dir="back",color="steelblue1",style="solid"];
  Node4 [label="graph_tool::BlockState\l::get_empty_block",height=0.2,width=0.4,color="grey40", fillcolor="white", style="filled",URL="$classgraph__tool_1_1BlockState.html#affa9b3c6d5140a7b0da43c7524599f5c",tooltip=" "];
  Node4 -> Node5 [dir="back",color="steelblue1",style="solid"];
  Node5 [label="graph_tool::BlockState\l::sample_block",height=0.2,width=0.4,color="grey40", fillcolor="white", style="filled",URL="$classgraph__tool_1_1BlockState.html#a1b246187f8f5e9fe2e456c78ebd2329b",tooltip=" "];
  Node4 -> Node6 [dir="back",color="steelblue1",style="solid"];
  Node6 [label="graph_tool::BlockState\l::sample_branch",height=0.2,width=0.4,color="grey40", fillcolor="white", style="filled",URL="$classgraph__tool_1_1BlockState.html#a1e56fa25c69d2833201c6e177e3aec6a",tooltip=" "];
  Node2 -> Node7 [dir="back",color="steelblue1",style="solid"];
  Node7 [label="graph_tool::BlockState\l::set_partition",height=0.2,width=0.4,color="grey40", fillcolor="white", style="filled",URL="$classgraph__tool_1_1BlockState.html#ad3297c3d52cbd9987f3da12ff91aea51",tooltip=" "];
  Node1 -> Node8 [dir="back",color="steelblue1",style="solid"];
  Node8 [label="graph_tool::OverlapBlock\lState::add_block",height=0.2,width=0.4,color="grey40", fillcolor="white", style="filled",URL="$classgraph__tool_1_1OverlapBlockState.html#ab2e0b790440e2fe4f1cc157adf10fcaa",tooltip=" "];
  Node8 -> Node9 [dir="back",color="steelblue1",style="solid"];
  Node9 [label="graph_tool::OverlapBlock\lState::get_empty_block",height=0.2,width=0.4,color="grey40", fillcolor="white", style="filled",URL="$classgraph__tool_1_1OverlapBlockState.html#a9ce7e72573be045e9324679a7a652c48",tooltip=" "];
  Node9 -> Node10 [dir="back",color="steelblue1",style="solid"];
  Node10 [label="graph_tool::OverlapBlock\lState::sample_block",height=0.2,width=0.4,color="grey40", fillcolor="white", style="filled",URL="$classgraph__tool_1_1OverlapBlockState.html#afdfa21880f03fe2639c91d98cf2d8a26",tooltip=" "];
  Node1 -> Node11 [dir="back",color="steelblue1",style="solid"];
  Node11 [label="graph_tool::EGroups\l::check",height=0.2,width=0.4,color="grey40", fillcolor="white", style="filled",URL="$classgraph__tool_1_1EGroups.html#a8794e839040f02696750728f9fd47603",tooltip=" "];
  Node11 -> Node12 [dir="back",color="steelblue1",style="solid"];
  Node12 [label="graph_tool::EGroups\l::init",height=0.2,width=0.4,color="grey40", fillcolor="white", style="filled",URL="$classgraph__tool_1_1EGroups.html#a3ecfdb9f6776ac28f2b34034bb8ebccd",tooltip=" "];
  Node12 -> Node13 [dir="back",color="steelblue1",style="solid"];
  Node13 [label="graph_tool::BlockState\l::init_mcmc",height=0.2,width=0.4,color="grey40", fillcolor="white", style="filled",URL="$classgraph__tool_1_1BlockState.html#af8eea26746edea552fc3c87bcea02806",tooltip=" "];
  Node12 -> Node14 [dir="back",color="steelblue1",style="solid"];
  Node14 [label="graph_tool::OverlapBlock\lState::init_mcmc",height=0.2,width=0.4,color="grey40", fillcolor="white", style="filled",URL="$classgraph__tool_1_1OverlapBlockState.html#a5a550db4a6f6f923c3618755d1bc617f",tooltip=" "];
  Node12 -> Node10 [dir="back",color="steelblue1",style="solid"];
  Node12 -> Node5 [dir="back",color="steelblue1",style="solid"];
  Node11 -> Node15 [dir="back",color="steelblue1",style="solid"];
  Node15 [label="graph_tool::BlockState\l::relax_update",height=0.2,width=0.4,color="grey40", fillcolor="white", style="filled",URL="$classgraph__tool_1_1BlockState.html#a9b547df9de24fab0bd8e7f7e6d34386f",tooltip=" "];
  Node11 -> Node16 [dir="back",color="steelblue1",style="solid"];
  Node16 [label="graph_tool::OverlapBlock\lState::relax_update",height=0.2,width=0.4,color="grey40", fillcolor="white", style="filled",URL="$classgraph__tool_1_1OverlapBlockState.html#a1257068173b974d706ee7562fa4dc1f0",tooltip=" "];
  Node1 -> Node14 [dir="back",color="steelblue1",style="solid"];
  Node1 -> Node17 [dir="back",color="steelblue1",style="solid"];
  Node17 [label="graph_tool::BlockState\l::modify_edge",height=0.2,width=0.4,color="grey40", fillcolor="white", style="filled",URL="$classgraph__tool_1_1BlockState.html#a58c36036816047d556483a17e5df3343",tooltip=" "];
  Node1 -> Node10 [dir="back",color="steelblue1",style="solid"];
  Node1 -> Node5 [dir="back",color="steelblue1",style="solid"];
}
