digraph "graph_tool::BlockState::get_move_prob"
{
 // LATEX_PDF_SIZE
  bgcolor="transparent";
  edge [fontname=Helvetica,fontsize=10,labelfontname=Helvetica,labelfontsize=10];
  node [fontname=Helvetica,fontsize=10,shape=box,height=0.2,width=0.4];
  rankdir="LR";
  Node1 [label="graph_tool::BlockState\l::get_move_prob",height=0.2,width=0.4,color="gray40", fillcolor="grey60", style="filled", fontcolor="black",tooltip=" "];
  Node1 -> Node2 [color="steelblue1",style="solid"];
  Node2 [label="graph_tool::BlockState\l::get_move_entries",height=0.2,width=0.4,color="grey40", fillcolor="white", style="filled",URL="$classgraph__tool_1_1BlockState.html#aeb871f6e9db9e25a0f1e4d75464f5ffd",tooltip=" "];
  Node2 -> Node3 [color="steelblue1",style="solid"];
  Node3 [label="graph_tool::move_entries",height=0.2,width=0.4,color="grey40", fillcolor="white", style="filled",URL="$namespacegraph__tool.html#aed5c8e84219c5fea36f27b5f2a978ba1",tooltip=" "];
  Node2 -> Node4 [color="steelblue1",style="solid"];
  Node4 [label="boost::num_vertices",height=0.2,width=0.4,color="grey40", fillcolor="white", style="filled",URL="$namespaceboost.html#ac848f876a7fa2caa8fb1879b7c522ebc",tooltip=" "];
  Node4 -> Node4 [color="steelblue1",style="solid"];
  Node4 -> Node5 [color="steelblue1",style="solid"];
  Node5 [label="boost::undirected_adaptor\l::original_graph",height=0.2,width=0.4,color="grey40", fillcolor="white", style="filled",URL="$classboost_1_1undirected__adaptor.html#a11e557bb4f3d7c15354f98390f1d3644",tooltip=" "];
  Node1 -> Node6 [color="steelblue1",style="solid"];
  Node6 [label="graph_tool::BlockState\l::get_move_prob",height=0.2,width=0.4,color="grey40", fillcolor="white", style="filled",URL="$classgraph__tool_1_1BlockState.html#a32e43e7305c76921a27ad8dfc1550319",tooltip=" "];
  Node6 -> Node7 [color="steelblue1",style="solid"];
  Node7 [label="graph_tool::get_deg",height=0.2,width=0.4,color="grey40", fillcolor="white", style="filled",URL="$namespacegraph__tool.html#a2c092e7392dd5baf377a0a7c5d845cb3",tooltip=" "];
  Node7 -> Node8 [color="steelblue1",style="solid"];
  Node8 [label="boost::out_degree",height=0.2,width=0.4,color="grey40", fillcolor="white", style="filled",URL="$namespaceboost.html#ac2aab26c4c5fb471f6eef10ae4496089",tooltip=" "];
  Node8 -> Node9 [color="steelblue1",style="solid"];
  Node9 [label="boost::degree",height=0.2,width=0.4,color="grey40", fillcolor="white", style="filled",URL="$namespaceboost.html#ac08426adc887cd2f50850eb97baaae7d",tooltip=" "];
  Node9 -> Node8 [color="steelblue1",style="solid"];
  Node8 -> Node5 [color="steelblue1",style="solid"];
  Node7 -> Node10 [color="steelblue1",style="solid"];
  Node10 [label="boost::vertex",height=0.2,width=0.4,color="grey40", fillcolor="white", style="filled",URL="$namespaceboost.html#acf010cb431c640031d53bfe55c84ef46",tooltip=" "];
  Node10 -> Node5 [color="steelblue1",style="solid"];
  Node10 -> Node10 [color="steelblue1",style="solid"];
  Node6 -> Node11 [color="steelblue1",style="solid"];
  Node11 [label="graph_tool::in_neighbors\l_range",height=0.2,width=0.4,color="grey40", fillcolor="white", style="filled",URL="$namespacegraph__tool.html#a5e62ad2b3b111af5bebb47d60770c4e5",tooltip=" "];
  Node11 -> Node12 [color="steelblue1",style="solid"];
  Node12 [label="boost::in_neighbors",height=0.2,width=0.4,color="grey40", fillcolor="white", style="filled",URL="$namespaceboost.html#a600e1202e47f39f5595e69ff2e5f31eb",tooltip=" "];
  Node12 -> Node13 [color="steelblue1",style="solid"];
  Node13 [label="boost::out_neighbors",height=0.2,width=0.4,color="grey40", fillcolor="white", style="filled",URL="$namespaceboost.html#a57f92469ea1bdd1e62a67f2bbd781fea",tooltip=" "];
  Node13 -> Node14 [color="steelblue1",style="solid"];
  Node14 [label="boost::all_neighbors",height=0.2,width=0.4,color="grey40", fillcolor="white", style="filled",URL="$namespaceboost.html#aa79739d31ce142279771d2b585c3dc8a",tooltip=" "];
  Node14 -> Node13 [color="steelblue1",style="solid"];
  Node13 -> Node5 [color="steelblue1",style="solid"];
  Node11 -> Node15 [color="steelblue1",style="solid"];
  Node15 [label="graph_tool::mk_range",height=0.2,width=0.4,color="grey40", fillcolor="white", style="filled",URL="$namespacegraph__tool.html#a6ecc1e46efb4f620acabfe5728f7a2a6",tooltip=" "];
  Node6 -> Node16 [color="steelblue1",style="solid"];
  Node16 [label="graph_tool::out_neighbors\l_range",height=0.2,width=0.4,color="grey40", fillcolor="white", style="filled",URL="$namespacegraph__tool.html#a839ad7b0e6f54ea9e6b0f1bb55a7b19c",tooltip=" "];
  Node16 -> Node15 [color="steelblue1",style="solid"];
  Node16 -> Node13 [color="steelblue1",style="solid"];
  Node6 -> Node17 [color="steelblue1",style="solid"];
  Node17 [label="graph_tool::safelog_fast",height=0.2,width=0.4,color="grey40", fillcolor="white", style="filled",URL="$namespacegraph__tool.html#a79fcd257f84cbb496bcc1de77c0047d7",tooltip=" "];
  Node17 -> Node18 [color="steelblue1",style="solid"];
  Node18 [label="graph_tool::init_safelog",height=0.2,width=0.4,color="grey40", fillcolor="white", style="filled",URL="$namespacegraph__tool.html#a963421460fa76f55c786dff3f225ca7a",tooltip=" "];
  Node18 -> Node19 [color="steelblue1",style="solid"];
  Node19 [label="graph_tool::safelog",height=0.2,width=0.4,color="grey40", fillcolor="white", style="filled",URL="$namespacegraph__tool.html#a2775c645bfb6f1026c90168f54315c51",tooltip=" "];
  Node17 -> Node19 [color="steelblue1",style="solid"];
  Node6 -> Node20 [color="steelblue1",style="solid"];
  Node20 [label="idx_set::size",height=0.2,width=0.4,color="grey40", fillcolor="white", style="filled",URL="$classidx__set.html#a055eb517bcf242f28f911d3b4dc1537d",tooltip=" "];
}
