digraph "graph_tool::SBMEdgeSampler::SBMEdgeSampler"
{
 // LATEX_PDF_SIZE
  bgcolor="transparent";
  edge [fontname=Helvetica,fontsize=10,labelfontname=Helvetica,labelfontsize=10];
  node [fontname=Helvetica,fontsize=10,shape=box,height=0.2,width=0.4];
  rankdir="LR";
  Node1 [label="graph_tool::SBMEdgeSampler\l::SBMEdgeSampler",height=0.2,width=0.4,color="gray40", fillcolor="grey60", style="filled", fontcolor="black",tooltip=" "];
  Node1 -> Node2 [color="steelblue1",style="solid"];
  Node2 [label="graph_tool::edges_range",height=0.2,width=0.4,color="grey40", fillcolor="white", style="filled",URL="$namespacegraph__tool.html#a84f027f8994c1005336b0a12eb0c9dc4",tooltip=" "];
  Node2 -> Node3 [color="steelblue1",style="solid"];
  Node3 [label="boost::edges",height=0.2,width=0.4,color="grey40", fillcolor="white", style="filled",URL="$namespaceboost.html#a3ac91f028a5f50644ba12e9e803bb2f8",tooltip=" "];
  Node3 -> Node3 [color="steelblue1",style="solid"];
  Node3 -> Node4 [color="steelblue1",style="solid"];
  Node4 [label="boost::undirected_adaptor\l::original_graph",height=0.2,width=0.4,color="grey40", fillcolor="white", style="filled",URL="$classboost_1_1undirected__adaptor.html#a11e557bb4f3d7c15354f98390f1d3644",tooltip=" "];
  Node2 -> Node5 [color="steelblue1",style="solid"];
  Node5 [label="graph_tool::mk_range",height=0.2,width=0.4,color="grey40", fillcolor="white", style="filled",URL="$namespacegraph__tool.html#a6ecc1e46efb4f620acabfe5728f7a2a6",tooltip=" "];
  Node1 -> Node6 [color="steelblue1",style="solid"];
  Node6 [label="graph_tool::get_deg",height=0.2,width=0.4,color="grey40", fillcolor="white", style="filled",URL="$namespacegraph__tool.html#a2c092e7392dd5baf377a0a7c5d845cb3",tooltip=" "];
  Node6 -> Node7 [color="steelblue1",style="solid"];
  Node7 [label="boost::out_degree",height=0.2,width=0.4,color="grey40", fillcolor="white", style="filled",URL="$namespaceboost.html#ac2aab26c4c5fb471f6eef10ae4496089",tooltip=" "];
  Node7 -> Node8 [color="steelblue1",style="solid"];
  Node8 [label="boost::degree",height=0.2,width=0.4,color="grey40", fillcolor="white", style="filled",URL="$namespaceboost.html#ac08426adc887cd2f50850eb97baaae7d",tooltip=" "];
  Node8 -> Node7 [color="steelblue1",style="solid"];
  Node7 -> Node4 [color="steelblue1",style="solid"];
  Node6 -> Node9 [color="steelblue1",style="solid"];
  Node9 [label="boost::vertex",height=0.2,width=0.4,color="grey40", fillcolor="white", style="filled",URL="$namespaceboost.html#acf010cb431c640031d53bfe55c84ef46",tooltip=" "];
  Node9 -> Node4 [color="steelblue1",style="solid"];
  Node9 -> Node9 [color="steelblue1",style="solid"];
  Node1 -> Node10 [color="steelblue1",style="solid"];
  Node10 [label="graph_tool::SBMEdgeSampler\l::get_edge",height=0.2,width=0.4,color="grey40", fillcolor="white", style="filled",URL="$classgraph__tool_1_1SBMEdgeSampler.html#ad554ec28aa99d786176e99938423895e",tooltip=" "];
  Node10 -> Node11 [color="steelblue1",style="solid"];
  Node11 [label="graph_tool::is_directed",height=0.2,width=0.4,color="grey40", fillcolor="white", style="filled",URL="$namespacegraph__tool.html#a815c22620d9f5756b899dc94e405e2f3",tooltip=" "];
  Node1 -> Node12 [color="steelblue1",style="solid"];
  Node12 [label="graph_tool::DynamicSampler\l::insert",height=0.2,width=0.4,color="grey40", fillcolor="white", style="filled",URL="$classgraph__tool_1_1DynamicSampler.html#a70b5a918f177097163e1aa7886684c68",tooltip=" "];
  Node12 -> Node13 [color="steelblue1",style="solid"];
  Node13 [label="graph_tool::DynamicSampler\l::get_left",height=0.2,width=0.4,color="grey40", fillcolor="white", style="filled",URL="$classgraph__tool_1_1DynamicSampler.html#a45da955a3071553d80b15d5281225568",tooltip=" "];
  Node12 -> Node14 [color="steelblue1",style="solid"];
  Node14 [label="graph_tool::DynamicSampler\l::get_parent",height=0.2,width=0.4,color="grey40", fillcolor="white", style="filled",URL="$classgraph__tool_1_1DynamicSampler.html#afcaa0d4af4908d18f4253db656a7102c",tooltip=" "];
  Node12 -> Node15 [color="steelblue1",style="solid"];
  Node15 [label="graph_tool::DynamicSampler\l::get_right",height=0.2,width=0.4,color="grey40", fillcolor="white", style="filled",URL="$classgraph__tool_1_1DynamicSampler.html#acd599d9b976470139c26f66df1252c45",tooltip=" "];
  Node1 -> Node11 [color="steelblue1",style="solid"];
  Node1 -> Node16 [color="steelblue1",style="solid"];
  Node16 [label="boost::num_vertices",height=0.2,width=0.4,color="grey40", fillcolor="white", style="filled",URL="$namespaceboost.html#ac848f876a7fa2caa8fb1879b7c522ebc",tooltip=" "];
  Node16 -> Node16 [color="steelblue1",style="solid"];
  Node16 -> Node4 [color="steelblue1",style="solid"];
  Node1 -> Node17 [color="steelblue1",style="solid"];
  Node17 [label="graph_tool::source",height=0.2,width=0.4,color="grey40", fillcolor="white", style="filled",URL="$namespacegraph__tool.html#a0b44c0af404cec1513acb7b9602557f8",tooltip=" "];
  Node17 -> Node3 [color="steelblue1",style="solid"];
  Node17 -> Node17 [color="steelblue1",style="solid"];
  Node17 -> Node18 [color="steelblue1",style="solid"];
  Node18 [label="graph_tool::target",height=0.2,width=0.4,color="grey40", fillcolor="white", style="filled",URL="$namespacegraph__tool.html#aff9f07ca294560a9de57ab80deffa0cc",tooltip=" "];
  Node18 -> Node3 [color="steelblue1",style="solid"];
  Node18 -> Node17 [color="steelblue1",style="solid"];
  Node18 -> Node18 [color="steelblue1",style="solid"];
  Node1 -> Node18 [color="steelblue1",style="solid"];
  Node1 -> Node19 [color="steelblue1",style="solid"];
  Node19 [label="graph_tool::vertices\l_range",height=0.2,width=0.4,color="grey40", fillcolor="white", style="filled",URL="$namespacegraph__tool.html#a92ab479b81d8c9a030d42854fefabf1a",tooltip=" "];
  Node19 -> Node5 [color="steelblue1",style="solid"];
  Node19 -> Node20 [color="steelblue1",style="solid"];
  Node20 [label="boost::vertices",height=0.2,width=0.4,color="grey40", fillcolor="white", style="filled",URL="$namespaceboost.html#a0bc22071c353fa26cd0d16cc817ddde2",tooltip=" "];
  Node20 -> Node4 [color="steelblue1",style="solid"];
  Node20 -> Node20 [color="steelblue1",style="solid"];
}
