digraph "graph_tool::MCMC::MCMCPseudoIsingState::get_vlist"
{
 // LATEX_PDF_SIZE
  bgcolor="transparent";
  edge [fontname=Helvetica,fontsize=10,labelfontname=Helvetica,labelfontsize=10];
  node [fontname=Helvetica,fontsize=10,shape=box,height=0.2,width=0.4];
  rankdir="LR";
  Node1 [label="graph_tool::MCMC::MCMCPseudo\lIsingState::get_vlist",height=0.2,width=0.4,color="gray40", fillcolor="grey60", style="filled", fontcolor="black",tooltip=" "];
  Node1 -> Node2 [color="steelblue1",style="solid"];
  Node2 [label="_vlist",height=0.2,width=0.4,color="grey40", fillcolor="white", style="filled",URL="$graph__python__interface_8cc.html#a9a02f3b307b5fbae48f840beedc614e3",tooltip=" "];
}
