digraph "boost::filt_graph&lt; Graph, EdgePredicate, VertexPredicate &gt;"
{
 // LATEX_PDF_SIZE
  bgcolor="transparent";
  edge [fontname=Helvetica,fontsize=10,labelfontname=Helvetica,labelfontsize=10];
  node [fontname=Helvetica,fontsize=10,shape=box,height=0.2,width=0.4];
  Node1 [shape=record,label="{boost::filt_graph\<\l Graph, EdgePredicate,\l VertexPredicate \>\n|+ _edge_pred\l+ _vertex_pred\l|+ filt_graph()\l+ filt_graph()\l+ null_vertex()\l}",height=0.2,width=0.4,color="gray40", fillcolor="grey60", style="filled", fontcolor="black",tooltip=" "];
  Node2 -> Node1 [dir="back",color="steelblue1",style="solid",arrowtail="onormal"];
  Node2 [shape=record,label="{boost::filt_graph_base\l\< Graph \>\n|+ _g\l|+ filt_graph_base()\l}",height=0.2,width=0.4,color="gray40", fillcolor="white", style="filled",URL="$structboost_1_1filt__graph__base.html",tooltip=" "];
  Node3 -> Node1 [color="grey25",style="solid",label=" +_out_edge_pred" ,arrowhead="odiamond"];
  Node3 [shape=record,label="{boost::detail::out\l_edge_pred\< EdgePredicate,\l keep_all, Graph \>\n|+ _edge_pred\l+ _vertex_pred\l+ _g\l|+ out_edge_pred()\l+ out_edge_pred()\l+ operator()()\l}",height=0.2,width=0.4,color="gray40", fillcolor="white", style="filled",URL="$structboost_1_1detail_1_1out__edge__pred.html",tooltip=" "];
  Node4 -> Node1 [color="grey25",style="solid",label=" +_in_edge_pred" ,arrowhead="odiamond"];
  Node4 [shape=record,label="{boost::detail::in_edge\l_pred\< EdgePredicate,\l keep_all, Graph \>\n|+ _edge_pred\l+ _vertex_pred\l+ _g\l|+ in_edge_pred()\l+ in_edge_pred()\l+ operator()()\l}",height=0.2,width=0.4,color="gray40", fillcolor="white", style="filled",URL="$structboost_1_1detail_1_1in__edge__pred.html",tooltip=" "];
  Node5 -> Node1 [color="grey25",style="solid",label=" +_all_edge_pred" ,arrowhead="odiamond"];
  Node5 [shape=record,label="{boost::detail::edge\l_pred\< EdgePredicate,\l keep_all, Graph \>\n|+ _edge_pred\l+ _vertex_pred\l+ _g\l|+ edge_pred()\l+ edge_pred()\l+ operator()()\l}",height=0.2,width=0.4,color="gray40", fillcolor="white", style="filled",URL="$structboost_1_1detail_1_1edge__pred.html",tooltip=" "];
}
