digraph "graph_tool::RMICenterState::RMICenterState"
{
 // LATEX_PDF_SIZE
  bgcolor="transparent";
  edge [fontname=Helvetica,fontsize=10,labelfontname=Helvetica,labelfontsize=10];
  node [fontname=Helvetica,fontsize=10,shape=box,height=0.2,width=0.4];
  rankdir="LR";
  Node1 [label="graph_tool::RMICenterState\l::RMICenterState",height=0.2,width=0.4,color="gray40", fillcolor="grey60", style="filled", fontcolor="black",tooltip=" "];
  Node1 -> Node2 [color="steelblue1",style="solid"];
  Node2 [label="idx_set::insert",height=0.2,width=0.4,color="grey40", fillcolor="white", style="filled",URL="$classidx__set.html#afbbd9253a38901eb7ec6c27b1b8c692e",tooltip=" "];
  Node2 -> Node3 [color="steelblue1",style="solid"];
  Node3 [label="idx_set::begin",height=0.2,width=0.4,color="grey40", fillcolor="white", style="filled",URL="$classidx__set.html#a859da6be3bf8f1e8a7e82a7eb1eebad6",tooltip=" "];
  Node2 -> Node4 [color="steelblue1",style="solid"];
  Node4 [label="idx_set::get_pos",height=0.2,width=0.4,color="grey40", fillcolor="white", style="filled",URL="$classidx__set.html#a56e207910e0227f4eeccfd5de78d1220",tooltip=" "];
}
