digraph "graph_tool::AStarVisitorWrapper"
{
 // LATEX_PDF_SIZE
  bgcolor="transparent";
  edge [fontname=Helvetica,fontsize=10,labelfontname=Helvetica,labelfontsize=10];
  node [fontname=Helvetica,fontsize=10,shape=box,height=0.2,width=0.4];
  Node1 [shape=record,label="{graph_tool::AStarVisitor\lWrapper\n||+ AStarVisitorWrapper()\l+ initialize_vertex()\l+ discover_vertex()\l+ examine_vertex()\l+ examine_edge()\l+ edge_relaxed()\l+ edge_not_relaxed()\l+ black_target()\l+ finish_vertex()\l}",height=0.2,width=0.4,color="gray40", fillcolor="grey60", style="filled", fontcolor="black",tooltip=" "];
}
