digraph "graph_tool::kirman_state"
{
 // LATEX_PDF_SIZE
  bgcolor="transparent";
  edge [fontname=Helvetica,fontsize=10,labelfontname=Helvetica,labelfontsize=10];
  node [fontname=Helvetica,fontsize=10,shape=box,height=0.2,width=0.4];
  Node1 [shape=record,label="{graph_tool::kirman\l_state\n||+ kirman_state()\l+ update_node()\l}",height=0.2,width=0.4,color="gray40", fillcolor="grey60", style="filled", fontcolor="black",tooltip=" "];
  Node2 -> Node1 [dir="back",color="steelblue1",style="solid",arrowtail="onormal"];
  Node2 [shape=record,label="{graph_tool::discrete\l_state_base\< Value \>\n|+ _active\l|+ discrete_state_base()\l+ update_node()\l+ is_absorbing()\l+ has_absorbing()\l+ update_sync()\l}",height=0.2,width=0.4,color="gray40", fillcolor="white", style="filled",URL="$classgraph__tool_1_1discrete__state__base.html",tooltip=" "];
  Node3 -> Node2 [color="grey25",style="solid",label=" +_s\n+_s_temp" ,arrowhead="odiamond"];
  Node3 [shape=record,label="{graph_tool::vprop_map\l_t\< s_t \>\n||}",height=0.2,width=0.4,color="gray40", fillcolor="white", style="filled",URL="$structgraph__tool_1_1vprop__map__t.html",tooltip=" "];
}
