digraph "double_priority_queue::cmp"
{
 // LATEX_PDF_SIZE
  bgcolor="transparent";
  edge [fontname=Helvetica,fontsize=10,labelfontname=Helvetica,labelfontsize=10];
  node [fontname=Helvetica,fontsize=10,shape=box,height=0.2,width=0.4];
  rankdir="RL";
  Node1 [label="double_priority_queue::cmp",height=0.2,width=0.4,color="gray40", fillcolor="grey60", style="filled", fontcolor="black",tooltip=" "];
  Node1 -> Node2 [dir="back",color="steelblue1",style="solid"];
  Node2 [label="double_priority_queue\l::bubble_up",height=0.2,width=0.4,color="grey40", fillcolor="white", style="filled",URL="$classdouble__priority__queue.html#a1f72cc34aab199b33d981e26cb4d370b",tooltip=" "];
  Node2 -> Node2 [dir="back",color="steelblue1",style="solid"];
  Node2 -> Node3 [dir="back",color="steelblue1",style="solid"];
  Node3 [label="double_priority_queue\l::push",height=0.2,width=0.4,color="grey40", fillcolor="white", style="filled",URL="$classdouble__priority__queue.html#ae0886182c826aad394f987a246eb936b",tooltip=" "];
  Node1 -> Node4 [dir="back",color="steelblue1",style="solid"];
  Node4 [label="double_priority_queue\l::trickle_down",height=0.2,width=0.4,color="grey40", fillcolor="white", style="filled",URL="$classdouble__priority__queue.html#abbf9043b7cdde9469927df9379ce21ad",tooltip=" "];
}
