digraph "graph_tool::BlockStateVirtualBase::set_vertex_weight"
{
 // LATEX_PDF_SIZE
  bgcolor="transparent";
  edge [fontname=Helvetica,fontsize=10,labelfontname=Helvetica,labelfontsize=10];
  node [fontname=Helvetica,fontsize=10,shape=box,height=0.2,width=0.4];
  rankdir="RL";
  Node1 [label="graph_tool::BlockStateVirtual\lBase::set_vertex_weight",height=0.2,width=0.4,color="gray40", fillcolor="grey60", style="filled", fontcolor="black",tooltip=" "];
  Node1 -> Node2 [dir="back",color="steelblue1",style="solid"];
  Node2 [label="graph_tool::BlockState\l::add_partition_node",height=0.2,width=0.4,color="grey40", fillcolor="white", style="filled",URL="$classgraph__tool_1_1BlockState.html#a735739ee4bad76e70a2cae7d7cffcf69",tooltip=" "];
  Node2 -> Node3 [dir="back",color="steelblue1",style="solid"];
  Node3 [label="graph_tool::BlockState\l::modify_vertex",height=0.2,width=0.4,color="grey40", fillcolor="white", style="filled",URL="$classgraph__tool_1_1BlockState.html#a791816a532ef510d7b3a0bae26088b42",tooltip=" "];
  Node2 -> Node4 [dir="back",color="steelblue1",style="solid"];
  Node4 [label="graph_tool::BlockState\l::move_vertex",height=0.2,width=0.4,color="grey40", fillcolor="white", style="filled",URL="$classgraph__tool_1_1BlockState.html#a7f90ab5729180fe379abc912a407a515",tooltip=" "];
  Node4 -> Node5 [dir="back",color="steelblue1",style="solid"];
  Node5 [label="graph_tool::BlockState\l::move_vertex",height=0.2,width=0.4,color="grey40", fillcolor="white", style="filled",URL="$classgraph__tool_1_1BlockState.html#adc2aaf33b2c5950801d94b1f57fe28dc",tooltip=" "];
  Node4 -> Node6 [dir="back",color="steelblue1",style="solid"];
  Node6 [label="graph_tool::BlockState\l::move_vertices",height=0.2,width=0.4,color="grey40", fillcolor="white", style="filled",URL="$classgraph__tool_1_1BlockState.html#abc051468cdd761a2d81a0767296cdb75",tooltip=" "];
  Node6 -> Node7 [dir="back",color="steelblue1",style="solid"];
  Node7 [label="graph_tool::BlockState\l::move_vertices",height=0.2,width=0.4,color="grey40", fillcolor="white", style="filled",URL="$classgraph__tool_1_1BlockState.html#a7684338bbb111a33e6e0bbd69d5b0e7c",tooltip=" "];
  Node4 -> Node8 [dir="back",color="steelblue1",style="solid"];
  Node8 [label="graph_tool::BlockState\l::set_partition",height=0.2,width=0.4,color="grey40", fillcolor="white", style="filled",URL="$classgraph__tool_1_1BlockState.html#ad3297c3d52cbd9987f3da12ff91aea51",tooltip=" "];
  Node1 -> Node9 [dir="back",color="steelblue1",style="solid"];
  Node9 [label="graph_tool::OverlapBlock\lState::move_vertex",height=0.2,width=0.4,color="grey40", fillcolor="white", style="filled",URL="$classgraph__tool_1_1OverlapBlockState.html#a06bef8480e1ac522ee68f78a24d84f5c",tooltip=" "];
  Node9 -> Node10 [dir="back",color="steelblue1",style="solid"];
  Node10 [label="graph_tool::OverlapBlock\lState::move_vertices",height=0.2,width=0.4,color="grey40", fillcolor="white", style="filled",URL="$classgraph__tool_1_1OverlapBlockState.html#a3353612aac7c56e55b88a7fb09db4c40",tooltip=" "];
  Node10 -> Node11 [dir="back",color="steelblue1",style="solid"];
  Node11 [label="graph_tool::OverlapBlock\lState::move_vertices",height=0.2,width=0.4,color="grey40", fillcolor="white", style="filled",URL="$classgraph__tool_1_1OverlapBlockState.html#a1a774c60e87eccd0052976095924a473",tooltip=" "];
  Node9 -> Node12 [dir="back",color="steelblue1",style="solid"];
  Node12 [label="graph_tool::OverlapBlock\lState::set_partition",height=0.2,width=0.4,color="grey40", fillcolor="white", style="filled",URL="$classgraph__tool_1_1OverlapBlockState.html#a30607be0893e9be7d77a6c93142da6be",tooltip=" "];
  Node1 -> Node13 [dir="back",color="steelblue1",style="solid"];
  Node13 [label="graph_tool::Layers\l::LayeredBlockState\l::move_vertex",height=0.2,width=0.4,color="grey40", fillcolor="white", style="filled",URL="$classgraph__tool_1_1Layers_1_1LayeredBlockState.html#a71210796bd25f366a496a58f283e30af",tooltip=" "];
  Node13 -> Node14 [dir="back",color="steelblue1",style="solid"];
  Node14 [label="graph_tool::Layers\l::LayeredBlockState\l::move_vertices",height=0.2,width=0.4,color="grey40", fillcolor="white", style="filled",URL="$classgraph__tool_1_1Layers_1_1LayeredBlockState.html#ae8d8e72388afdb1f932ec05e92a29863",tooltip=" "];
  Node14 -> Node15 [dir="back",color="steelblue1",style="solid"];
  Node15 [label="graph_tool::Layers\l::LayeredBlockState\l::move_vertices",height=0.2,width=0.4,color="grey40", fillcolor="white", style="filled",URL="$classgraph__tool_1_1Layers_1_1LayeredBlockState.html#ac1b61b002eb35a7c3f7a1b7f2ec6e64d",tooltip=" "];
  Node13 -> Node16 [dir="back",color="steelblue1",style="solid"];
  Node16 [label="graph_tool::Layers\l::LayeredBlockState\l::set_partition",height=0.2,width=0.4,color="grey40", fillcolor="white", style="filled",URL="$classgraph__tool_1_1Layers_1_1LayeredBlockState.html#ac20cdae6c66bae357efa186e72970418",tooltip=" "];
  Node16 -> Node17 [dir="back",color="steelblue1",style="solid"];
  Node17 [label="graph_tool::Layers\l::LayeredBlockState\l::set_partition",height=0.2,width=0.4,color="grey40", fillcolor="white", style="filled",URL="$classgraph__tool_1_1Layers_1_1LayeredBlockState.html#a2fa8e43491cf52454563768fd46b17de",tooltip=" "];
  Node1 -> Node18 [dir="back",color="steelblue1",style="solid"];
  Node18 [label="graph_tool::BlockState\l::remove_partition_node",height=0.2,width=0.4,color="grey40", fillcolor="white", style="filled",URL="$classgraph__tool_1_1BlockState.html#aba7a7ed10433a1ac1c91a34beb44daf3",tooltip=" "];
  Node18 -> Node3 [dir="back",color="steelblue1",style="solid"];
  Node18 -> Node4 [dir="back",color="steelblue1",style="solid"];
}
