digraph "double_priority_queue::bubble_up"
{
 // LATEX_PDF_SIZE
  bgcolor="transparent";
  edge [fontname=Helvetica,fontsize=10,labelfontname=Helvetica,labelfontsize=10];
  node [fontname=Helvetica,fontsize=10,shape=box,height=0.2,width=0.4];
  rankdir="LR";
  Node1 [label="double_priority_queue\l::bubble_up",height=0.2,width=0.4,color="gray40", fillcolor="grey60", style="filled", fontcolor="black",tooltip=" "];
  Node1 -> Node2 [color="steelblue1",style="solid"];
  Node2 [label="double_priority_queue::cmp",height=0.2,width=0.4,color="grey40", fillcolor="white", style="filled",URL="$classdouble__priority__queue.html#aac94c867da7b85a3e51f6619d0cb9063",tooltip=" "];
}
