digraph "graph_tool::PartitionModeState::add_partition"
{
 // LATEX_PDF_SIZE
  bgcolor="transparent";
  edge [fontname=Helvetica,fontsize=10,labelfontname=Helvetica,labelfontsize=10];
  node [fontname=Helvetica,fontsize=10,shape=box,height=0.2,width=0.4];
  rankdir="LR";
  Node1 [label="graph_tool::PartitionMode\lState::add_partition",height=0.2,width=0.4,color="gray40", fillcolor="grey60", style="filled", fontcolor="black",tooltip=" "];
  Node1 -> Node1 [color="steelblue1",style="solid"];
  Node1 -> Node2 [color="steelblue1",style="solid"];
  Node2 [label="graph_tool::PartitionMode\lState::clean_labels",height=0.2,width=0.4,color="grey40", fillcolor="white", style="filled",URL="$classgraph__tool_1_1PartitionModeState.html#aad6ec8c1ff673ea1827d171beafaefba",tooltip=" "];
  Node2 -> Node2 [color="steelblue1",style="solid"];
  Node2 -> Node3 [color="steelblue1",style="solid"];
  Node3 [label="idx_set::end",height=0.2,width=0.4,color="grey40", fillcolor="white", style="filled",URL="$classidx__set.html#af92eda91ac7fdd6512c6ceb32d22d15d",tooltip=" "];
  Node2 -> Node4 [color="steelblue1",style="solid"];
  Node4 [label="idx_set::find",height=0.2,width=0.4,color="grey40", fillcolor="white", style="filled",URL="$classidx__set.html#acf58b6a152fe192b586e1c9ee73558b5",tooltip=" "];
  Node4 -> Node5 [color="steelblue1",style="solid"];
  Node5 [label="idx_set::begin",height=0.2,width=0.4,color="grey40", fillcolor="white", style="filled",URL="$classidx__set.html#a859da6be3bf8f1e8a7e82a7eb1eebad6",tooltip=" "];
  Node4 -> Node3 [color="steelblue1",style="solid"];
  Node4 -> Node6 [color="steelblue1",style="solid"];
  Node6 [label="idx_set::get_pos",height=0.2,width=0.4,color="grey40", fillcolor="white", style="filled",URL="$classidx__set.html#a56e207910e0227f4eeccfd5de78d1220",tooltip=" "];
  Node2 -> Node7 [color="steelblue1",style="solid"];
  Node7 [label="boost::get",height=0.2,width=0.4,color="grey40", fillcolor="white", style="filled",URL="$namespaceboost.html#a16c10260e678081f48c16db5bdd0f5ea",tooltip=" "];
  Node7 -> Node7 [color="steelblue1",style="solid"];
  Node7 -> Node8 [color="steelblue1",style="solid"];
  Node8 [label="boost::undirected_adaptor\l::original_graph",height=0.2,width=0.4,color="grey40", fillcolor="white", style="filled",URL="$classboost_1_1undirected__adaptor.html#a11e557bb4f3d7c15354f98390f1d3644",tooltip=" "];
  Node2 -> Node9 [color="steelblue1",style="solid"];
  Node9 [label="idx_set::insert",height=0.2,width=0.4,color="grey40", fillcolor="white", style="filled",URL="$classidx__set.html#afbbd9253a38901eb7ec6c27b1b8c692e",tooltip=" "];
  Node9 -> Node5 [color="steelblue1",style="solid"];
  Node9 -> Node6 [color="steelblue1",style="solid"];
  Node1 -> Node10 [color="steelblue1",style="solid"];
  Node10 [label="graph_tool::PartitionMode\lState::relabel",height=0.2,width=0.4,color="grey40", fillcolor="white", style="filled",URL="$classgraph__tool_1_1PartitionModeState.html#abb915f1507691e434cc5b3a97834e8fb",tooltip=" "];
  Node10 -> Node11 [color="steelblue1",style="solid"];
  Node11 [label="graph_tool::PartitionMode\lState::check_size",height=0.2,width=0.4,color="grey40", fillcolor="white", style="filled",URL="$classgraph__tool_1_1PartitionModeState.html#a59b3530fbe2a27d0957f79caba098ee0",tooltip=" "];
  Node10 -> Node12 [color="steelblue1",style="solid"];
  Node12 [label="graph_tool::PartitionMode\lState::get_partition",height=0.2,width=0.4,color="grey40", fillcolor="white", style="filled",URL="$classgraph__tool_1_1PartitionModeState.html#a6b1c2feeb4eb14bbd0966fcb6d579f1d",tooltip=" "];
  Node12 -> Node13 [color="steelblue1",style="solid"];
  Node13 [label="idx_map::find",height=0.2,width=0.4,color="grey40", fillcolor="white", style="filled",URL="$classidx__map.html#a726b88bd6e966e76909b8a62b5b41ca9",tooltip=" "];
  Node13 -> Node14 [color="steelblue1",style="solid"];
  Node14 [label="idx_map::begin",height=0.2,width=0.4,color="grey40", fillcolor="white", style="filled",URL="$classidx__map.html#adfc59aadc681d10ca019307696b1ccc0",tooltip=" "];
  Node13 -> Node15 [color="steelblue1",style="solid"];
  Node15 [label="idx_map::end",height=0.2,width=0.4,color="grey40", fillcolor="white", style="filled",URL="$classidx__map.html#a263b32ec4987f44a80d78076b42d4cf4",tooltip=" "];
  Node13 -> Node16 [color="steelblue1",style="solid"];
  Node16 [label="idx_map::get_pos",height=0.2,width=0.4,color="grey40", fillcolor="white", style="filled",URL="$classidx__map.html#a1a6279629ebd6ef59a80b394d786a210",tooltip=" "];
  Node10 -> Node17 [color="steelblue1",style="solid"];
  Node17 [label="graph_tool::PartitionMode\lState::rebuild_nr",height=0.2,width=0.4,color="grey40", fillcolor="white", style="filled",URL="$classgraph__tool_1_1PartitionModeState.html#a88ce41ee2e47a073f10f3dd68a1c92b3",tooltip=" "];
  Node17 -> Node11 [color="steelblue1",style="solid"];
  Node17 -> Node12 [color="steelblue1",style="solid"];
  Node10 -> Node18 [color="steelblue1",style="solid"];
  Node18 [label="graph_tool::relabel\l_nested",height=0.2,width=0.4,color="grey40", fillcolor="white", style="filled",URL="$namespacegraph__tool.html#a8ff07e0f4d1ac9ad0f13f95aab2b4305",tooltip=" "];
}
