digraph "idx_map::operator[]"
{
 // LATEX_PDF_SIZE
  bgcolor="transparent";
  edge [fontname=Helvetica,fontsize=10,labelfontname=Helvetica,labelfontsize=10];
  node [fontname=Helvetica,fontsize=10,shape=box,height=0.2,width=0.4];
  rankdir="LR";
  Node1 [label="idx_map::operator[]",height=0.2,width=0.4,color="gray40", fillcolor="grey60", style="filled", fontcolor="black",tooltip=" "];
  Node1 -> Node2 [color="steelblue1",style="solid"];
  Node2 [label="idx_map::end",height=0.2,width=0.4,color="grey40", fillcolor="white", style="filled",URL="$classidx__map.html#a263b32ec4987f44a80d78076b42d4cf4",tooltip=" "];
  Node1 -> Node3 [color="steelblue1",style="solid"];
  Node3 [label="idx_map::find",height=0.2,width=0.4,color="grey40", fillcolor="white", style="filled",URL="$classidx__map.html#a726b88bd6e966e76909b8a62b5b41ca9",tooltip=" "];
  Node3 -> Node4 [color="steelblue1",style="solid"];
  Node4 [label="idx_map::begin",height=0.2,width=0.4,color="grey40", fillcolor="white", style="filled",URL="$classidx__map.html#adfc59aadc681d10ca019307696b1ccc0",tooltip=" "];
  Node3 -> Node2 [color="steelblue1",style="solid"];
  Node3 -> Node5 [color="steelblue1",style="solid"];
  Node5 [label="idx_map::get_pos",height=0.2,width=0.4,color="grey40", fillcolor="white", style="filled",URL="$classidx__map.html#a1a6279629ebd6ef59a80b394d786a210",tooltip=" "];
  Node1 -> Node6 [color="steelblue1",style="solid"];
  Node6 [label="idx_map::insert",height=0.2,width=0.4,color="grey40", fillcolor="white", style="filled",URL="$classidx__map.html#a28272ef5799fc2d3317efef023a3e674",tooltip=" "];
  Node6 -> Node4 [color="steelblue1",style="solid"];
  Node6 -> Node5 [color="steelblue1",style="solid"];
}
