digraph "graph_tool::LayeredBlockStateVirtualBase"
{
 // LATEX_PDF_SIZE
  bgcolor="transparent";
  edge [fontname=Helvetica,fontsize=10,labelfontname=Helvetica,labelfontsize=10];
  node [fontname=Helvetica,fontsize=10,shape=box,height=0.2,width=0.4];
  Node1 [shape=record,label="{graph_tool::LayeredBlock\lStateVirtualBase\n||+ get_layer()\l+ get_block()\l+ set_block()\l+ get_vweight()\l+ add_layer_node()\l+ remove_layer_node()\l+ get_layer_node()\l+ get_block_map()\l+ check_layers()\l}",height=0.2,width=0.4,color="gray40", fillcolor="grey60", style="filled", fontcolor="black",tooltip=" "];
  Node2 -> Node1 [dir="back",color="steelblue1",style="solid",arrowtail="onormal"];
  Node2 [shape=record,label="{graph_tool::BlockStateVirtualBase\n||+ entropy()\l+ add_partition_node()\l+ remove_partition_node()\l+ set_vertex_weight()\l+ coupled_resize_vertex()\l+ get_coupled_state()\l+ virtual_move()\l+ sample_branch()\l+ copy_branch()\l+ sample_block()\land 20 more...\l}",height=0.2,width=0.4,color="gray40", fillcolor="white", style="filled",URL="$classgraph__tool_1_1BlockStateVirtualBase.html",tooltip=" "];
}
