digraph "graph_tool::ModeClusterState::relabel_modes"
{
 // LATEX_PDF_SIZE
  bgcolor="transparent";
  edge [fontname=Helvetica,fontsize=10,labelfontname=Helvetica,labelfontsize=10];
  node [fontname=Helvetica,fontsize=10,shape=box,height=0.2,width=0.4];
  rankdir="LR";
  Node1 [label="graph_tool::ModeClusterState\l::relabel_modes",height=0.2,width=0.4,color="gray40", fillcolor="grey60", style="filled", fontcolor="black",tooltip=" "];
  Node1 -> Node2 [color="steelblue1",style="solid"];
  Node2 [label="graph_tool::PartitionMode\lState::add_partition",height=0.2,width=0.4,color="grey40", fillcolor="white", style="filled",URL="$classgraph__tool_1_1PartitionModeState.html#aa8ae30e919f4759049ad966b5e6240ea",tooltip=" "];
  Node2 -> Node2 [color="steelblue1",style="solid"];
  Node2 -> Node3 [color="steelblue1",style="solid"];
  Node3 [label="graph_tool::PartitionMode\lState::clean_labels",height=0.2,width=0.4,color="grey40", fillcolor="white", style="filled",URL="$classgraph__tool_1_1PartitionModeState.html#aad6ec8c1ff673ea1827d171beafaefba",tooltip=" "];
  Node3 -> Node3 [color="steelblue1",style="solid"];
  Node3 -> Node4 [color="steelblue1",style="solid"];
  Node4 [label="idx_set::end",height=0.2,width=0.4,color="grey40", fillcolor="white", style="filled",URL="$classidx__set.html#af92eda91ac7fdd6512c6ceb32d22d15d",tooltip=" "];
  Node3 -> Node5 [color="steelblue1",style="solid"];
  Node5 [label="idx_set::find",height=0.2,width=0.4,color="grey40", fillcolor="white", style="filled",URL="$classidx__set.html#acf58b6a152fe192b586e1c9ee73558b5",tooltip=" "];
  Node5 -> Node6 [color="steelblue1",style="solid"];
  Node6 [label="idx_set::begin",height=0.2,width=0.4,color="grey40", fillcolor="white", style="filled",URL="$classidx__set.html#a859da6be3bf8f1e8a7e82a7eb1eebad6",tooltip=" "];
  Node5 -> Node4 [color="steelblue1",style="solid"];
  Node5 -> Node7 [color="steelblue1",style="solid"];
  Node7 [label="idx_set::get_pos",height=0.2,width=0.4,color="grey40", fillcolor="white", style="filled",URL="$classidx__set.html#a56e207910e0227f4eeccfd5de78d1220",tooltip=" "];
  Node3 -> Node8 [color="steelblue1",style="solid"];
  Node8 [label="boost::get",height=0.2,width=0.4,color="grey40", fillcolor="white", style="filled",URL="$namespaceboost.html#a16c10260e678081f48c16db5bdd0f5ea",tooltip=" "];
  Node8 -> Node8 [color="steelblue1",style="solid"];
  Node8 -> Node9 [color="steelblue1",style="solid"];
  Node9 [label="boost::undirected_adaptor\l::original_graph",height=0.2,width=0.4,color="grey40", fillcolor="white", style="filled",URL="$classboost_1_1undirected__adaptor.html#a11e557bb4f3d7c15354f98390f1d3644",tooltip=" "];
  Node3 -> Node10 [color="steelblue1",style="solid"];
  Node10 [label="idx_set::insert",height=0.2,width=0.4,color="grey40", fillcolor="white", style="filled",URL="$classidx__set.html#afbbd9253a38901eb7ec6c27b1b8c692e",tooltip=" "];
  Node10 -> Node6 [color="steelblue1",style="solid"];
  Node10 -> Node7 [color="steelblue1",style="solid"];
  Node2 -> Node11 [color="steelblue1",style="solid"];
  Node11 [label="graph_tool::PartitionMode\lState::relabel",height=0.2,width=0.4,color="grey40", fillcolor="white", style="filled",URL="$classgraph__tool_1_1PartitionModeState.html#abb915f1507691e434cc5b3a97834e8fb",tooltip=" "];
  Node11 -> Node12 [color="steelblue1",style="solid"];
  Node12 [label="graph_tool::PartitionMode\lState::check_size",height=0.2,width=0.4,color="grey40", fillcolor="white", style="filled",URL="$classgraph__tool_1_1PartitionModeState.html#a59b3530fbe2a27d0957f79caba098ee0",tooltip=" "];
  Node11 -> Node13 [color="steelblue1",style="solid"];
  Node13 [label="graph_tool::PartitionMode\lState::get_partition",height=0.2,width=0.4,color="grey40", fillcolor="white", style="filled",URL="$classgraph__tool_1_1PartitionModeState.html#a6b1c2feeb4eb14bbd0966fcb6d579f1d",tooltip=" "];
  Node13 -> Node14 [color="steelblue1",style="solid"];
  Node14 [label="idx_map::find",height=0.2,width=0.4,color="grey40", fillcolor="white", style="filled",URL="$classidx__map.html#a726b88bd6e966e76909b8a62b5b41ca9",tooltip=" "];
  Node14 -> Node15 [color="steelblue1",style="solid"];
  Node15 [label="idx_map::begin",height=0.2,width=0.4,color="grey40", fillcolor="white", style="filled",URL="$classidx__map.html#adfc59aadc681d10ca019307696b1ccc0",tooltip=" "];
  Node14 -> Node16 [color="steelblue1",style="solid"];
  Node16 [label="idx_map::end",height=0.2,width=0.4,color="grey40", fillcolor="white", style="filled",URL="$classidx__map.html#a263b32ec4987f44a80d78076b42d4cf4",tooltip=" "];
  Node14 -> Node17 [color="steelblue1",style="solid"];
  Node17 [label="idx_map::get_pos",height=0.2,width=0.4,color="grey40", fillcolor="white", style="filled",URL="$classidx__map.html#a1a6279629ebd6ef59a80b394d786a210",tooltip=" "];
  Node11 -> Node18 [color="steelblue1",style="solid"];
  Node18 [label="graph_tool::PartitionMode\lState::rebuild_nr",height=0.2,width=0.4,color="grey40", fillcolor="white", style="filled",URL="$classgraph__tool_1_1PartitionModeState.html#a88ce41ee2e47a073f10f3dd68a1c92b3",tooltip=" "];
  Node18 -> Node12 [color="steelblue1",style="solid"];
  Node18 -> Node13 [color="steelblue1",style="solid"];
  Node11 -> Node19 [color="steelblue1",style="solid"];
  Node19 [label="graph_tool::relabel\l_nested",height=0.2,width=0.4,color="grey40", fillcolor="white", style="filled",URL="$namespacegraph__tool.html#a8ff07e0f4d1ac9ad0f13f95aab2b4305",tooltip=" "];
  Node1 -> Node20 [color="steelblue1",style="solid"];
  Node20 [label="idx_map::empty",height=0.2,width=0.4,color="grey40", fillcolor="white", style="filled",URL="$classidx__map.html#ac432e85d4c473e6b3cedeca5767ce7e4",tooltip=" "];
  Node1 -> Node21 [color="steelblue1",style="solid"];
  Node21 [label="graph_tool::ModeClusterState\l::relabel_mode",height=0.2,width=0.4,color="grey40", fillcolor="white", style="filled",URL="$classgraph__tool_1_1ModeClusterState.html#a437a09b4faf9a0d2def6883affee9244",tooltip=" "];
  Node21 -> Node8 [color="steelblue1",style="solid"];
  Node21 -> Node22 [color="steelblue1",style="solid"];
  Node22 [label="graph_tool::PartitionMode\lState::get_nested_partition",height=0.2,width=0.4,color="grey40", fillcolor="white", style="filled",URL="$classgraph__tool_1_1PartitionModeState.html#a69950ad53952641702c1e09bcb34e42a",tooltip=" "];
  Node22 -> Node13 [color="steelblue1",style="solid"];
  Node21 -> Node23 [color="steelblue1",style="solid"];
  Node23 [label="graph_tool::maximum\l_bipartite_weighted\l_matching",height=0.2,width=0.4,color="grey40", fillcolor="white", style="filled",URL="$namespacegraph__tool.html#adecc3b94387297164c5746bfbb1ff4ca",tooltip=" "];
  Node23 -> Node24 [color="steelblue1",style="solid"];
  Node24 [label="boost::add_edge",height=0.2,width=0.4,color="grey40", fillcolor="white", style="filled",URL="$namespaceboost.html#a2ca660300636fcb45d338069833665ae",tooltip=" "];
  Node24 -> Node24 [color="steelblue1",style="solid"];
  Node24 -> Node9 [color="steelblue1",style="solid"];
  Node23 -> Node25 [color="steelblue1",style="solid"];
  Node25 [label="boost::add_vertex",height=0.2,width=0.4,color="grey40", fillcolor="white", style="filled",URL="$namespaceboost.html#a9440b0ee2e6a885ba5cd53babca04ae8",tooltip=" "];
  Node25 -> Node25 [color="steelblue1",style="solid"];
  Node25 -> Node9 [color="steelblue1",style="solid"];
  Node23 -> Node26 [color="steelblue1",style="solid"];
  Node26 [label="graph_tool::edges_range",height=0.2,width=0.4,color="grey40", fillcolor="white", style="filled",URL="$namespacegraph__tool.html#a84f027f8994c1005336b0a12eb0c9dc4",tooltip=" "];
  Node26 -> Node27 [color="steelblue1",style="solid"];
  Node27 [label="boost::edges",height=0.2,width=0.4,color="grey40", fillcolor="white", style="filled",URL="$namespaceboost.html#a3ac91f028a5f50644ba12e9e803bb2f8",tooltip=" "];
  Node27 -> Node27 [color="steelblue1",style="solid"];
  Node27 -> Node9 [color="steelblue1",style="solid"];
  Node26 -> Node28 [color="steelblue1",style="solid"];
  Node28 [label="graph_tool::mk_range",height=0.2,width=0.4,color="grey40", fillcolor="white", style="filled",URL="$namespacegraph__tool.html#a6ecc1e46efb4f620acabfe5728f7a2a6",tooltip=" "];
  Node23 -> Node8 [color="steelblue1",style="solid"];
  Node23 -> Node29 [color="steelblue1",style="solid"];
  Node29 [label="boost::checked_vector\l_property_map::get_unchecked",height=0.2,width=0.4,color="grey40", fillcolor="white", style="filled",URL="$classboost_1_1checked__vector__property__map.html#afc8aa547b3e8b4df8662342d55f6fd15",tooltip=" "];
  Node29 -> Node30 [color="steelblue1",style="solid"];
  Node30 [label="boost::checked_vector\l_property_map::reserve",height=0.2,width=0.4,color="grey40", fillcolor="white", style="filled",URL="$classboost_1_1checked__vector__property__map.html#ad42f677fcb713ec7f22a3f9629fd40db",tooltip=" "];
  Node23 -> Node31 [color="steelblue1",style="solid"];
  Node31 [label="graph_tool::maximum\l_bipartite_weighted\l_imperfect_matching",height=0.2,width=0.4,color="grey40", fillcolor="white", style="filled",URL="$namespacegraph__tool.html#a0c7a350aa83d4a65efed62a2db888884",tooltip=" "];
  Node31 -> Node24 [color="steelblue1",style="solid"];
  Node31 -> Node25 [color="steelblue1",style="solid"];
  Node31 -> Node26 [color="steelblue1",style="solid"];
  Node31 -> Node8 [color="steelblue1",style="solid"];
  Node31 -> Node29 [color="steelblue1",style="solid"];
  Node31 -> Node32 [color="steelblue1",style="solid"];
  Node32 [label="graph_tool::maximum\l_bipartite_weighted\l_perfect_matching",height=0.2,width=0.4,color="grey40", fillcolor="white", style="filled",URL="$namespacegraph__tool.html#a35462bc5ea627d1ee91177535c680038",tooltip=" "];
  Node32 -> Node24 [color="steelblue1",style="solid"];
  Node32 -> Node25 [color="steelblue1",style="solid"];
  Node32 -> Node33 [color="steelblue1",style="solid"];
  Node33 [label="boost::edge",height=0.2,width=0.4,color="grey40", fillcolor="white", style="filled",URL="$namespaceboost.html#a598b4480c610319f1d97be25667c6e56",tooltip=" "];
  Node33 -> Node33 [color="steelblue1",style="solid"];
  Node33 -> Node9 [color="steelblue1",style="solid"];
  Node32 -> Node26 [color="steelblue1",style="solid"];
  Node32 -> Node8 [color="steelblue1",style="solid"];
  Node32 -> Node34 [color="steelblue1",style="solid"];
  Node34 [label="boost::in_degree",height=0.2,width=0.4,color="grey40", fillcolor="white", style="filled",URL="$namespaceboost.html#aae9c29dc182236ee5b058b9e63c0d70a",tooltip=" "];
  Node32 -> Node35 [color="steelblue1",style="solid"];
  Node35 [label="boost::num_vertices",height=0.2,width=0.4,color="grey40", fillcolor="white", style="filled",URL="$namespaceboost.html#ac848f876a7fa2caa8fb1879b7c522ebc",tooltip=" "];
  Node35 -> Node35 [color="steelblue1",style="solid"];
  Node35 -> Node9 [color="steelblue1",style="solid"];
  Node32 -> Node36 [color="steelblue1",style="solid"];
  Node36 [label="boost::out_degree",height=0.2,width=0.4,color="grey40", fillcolor="white", style="filled",URL="$namespaceboost.html#ac2aab26c4c5fb471f6eef10ae4496089",tooltip=" "];
  Node36 -> Node37 [color="steelblue1",style="solid"];
  Node37 [label="boost::degree",height=0.2,width=0.4,color="grey40", fillcolor="white", style="filled",URL="$namespaceboost.html#ac08426adc887cd2f50850eb97baaae7d",tooltip=" "];
  Node37 -> Node36 [color="steelblue1",style="solid"];
  Node36 -> Node9 [color="steelblue1",style="solid"];
  Node32 -> Node38 [color="steelblue1",style="solid"];
  Node38 [label="graph_tool::out_edges\l_range",height=0.2,width=0.4,color="grey40", fillcolor="white", style="filled",URL="$namespacegraph__tool.html#a347f8a3e503c35e8a4d54184d8d90a6f",tooltip=" "];
  Node38 -> Node28 [color="steelblue1",style="solid"];
  Node32 -> Node39 [color="steelblue1",style="solid"];
  Node39 [label="graph_tool::out_neighbors\l_range",height=0.2,width=0.4,color="grey40", fillcolor="white", style="filled",URL="$namespacegraph__tool.html#a839ad7b0e6f54ea9e6b0f1bb55a7b19c",tooltip=" "];
  Node39 -> Node28 [color="steelblue1",style="solid"];
  Node39 -> Node40 [color="steelblue1",style="solid"];
  Node40 [label="boost::out_neighbors",height=0.2,width=0.4,color="red", fillcolor="#FFF0F0", style="filled",URL="$namespaceboost.html#a57f92469ea1bdd1e62a67f2bbd781fea",tooltip=" "];
  Node40 -> Node9 [color="steelblue1",style="solid"];
  Node32 -> Node42 [color="steelblue1",style="solid"];
  Node42 [label="boost::remove_edge",height=0.2,width=0.4,color="grey40", fillcolor="white", style="filled",URL="$namespaceboost.html#a45af224fa845fa533ba00155abf50467",tooltip=" "];
  Node42 -> Node33 [color="steelblue1",style="solid"];
  Node42 -> Node42 [color="steelblue1",style="solid"];
  Node32 -> Node43 [color="steelblue1",style="solid"];
  Node43 [label="boost::adj_list::set\l_keep_epos",height=0.2,width=0.4,color="grey40", fillcolor="white", style="filled",URL="$classboost_1_1adj__list.html#a854aaa5cdac7fd6f0ca7b607d62dc1f0",tooltip=" "];
  Node32 -> Node44 [color="steelblue1",style="solid"];
  Node44 [label="graph_tool::source",height=0.2,width=0.4,color="grey40", fillcolor="white", style="filled",URL="$namespacegraph__tool.html#a0b44c0af404cec1513acb7b9602557f8",tooltip=" "];
  Node44 -> Node27 [color="steelblue1",style="solid"];
  Node44 -> Node44 [color="steelblue1",style="solid"];
  Node44 -> Node45 [color="steelblue1",style="solid"];
  Node45 [label="graph_tool::target",height=0.2,width=0.4,color="grey40", fillcolor="white", style="filled",URL="$namespacegraph__tool.html#aff9f07ca294560a9de57ab80deffa0cc",tooltip=" "];
  Node45 -> Node27 [color="steelblue1",style="solid"];
  Node45 -> Node44 [color="steelblue1",style="solid"];
  Node45 -> Node45 [color="steelblue1",style="solid"];
  Node32 -> Node45 [color="steelblue1",style="solid"];
  Node32 -> Node46 [color="steelblue1",style="solid"];
  Node46 [label="boost::vertices",height=0.2,width=0.4,color="grey40", fillcolor="white", style="filled",URL="$namespaceboost.html#a0bc22071c353fa26cd0d16cc817ddde2",tooltip=" "];
  Node46 -> Node9 [color="steelblue1",style="solid"];
  Node46 -> Node46 [color="steelblue1",style="solid"];
  Node32 -> Node47 [color="steelblue1",style="solid"];
  Node47 [label="graph_tool::vertices\l_range",height=0.2,width=0.4,color="grey40", fillcolor="white", style="filled",URL="$namespacegraph__tool.html#a92ab479b81d8c9a030d42854fefabf1a",tooltip=" "];
  Node47 -> Node28 [color="steelblue1",style="solid"];
  Node47 -> Node46 [color="steelblue1",style="solid"];
  Node31 -> Node35 [color="steelblue1",style="solid"];
  Node31 -> Node44 [color="steelblue1",style="solid"];
  Node31 -> Node45 [color="steelblue1",style="solid"];
  Node31 -> Node46 [color="steelblue1",style="solid"];
  Node31 -> Node47 [color="steelblue1",style="solid"];
  Node23 -> Node35 [color="steelblue1",style="solid"];
  Node23 -> Node44 [color="steelblue1",style="solid"];
  Node23 -> Node45 [color="steelblue1",style="solid"];
  Node23 -> Node46 [color="steelblue1",style="solid"];
  Node23 -> Node47 [color="steelblue1",style="solid"];
  Node21 -> Node18 [color="steelblue1",style="solid"];
  Node21 -> Node21 [color="steelblue1",style="solid"];
  Node21 -> Node19 [color="steelblue1",style="solid"];
  Node21 -> Node47 [color="steelblue1",style="solid"];
  Node1 -> Node48 [color="steelblue1",style="solid"];
  Node48 [label="graph_tool::PartitionMode\lState::remove_partition",height=0.2,width=0.4,color="grey40", fillcolor="white", style="filled",URL="$classgraph__tool_1_1PartitionModeState.html#a5a3ab9ca5be9451dbcf3086825b21af6",tooltip=" "];
  Node48 -> Node16 [color="steelblue1",style="solid"];
  Node48 -> Node49 [color="steelblue1",style="solid"];
  Node49 [label="idx_map::erase",height=0.2,width=0.4,color="grey40", fillcolor="white", style="filled",URL="$classidx__map.html#a07558366d6004851c3e889cb4cfdfa35",tooltip=" "];
  Node49 -> Node17 [color="steelblue1",style="solid"];
  Node48 -> Node14 [color="steelblue1",style="solid"];
  Node1 -> Node50 [color="steelblue1",style="solid"];
  Node50 [label="graph_tool::PartitionMode\lState::virtual_add_partition",height=0.2,width=0.4,color="grey40", fillcolor="white", style="filled",URL="$classgraph__tool_1_1PartitionModeState.html#ad2c1c7824fe4fb5da69c422a37146648",tooltip=" "];
  Node50 -> Node11 [color="steelblue1",style="solid"];
  Node1 -> Node51 [color="steelblue1",style="solid"];
  Node51 [label="graph_tool::PartitionMode\lState::virtual_remove_partition",height=0.2,width=0.4,color="grey40", fillcolor="white", style="filled",URL="$classgraph__tool_1_1PartitionModeState.html#a336a6a116e0d9f27adfde65acac5da3f",tooltip=" "];
}
