digraph "graph_tool::VICenterState&lt; Ts &gt;"
{
 // LATEX_PDF_SIZE
  bgcolor="transparent";
  edge [fontname=Helvetica,fontsize=10,labelfontname=Helvetica,labelfontsize=10];
  node [fontname=Helvetica,fontsize=10,shape=box,height=0.2,width=0.4];
  Node1 [shape=record,label="{graph_tool::VICenterState\l\< Ts \>\n|+ _bg\l+ _mrs\l+ _nr\l+ _N\l+ _wr\l+ _empty_groups\l+ _candidate_groups\l+ _bclabel\l+ _pclabel\l+ _coupled_state\l|+ VICenterState()\l+ move_vertex()\l+ virtual_remove_size()\l+ add_block()\l+ virtual_move()\l+ get_empty_block()\l+ sample_block()\l+ sample_block_local()\l+ get_move_prob()\l+ get_move_prob()\land 12 more...\l}",height=0.2,width=0.4,color="gray40", fillcolor="grey60", style="filled", fontcolor="black",tooltip=" "];
  Node2 -> Node1 [dir="back",color="steelblue1",style="solid",arrowtail="onormal"];
  Node2 [shape=record,label="{VICenterStateBase\<\l Ts... \>\n||}",height=0.2,width=0.4,color="gray40", fillcolor="white", style="filled",tooltip=" "];
}
