digraph "graph_tool::BlockState::virtual_move"
{
 // LATEX_PDF_SIZE
  bgcolor="transparent";
  edge [fontname=Helvetica,fontsize=10,labelfontname=Helvetica,labelfontsize=10];
  node [fontname=Helvetica,fontsize=10,shape=box,height=0.2,width=0.4];
  rankdir="LR";
  Node1 [label="graph_tool::BlockState\l::virtual_move",height=0.2,width=0.4,color="gray40", fillcolor="grey60", style="filled", fontcolor="black",tooltip=" "];
  Node1 -> Node2 [color="steelblue1",style="solid"];
  Node2 [label="graph_tool::BlockState\l::virtual_move",height=0.2,width=0.4,color="grey40", fillcolor="white", style="filled",URL="$classgraph__tool_1_1BlockState.html#a04982f72a2079c5f0f95f4d05641451c",tooltip=" "];
  Node2 -> Node3 [color="steelblue1",style="solid"];
  Node3 [label="graph_tool::BlockState\l::allow_move",height=0.2,width=0.4,color="grey40", fillcolor="white", style="filled",URL="$classgraph__tool_1_1BlockState.html#a1761add9c8c212d838f7c454d7020da9",tooltip=" "];
  Node3 -> Node4 [color="steelblue1",style="solid"];
  Node4 [label="graph_tool::BlockStateVirtual\lBase::allow_move",height=0.2,width=0.4,color="grey40", fillcolor="white", style="filled",URL="$classgraph__tool_1_1BlockStateVirtualBase.html#a5cbdd463abbd989438163e87ce5c2643",tooltip=" "];
  Node3 -> Node5 [color="steelblue1",style="solid"];
  Node5 [label="graph_tool::BlockStateVirtual\lBase::get_b",height=0.2,width=0.4,color="grey40", fillcolor="white", style="filled",URL="$classgraph__tool_1_1BlockStateVirtualBase.html#a19317063fd7aa6ea0b8567a541ec53bf",tooltip=" "];
  Node2 -> Node6 [color="steelblue1",style="solid"];
  Node6 [label="graph_tool::entries_op",height=0.2,width=0.4,color="grey40", fillcolor="white", style="filled",URL="$namespacegraph__tool.html#ad076be20504dd10a1ca143e4812ddf61",tooltip=" "];
  Node2 -> Node7 [color="steelblue1",style="solid"];
  Node7 [label="graph_tool::BlockState\l::get_delta_partition_dl",height=0.2,width=0.4,color="grey40", fillcolor="white", style="filled",URL="$classgraph__tool_1_1BlockState.html#aa554114c9619cf9241e6a8d71588547d",tooltip=" "];
  Node7 -> Node5 [color="steelblue1",style="solid"];
  Node7 -> Node8 [color="steelblue1",style="solid"];
  Node8 [label="graph_tool::BlockStateVirtual\lBase::get_delta_partition_dl",height=0.2,width=0.4,color="grey40", fillcolor="white", style="filled",URL="$classgraph__tool_1_1BlockStateVirtualBase.html#a1e8d6fe36f5c8794c0efc21605aca944",tooltip=" "];
  Node7 -> Node9 [color="steelblue1",style="solid"];
  Node9 [label="graph_tool::BlockState\l::get_partition_stats",height=0.2,width=0.4,color="grey40", fillcolor="white", style="filled",URL="$classgraph__tool_1_1BlockState.html#aa8b66daefbbca4b7c6ccaa5f1da157b1",tooltip=" "];
  Node9 -> Node10 [color="steelblue1",style="solid"];
  Node10 [label="graph_tool::BlockState\l::init_partition_stats",height=0.2,width=0.4,color="grey40", fillcolor="white", style="filled",URL="$classgraph__tool_1_1BlockState.html#a3967ed1fee83a8a7993a41b3667f1241",tooltip=" "];
  Node10 -> Node11 [color="steelblue1",style="solid"];
  Node11 [label="boost::num_vertices",height=0.2,width=0.4,color="grey40", fillcolor="white", style="filled",URL="$namespaceboost.html#ac848f876a7fa2caa8fb1879b7c522ebc",tooltip=" "];
  Node11 -> Node11 [color="steelblue1",style="solid"];
  Node11 -> Node12 [color="steelblue1",style="solid"];
  Node12 [label="boost::undirected_adaptor\l::original_graph",height=0.2,width=0.4,color="grey40", fillcolor="white", style="filled",URL="$classboost_1_1undirected__adaptor.html#a11e557bb4f3d7c15354f98390f1d3644",tooltip=" "];
  Node10 -> Node13 [color="steelblue1",style="solid"];
  Node13 [label="graph_tool::BlockState\l::reset_partition_stats",height=0.2,width=0.4,color="grey40", fillcolor="white", style="filled",URL="$classgraph__tool_1_1BlockState.html#af2d30e205b3a1cf6324bc216a357ab17",tooltip=" "];
  Node10 -> Node14 [color="steelblue1",style="solid"];
  Node14 [label="boost::vertices",height=0.2,width=0.4,color="grey40", fillcolor="white", style="filled",URL="$namespaceboost.html#a0bc22071c353fa26cd0d16cc817ddde2",tooltip=" "];
  Node14 -> Node12 [color="steelblue1",style="solid"];
  Node14 -> Node14 [color="steelblue1",style="solid"];
  Node10 -> Node15 [color="steelblue1",style="solid"];
  Node15 [label="graph_tool::vertices\l_range",height=0.2,width=0.4,color="grey40", fillcolor="white", style="filled",URL="$namespacegraph__tool.html#a92ab479b81d8c9a030d42854fefabf1a",tooltip=" "];
  Node15 -> Node16 [color="steelblue1",style="solid"];
  Node16 [label="graph_tool::mk_range",height=0.2,width=0.4,color="grey40", fillcolor="white", style="filled",URL="$namespacegraph__tool.html#a6ecc1e46efb4f620acabfe5728f7a2a6",tooltip=" "];
  Node15 -> Node14 [color="steelblue1",style="solid"];
  Node2 -> Node17 [color="steelblue1",style="solid"];
  Node17 [label="graph_tool::BlockState\l::get_move_entries",height=0.2,width=0.4,color="grey40", fillcolor="white", style="filled",URL="$classgraph__tool_1_1BlockState.html#aeb871f6e9db9e25a0f1e4d75464f5ffd",tooltip=" "];
  Node17 -> Node18 [color="steelblue1",style="solid"];
  Node18 [label="graph_tool::move_entries",height=0.2,width=0.4,color="grey40", fillcolor="white", style="filled",URL="$namespacegraph__tool.html#aed5c8e84219c5fea36f27b5f2a978ba1",tooltip=" "];
  Node17 -> Node11 [color="steelblue1",style="solid"];
  Node2 -> Node9 [color="steelblue1",style="solid"];
  Node2 -> Node19 [color="steelblue1",style="solid"];
  Node19 [label="graph_tool::BlockStateVirtual\lBase::propagate_entries_dS",height=0.2,width=0.4,color="grey40", fillcolor="white", style="filled",URL="$classgraph__tool_1_1BlockStateVirtualBase.html#a1e77072b7c7c928d82371aaf2e02521e",tooltip=" "];
  Node2 -> Node20 [color="steelblue1",style="solid"];
  Node20 [label="graph_tool::rec_entries_dS",height=0.2,width=0.4,color="grey40", fillcolor="white", style="filled",URL="$namespacegraph__tool.html#ad391cb89c7da9e131ad5e12731408dcc",tooltip=" "];
  Node20 -> Node21 [color="steelblue1",style="solid"];
  Node21 [label="graph_tool::wentries_op",height=0.2,width=0.4,color="grey40", fillcolor="white", style="filled",URL="$namespacegraph__tool.html#a69444024c2f2c444c670884c3497e464",tooltip=" "];
  Node2 -> Node22 [color="steelblue1",style="solid"];
  Node22 [label="graph_tool::BlockState\l::virtual_move_dense",height=0.2,width=0.4,color="grey40", fillcolor="white", style="filled",URL="$classgraph__tool_1_1BlockState.html#a28a0cb9e03e36e4480551b15b8eacba2",tooltip=" "];
  Node22 -> Node23 [color="steelblue1",style="solid"];
  Node23 [label="graph_tool::eterm_dense",height=0.2,width=0.4,color="grey40", fillcolor="white", style="filled",URL="$namespacegraph__tool.html#a9a7983e9b67d890382e0a6c8dc151fa0",tooltip=" "];
  Node23 -> Node24 [color="steelblue1",style="solid"];
  Node24 [label="graph_tool::is_directed",height=0.2,width=0.4,color="grey40", fillcolor="white", style="filled",URL="$namespacegraph__tool.html#a815c22620d9f5756b899dc94e405e2f3",tooltip=" "];
  Node22 -> Node25 [color="steelblue1",style="solid"];
  Node25 [label="graph_tool::get_beprop",height=0.2,width=0.4,color="grey40", fillcolor="white", style="filled",URL="$namespacegraph__tool.html#afb1433f0d272a34e5f92f4ce15e18419",tooltip=" "];
  Node22 -> Node26 [color="steelblue1",style="solid"];
  Node26 [label="graph_tool::in_edges\l_range",height=0.2,width=0.4,color="grey40", fillcolor="white", style="filled",URL="$namespacegraph__tool.html#ae2bbfd4979b94ff2417605533d84aec9",tooltip=" "];
  Node26 -> Node16 [color="steelblue1",style="solid"];
  Node22 -> Node11 [color="steelblue1",style="solid"];
  Node22 -> Node27 [color="steelblue1",style="solid"];
  Node27 [label="graph_tool::out_edges\l_range",height=0.2,width=0.4,color="grey40", fillcolor="white", style="filled",URL="$namespacegraph__tool.html#a347f8a3e503c35e8a4d54184d8d90a6f",tooltip=" "];
  Node27 -> Node16 [color="steelblue1",style="solid"];
  Node22 -> Node28 [color="steelblue1",style="solid"];
  Node28 [label="graph_tool::source",height=0.2,width=0.4,color="grey40", fillcolor="white", style="filled",URL="$namespacegraph__tool.html#a0b44c0af404cec1513acb7b9602557f8",tooltip=" "];
  Node28 -> Node29 [color="steelblue1",style="solid"];
  Node29 [label="boost::edges",height=0.2,width=0.4,color="grey40", fillcolor="white", style="filled",URL="$namespaceboost.html#a3ac91f028a5f50644ba12e9e803bb2f8",tooltip=" "];
  Node29 -> Node29 [color="steelblue1",style="solid"];
  Node29 -> Node12 [color="steelblue1",style="solid"];
  Node28 -> Node28 [color="steelblue1",style="solid"];
  Node28 -> Node30 [color="steelblue1",style="solid"];
  Node30 [label="graph_tool::target",height=0.2,width=0.4,color="grey40", fillcolor="white", style="filled",URL="$namespacegraph__tool.html#aff9f07ca294560a9de57ab80deffa0cc",tooltip=" "];
  Node30 -> Node29 [color="steelblue1",style="solid"];
  Node30 -> Node28 [color="steelblue1",style="solid"];
  Node30 -> Node30 [color="steelblue1",style="solid"];
  Node22 -> Node30 [color="steelblue1",style="solid"];
  Node2 -> Node31 [color="steelblue1",style="solid"];
  Node31 [label="graph_tool::BlockState\l::virtual_remove_size",height=0.2,width=0.4,color="grey40", fillcolor="white", style="filled",URL="$classgraph__tool_1_1BlockState.html#a7d7a97a1c44a24eed93adbb9602738d5",tooltip=" "];
  Node2 -> Node21 [color="steelblue1",style="solid"];
}
