digraph "graph_tool::PartitionModeState::check_size"
{
 // LATEX_PDF_SIZE
  bgcolor="transparent";
  edge [fontname=Helvetica,fontsize=10,labelfontname=Helvetica,labelfontsize=10];
  node [fontname=Helvetica,fontsize=10,shape=box,height=0.2,width=0.4];
  rankdir="RL";
  Node1 [label="graph_tool::PartitionMode\lState::check_size",height=0.2,width=0.4,color="gray40", fillcolor="grey60", style="filled", fontcolor="black",tooltip=" "];
  Node1 -> Node2 [dir="back",color="steelblue1",style="solid"];
  Node2 [label="graph_tool::PartitionMode\lState::add_partition",height=0.2,width=0.4,color="grey40", fillcolor="white", style="filled",URL="$classgraph__tool_1_1PartitionModeState.html#afe42ac0a084a1f2fb9293b5962107d49",tooltip=" "];
  Node1 -> Node3 [dir="back",color="steelblue1",style="solid"];
  Node3 [label="graph_tool::PartitionMode\lState::rebuild_nr",height=0.2,width=0.4,color="grey40", fillcolor="white", style="filled",URL="$classgraph__tool_1_1PartitionModeState.html#a88ce41ee2e47a073f10f3dd68a1c92b3",tooltip=" "];
  Node3 -> Node4 [dir="back",color="steelblue1",style="solid"];
  Node4 [label="graph_tool::PartitionMode\lState::relabel",height=0.2,width=0.4,color="grey40", fillcolor="white", style="filled",URL="$classgraph__tool_1_1PartitionModeState.html#abb915f1507691e434cc5b3a97834e8fb",tooltip=" "];
  Node4 -> Node5 [dir="back",color="steelblue1",style="solid"];
  Node5 [label="graph_tool::PartitionMode\lState::add_partition",height=0.2,width=0.4,color="grey40", fillcolor="white", style="filled",URL="$classgraph__tool_1_1PartitionModeState.html#aa8ae30e919f4759049ad966b5e6240ea",tooltip=" "];
  Node5 -> Node5 [dir="back",color="steelblue1",style="solid"];
  Node5 -> Node6 [dir="back",color="steelblue1",style="solid"];
  Node6 [label="graph_tool::PartitionMode\lState::align_mode",height=0.2,width=0.4,color="grey40", fillcolor="white", style="filled",URL="$classgraph__tool_1_1PartitionModeState.html#ab2c18cdd114f17fb2453246ca1153f55",tooltip=" "];
  Node6 -> Node7 [dir="back",color="steelblue1",style="solid"];
  Node7 [label="export_partition_mode",height=0.2,width=0.4,color="grey40", fillcolor="white", style="filled",URL="$graph__partition__mode_8cc.html#a5d5ff6a7a64cf2a1c328796ed057c478",tooltip=" "];
  Node7 -> Node8 [dir="back",color="steelblue1",style="solid"];
  Node8 [label="BOOST_PYTHON_MODULE",height=0.2,width=0.4,color="grey40", fillcolor="white", style="filled",URL="$graph__inference_8cc.html#aa52d8fe13d2a62317b6e603933a10b92",tooltip=" "];
  Node5 -> Node7 [dir="back",color="steelblue1",style="solid"];
  Node5 -> Node9 [dir="back",color="steelblue1",style="solid"];
  Node9 [label="graph_tool::ModeClusterState\l::relabel_modes",height=0.2,width=0.4,color="grey40", fillcolor="white", style="filled",URL="$classgraph__tool_1_1ModeClusterState.html#a06176f21320005a4d0dca279999ab81c",tooltip=" "];
  Node5 -> Node10 [dir="back",color="steelblue1",style="solid"];
  Node10 [label="graph_tool::PartitionMode\lState::replace_partitions",height=0.2,width=0.4,color="grey40", fillcolor="white", style="filled",URL="$classgraph__tool_1_1PartitionModeState.html#a21437f0783e4d8d8317b0db9dcfa9f75",tooltip=" "];
  Node10 -> Node7 [dir="back",color="steelblue1",style="solid"];
  Node4 -> Node7 [dir="back",color="steelblue1",style="solid"];
  Node4 -> Node11 [dir="back",color="steelblue1",style="solid"];
  Node11 [label="graph_tool::PartitionMode\lState::virtual_add_partition",height=0.2,width=0.4,color="grey40", fillcolor="white", style="filled",URL="$classgraph__tool_1_1PartitionModeState.html#ad2c1c7824fe4fb5da69c422a37146648",tooltip=" "];
  Node11 -> Node7 [dir="back",color="steelblue1",style="solid"];
  Node11 -> Node9 [dir="back",color="steelblue1",style="solid"];
  Node11 -> Node10 [dir="back",color="steelblue1",style="solid"];
  Node4 -> Node12 [dir="back",color="steelblue1",style="solid"];
  Node12 [label="graph_tool::PartitionMode\lState::virtual_change_partition",height=0.2,width=0.4,color="grey40", fillcolor="white", style="filled",URL="$classgraph__tool_1_1PartitionModeState.html#a9a176ace6f2ac1fce21a0b6adbf83f8f",tooltip=" "];
  Node3 -> Node13 [dir="back",color="steelblue1",style="solid"];
  Node13 [label="graph_tool::ModeClusterState\l::relabel_mode",height=0.2,width=0.4,color="grey40", fillcolor="white", style="filled",URL="$classgraph__tool_1_1ModeClusterState.html#a437a09b4faf9a0d2def6883affee9244",tooltip=" "];
  Node13 -> Node13 [dir="back",color="steelblue1",style="solid"];
  Node13 -> Node9 [dir="back",color="steelblue1",style="solid"];
  Node1 -> Node4 [dir="back",color="steelblue1",style="solid"];
  Node1 -> Node14 [dir="back",color="steelblue1",style="solid"];
  Node14 [label="graph_tool::PartitionMode\lState::relabel_partition",height=0.2,width=0.4,color="grey40", fillcolor="white", style="filled",URL="$classgraph__tool_1_1PartitionModeState.html#a1c10cee70c308acb670d04e275c9db6d",tooltip=" "];
  Node14 -> Node2 [dir="back",color="steelblue1",style="solid"];
  Node14 -> Node7 [dir="back",color="steelblue1",style="solid"];
  Node14 -> Node12 [dir="back",color="steelblue1",style="solid"];
  Node1 -> Node12 [dir="back",color="steelblue1",style="solid"];
}
