digraph "boost::checked_vector_property_map::get_unchecked"
{
 // LATEX_PDF_SIZE
  bgcolor="transparent";
  edge [fontname=Helvetica,fontsize=10,labelfontname=Helvetica,labelfontsize=10];
  node [fontname=Helvetica,fontsize=10,shape=box,height=0.2,width=0.4];
  rankdir="RL";
  Node1 [label="boost::checked_vector\l_property_map::get_unchecked",height=0.2,width=0.4,color="gray40", fillcolor="grey60", style="filled", fontcolor="black",tooltip=" "];
  Node1 -> Node2 [dir="back",color="steelblue1",style="solid"];
  Node2 [label="boost::unchecked_vector\l_property_map::copy",height=0.2,width=0.4,color="grey40", fillcolor="white", style="filled",URL="$classboost_1_1unchecked__vector__property__map.html#a5839371144dcba2015352330fedc86e8",tooltip=" "];
  Node1 -> Node3 [dir="back",color="steelblue1",style="solid"];
  Node3 [label="generate_maxent_sbm",height=0.2,width=0.4,color="grey40", fillcolor="white", style="filled",URL="$graph__maxent__sbm_8cc.html#a830148c1d8fb903b5380977181bb7266",tooltip=" "];
  Node3 -> Node4 [dir="back",color="steelblue1",style="solid"];
  Node4 [label="export_maxent_sbm",height=0.2,width=0.4,color="grey40", fillcolor="white", style="filled",URL="$graph__maxent__sbm_8cc.html#a33cdb06d0e3c73dc4fca2d94597f1fac",tooltip=" "];
  Node4 -> Node5 [dir="back",color="steelblue1",style="solid"];
  Node5 [label="BOOST_PYTHON_MODULE",height=0.2,width=0.4,color="grey40", fillcolor="white", style="filled",URL="$graph__generation_8cc.html#ad7bbbb1fc2ba89024c959696bbe3788a",tooltip=" "];
  Node1 -> Node6 [dir="back",color="steelblue1",style="solid"];
  Node6 [label="generate_sbm",height=0.2,width=0.4,color="grey40", fillcolor="white", style="filled",URL="$graph__sbm_8cc.html#a77820a0416bb850e60ef73b31739c2d6",tooltip=" "];
  Node6 -> Node5 [dir="back",color="steelblue1",style="solid"];
  Node1 -> Node7 [dir="back",color="steelblue1",style="solid"];
  Node7 [label="boost::get_unchecked",height=0.2,width=0.4,color="grey40", fillcolor="white", style="filled",URL="$namespaceboost.html#a8b45e47b2375b8d1cd889c5acf59c200",tooltip=" "];
  Node7 -> Node8 [dir="back",color="steelblue1",style="solid"];
  Node8 [label="get_edmonds_karp_max\l_flow::operator()",height=0.2,width=0.4,color="grey40", fillcolor="white", style="filled",URL="$structget__edmonds__karp__max__flow.html#af6474f419d253aa0613692a99d085465",tooltip=" "];
  Node7 -> Node9 [dir="back",color="steelblue1",style="solid"];
  Node9 [label="get_push_relabel_max\l_flow::operator()",height=0.2,width=0.4,color="grey40", fillcolor="white", style="filled",URL="$structget__push__relabel__max__flow.html#a77e1196e7d56bebf101273bdb66ddf28",tooltip=" "];
  Node7 -> Node10 [dir="back",color="steelblue1",style="solid"];
  Node10 [label="uncheck",height=0.2,width=0.4,color="grey40", fillcolor="white", style="filled",URL="$graph__similarity_8cc.html#acc901248d33e25f3cd506e1a5c0dab5d",tooltip=" "];
  Node10 -> Node11 [dir="back",color="steelblue1",style="solid"];
  Node11 [label="similarity",height=0.2,width=0.4,color="grey40", fillcolor="white", style="filled",URL="$graph__similarity_8cc.html#af5ec244e503344e09f2e20cc0d6fa5fd",tooltip=" "];
  Node11 -> Node12 [dir="back",color="steelblue1",style="solid"];
  Node12 [label="export_similarity",height=0.2,width=0.4,color="grey40", fillcolor="white", style="filled",URL="$graph__similarity_8cc.html#a24c52b4fb062fd30a5af1a3e0b214086",tooltip=" "];
  Node12 -> Node13 [dir="back",color="steelblue1",style="solid"];
  Node13 [label="BOOST_PYTHON_MODULE",height=0.2,width=0.4,color="grey40", fillcolor="white", style="filled",URL="$graph__topology_8cc.html#a1f8068349bfdbea49136a3447b5239ac",tooltip=" "];
  Node1 -> Node14 [dir="back",color="steelblue1",style="solid"];
  Node14 [label="graph_tool::maximum\l_bipartite_weighted\l_imperfect_matching",height=0.2,width=0.4,color="grey40", fillcolor="white", style="filled",URL="$namespacegraph__tool.html#a0c7a350aa83d4a65efed62a2db888884",tooltip=" "];
  Node14 -> Node15 [dir="back",color="steelblue1",style="solid"];
  Node15 [label="graph_tool::maximum\l_bipartite_weighted\l_matching",height=0.2,width=0.4,color="grey40", fillcolor="white", style="filled",URL="$namespacegraph__tool.html#adecc3b94387297164c5746bfbb1ff4ca",tooltip=" "];
  Node15 -> Node16 [dir="back",color="steelblue1",style="solid"];
  Node16 [label="graph_tool::PartitionMode\lState::align_mode",height=0.2,width=0.4,color="grey40", fillcolor="white", style="filled",URL="$classgraph__tool_1_1PartitionModeState.html#ab2c18cdd114f17fb2453246ca1153f55",tooltip=" "];
  Node16 -> Node17 [dir="back",color="steelblue1",style="solid"];
  Node17 [label="export_partition_mode",height=0.2,width=0.4,color="grey40", fillcolor="white", style="filled",URL="$graph__partition__mode_8cc.html#a5d5ff6a7a64cf2a1c328796ed057c478",tooltip=" "];
  Node17 -> Node18 [dir="back",color="steelblue1",style="solid"];
  Node18 [label="BOOST_PYTHON_MODULE",height=0.2,width=0.4,color="grey40", fillcolor="white", style="filled",URL="$graph__inference_8cc.html#aa52d8fe13d2a62317b6e603933a10b92",tooltip=" "];
  Node15 -> Node19 [dir="back",color="steelblue1",style="solid"];
  Node19 [label="get_max_bip_weighted\l_matching",height=0.2,width=0.4,color="grey40", fillcolor="white", style="filled",URL="$graph__matching_8cc.html#aac3d6e99fcd196c42365ced9337ab997",tooltip=" "];
  Node19 -> Node20 [dir="back",color="steelblue1",style="solid"];
  Node20 [label="export_matching",height=0.2,width=0.4,color="grey40", fillcolor="white", style="filled",URL="$graph__matching_8cc.html#a2e2a5590c4db61727ff8b14fedf27f5a",tooltip=" "];
  Node20 -> Node13 [dir="back",color="steelblue1",style="solid"];
  Node15 -> Node21 [dir="back",color="steelblue1",style="solid"];
  Node21 [label="graph_tool::partition\l_align_labels",height=0.2,width=0.4,color="grey40", fillcolor="white", style="filled",URL="$namespacegraph__tool.html#af77d906003ccb5ae226b3a5cce40486a",tooltip=" "];
  Node21 -> Node17 [dir="back",color="steelblue1",style="solid"];
  Node21 -> Node22 [dir="back",color="steelblue1",style="solid"];
  Node22 [label="graph_tool::nested\l_partition_align_labels",height=0.2,width=0.4,color="grey40", fillcolor="white", style="filled",URL="$namespacegraph__tool.html#a04c3cbf7fbb0902c501b1cda62e185bf",tooltip=" "];
  Node22 -> Node17 [dir="back",color="steelblue1",style="solid"];
  Node22 -> Node23 [dir="back",color="steelblue1",style="solid"];
  Node23 [label="graph_tool::nested\l_partition_overlap_center",height=0.2,width=0.4,color="grey40", fillcolor="white", style="filled",URL="$namespacegraph__tool.html#a792f3f8880ee630c7bb68ce9e36f726f",tooltip=" "];
  Node23 -> Node17 [dir="back",color="steelblue1",style="solid"];
  Node21 -> Node24 [dir="back",color="steelblue1",style="solid"];
  Node24 [label="graph_tool::partition\l_overlap_center",height=0.2,width=0.4,color="grey40", fillcolor="white", style="filled",URL="$namespacegraph__tool.html#a8be77613ee98975fa50682ad57b26ec5",tooltip=" "];
  Node24 -> Node17 [dir="back",color="steelblue1",style="solid"];
  Node15 -> Node25 [dir="back",color="steelblue1",style="solid"];
  Node25 [label="graph_tool::partition\l_overlap",height=0.2,width=0.4,color="grey40", fillcolor="white", style="filled",URL="$namespacegraph__tool.html#aec361e4f422207e564910d58891ec693",tooltip=" "];
  Node25 -> Node17 [dir="back",color="steelblue1",style="solid"];
  Node15 -> Node26 [dir="back",color="steelblue1",style="solid"];
  Node26 [label="graph_tool::ModeClusterState\l::relabel_mode",height=0.2,width=0.4,color="grey40", fillcolor="white", style="filled",URL="$classgraph__tool_1_1ModeClusterState.html#a437a09b4faf9a0d2def6883affee9244",tooltip=" "];
  Node26 -> Node26 [dir="back",color="steelblue1",style="solid"];
  Node26 -> Node27 [dir="back",color="steelblue1",style="solid"];
  Node27 [label="graph_tool::ModeClusterState\l::relabel_modes",height=0.2,width=0.4,color="grey40", fillcolor="white", style="filled",URL="$classgraph__tool_1_1ModeClusterState.html#a06176f21320005a4d0dca279999ab81c",tooltip=" "];
  Node15 -> Node28 [dir="back",color="steelblue1",style="solid"];
  Node28 [label="graph_tool::PartitionMode\lState::relabel_partition",height=0.2,width=0.4,color="grey40", fillcolor="white", style="filled",URL="$classgraph__tool_1_1PartitionModeState.html#a1c10cee70c308acb670d04e275c9db6d",tooltip=" "];
  Node28 -> Node29 [dir="back",color="steelblue1",style="solid"];
  Node29 [label="graph_tool::PartitionMode\lState::add_partition",height=0.2,width=0.4,color="grey40", fillcolor="white", style="filled",URL="$classgraph__tool_1_1PartitionModeState.html#afe42ac0a084a1f2fb9293b5962107d49",tooltip=" "];
  Node28 -> Node17 [dir="back",color="steelblue1",style="solid"];
  Node28 -> Node30 [dir="back",color="steelblue1",style="solid"];
  Node30 [label="graph_tool::PartitionMode\lState::virtual_change_partition",height=0.2,width=0.4,color="grey40", fillcolor="white", style="filled",URL="$classgraph__tool_1_1PartitionModeState.html#a9a176ace6f2ac1fce21a0b6adbf83f8f",tooltip=" "];
  Node15 -> Node31 [dir="back",color="steelblue1",style="solid"];
  Node31 [label="graph_tool::Multilevel\l::relabel_rs",height=0.2,width=0.4,color="grey40", fillcolor="white", style="filled",URL="$structgraph__tool_1_1Multilevel.html#a7967251ea77bb868c18e680633016018",tooltip=" "];
  Node31 -> Node32 [dir="back",color="steelblue1",style="solid"];
  Node32 [label="graph_tool::Multilevel\l::gibbs_sweep",height=0.2,width=0.4,color="grey40", fillcolor="white", style="filled",URL="$structgraph__tool_1_1Multilevel.html#ac15abbb6e44eb62fd06e44b609e0112e",tooltip=" "];
  Node31 -> Node33 [dir="back",color="steelblue1",style="solid"];
  Node33 [label="graph_tool::Multilevel\l::mh_sweep_prob",height=0.2,width=0.4,color="grey40", fillcolor="white", style="filled",URL="$structgraph__tool_1_1Multilevel.html#aa481910dbb3989412fd57110f6c0752e",tooltip=" "];
  Node33 -> Node34 [dir="back",color="steelblue1",style="solid"];
  Node34 [label="graph_tool::Multilevel\l::stage_multilevel",height=0.2,width=0.4,color="grey40", fillcolor="white", style="filled",URL="$structgraph__tool_1_1Multilevel.html#ae5f2a1c73005717ee33c5f4de4acca8f",tooltip=" "];
  Node34 -> Node35 [dir="back",color="steelblue1",style="solid"];
  Node35 [label="graph_tool::Multilevel\l::move_proposal",height=0.2,width=0.4,color="grey40", fillcolor="white", style="filled",URL="$structgraph__tool_1_1Multilevel.html#a2d2fb774193324f6d242041f01d9aaf5",tooltip=" "];
  Node31 -> Node34 [dir="back",color="steelblue1",style="solid"];
  Node1 -> Node15 [dir="back",color="steelblue1",style="solid"];
  Node1 -> Node36 [dir="back",color="steelblue1",style="solid"];
  Node36 [label="graph_tool::uncheck",height=0.2,width=0.4,color="grey40", fillcolor="white", style="filled",URL="$namespacegraph__tool.html#ab9e49a55e3bf7001f64b86f7903a9eb6",tooltip=" "];
  Node1 -> Node37 [dir="back",color="steelblue1",style="solid"];
  Node37 [label="graph_tool::detail\l::action_wrap::uncheck",height=0.2,width=0.4,color="grey40", fillcolor="white", style="filled",URL="$structgraph__tool_1_1detail_1_1action__wrap.html#ad16af5e0f6662b145acb2ef2e82d4c63",tooltip=" "];
}
