digraph "get_planar_embedding::edge_inserter&lt; EdgeMap &gt;"
{
 // LATEX_PDF_SIZE
  bgcolor="transparent";
  edge [fontname=Helvetica,fontsize=10,labelfontname=Helvetica,labelfontsize=10];
  node [fontname=Helvetica,fontsize=10,shape=box,height=0.2,width=0.4];
  Node1 [shape=record,label="{get_planar_embedding\l::edge_inserter\< EdgeMap \>\n||+ edge_inserter()\l+ operator++()\l+ operator++()\l+ operator*()\l+ operator=()\l}",height=0.2,width=0.4,color="gray40", fillcolor="grey60", style="filled", fontcolor="black",tooltip=" "];
}
