digraph "graph_tool::MCMC::MCMCUncertainState::get_edge"
{
 // LATEX_PDF_SIZE
  bgcolor="transparent";
  edge [fontname=Helvetica,fontsize=10,labelfontname=Helvetica,labelfontsize=10];
  node [fontname=Helvetica,fontsize=10,shape=box,height=0.2,width=0.4];
  rankdir="RL";
  Node1 [label="graph_tool::MCMC::MCMCUncertain\lState::get_edge",height=0.2,width=0.4,color="gray40", fillcolor="grey60", style="filled", fontcolor="black",tooltip=" "];
  Node1 -> Node2 [dir="back",color="steelblue1",style="solid"];
  Node2 [label="graph_tool::MCMC::MCMCUncertain\lState::node_state",height=0.2,width=0.4,color="grey40", fillcolor="white", style="filled",URL="$classgraph__tool_1_1MCMC_1_1MCMCUncertainState.html#ac59919b75254ddcb8e9e1fb20c87daf4",tooltip=" "];
  Node1 -> Node3 [dir="back",color="steelblue1",style="solid"];
  Node3 [label="graph_tool::MCMC::MCMCUncertain\lState::perform_move",height=0.2,width=0.4,color="grey40", fillcolor="white", style="filled",URL="$classgraph__tool_1_1MCMC_1_1MCMCUncertainState.html#a2e14451a695a7a5fbc6c09cfa330471a",tooltip=" "];
  Node1 -> Node4 [dir="back",color="steelblue1",style="solid"];
  Node4 [label="graph_tool::MCMC::MCMCUncertain\lState::virtual_move_dS",height=0.2,width=0.4,color="grey40", fillcolor="white", style="filled",URL="$classgraph__tool_1_1MCMC_1_1MCMCUncertainState.html#a403a7e9d017dbfce0d4192eb8d327fa7",tooltip=" "];
}
