digraph "graph_tool::OState::RankedState::stream_dir"
{
 // LATEX_PDF_SIZE
  bgcolor="transparent";
  edge [fontname=Helvetica,fontsize=10,labelfontname=Helvetica,labelfontsize=10];
  node [fontname=Helvetica,fontsize=10,shape=box,height=0.2,width=0.4];
  rankdir="RL";
  Node1 [label="graph_tool::OState\l::RankedState::stream_dir",height=0.2,width=0.4,color="gray40", fillcolor="grey60", style="filled", fontcolor="black",tooltip=" "];
  Node1 -> Node2 [dir="back",color="steelblue1",style="solid"];
  Node2 [label="graph_tool::OState\l::RankedState::move\l_vertex",height=0.2,width=0.4,color="grey40", fillcolor="white", style="filled",URL="$classgraph__tool_1_1OState_1_1RankedState.html#a0ab2225725606e58b5e35281dc7c5d53",tooltip=" "];
  Node1 -> Node3 [dir="back",color="steelblue1",style="solid"];
  Node3 [label="graph_tool::OState\l::RankedState::RankedState",height=0.2,width=0.4,color="grey40", fillcolor="white", style="filled",URL="$classgraph__tool_1_1OState_1_1RankedState.html#a9eb70adb092bbd3e574ffd0b7847c67a",tooltip=" "];
  Node1 -> Node4 [dir="back",color="steelblue1",style="solid"];
  Node4 [label="graph_tool::OState\l::RankedState::virtual_move",height=0.2,width=0.4,color="grey40", fillcolor="white", style="filled",URL="$classgraph__tool_1_1OState_1_1RankedState.html#a3a1ef9323fffe0edbbfe0c15b635deea",tooltip=" "];
}
