digraph "graph_tool::DynamicSampler::sample_idx"
{
 // LATEX_PDF_SIZE
  bgcolor="transparent";
  edge [fontname=Helvetica,fontsize=10,labelfontname=Helvetica,labelfontsize=10];
  node [fontname=Helvetica,fontsize=10,shape=box,height=0.2,width=0.4];
  rankdir="RL";
  Node1 [label="graph_tool::DynamicSampler\l::sample_idx",height=0.2,width=0.4,color="gray40", fillcolor="grey60", style="filled", fontcolor="black",tooltip=" "];
  Node1 -> Node2 [dir="back",color="steelblue1",style="solid"];
  Node2 [label="graph_tool::DynamicSampler\l::sample",height=0.2,width=0.4,color="grey40", fillcolor="white", style="filled",URL="$classgraph__tool_1_1DynamicSampler.html#a2689e01b5afa0849c416051139e5d210",tooltip=" "];
  Node2 -> Node3 [dir="back",color="steelblue1",style="solid"];
  Node3 [label="graph_tool::get_price\l::operator()",height=0.2,width=0.4,color="grey40", fillcolor="white", style="filled",URL="$structgraph__tool_1_1get__price.html#a1093b495861da3741be957a002e121f7",tooltip=" "];
  Node2 -> Node4 [dir="back",color="steelblue1",style="solid"];
  Node4 [label="graph_tool::SBMEdgeSampler\l::sample",height=0.2,width=0.4,color="grey40", fillcolor="white", style="filled",URL="$classgraph__tool_1_1SBMEdgeSampler.html#adf71d9cbf23169a8b4fe63de012209b4",tooltip=" "];
  Node4 -> Node5 [dir="back",color="steelblue1",style="solid"];
  Node5 [label="graph_tool::MCMC::MCMCDynamics\lState::move_proposal",height=0.2,width=0.4,color="grey40", fillcolor="white", style="filled",URL="$classgraph__tool_1_1MCMC_1_1MCMCDynamicsState.html#a589c7f40dd2d31edc3912c9ba498c962",tooltip=" "];
  Node4 -> Node6 [dir="back",color="steelblue1",style="solid"];
  Node6 [label="graph_tool::MCMC::MCMCLatent\lLayersState::move_proposal",height=0.2,width=0.4,color="grey40", fillcolor="white", style="filled",URL="$classgraph__tool_1_1MCMC_1_1MCMCLatentLayersState.html#aedbb8efa84415ce24bf0b803e862cb36",tooltip=" "];
  Node4 -> Node7 [dir="back",color="steelblue1",style="solid"];
  Node7 [label="graph_tool::MCMC::MCMCUncertain\lState::move_proposal",height=0.2,width=0.4,color="grey40", fillcolor="white", style="filled",URL="$classgraph__tool_1_1MCMC_1_1MCMCUncertainState.html#ade3018c83741087fd3de08ea0572b919",tooltip=" "];
  Node2 -> Node1 [dir="back",color="steelblue1",style="solid"];
}
