digraph "graph_tool::HistD::HistState::entropy"
{
 // LATEX_PDF_SIZE
  bgcolor="transparent";
  edge [fontname=Helvetica,fontsize=10,labelfontname=Helvetica,labelfontsize=10];
  node [fontname=Helvetica,fontsize=10,shape=box,height=0.2,width=0.4];
  rankdir="LR";
  Node1 [label="graph_tool::HistD::\lHistState::entropy",height=0.2,width=0.4,color="gray40", fillcolor="grey60", style="filled", fontcolor="black",tooltip=" "];
  Node1 -> Node2 [color="steelblue1",style="solid"];
  Node2 [label="graph_tool::HistD::\lHistState::entropy_cgroup",height=0.2,width=0.4,color="grey40", fillcolor="white", style="filled",URL="$classgraph__tool_1_1HistD_1_1HistState.html#a304f446ec9e0de60fc51f625d47e066a",tooltip=" "];
  Node2 -> Node3 [color="steelblue1",style="solid"];
  Node3 [label="graph_tool::lgamma_fast",height=0.2,width=0.4,color="grey40", fillcolor="white", style="filled",URL="$namespacegraph__tool.html#ae308495dc111f97fa85b7b4ab66bc264",tooltip=" "];
  Node3 -> Node4 [color="steelblue1",style="solid"];
  Node4 [label="graph_tool::init_lgamma",height=0.2,width=0.4,color="grey40", fillcolor="white", style="filled",URL="$namespacegraph__tool.html#aab67a0fc53c44fafc91b5cb2911aff3b",tooltip=" "];
  Node1 -> Node5 [color="steelblue1",style="solid"];
  Node5 [label="graph_tool::HistD::\lHistState::entropy_group",height=0.2,width=0.4,color="grey40", fillcolor="white", style="filled",URL="$classgraph__tool_1_1HistD_1_1HistState.html#a84915c6b6106df67c9d68a51820cbec0",tooltip=" "];
  Node5 -> Node3 [color="steelblue1",style="solid"];
  Node1 -> Node6 [color="steelblue1",style="solid"];
  Node6 [label="graph_tool::lbinom",height=0.2,width=0.4,color="grey40", fillcolor="white", style="filled",URL="$namespacegraph__tool.html#ad1244d21d5eda52968d7e7c4cee5f1b3",tooltip=" "];
  Node1 -> Node3 [color="steelblue1",style="solid"];
  Node1 -> Node7 [color="steelblue1",style="solid"];
  Node7 [label="graph_tool::safelog",height=0.2,width=0.4,color="grey40", fillcolor="white", style="filled",URL="$namespacegraph__tool.html#a2775c645bfb6f1026c90168f54315c51",tooltip=" "];
}
