digraph "graph_tool::PythonPropertyMap&lt; PropertyMap &gt;"
{
 // LATEX_PDF_SIZE
  bgcolor="transparent";
  edge [fontname=Helvetica,fontsize=10,labelfontname=Helvetica,labelfontsize=10];
  node [fontname=Helvetica,fontsize=10,shape=box,height=0.2,width=0.4];
  Node1 [shape=record,label="{graph_tool::PythonProperty\lMap\< PropertyMap \>\n||+ PythonPropertyMap()\l+ get_value()\l+ get_value_int()\l+ set_value()\l+ set_value_int()\l+ get_hash()\l+ get_type()\l+ get_map()\l+ get_dynamic_map()\l+ get_array()\land 18 more...\l}",height=0.2,width=0.4,color="gray40", fillcolor="grey60", style="filled", fontcolor="black",tooltip=" "];
}
