digraph "graph_tool::PseudoCIsingState"
{
 // LATEX_PDF_SIZE
  bgcolor="transparent";
  edge [fontname=Helvetica,fontsize=10,labelfontname=Helvetica,labelfontsize=10];
  node [fontname=Helvetica,fontsize=10,shape=box,height=0.2,width=0.4];
  Node1 [shape=record,label="{graph_tool::PseudoCIsing\lState\n||+ PseudoCIsingState()\l}",height=0.2,width=0.4,color="gray40", fillcolor="grey60", style="filled", fontcolor="black",tooltip=" "];
  Node2 -> Node1 [dir="back",color="steelblue1",style="solid",arrowtail="onormal"];
  Node2 [shape=record,label="{graph_tool::ContinuousState\lBase\< PseudoCIsingState,\l false \>\n|# _s\l# _st\l# _m\l# _m_temp\l|+ ContinuousStateBase()\l+ iter_time()\l+ check_m()\l+ update_edge()\l+ get_edge_dS()\l+ get_node_prob()\l}",height=0.2,width=0.4,color="gray40", fillcolor="white", style="filled",URL="$classgraph__tool_1_1ContinuousStateBase.html",tooltip=" "];
  Node3 -> Node1 [dir="back",color="steelblue1",style="solid",arrowtail="onormal"];
  Node3 [shape=record,label="{graph_tool::CIsingBaseState\n|+ _h\l|+ CIsingBaseState()\l+ set_params()\l+ set_params()\l+ log_P()\l}",height=0.2,width=0.4,color="gray40", fillcolor="white", style="filled",URL="$classgraph__tool_1_1CIsingBaseState.html",tooltip=" "];
}
