digraph "boost::checked_vector_property_map&lt; T, IndexMap &gt;"
{
 // LATEX_PDF_SIZE
  bgcolor="transparent";
  edge [fontname=Helvetica,fontsize=10,labelfontname=Helvetica,labelfontsize=10];
  node [fontname=Helvetica,fontsize=10,shape=box,height=0.2,width=0.4];
  Node1 [shape=record,label="{boost::checked_vector\l_property_map\< T, IndexMap \>\n|# _store\l# _index\l|+ checked_vector_property\l_map()\l+ checked_vector_property\l_map()\l+ storage_begin()\l+ storage_end()\l+ storage_begin()\l+ storage_end()\l+ reserve()\l+ resize()\l+ shrink_to_fit()\l+ get_storage()\l+ swap()\l+ get_unchecked()\l+ copy()\l+ operator[]()\l}",height=0.2,width=0.4,color="gray40", fillcolor="grey60", style="filled", fontcolor="black",tooltip=" "];
  Node2 -> Node1 [dir="back",color="steelblue1",style="solid",arrowtail="onormal"];
  Node2 [shape=record,label="{boost::put_get_helper\l\< std::iterator_traits\l\< std::vector\< T \>::iterator\l \>::reference, checked_vector\l_property_map\< T, identity_property_map \> \>\n||}",height=0.2,width=0.4,color="gray40", fillcolor="white", style="filled",tooltip=" "];
}
