digraph "graph_tool::Measured::MeasuredState::get_dS"
{
 // LATEX_PDF_SIZE
  bgcolor="transparent";
  edge [fontname=Helvetica,fontsize=10,labelfontname=Helvetica,labelfontsize=10];
  node [fontname=Helvetica,fontsize=10,shape=box,height=0.2,width=0.4];
  rankdir="LR";
  Node1 [label="graph_tool::Measured\l::MeasuredState::get_dS",height=0.2,width=0.4,color="gray40", fillcolor="grey60", style="filled", fontcolor="black",tooltip=" "];
  Node1 -> Node2 [color="steelblue1",style="solid"];
  Node2 [label="graph_tool::Measured\l::MeasuredState::get_MP",height=0.2,width=0.4,color="grey40", fillcolor="white", style="filled",URL="$classgraph__tool_1_1Measured_1_1MeasuredState.html#a0e2f7f2fba46df9341f04fe286131c71",tooltip=" "];
  Node2 -> Node3 [color="steelblue1",style="solid"];
  Node3 [label="complete",height=0.2,width=0.4,color="grey40", fillcolor="white", style="filled",URL="$graph__complete_8cc.html#aa202b0e95154588b7f1e43a7fe1b431c",tooltip=" "];
  Node3 -> Node4 [color="steelblue1",style="solid"];
  Node4 [label="graph_tool::GraphInterface\l::get_graph",height=0.2,width=0.4,color="grey40", fillcolor="white", style="filled",URL="$classgraph__tool_1_1GraphInterface.html#a732ab352eadc8f67ac80c07b7dcf9bdd",tooltip=" "];
  Node2 -> Node5 [color="steelblue1",style="solid"];
  Node5 [label="graph_tool::lbeta",height=0.2,width=0.4,color="grey40", fillcolor="white", style="filled",URL="$namespacegraph__tool.html#ae583dd307b9ab5f757f310ed12784bd8",tooltip=" "];
}
