digraph "graph_tool::NormCutState&lt; Ts &gt;"
{
 // LATEX_PDF_SIZE
  bgcolor="transparent";
  edge [fontname=Helvetica,fontsize=10,labelfontname=Helvetica,labelfontsize=10];
  node [fontname=Helvetica,fontsize=10,shape=box,height=0.2,width=0.4];
  Node1 [shape=record,label="{graph_tool::NormCutState\l\< Ts \>\n|+ _bg\l+ _N\l+ _E\l+ _bclabel\l+ _pclabel\l+ _wr\l|+ NormCutState()\l+ move_vertex()\l+ virtual_remove_size()\l+ add_block()\l+ virtual_move()\l+ get_empty_block()\l+ sample_block()\l+ sample_block_local()\l+ get_move_prob()\l+ get_move_prob()\land 11 more...\l}",height=0.2,width=0.4,color="gray40", fillcolor="grey60", style="filled", fontcolor="black",tooltip=" "];
  Node2 -> Node1 [dir="back",color="steelblue1",style="solid",arrowtail="onormal"];
  Node2 [shape=record,label="{NormCutStateBase\< Ts... \>\n||}",height=0.2,width=0.4,color="gray40", fillcolor="white", style="filled",tooltip=" "];
  Node3 -> Node1 [color="grey25",style="solid",label=" +_candidate_groups\n+_empty_groups" ,arrowhead="odiamond"];
  Node3 [shape=record,label="{idx_set\< size_t \>\n||+ idx_set()\l+ idx_set()\l+ get_pos()\l+ insert()\l+ erase()\l+ erase()\l+ find()\l+ clear()\l+ shrink_to_fit()\l+ begin()\l+ end()\l+ size()\l+ empty()\l}",height=0.2,width=0.4,color="gray40", fillcolor="white", style="filled",URL="$classidx__set.html",tooltip=" "];
  Node4 -> Node1 [color="grey25",style="solid",label=" +_coupled_state" ,arrowhead="odiamond"];
  Node4 [shape=record,label="{graph_tool::BlockStateVirtualBase\n||+ entropy()\l+ add_partition_node()\l+ remove_partition_node()\l+ set_vertex_weight()\l+ coupled_resize_vertex()\l+ get_coupled_state()\l+ virtual_move()\l+ sample_branch()\l+ copy_branch()\l+ sample_block()\land 20 more...\l}",height=0.2,width=0.4,color="gray40", fillcolor="white", style="filled",URL="$classgraph__tool_1_1BlockStateVirtualBase.html",tooltip=" "];
  Node5 -> Node1 [color="grey25",style="solid",label=" +_vweight" ,arrowhead="odiamond"];
  Node5 [shape=record,label="{graph_tool::UnityProperty\lMap\< int, GraphInterface\l::vertex_t \>\n||+ operator[]()\l}",height=0.2,width=0.4,color="gray40", fillcolor="white", style="filled",URL="$classgraph__tool_1_1UnityPropertyMap.html",tooltip=" "];
  Node6 -> Node5 [dir="back",color="steelblue1",style="solid",arrowtail="onormal"];
  Node6 [shape=record,label="{boost::put_get_helper\l\< int, UnityPropertyMap\l\< int, GraphInterface::\lvertex_t \> \>\n||}",height=0.2,width=0.4,color="gray40", fillcolor="white", style="filled",tooltip=" "];
  Node7 -> Node1 [color="grey25",style="solid",label=" +_eweight" ,arrowhead="odiamond"];
  Node7 [shape=record,label="{graph_tool::UnityProperty\lMap\< int, GraphInterface\l::edge_t \>\n||+ operator[]()\l}",height=0.2,width=0.4,color="gray40", fillcolor="white", style="filled",URL="$classgraph__tool_1_1UnityPropertyMap.html",tooltip=" "];
  Node8 -> Node7 [dir="back",color="steelblue1",style="solid",arrowtail="onormal"];
  Node8 [shape=record,label="{boost::put_get_helper\l\< int, UnityPropertyMap\l\< int, GraphInterface::\ledge_t \> \>\n||}",height=0.2,width=0.4,color="gray40", fillcolor="white", style="filled",tooltip=" "];
  Node9 -> Node1 [color="grey25",style="solid",label=" +_degs" ,arrowhead="odiamond"];
  Node9 [shape=record,label="{graph_tool::simple\l_degs_t\n||}",height=0.2,width=0.4,color="gray40", fillcolor="white", style="filled",URL="$structgraph__tool_1_1simple__degs__t.html",tooltip=" "];
}
