digraph "graph_tool::EGroups"
{
 // LATEX_PDF_SIZE
  bgcolor="transparent";
  edge [fontname=Helvetica,fontsize=10,labelfontname=Helvetica,labelfontsize=10];
  node [fontname=Helvetica,fontsize=10,shape=box,height=0.2,width=0.4];
  Node1 [shape=record,label="{graph_tool::EGroups\n||+ init()\l+ add_block()\l+ clear()\l+ empty()\l+ insert_edge()\l+ insert_edge()\l+ sample_edge()\l+ check()\l}",height=0.2,width=0.4,color="gray40", fillcolor="grey60", style="filled", fontcolor="black",tooltip=" "];
}
