digraph "graph_tool::continuous_state_base&lt; Value &gt;"
{
 // LATEX_PDF_SIZE
  bgcolor="transparent";
  edge [fontname=Helvetica,fontsize=10,labelfontname=Helvetica,labelfontsize=10];
  node [fontname=Helvetica,fontsize=10,shape=box,height=0.2,width=0.4];
  Node1 [shape=record,label="{graph_tool::continuous\l_state_base\< Value \>\n||+ continuous_state_base()\l+ get_node_diff()\l}",height=0.2,width=0.4,color="gray40", fillcolor="grey60", style="filled", fontcolor="black",tooltip=" "];
  Node2 -> Node1 [color="grey25",style="solid",label=" +_s\n+_s_diff" ,arrowhead="odiamond"];
  Node2 [shape=record,label="{graph_tool::vprop_map\l_t\< s_t \>\n||}",height=0.2,width=0.4,color="gray40", fillcolor="white", style="filled",URL="$structgraph__tool_1_1vprop__map__t.html",tooltip=" "];
}
