digraph "graph_tool::EntrySet::clear"
{
 // LATEX_PDF_SIZE
  bgcolor="transparent";
  edge [fontname=Helvetica,fontsize=10,labelfontname=Helvetica,labelfontsize=10];
  node [fontname=Helvetica,fontsize=10,shape=box,height=0.2,width=0.4];
  rankdir="RL";
  Node1 [label="graph_tool::EntrySet\l::clear",height=0.2,width=0.4,color="gray40", fillcolor="grey60", style="filled", fontcolor="black",tooltip=" "];
  Node1 -> Node2 [dir="back",color="steelblue1",style="solid"];
  Node2 [label="graph_tool::EntrySet\l::set_move",height=0.2,width=0.4,color="grey40", fillcolor="white", style="filled",URL="$classgraph__tool_1_1EntrySet.html#afcf1e795488ac79a81c543f168c6cf5f",tooltip=" "];
  Node2 -> Node3 [dir="back",color="steelblue1",style="solid"];
  Node3 [label="graph_tool::BlockState\l::get_move_prob",height=0.2,width=0.4,color="grey40", fillcolor="white", style="filled",URL="$classgraph__tool_1_1BlockState.html#a3b362fab0c64d7510c4c7a47dced8a96",tooltip=" "];
  Node2 -> Node4 [dir="back",color="steelblue1",style="solid"];
  Node4 [label="graph_tool::BlockState\l::propagate_delta",height=0.2,width=0.4,color="grey40", fillcolor="white", style="filled",URL="$classgraph__tool_1_1BlockState.html#a01c992f5570201796965a153049ca15f",tooltip=" "];
  Node2 -> Node5 [dir="back",color="steelblue1",style="solid"];
  Node5 [label="graph_tool::BlockState\l::propagate_entries_dS",height=0.2,width=0.4,color="grey40", fillcolor="white", style="filled",URL="$classgraph__tool_1_1BlockState.html#af5f64ae568007ab37b5b06f092a93c74",tooltip=" "];
}
