digraph "graph_tool::PPState::entropy"
{
 // LATEX_PDF_SIZE
  bgcolor="transparent";
  edge [fontname=Helvetica,fontsize=10,labelfontname=Helvetica,labelfontsize=10];
  node [fontname=Helvetica,fontsize=10,shape=box,height=0.2,width=0.4];
  rankdir="LR";
  Node1 [label="graph_tool::PPState\l::entropy",height=0.2,width=0.4,color="gray40", fillcolor="grey60", style="filled", fontcolor="black",tooltip=" "];
  Node1 -> Node2 [color="steelblue1",style="solid"];
  Node2 [label="graph_tool::partition\l_stats::get_deg_dl",height=0.2,width=0.4,color="grey40", fillcolor="white", style="filled",URL="$classgraph__tool_1_1partition__stats.html#a7709f1e0085c2e2cf1a74851978311cb",tooltip=" "];
  Node2 -> Node3 [color="steelblue1",style="solid"];
  Node3 [label="graph_tool::partition\l_stats::get_deg_dl_dist",height=0.2,width=0.4,color="grey40", fillcolor="white", style="filled",URL="$classgraph__tool_1_1partition__stats.html#adf9fda416b89cc0b712ee0ea68191fb1",tooltip=" "];
  Node3 -> Node4 [color="steelblue1",style="solid"];
  Node4 [label="graph_tool::partition\l_stats::get_r",height=0.2,width=0.4,color="grey40", fillcolor="white", style="filled",URL="$classgraph__tool_1_1partition__stats.html#a6aa0b2efe2267ce7aceea05786db07ae",tooltip=" "];
  Node3 -> Node5 [color="steelblue1",style="solid"];
  Node5 [label="graph_tool::lgamma_fast",height=0.2,width=0.4,color="grey40", fillcolor="white", style="filled",URL="$namespacegraph__tool.html#ae308495dc111f97fa85b7b4ab66bc264",tooltip=" "];
  Node5 -> Node6 [color="steelblue1",style="solid"];
  Node6 [label="graph_tool::init_lgamma",height=0.2,width=0.4,color="grey40", fillcolor="white", style="filled",URL="$namespacegraph__tool.html#aab67a0fc53c44fafc91b5cb2911aff3b",tooltip=" "];
  Node3 -> Node7 [color="steelblue1",style="solid"];
  Node7 [label="graph_tool::log_q",height=0.2,width=0.4,color="grey40", fillcolor="white", style="filled",URL="$namespacegraph__tool.html#ab7b4c34f651f8552cba79faaacab5379",tooltip=" "];
  Node7 -> Node8 [color="steelblue1",style="solid"];
  Node8 [label="graph_tool::log_q_approx",height=0.2,width=0.4,color="grey40", fillcolor="white", style="filled",URL="$namespacegraph__tool.html#acec354edbb177e696f58b731fbf566a7",tooltip=" "];
  Node8 -> Node9 [color="steelblue1",style="solid"];
  Node9 [label="graph_tool::get_v",height=0.2,width=0.4,color="grey40", fillcolor="white", style="filled",URL="$namespacegraph__tool.html#ab20f0f9adaa38f050d8fbb5ab1990603",tooltip=" "];
  Node9 -> Node10 [color="steelblue1",style="solid"];
  Node10 [label="spence",height=0.2,width=0.4,color="grey40", fillcolor="white", style="filled",URL="$spence_8cc.html#a58e4dbbddc449c0fb78441a58d0b0976",tooltip=" "];
  Node10 -> Node11 [color="steelblue1",style="solid"];
  Node11 [label="polevl",height=0.2,width=0.4,color="grey40", fillcolor="white", style="filled",URL="$spence_8cc.html#ac9906d546ede7b7744019f302128fdc5",tooltip=" "];
  Node8 -> Node12 [color="steelblue1",style="solid"];
  Node12 [label="graph_tool::log_q_approx\l_small",height=0.2,width=0.4,color="grey40", fillcolor="white", style="filled",URL="$namespacegraph__tool.html#a7cc87c6a409d93cb6d607ae6668514a9",tooltip=" "];
  Node12 -> Node13 [color="steelblue1",style="solid"];
  Node13 [label="graph_tool::lbinom_fast",height=0.2,width=0.4,color="grey40", fillcolor="white", style="filled",URL="$namespacegraph__tool.html#a4a66630b83698bbf94a6245f602237df",tooltip=" "];
  Node12 -> Node5 [color="steelblue1",style="solid"];
  Node2 -> Node14 [color="steelblue1",style="solid"];
  Node14 [label="graph_tool::partition\l_stats::get_deg_dl_ent",height=0.2,width=0.4,color="grey40", fillcolor="white", style="filled",URL="$classgraph__tool_1_1partition__stats.html#ab7ac2689796fe376ef03981944a0d03f",tooltip=" "];
  Node14 -> Node4 [color="steelblue1",style="solid"];
  Node14 -> Node15 [color="steelblue1",style="solid"];
  Node15 [label="graph_tool::xlogx",height=0.2,width=0.4,color="grey40", fillcolor="white", style="filled",URL="$namespacegraph__tool.html#a9ed75f0f7d682110f07788df5dc472da",tooltip=" "];
  Node15 -> Node16 [color="steelblue1",style="solid"];
  Node16 [label="graph_tool::safelog",height=0.2,width=0.4,color="grey40", fillcolor="white", style="filled",URL="$namespacegraph__tool.html#a2775c645bfb6f1026c90168f54315c51",tooltip=" "];
  Node14 -> Node17 [color="steelblue1",style="solid"];
  Node17 [label="graph_tool::xlogx_fast",height=0.2,width=0.4,color="grey40", fillcolor="white", style="filled",URL="$namespacegraph__tool.html#acd0efc0f2e935aea4becc57408917365",tooltip=" "];
  Node17 -> Node18 [color="steelblue1",style="solid"];
  Node18 [label="graph_tool::init_xlogx",height=0.2,width=0.4,color="grey40", fillcolor="white", style="filled",URL="$namespacegraph__tool.html#a59a115ed7fe0b83bad2cae1b4cc6bcdd",tooltip=" "];
  Node18 -> Node15 [color="steelblue1",style="solid"];
  Node17 -> Node15 [color="steelblue1",style="solid"];
  Node2 -> Node19 [color="steelblue1",style="solid"];
  Node19 [label="graph_tool::partition\l_stats::get_deg_dl_uniform",height=0.2,width=0.4,color="grey40", fillcolor="white", style="filled",URL="$classgraph__tool_1_1partition__stats.html#a1ba895dced932fffc7779f4e443c2830",tooltip=" "];
  Node19 -> Node4 [color="steelblue1",style="solid"];
  Node19 -> Node13 [color="steelblue1",style="solid"];
  Node1 -> Node20 [color="steelblue1",style="solid"];
  Node20 [label="graph_tool::partition\l_stats::get_partition_dl",height=0.2,width=0.4,color="grey40", fillcolor="white", style="filled",URL="$classgraph__tool_1_1partition__stats.html#a8fc83cf859391da1193c731fe96b7f64",tooltip=" "];
  Node20 -> Node13 [color="steelblue1",style="solid"];
  Node20 -> Node5 [color="steelblue1",style="solid"];
  Node20 -> Node21 [color="steelblue1",style="solid"];
  Node21 [label="graph_tool::safelog_fast",height=0.2,width=0.4,color="grey40", fillcolor="white", style="filled",URL="$namespacegraph__tool.html#a79fcd257f84cbb496bcc1de77c0047d7",tooltip=" "];
  Node21 -> Node22 [color="steelblue1",style="solid"];
  Node22 [label="graph_tool::init_safelog",height=0.2,width=0.4,color="grey40", fillcolor="white", style="filled",URL="$namespacegraph__tool.html#a963421460fa76f55c786dff3f225ca7a",tooltip=" "];
  Node22 -> Node16 [color="steelblue1",style="solid"];
  Node21 -> Node16 [color="steelblue1",style="solid"];
  Node1 -> Node13 [color="steelblue1",style="solid"];
  Node1 -> Node5 [color="steelblue1",style="solid"];
  Node1 -> Node23 [color="steelblue1",style="solid"];
  Node23 [label="boost::out_degree",height=0.2,width=0.4,color="grey40", fillcolor="white", style="filled",URL="$namespaceboost.html#ac2aab26c4c5fb471f6eef10ae4496089",tooltip=" "];
  Node23 -> Node24 [color="steelblue1",style="solid"];
  Node24 [label="boost::degree",height=0.2,width=0.4,color="grey40", fillcolor="white", style="filled",URL="$namespaceboost.html#ac08426adc887cd2f50850eb97baaae7d",tooltip=" "];
  Node24 -> Node23 [color="steelblue1",style="solid"];
  Node23 -> Node25 [color="steelblue1",style="solid"];
  Node25 [label="boost::undirected_adaptor\l::original_graph",height=0.2,width=0.4,color="grey40", fillcolor="white", style="filled",URL="$classboost_1_1undirected__adaptor.html#a11e557bb4f3d7c15354f98390f1d3644",tooltip=" "];
  Node1 -> Node26 [color="steelblue1",style="solid"];
  Node26 [label="graph_tool::out_edges\l_range",height=0.2,width=0.4,color="grey40", fillcolor="white", style="filled",URL="$namespacegraph__tool.html#a347f8a3e503c35e8a4d54184d8d90a6f",tooltip=" "];
  Node26 -> Node27 [color="steelblue1",style="solid"];
  Node27 [label="graph_tool::mk_range",height=0.2,width=0.4,color="grey40", fillcolor="white", style="filled",URL="$namespacegraph__tool.html#a6ecc1e46efb4f620acabfe5728f7a2a6",tooltip=" "];
  Node1 -> Node21 [color="steelblue1",style="solid"];
  Node1 -> Node28 [color="steelblue1",style="solid"];
  Node28 [label="idx_set::size",height=0.2,width=0.4,color="grey40", fillcolor="white", style="filled",URL="$classidx__set.html#a055eb517bcf242f28f911d3b4dc1537d",tooltip=" "];
  Node1 -> Node29 [color="steelblue1",style="solid"];
  Node29 [label="graph_tool::target",height=0.2,width=0.4,color="grey40", fillcolor="white", style="filled",URL="$namespacegraph__tool.html#aff9f07ca294560a9de57ab80deffa0cc",tooltip=" "];
  Node29 -> Node30 [color="steelblue1",style="solid"];
  Node30 [label="boost::edges",height=0.2,width=0.4,color="grey40", fillcolor="white", style="filled",URL="$namespaceboost.html#a3ac91f028a5f50644ba12e9e803bb2f8",tooltip=" "];
  Node30 -> Node30 [color="steelblue1",style="solid"];
  Node30 -> Node25 [color="steelblue1",style="solid"];
  Node29 -> Node31 [color="steelblue1",style="solid"];
  Node31 [label="graph_tool::source",height=0.2,width=0.4,color="grey40", fillcolor="white", style="filled",URL="$namespacegraph__tool.html#a0b44c0af404cec1513acb7b9602557f8",tooltip=" "];
  Node31 -> Node30 [color="steelblue1",style="solid"];
  Node31 -> Node31 [color="steelblue1",style="solid"];
  Node31 -> Node29 [color="steelblue1",style="solid"];
  Node29 -> Node29 [color="steelblue1",style="solid"];
  Node1 -> Node32 [color="steelblue1",style="solid"];
  Node32 [label="graph_tool::vertices\l_range",height=0.2,width=0.4,color="grey40", fillcolor="white", style="filled",URL="$namespacegraph__tool.html#a92ab479b81d8c9a030d42854fefabf1a",tooltip=" "];
  Node32 -> Node27 [color="steelblue1",style="solid"];
  Node32 -> Node33 [color="steelblue1",style="solid"];
  Node33 [label="boost::vertices",height=0.2,width=0.4,color="grey40", fillcolor="white", style="filled",URL="$namespaceboost.html#a0bc22071c353fa26cd0d16cc817ddde2",tooltip=" "];
  Node33 -> Node25 [color="steelblue1",style="solid"];
  Node33 -> Node33 [color="steelblue1",style="solid"];
}
