digraph "graph_tool::partition_stats::change_vertex_degs"
{
 // LATEX_PDF_SIZE
  bgcolor="transparent";
  edge [fontname=Helvetica,fontsize=10,labelfontname=Helvetica,labelfontsize=10];
  node [fontname=Helvetica,fontsize=10,shape=box,height=0.2,width=0.4];
  rankdir="LR";
  Node1 [label="graph_tool::partition\l_stats::change_vertex_degs",height=0.2,width=0.4,color="gray40", fillcolor="grey60", style="filled", fontcolor="black",tooltip=" "];
  Node1 -> Node2 [color="steelblue1",style="solid"];
  Node2 [label="graph_tool::get_deg",height=0.2,width=0.4,color="grey40", fillcolor="white", style="filled",URL="$namespacegraph__tool.html#a2c092e7392dd5baf377a0a7c5d845cb3",tooltip=" "];
  Node2 -> Node3 [color="steelblue1",style="solid"];
  Node3 [label="boost::out_degree",height=0.2,width=0.4,color="grey40", fillcolor="white", style="filled",URL="$namespaceboost.html#ac2aab26c4c5fb471f6eef10ae4496089",tooltip=" "];
  Node3 -> Node4 [color="steelblue1",style="solid"];
  Node4 [label="boost::degree",height=0.2,width=0.4,color="grey40", fillcolor="white", style="filled",URL="$namespaceboost.html#ac08426adc887cd2f50850eb97baaae7d",tooltip=" "];
  Node4 -> Node3 [color="steelblue1",style="solid"];
  Node3 -> Node5 [color="steelblue1",style="solid"];
  Node5 [label="boost::undirected_adaptor\l::original_graph",height=0.2,width=0.4,color="grey40", fillcolor="white", style="filled",URL="$classboost_1_1undirected__adaptor.html#a11e557bb4f3d7c15354f98390f1d3644",tooltip=" "];
  Node2 -> Node6 [color="steelblue1",style="solid"];
  Node6 [label="boost::vertex",height=0.2,width=0.4,color="grey40", fillcolor="white", style="filled",URL="$namespaceboost.html#acf010cb431c640031d53bfe55c84ef46",tooltip=" "];
  Node6 -> Node5 [color="steelblue1",style="solid"];
  Node6 -> Node6 [color="steelblue1",style="solid"];
}
