digraph "djk_max_multiple_targets_visitor&lt; DistMap &gt;"
{
 // LATEX_PDF_SIZE
  bgcolor="transparent";
  edge [fontname=Helvetica,fontsize=10,labelfontname=Helvetica,labelfontsize=10];
  node [fontname=Helvetica,fontsize=10,shape=box,height=0.2,width=0.4];
  Node1 [shape=record,label="{djk_max_multiple_targets\l_visitor\< DistMap \>\n||+ djk_max_multiple_targets\l_visitor()\l+ ~djk_max_multiple_targets\l_visitor()\l+ examine_vertex()\l+ discover_vertex()\l+ finish_vertex()\l}",height=0.2,width=0.4,color="gray40", fillcolor="grey60", style="filled", fontcolor="black",tooltip=" "];
  Node2 -> Node1 [dir="back",color="steelblue1",style="solid",arrowtail="onormal"];
  Node2 [shape=record,label="{boost::dijkstra_visitor\l\< null_visitor \>\n||}",height=0.2,width=0.4,color="gray40", fillcolor="white", style="filled",tooltip=" "];
}
