digraph "random_permutation_iterator&lt; RandomAccessIterator, RNG, RandomDist &gt;"
{
 // LATEX_PDF_SIZE
  bgcolor="transparent";
  edge [fontname=Helvetica,fontsize=10,labelfontname=Helvetica,labelfontsize=10];
  node [fontname=Helvetica,fontsize=10,shape=box,height=0.2,width=0.4];
  Node1 [shape=record,label="{random_permutation\l_iterator\< RandomAccessIterator,\l RNG, RandomDist \>\n||+ random_permutation\l_iterator()\l+ operator*()\l+ operator++()\l+ operator==()\l+ operator!=()\l+ operator-()\l}",height=0.2,width=0.4,color="gray40", fillcolor="grey60", style="filled", fontcolor="black",tooltip=" "];
  Node2 -> Node1 [dir="back",color="steelblue1",style="solid",arrowtail="onormal"];
  Node2 [shape=record,label="{std::iterator\< std\l::input_iterator_tag,\l RandomAccessIterator\l::value_type \>\n||}",height=0.2,width=0.4,color="gray40", fillcolor="white", style="filled",tooltip=" "];
}
