digraph "SharedHistogram::gather"
{
 // LATEX_PDF_SIZE
  bgcolor="transparent";
  edge [fontname=Helvetica,fontsize=10,labelfontname=Helvetica,labelfontsize=10];
  node [fontname=Helvetica,fontsize=10,shape=box,height=0.2,width=0.4];
  rankdir="RL";
  Node1 [label="SharedHistogram::gather",height=0.2,width=0.4,color="gray40", fillcolor="grey60", style="filled", fontcolor="black",tooltip=" "];
  Node1 -> Node2 [dir="back",color="steelblue1",style="solid"];
  Node2 [label="graph_tool::get_histogram\l::operator()",height=0.2,width=0.4,color="grey40", fillcolor="white", style="filled",URL="$structgraph__tool_1_1get__histogram.html#a358ce3221c0bad6187eb07292035762e",tooltip=" "];
  Node1 -> Node3 [dir="back",color="steelblue1",style="solid"];
  Node3 [label="graph_tool::get_distance\l_histogram::operator()",height=0.2,width=0.4,color="grey40", fillcolor="white", style="filled",URL="$structgraph__tool_1_1get__distance__histogram.html#a6af9d7cdfea3d2ac6012aeab15f29f6a",tooltip=" "];
  Node1 -> Node4 [dir="back",color="steelblue1",style="solid"];
  Node4 [label="graph_tool::get_sampled\l_distance_histogram::operator()",height=0.2,width=0.4,color="grey40", fillcolor="white", style="filled",URL="$structgraph__tool_1_1get__sampled__distance__histogram.html#a8751597ed225f7128023446391c2272b",tooltip=" "];
  Node1 -> Node5 [dir="back",color="steelblue1",style="solid"];
  Node5 [label="graph_tool::get_avg\l_correlation::operator()",height=0.2,width=0.4,color="grey40", fillcolor="white", style="filled",URL="$structgraph__tool_1_1get__avg__correlation.html#abe55f90fc197523a6996a6e3cf889580",tooltip=" "];
  Node1 -> Node6 [dir="back",color="steelblue1",style="solid"];
  Node6 [label="SharedHistogram::~Shared\lHistogram",height=0.2,width=0.4,color="grey40", fillcolor="white", style="filled",URL="$classSharedHistogram.html#a04cdeb8d1f8187378a94874128e4b24a",tooltip=" "];
}
