digraph "graph_tool::PythonVertex::is_valid"
{
 // LATEX_PDF_SIZE
  bgcolor="transparent";
  edge [fontname=Helvetica,fontsize=10,labelfontname=Helvetica,labelfontsize=10];
  node [fontname=Helvetica,fontsize=10,shape=box,height=0.2,width=0.4];
  rankdir="RL";
  Node1 [label="graph_tool::PythonVertex\l::is_valid",height=0.2,width=0.4,color="gray40", fillcolor="grey60", style="filled", fontcolor="black",tooltip=" "];
  Node1 -> Node2 [dir="back",color="steelblue1",style="solid"];
  Node2 [label="graph_tool::PythonVertex\l::check_valid",height=0.2,width=0.4,color="grey40", fillcolor="white", style="filled",URL="$classgraph__tool_1_1PythonVertex.html#ab38fe35bb1a798f5c1b44814487350a9",tooltip=" "];
  Node2 -> Node3 [dir="back",color="steelblue1",style="solid"];
  Node3 [label="graph_tool::PythonVertex\l::get_in_degree",height=0.2,width=0.4,color="grey40", fillcolor="white", style="filled",URL="$classgraph__tool_1_1PythonVertex.html#ac40b2ab85c71cfbc132c9853f6cc1baa",tooltip=" "];
  Node2 -> Node4 [dir="back",color="steelblue1",style="solid"];
  Node4 [label="graph_tool::PythonVertex\l::get_out_degree",height=0.2,width=0.4,color="grey40", fillcolor="white", style="filled",URL="$classgraph__tool_1_1PythonVertex.html#a2dc2f08cd298e970f5df114d61d488e4",tooltip=" "];
  Node2 -> Node5 [dir="back",color="steelblue1",style="solid"];
  Node5 [label="graph_tool::PythonVertex\l::get_string",height=0.2,width=0.4,color="grey40", fillcolor="white", style="filled",URL="$classgraph__tool_1_1PythonVertex.html#a854e67c4f359ff67a59de3c1bc94dd48",tooltip=" "];
  Node2 -> Node6 [dir="back",color="steelblue1",style="solid"];
  Node6 [label="graph_tool::PythonVertex\l::get_weighted_in_degree",height=0.2,width=0.4,color="grey40", fillcolor="white", style="filled",URL="$classgraph__tool_1_1PythonVertex.html#a7a7165d806e7ba77650e4f0b30bb2ac7",tooltip=" "];
  Node2 -> Node7 [dir="back",color="steelblue1",style="solid"];
  Node7 [label="graph_tool::PythonVertex\l::get_weighted_out_degree",height=0.2,width=0.4,color="grey40", fillcolor="white", style="filled",URL="$classgraph__tool_1_1PythonVertex.html#aaf8806f92e9a2a9014ecc05fb251c389",tooltip=" "];
  Node2 -> Node8 [dir="back",color="steelblue1",style="solid"];
  Node8 [label="graph_tool::PythonVertex\l::in_edges",height=0.2,width=0.4,color="grey40", fillcolor="white", style="filled",URL="$classgraph__tool_1_1PythonVertex.html#abef7cb67abef3a4e3fa20909024eaf93",tooltip=" "];
  Node2 -> Node9 [dir="back",color="steelblue1",style="solid"];
  Node9 [label="graph_tool::PythonVertex\l::out_edges",height=0.2,width=0.4,color="grey40", fillcolor="white", style="filled",URL="$classgraph__tool_1_1PythonVertex.html#a3eec5fd13711e7eb32b16c3f9a8c65fb",tooltip=" "];
}
