digraph "graph_tool::NormCutState::get_empty_block"
{
 // LATEX_PDF_SIZE
  bgcolor="transparent";
  edge [fontname=Helvetica,fontsize=10,labelfontname=Helvetica,labelfontsize=10];
  node [fontname=Helvetica,fontsize=10,shape=box,height=0.2,width=0.4];
  rankdir="LR";
  Node1 [label="graph_tool::NormCutState\l::get_empty_block",height=0.2,width=0.4,color="gray40", fillcolor="grey60", style="filled", fontcolor="black",tooltip=" "];
  Node1 -> Node2 [color="steelblue1",style="solid"];
  Node2 [label="idx_set::end",height=0.2,width=0.4,color="grey40", fillcolor="white", style="filled",URL="$classidx__set.html#af92eda91ac7fdd6512c6ceb32d22d15d",tooltip=" "];
}
