digraph "graph_tool::Measured::MeasuredState::add_edge_dS"
{
 // LATEX_PDF_SIZE
  bgcolor="transparent";
  edge [fontname=Helvetica,fontsize=10,labelfontname=Helvetica,labelfontsize=10];
  node [fontname=Helvetica,fontsize=10,shape=box,height=0.2,width=0.4];
  rankdir="LR";
  Node1 [label="graph_tool::Measured\l::MeasuredState::add\l_edge_dS",height=0.2,width=0.4,color="gray40", fillcolor="grey60", style="filled", fontcolor="black",tooltip=" "];
  Node1 -> Node2 [color="steelblue1",style="solid"];
  Node2 [label="graph_tool::Measured\l::MeasuredState::get_dS",height=0.2,width=0.4,color="grey40", fillcolor="white", style="filled",URL="$classgraph__tool_1_1Measured_1_1MeasuredState.html#ac98975661d32e0805dc14a7489577c5c",tooltip=" "];
  Node2 -> Node3 [color="steelblue1",style="solid"];
  Node3 [label="graph_tool::Measured\l::MeasuredState::get_MP",height=0.2,width=0.4,color="grey40", fillcolor="white", style="filled",URL="$classgraph__tool_1_1Measured_1_1MeasuredState.html#a0e2f7f2fba46df9341f04fe286131c71",tooltip=" "];
  Node3 -> Node4 [color="steelblue1",style="solid"];
  Node4 [label="complete",height=0.2,width=0.4,color="grey40", fillcolor="white", style="filled",URL="$graph__complete_8cc.html#aa202b0e95154588b7f1e43a7fe1b431c",tooltip=" "];
  Node4 -> Node5 [color="steelblue1",style="solid"];
  Node5 [label="graph_tool::GraphInterface\l::get_graph",height=0.2,width=0.4,color="grey40", fillcolor="white", style="filled",URL="$classgraph__tool_1_1GraphInterface.html#a732ab352eadc8f67ac80c07b7dcf9bdd",tooltip=" "];
  Node3 -> Node6 [color="steelblue1",style="solid"];
  Node6 [label="graph_tool::lbeta",height=0.2,width=0.4,color="grey40", fillcolor="white", style="filled",URL="$namespacegraph__tool.html#ae583dd307b9ab5f757f310ed12784bd8",tooltip=" "];
  Node1 -> Node7 [color="steelblue1",style="solid"];
  Node7 [label="graph_tool::Measured\l::MeasuredState::get\l_u_edge",height=0.2,width=0.4,color="grey40", fillcolor="white", style="filled",URL="$classgraph__tool_1_1Measured_1_1MeasuredState.html#a0bfbb8ee6e62fef9fbc9af2e2ae666e2",tooltip=" "];
  Node1 -> Node8 [color="steelblue1",style="solid"];
  Node8 [label="graph_tool::lgamma_fast",height=0.2,width=0.4,color="grey40", fillcolor="white", style="filled",URL="$namespacegraph__tool.html#ae308495dc111f97fa85b7b4ab66bc264",tooltip=" "];
  Node8 -> Node9 [color="steelblue1",style="solid"];
  Node9 [label="graph_tool::init_lgamma",height=0.2,width=0.4,color="grey40", fillcolor="white", style="filled",URL="$namespacegraph__tool.html#aab67a0fc53c44fafc91b5cb2911aff3b",tooltip=" "];
}
