digraph "graph_tool::BlockState::set_partition"
{
 // LATEX_PDF_SIZE
  bgcolor="transparent";
  edge [fontname=Helvetica,fontsize=10,labelfontname=Helvetica,labelfontsize=10];
  node [fontname=Helvetica,fontsize=10,shape=box,height=0.2,width=0.4];
  rankdir="LR";
  Node1 [label="graph_tool::BlockState\l::set_partition",height=0.2,width=0.4,color="gray40", fillcolor="grey60", style="filled", fontcolor="black",tooltip=" "];
  Node1 -> Node2 [color="steelblue1",style="solid"];
  Node2 [label="graph_tool::BlockState\l::add_block",height=0.2,width=0.4,color="grey40", fillcolor="white", style="filled",URL="$classgraph__tool_1_1BlockState.html#ac0a93d81a9507a1abf6d91c5c7c23008",tooltip=" "];
  Node2 -> Node3 [color="steelblue1",style="solid"];
  Node3 [label="graph_tool::EGroups\l::add_block",height=0.2,width=0.4,color="grey40", fillcolor="white", style="filled",URL="$classgraph__tool_1_1EGroups.html#aa974e634af051d148e18c59faa9f7896",tooltip=" "];
  Node2 -> Node4 [color="steelblue1",style="solid"];
  Node4 [label="boost::add_vertex",height=0.2,width=0.4,color="grey40", fillcolor="white", style="filled",URL="$namespaceboost.html#a9440b0ee2e6a885ba5cd53babca04ae8",tooltip=" "];
  Node4 -> Node4 [color="steelblue1",style="solid"];
  Node4 -> Node5 [color="steelblue1",style="solid"];
  Node5 [label="boost::undirected_adaptor\l::original_graph",height=0.2,width=0.4,color="grey40", fillcolor="white", style="filled",URL="$classboost_1_1undirected__adaptor.html#a11e557bb4f3d7c15354f98390f1d3644",tooltip=" "];
  Node2 -> Node6 [color="steelblue1",style="solid"];
  Node6 [label="graph_tool::BlockStateVirtual\lBase::coupled_resize_vertex",height=0.2,width=0.4,color="grey40", fillcolor="white", style="filled",URL="$classgraph__tool_1_1BlockStateVirtualBase.html#ae2810a799479c4462d065ec704ce371d",tooltip=" "];
  Node2 -> Node7 [color="steelblue1",style="solid"];
  Node7 [label="graph_tool::EGroups\l::empty",height=0.2,width=0.4,color="grey40", fillcolor="white", style="filled",URL="$classgraph__tool_1_1EGroups.html#acd87dfc948d982abf2eafcb1a8fbbaea",tooltip=" "];
  Node2 -> Node8 [color="steelblue1",style="solid"];
  Node8 [label="idx_set::insert",height=0.2,width=0.4,color="grey40", fillcolor="white", style="filled",URL="$classidx__set.html#afbbd9253a38901eb7ec6c27b1b8c692e",tooltip=" "];
  Node8 -> Node9 [color="steelblue1",style="solid"];
  Node9 [label="idx_set::begin",height=0.2,width=0.4,color="grey40", fillcolor="white", style="filled",URL="$classidx__set.html#a859da6be3bf8f1e8a7e82a7eb1eebad6",tooltip=" "];
  Node8 -> Node10 [color="steelblue1",style="solid"];
  Node10 [label="idx_set::get_pos",height=0.2,width=0.4,color="grey40", fillcolor="white", style="filled",URL="$classidx__set.html#a56e207910e0227f4eeccfd5de78d1220",tooltip=" "];
  Node2 -> Node11 [color="steelblue1",style="solid"];
  Node11 [label="boost::num_vertices",height=0.2,width=0.4,color="grey40", fillcolor="white", style="filled",URL="$namespaceboost.html#ac848f876a7fa2caa8fb1879b7c522ebc",tooltip=" "];
  Node11 -> Node11 [color="steelblue1",style="solid"];
  Node11 -> Node5 [color="steelblue1",style="solid"];
  Node1 -> Node12 [color="steelblue1",style="solid"];
  Node12 [label="graph_tool::BlockStateVirtual\lBase::get_b",height=0.2,width=0.4,color="grey40", fillcolor="white", style="filled",URL="$classgraph__tool_1_1BlockStateVirtualBase.html#a19317063fd7aa6ea0b8567a541ec53bf",tooltip=" "];
  Node1 -> Node13 [color="steelblue1",style="solid"];
  Node13 [label="graph_tool::BlockState\l::move_vertex",height=0.2,width=0.4,color="grey40", fillcolor="white", style="filled",URL="$classgraph__tool_1_1BlockState.html#a7f90ab5729180fe379abc912a407a515",tooltip=" "];
  Node13 -> Node14 [color="steelblue1",style="solid"];
  Node14 [label="graph_tool::BlockState\l::add_partition_node",height=0.2,width=0.4,color="grey40", fillcolor="white", style="filled",URL="$classgraph__tool_1_1BlockState.html#a735739ee4bad76e70a2cae7d7cffcf69",tooltip=" "];
  Node14 -> Node15 [color="steelblue1",style="solid"];
  Node15 [label="graph_tool::BlockStateVirtual\lBase::add_partition_node",height=0.2,width=0.4,color="grey40", fillcolor="white", style="filled",URL="$classgraph__tool_1_1BlockStateVirtualBase.html#a7136725b80899a015500dfce87ebb73b",tooltip=" "];
  Node14 -> Node16 [color="steelblue1",style="solid"];
  Node16 [label="graph_tool::partition\l_stats::add_vertex",height=0.2,width=0.4,color="grey40", fillcolor="white", style="filled",URL="$classgraph__tool_1_1partition__stats.html#a848812b9c3ea55a00b3955ce0420bf8e",tooltip=" "];
  Node16 -> Node17 [color="steelblue1",style="solid"];
  Node17 [label="graph_tool::partition\l_stats::change_vertex",height=0.2,width=0.4,color="grey40", fillcolor="white", style="filled",URL="$classgraph__tool_1_1partition__stats.html#ac357fa5fcff273692faa17c480f07279",tooltip=" "];
  Node16 -> Node18 [color="steelblue1",style="solid"];
  Node18 [label="graph_tool::partition\l_stats::change_vertex_degs",height=0.2,width=0.4,color="grey40", fillcolor="white", style="filled",URL="$classgraph__tool_1_1partition__stats.html#aaae8474415c66e614178ac8a8cf5fd25",tooltip=" "];
  Node18 -> Node19 [color="steelblue1",style="solid"];
  Node19 [label="graph_tool::get_deg",height=0.2,width=0.4,color="grey40", fillcolor="white", style="filled",URL="$namespacegraph__tool.html#a2c092e7392dd5baf377a0a7c5d845cb3",tooltip=" "];
  Node19 -> Node20 [color="steelblue1",style="solid"];
  Node20 [label="boost::out_degree",height=0.2,width=0.4,color="grey40", fillcolor="white", style="filled",URL="$namespaceboost.html#ac2aab26c4c5fb471f6eef10ae4496089",tooltip=" "];
  Node20 -> Node21 [color="steelblue1",style="solid"];
  Node21 [label="boost::degree",height=0.2,width=0.4,color="grey40", fillcolor="white", style="filled",URL="$namespaceboost.html#ac08426adc887cd2f50850eb97baaae7d",tooltip=" "];
  Node21 -> Node20 [color="steelblue1",style="solid"];
  Node20 -> Node5 [color="steelblue1",style="solid"];
  Node19 -> Node22 [color="steelblue1",style="solid"];
  Node22 [label="boost::vertex",height=0.2,width=0.4,color="grey40", fillcolor="white", style="filled",URL="$namespaceboost.html#acf010cb431c640031d53bfe55c84ef46",tooltip=" "];
  Node22 -> Node5 [color="steelblue1",style="solid"];
  Node22 -> Node22 [color="steelblue1",style="solid"];
  Node16 -> Node23 [color="steelblue1",style="solid"];
  Node23 [label="graph_tool::partition\l_stats::get_r",height=0.2,width=0.4,color="grey40", fillcolor="white", style="filled",URL="$classgraph__tool_1_1partition__stats.html#a6aa0b2efe2267ce7aceea05786db07ae",tooltip=" "];
  Node14 -> Node24 [color="steelblue1",style="solid"];
  Node24 [label="idx_set::erase",height=0.2,width=0.4,color="grey40", fillcolor="white", style="filled",URL="$classidx__set.html#a33416c9cd35090f5733b4ca7028942eb",tooltip=" "];
  Node24 -> Node10 [color="steelblue1",style="solid"];
  Node14 -> Node12 [color="steelblue1",style="solid"];
  Node14 -> Node25 [color="steelblue1",style="solid"];
  Node25 [label="graph_tool::BlockState\l::get_partition_stats",height=0.2,width=0.4,color="grey40", fillcolor="white", style="filled",URL="$classgraph__tool_1_1BlockState.html#aa8b66daefbbca4b7c6ccaa5f1da157b1",tooltip=" "];
  Node25 -> Node26 [color="steelblue1",style="solid"];
  Node26 [label="graph_tool::BlockState\l::init_partition_stats",height=0.2,width=0.4,color="grey40", fillcolor="white", style="filled",URL="$classgraph__tool_1_1BlockState.html#a3967ed1fee83a8a7993a41b3667f1241",tooltip=" "];
  Node26 -> Node11 [color="steelblue1",style="solid"];
  Node26 -> Node27 [color="steelblue1",style="solid"];
  Node27 [label="graph_tool::BlockState\l::reset_partition_stats",height=0.2,width=0.4,color="grey40", fillcolor="white", style="filled",URL="$classgraph__tool_1_1BlockState.html#af2d30e205b3a1cf6324bc216a357ab17",tooltip=" "];
  Node26 -> Node28 [color="steelblue1",style="solid"];
  Node28 [label="boost::vertices",height=0.2,width=0.4,color="grey40", fillcolor="white", style="filled",URL="$namespaceboost.html#a0bc22071c353fa26cd0d16cc817ddde2",tooltip=" "];
  Node28 -> Node5 [color="steelblue1",style="solid"];
  Node28 -> Node28 [color="steelblue1",style="solid"];
  Node26 -> Node29 [color="steelblue1",style="solid"];
  Node29 [label="graph_tool::vertices\l_range",height=0.2,width=0.4,color="grey40", fillcolor="white", style="filled",URL="$namespacegraph__tool.html#a92ab479b81d8c9a030d42854fefabf1a",tooltip=" "];
  Node29 -> Node30 [color="steelblue1",style="solid"];
  Node30 [label="graph_tool::mk_range",height=0.2,width=0.4,color="grey40", fillcolor="white", style="filled",URL="$namespacegraph__tool.html#a6ecc1e46efb4f620acabfe5728f7a2a6",tooltip=" "];
  Node29 -> Node28 [color="steelblue1",style="solid"];
  Node14 -> Node8 [color="steelblue1",style="solid"];
  Node14 -> Node31 [color="steelblue1",style="solid"];
  Node31 [label="graph_tool::BlockStateVirtual\lBase::set_vertex_weight",height=0.2,width=0.4,color="grey40", fillcolor="white", style="filled",URL="$classgraph__tool_1_1BlockStateVirtualBase.html#a681f556ecac58ea8716cfa8dc1f71a48",tooltip=" "];
  Node13 -> Node32 [color="steelblue1",style="solid"];
  Node32 [label="graph_tool::BlockState\l::allow_move",height=0.2,width=0.4,color="grey40", fillcolor="white", style="filled",URL="$classgraph__tool_1_1BlockState.html#a1761add9c8c212d838f7c454d7020da9",tooltip=" "];
  Node32 -> Node33 [color="steelblue1",style="solid"];
  Node33 [label="graph_tool::BlockStateVirtual\lBase::allow_move",height=0.2,width=0.4,color="grey40", fillcolor="white", style="filled",URL="$classgraph__tool_1_1BlockStateVirtualBase.html#a5cbdd463abbd989438163e87ce5c2643",tooltip=" "];
  Node32 -> Node12 [color="steelblue1",style="solid"];
  Node13 -> Node34 [color="steelblue1",style="solid"];
  Node34 [label="graph_tool::BlockState\l::get_move_entries",height=0.2,width=0.4,color="grey40", fillcolor="white", style="filled",URL="$classgraph__tool_1_1BlockState.html#aeb871f6e9db9e25a0f1e4d75464f5ffd",tooltip=" "];
  Node34 -> Node35 [color="steelblue1",style="solid"];
  Node35 [label="graph_tool::move_entries",height=0.2,width=0.4,color="grey40", fillcolor="white", style="filled",URL="$namespacegraph__tool.html#aed5c8e84219c5fea36f27b5f2a978ba1",tooltip=" "];
  Node34 -> Node11 [color="steelblue1",style="solid"];
  Node13 -> Node36 [color="steelblue1",style="solid"];
  Node36 [label="graph_tool::BlockState\l::remove_partition_node",height=0.2,width=0.4,color="grey40", fillcolor="white", style="filled",URL="$classgraph__tool_1_1BlockState.html#aba7a7ed10433a1ac1c91a34beb44daf3",tooltip=" "];
  Node36 -> Node24 [color="steelblue1",style="solid"];
  Node36 -> Node12 [color="steelblue1",style="solid"];
  Node36 -> Node25 [color="steelblue1",style="solid"];
  Node36 -> Node8 [color="steelblue1",style="solid"];
  Node36 -> Node37 [color="steelblue1",style="solid"];
  Node37 [label="graph_tool::BlockStateVirtual\lBase::remove_partition_node",height=0.2,width=0.4,color="grey40", fillcolor="white", style="filled",URL="$classgraph__tool_1_1BlockStateVirtualBase.html#a018524ddd98e8dc998cc0fe9559323aa",tooltip=" "];
  Node36 -> Node38 [color="steelblue1",style="solid"];
  Node38 [label="graph_tool::partition\l_stats::remove_vertex",height=0.2,width=0.4,color="grey40", fillcolor="white", style="filled",URL="$classgraph__tool_1_1partition__stats.html#a97a3645b2141dc604f380f0ac4a4ed35",tooltip=" "];
  Node38 -> Node17 [color="steelblue1",style="solid"];
  Node38 -> Node18 [color="steelblue1",style="solid"];
  Node38 -> Node23 [color="steelblue1",style="solid"];
  Node36 -> Node31 [color="steelblue1",style="solid"];
  Node1 -> Node11 [color="steelblue1",style="solid"];
  Node1 -> Node29 [color="steelblue1",style="solid"];
}
