digraph "graph_tool::ModeClusterState::relabel_mode"
{
 // LATEX_PDF_SIZE
  bgcolor="transparent";
  edge [fontname=Helvetica,fontsize=10,labelfontname=Helvetica,labelfontsize=10];
  node [fontname=Helvetica,fontsize=10,shape=box,height=0.2,width=0.4];
  rankdir="RL";
  Node1 [label="graph_tool::ModeClusterState\l::relabel_mode",height=0.2,width=0.4,color="gray40", fillcolor="grey60", style="filled", fontcolor="black",tooltip=" "];
  Node1 -> Node1 [dir="back",color="steelblue1",style="solid"];
  Node1 -> Node2 [dir="back",color="steelblue1",style="solid"];
  Node2 [label="graph_tool::ModeClusterState\l::relabel_modes",height=0.2,width=0.4,color="grey40", fillcolor="white", style="filled",URL="$classgraph__tool_1_1ModeClusterState.html#a06176f21320005a4d0dca279999ab81c",tooltip=" "];
}
