digraph "graph_tool::MCMC::MCMCPseudoIsingState::move_proposal"
{
 // LATEX_PDF_SIZE
  bgcolor="transparent";
  edge [fontname=Helvetica,fontsize=10,labelfontname=Helvetica,labelfontsize=10];
  node [fontname=Helvetica,fontsize=10,shape=box,height=0.2,width=0.4];
  rankdir="LR";
  Node1 [label="graph_tool::MCMC::MCMCPseudo\lIsingState::move_proposal",height=0.2,width=0.4,color="gray40", fillcolor="grey60", style="filled", fontcolor="black",tooltip=" "];
  Node1 -> Node2 [color="steelblue1",style="solid"];
  Node2 [label="graph_tool::MCMC::MCMCPseudo\lIsingState::step",height=0.2,width=0.4,color="grey40", fillcolor="white", style="filled",URL="$classgraph__tool_1_1MCMC_1_1MCMCPseudoIsingState.html#a7ca4ae129fe6967e136b995e2a3fad3d",tooltip=" "];
}
