digraph "graph_tool::TradBlockRewireStrategy&lt; Graph, EdgeIndexMap, CorrProb, BlockDeg, micro &gt;"
{
 // LATEX_PDF_SIZE
  bgcolor="transparent";
  edge [fontname=Helvetica,fontsize=10,labelfontname=Helvetica,labelfontsize=10];
  node [fontname=Helvetica,fontsize=10,shape=box,height=0.2,width=0.4];
  Node1 [shape=record,label="{graph_tool::TradBlockRewire\lStrategy\< Graph, EdgeIndexMap,\l CorrProb, BlockDeg, micro \>\n||+ TradBlockRewireStrategy()\l+ ~TradBlockRewireStrategy()\l+ operator()()\l}",height=0.2,width=0.4,color="gray40", fillcolor="grey60", style="filled", fontcolor="black",tooltip=" "];
}
