digraph "/home/man/Documents/graph-tool-cmake/src/graph/search"
{
 // LATEX_PDF_SIZE
  bgcolor="transparent";
  edge [fontname=Helvetica,fontsize=10,labelfontname=Helvetica,labelfontsize=10];
  node [fontname=Helvetica,fontsize=10,shape=box,height=0.2,width=0.4];
  compound=true
  subgraph clusterdir_d182250f0c231765fc862e69db210731 {
    graph [ bgcolor="#edf0f7", pencolor="grey50", label="graph", fontname=Helvetica,fontsize=10 style="filled,dashed", URL="dir_d182250f0c231765fc862e69db210731.html",tooltip=""]
  dir_544b5f337dac25335d9578299116ece1 [label="search", fillcolor="#edf0f7", color="grey25", style="filled,bold", URL="dir_544b5f337dac25335d9578299116ece1.html",tooltip=""];
  }
}
