digraph "/home/man/Documents/graph-tool-cmake/src/graph/dynamics"
{
 // LATEX_PDF_SIZE
  bgcolor="transparent";
  edge [fontname=Helvetica,fontsize=10,labelfontname=Helvetica,labelfontsize=10];
  node [fontname=Helvetica,fontsize=10,shape=box,height=0.2,width=0.4];
  compound=true
  subgraph clusterdir_d182250f0c231765fc862e69db210731 {
    graph [ bgcolor="#edf0f7", pencolor="grey50", label="graph", fontname=Helvetica,fontsize=10 style="filled,dashed", URL="dir_d182250f0c231765fc862e69db210731.html",tooltip=""]
  dir_6fda68ccab80d9c4773b3773f8baa663 [label="generation", fillcolor="#e4e9f3", color="grey25", style="filled", URL="dir_6fda68ccab80d9c4773b3773f8baa663.html",tooltip=""];
  dir_3d44fe9231661375629e40fd6668d6c3 [label="dynamics", fillcolor="#edf0f7", color="grey25", style="filled,bold", URL="dir_3d44fe9231661375629e40fd6668d6c3.html",tooltip=""];
  }
  dir_3d44fe9231661375629e40fd6668d6c3->dir_6fda68ccab80d9c4773b3773f8baa663 [headlabel="1", labeldistance=1.5 headhref="dir_000006_000008.html" color="steelblue1" fontcolor="steelblue1"];
}
