digraph "/home/man/Documents/graph-tool-cmake/src/graph/layout"
{
 // LATEX_PDF_SIZE
  bgcolor="transparent";
  edge [fontname=Helvetica,fontsize=10,labelfontname=Helvetica,labelfontsize=10];
  node [fontname=Helvetica,fontsize=10,shape=box,height=0.2,width=0.4];
  compound=true
  subgraph clusterdir_d182250f0c231765fc862e69db210731 {
    graph [ bgcolor="#edf0f7", pencolor="grey50", label="graph", fontname=Helvetica,fontsize=10 style="filled,dashed", URL="dir_d182250f0c231765fc862e69db210731.html",tooltip=""]
  dir_3848881b5663ecdc3afd8b2dafbb8016 [label="layout", fillcolor="#edf0f7", color="grey25", style="filled,bold", URL="dir_3848881b5663ecdc3afd8b2dafbb8016.html",tooltip=""];
  }
}
