digraph "/home/man/Documents/graph-tool-cmake/src/graph/inference/layers"
{
 // LATEX_PDF_SIZE
  bgcolor="transparent";
  edge [fontname=Helvetica,fontsize=10,labelfontname=Helvetica,labelfontsize=10];
  node [fontname=Helvetica,fontsize=10,shape=box,height=0.2,width=0.4];
  compound=true
  subgraph clusterdir_d3cfcef8a3de40d9c0cd32e192b4484c {
    graph [ bgcolor="#edf0f7", pencolor="grey50", label="inference", fontname=Helvetica,fontsize=10 style="filled,dashed", URL="dir_d3cfcef8a3de40d9c0cd32e192b4484c.html",tooltip=""]
  dir_23e4906fcdd7da6618f3115db8cf3dde [label="overlap", fillcolor="#e4e9f3", color="grey25", style="filled", URL="dir_23e4906fcdd7da6618f3115db8cf3dde.html",tooltip=""];
  dir_2b29f64ce2c2391f4d61529a9cfbfadc [label="blockmodel", fillcolor="#e4e9f3", color="grey25", style="filled", URL="dir_2b29f64ce2c2391f4d61529a9cfbfadc.html",tooltip=""];
  dir_75f9c592c170c46f3bece06d6b7d1abb [label="loops", fillcolor="#e4e9f3", color="grey25", style="filled", URL="dir_75f9c592c170c46f3bece06d6b7d1abb.html",tooltip=""];
  dir_b7f07fbd3c3ade2e34c74ef8087ada03 [label="support", fillcolor="#e4e9f3", color="grey25", style="filled", URL="dir_b7f07fbd3c3ade2e34c74ef8087ada03.html",tooltip=""];
  dir_16a3c4278ece02a0b4061d46ae9924f8 [label="layers", fillcolor="#edf0f7", color="grey25", style="filled,bold", URL="dir_16a3c4278ece02a0b4061d46ae9924f8.html",tooltip=""];
  }
  dir_16a3c4278ece02a0b4061d46ae9924f8->dir_23e4906fcdd7da6618f3115db8cf3dde [headlabel="22", labeldistance=1.5 headhref="dir_000012_000017.html" color="steelblue1" fontcolor="steelblue1"];
  dir_16a3c4278ece02a0b4061d46ae9924f8->dir_2b29f64ce2c2391f4d61529a9cfbfadc [headlabel="36", labeldistance=1.5 headhref="dir_000012_000000.html" color="steelblue1" fontcolor="steelblue1"];
  dir_16a3c4278ece02a0b4061d46ae9924f8->dir_75f9c592c170c46f3bece06d6b7d1abb [headlabel="16", labeldistance=1.5 headhref="dir_000012_000014.html" color="steelblue1" fontcolor="steelblue1"];
  dir_16a3c4278ece02a0b4061d46ae9924f8->dir_b7f07fbd3c3ade2e34c74ef8087ada03 [headlabel="4", labeldistance=1.5 headhref="dir_000012_000026.html" color="steelblue1" fontcolor="steelblue1"];
}
