digraph "/home/man/Documents/graph-tool-cmake/src/graph"
{
 // LATEX_PDF_SIZE
  bgcolor="transparent";
  edge [fontname=Helvetica,fontsize=10,labelfontname=Helvetica,labelfontsize=10];
  node [fontname=Helvetica,fontsize=10,shape=box,height=0.2,width=0.4];
  compound=true
  subgraph clusterdir_68267d1309a1af8e8297ef4c3efbcdba {
    graph [ bgcolor="#edf0f7", pencolor="grey25", label="src", fontname=Helvetica,fontsize=10 style="filled,dashed", URL="dir_68267d1309a1af8e8297ef4c3efbcdba.html",tooltip=""]
  subgraph clusterdir_d182250f0c231765fc862e69db210731 {
    graph [ bgcolor="#edf0f7", pencolor="grey25", label="", fontname=Helvetica,fontsize=10 style="filled,bold", URL="dir_d182250f0c231765fc862e69db210731.html",tooltip=""]
    dir_d182250f0c231765fc862e69db210731 [shape=plaintext, label="graph"];
  dir_5820dc05a77b0fc789693c7463c16d5c [label="centrality", fillcolor="#e4e9f3", color="grey25", style="filled", URL="dir_5820dc05a77b0fc789693c7463c16d5c.html",tooltip=""];
  dir_139b854af84078027c0920cd6b428c9e [label="clustering", fillcolor="#e4e9f3", color="grey25", style="filled", URL="dir_139b854af84078027c0920cd6b428c9e.html",tooltip=""];
  dir_fff85bf3f7f4d258d2f95e7c68976f05 [label="correlations", fillcolor="#e4e9f3", color="grey25", style="filled", URL="dir_fff85bf3f7f4d258d2f95e7c68976f05.html",tooltip=""];
  dir_3b3d97254376ec2a8ee7f6215f34be9b [label="draw", fillcolor="#e4e9f3", color="grey25", style="filled", URL="dir_3b3d97254376ec2a8ee7f6215f34be9b.html",tooltip=""];
  dir_3d44fe9231661375629e40fd6668d6c3 [label="dynamics", fillcolor="#e4e9f3", color="grey25", style="filled", URL="dir_3d44fe9231661375629e40fd6668d6c3.html",tooltip=""];
  dir_ebd87d1ad71df3c6abe4254feaf6d94c [label="flow", fillcolor="#e4e9f3", color="grey25", style="filled", URL="dir_ebd87d1ad71df3c6abe4254feaf6d94c.html",tooltip=""];
  dir_6fda68ccab80d9c4773b3773f8baa663 [label="generation", fillcolor="#e4e9f3", color="grey25", style="filled", URL="dir_6fda68ccab80d9c4773b3773f8baa663.html",tooltip=""];
  subgraph clusterdir_d3cfcef8a3de40d9c0cd32e192b4484c {
    graph [ bgcolor="#e4e9f3", pencolor="grey25", label="", fontname=Helvetica,fontsize=10 style="filled", URL="dir_d3cfcef8a3de40d9c0cd32e192b4484c.html",tooltip=""]
    dir_d3cfcef8a3de40d9c0cd32e192b4484c [shape=plaintext, label="inference"];
  dir_2b29f64ce2c2391f4d61529a9cfbfadc [label="blockmodel", fillcolor="#dae1ef", color="grey25", style="filled", URL="dir_2b29f64ce2c2391f4d61529a9cfbfadc.html",tooltip=""];
  dir_170e1d4a78669a91b698e510863a06c9 [label="cliques", fillcolor="#dae1ef", color="grey25", style="filled", URL="dir_170e1d4a78669a91b698e510863a06c9.html",tooltip=""];
  dir_9dcc8fff8bcae20ba806450c92a08e88 [label="histogram", fillcolor="#dae1ef", color="grey25", style="filled", URL="dir_9dcc8fff8bcae20ba806450c92a08e88.html",tooltip=""];
  dir_16a3c4278ece02a0b4061d46ae9924f8 [label="layers", fillcolor="#dae1ef", color="grey25", style="filled", URL="dir_16a3c4278ece02a0b4061d46ae9924f8.html",tooltip=""];
  dir_75f9c592c170c46f3bece06d6b7d1abb [label="loops", fillcolor="#dae1ef", color="grey25", style="filled", URL="dir_75f9c592c170c46f3bece06d6b7d1abb.html",tooltip=""];
  dir_aafb7b3d6163970d8050a76700034a42 [label="modularity", fillcolor="#dae1ef", color="grey25", style="filled", URL="dir_aafb7b3d6163970d8050a76700034a42.html",tooltip=""];
  dir_e20325069525a82b6e2d87984dde0df3 [label="norm_cut", fillcolor="#dae1ef", color="grey25", style="filled", URL="dir_e20325069525a82b6e2d87984dde0df3.html",tooltip=""];
  dir_23e4906fcdd7da6618f3115db8cf3dde [label="overlap", fillcolor="#dae1ef", color="grey25", style="filled", URL="dir_23e4906fcdd7da6618f3115db8cf3dde.html",tooltip=""];
  dir_001fdc8d235dfb37affcfd015378ed6e [label="partition_centroid", fillcolor="#dae1ef", color="grey25", style="filled", URL="dir_001fdc8d235dfb37affcfd015378ed6e.html",tooltip=""];
  dir_7f17d1db7be8f76fb1d95b84527fedc7 [label="partition_modes", fillcolor="#dae1ef", color="grey25", style="filled", URL="dir_7f17d1db7be8f76fb1d95b84527fedc7.html",tooltip=""];
  dir_05eec1e5075f070a8c0d92b3799a3159 [label="planted_partition", fillcolor="#dae1ef", color="grey25", style="filled", URL="dir_05eec1e5075f070a8c0d92b3799a3159.html",tooltip=""];
  dir_af90337233042d63fbf0db8769936f16 [label="ranked", fillcolor="#dae1ef", color="grey25", style="filled", URL="dir_af90337233042d63fbf0db8769936f16.html",tooltip=""];
  dir_b7f07fbd3c3ade2e34c74ef8087ada03 [label="support", fillcolor="#dae1ef", color="grey25", style="filled", URL="dir_b7f07fbd3c3ade2e34c74ef8087ada03.html",tooltip=""];
  dir_b35f631f5a509d49759f5c0caee1203f [label="uncertain", fillcolor="#dae1ef", color="grey25", style="filled", URL="dir_b35f631f5a509d49759f5c0caee1203f.html",tooltip=""];
  }
  dir_3848881b5663ecdc3afd8b2dafbb8016 [label="layout", fillcolor="#e4e9f3", color="grey25", style="filled", URL="dir_3848881b5663ecdc3afd8b2dafbb8016.html",tooltip=""];
  dir_544b5f337dac25335d9578299116ece1 [label="search", fillcolor="#e4e9f3", color="grey25", style="filled", URL="dir_544b5f337dac25335d9578299116ece1.html",tooltip=""];
  dir_b2c5488c1e0868d1e52b5e8a45c2d1ce [label="spectral", fillcolor="#e4e9f3", color="grey25", style="filled", URL="dir_b2c5488c1e0868d1e52b5e8a45c2d1ce.html",tooltip=""];
  dir_c19eb6f3f34f8d6e34ddedf2aa3eeb43 [label="stats", fillcolor="#e4e9f3", color="grey25", style="filled", URL="dir_c19eb6f3f34f8d6e34ddedf2aa3eeb43.html",tooltip=""];
  dir_e889ab5df943dbb4e21a950950d6a244 [label="topology", fillcolor="#e4e9f3", color="grey25", style="filled", URL="dir_e889ab5df943dbb4e21a950950d6a244.html",tooltip=""];
  dir_38341498c39ae0ffb05100bd243556af [label="util", fillcolor="#e4e9f3", color="grey25", style="filled", URL="dir_38341498c39ae0ffb05100bd243556af.html",tooltip=""];
  }
  }
  dir_3d44fe9231661375629e40fd6668d6c3->dir_6fda68ccab80d9c4773b3773f8baa663 [headlabel="1", labeldistance=1.5 headhref="dir_000006_000008.html" color="steelblue1" fontcolor="steelblue1"];
  dir_d3cfcef8a3de40d9c0cd32e192b4484c->dir_b7f07fbd3c3ade2e34c74ef8087ada03 [headlabel="79", labeldistance=1.5 headhref="dir_000011_000026.html" color="steelblue1" fontcolor="steelblue1"];
  dir_2b29f64ce2c2391f4d61529a9cfbfadc->dir_6fda68ccab80d9c4773b3773f8baa663 [headlabel="2", labeldistance=1.5 headhref="dir_000000_000008.html" color="steelblue1" fontcolor="steelblue1"];
  dir_2b29f64ce2c2391f4d61529a9cfbfadc->dir_75f9c592c170c46f3bece06d6b7d1abb [headlabel="9", labeldistance=1.5 headhref="dir_000000_000014.html" color="steelblue1" fontcolor="steelblue1"];
  dir_2b29f64ce2c2391f4d61529a9cfbfadc->dir_b35f631f5a509d49759f5c0caee1203f [headlabel="1", labeldistance=1.5 headhref="dir_000000_000028.html" color="steelblue1" fontcolor="steelblue1"];
  dir_2b29f64ce2c2391f4d61529a9cfbfadc->dir_b7f07fbd3c3ade2e34c74ef8087ada03 [headlabel="15", labeldistance=1.5 headhref="dir_000000_000026.html" color="steelblue1" fontcolor="steelblue1"];
  dir_170e1d4a78669a91b698e510863a06c9->dir_b7f07fbd3c3ade2e34c74ef8087ada03 [headlabel="1", labeldistance=1.5 headhref="dir_000002_000026.html" color="steelblue1" fontcolor="steelblue1"];
  dir_9dcc8fff8bcae20ba806450c92a08e88->dir_2b29f64ce2c2391f4d61529a9cfbfadc [headlabel="1", labeldistance=1.5 headhref="dir_000010_000000.html" color="steelblue1" fontcolor="steelblue1"];
  dir_9dcc8fff8bcae20ba806450c92a08e88->dir_75f9c592c170c46f3bece06d6b7d1abb [headlabel="1", labeldistance=1.5 headhref="dir_000010_000014.html" color="steelblue1" fontcolor="steelblue1"];
  dir_9dcc8fff8bcae20ba806450c92a08e88->dir_b7f07fbd3c3ade2e34c74ef8087ada03 [headlabel="3", labeldistance=1.5 headhref="dir_000010_000026.html" color="steelblue1" fontcolor="steelblue1"];
  dir_16a3c4278ece02a0b4061d46ae9924f8->dir_23e4906fcdd7da6618f3115db8cf3dde [headlabel="22", labeldistance=1.5 headhref="dir_000012_000017.html" color="steelblue1" fontcolor="steelblue1"];
  dir_16a3c4278ece02a0b4061d46ae9924f8->dir_2b29f64ce2c2391f4d61529a9cfbfadc [headlabel="36", labeldistance=1.5 headhref="dir_000012_000000.html" color="steelblue1" fontcolor="steelblue1"];
  dir_16a3c4278ece02a0b4061d46ae9924f8->dir_75f9c592c170c46f3bece06d6b7d1abb [headlabel="16", labeldistance=1.5 headhref="dir_000012_000014.html" color="steelblue1" fontcolor="steelblue1"];
  dir_16a3c4278ece02a0b4061d46ae9924f8->dir_b7f07fbd3c3ade2e34c74ef8087ada03 [headlabel="4", labeldistance=1.5 headhref="dir_000012_000026.html" color="steelblue1" fontcolor="steelblue1"];
  dir_75f9c592c170c46f3bece06d6b7d1abb->dir_b7f07fbd3c3ade2e34c74ef8087ada03 [headlabel="1", labeldistance=1.5 headhref="dir_000014_000026.html" color="steelblue1" fontcolor="steelblue1"];
  dir_75f9c592c170c46f3bece06d6b7d1abb->dir_e889ab5df943dbb4e21a950950d6a244 [headlabel="1", labeldistance=1.5 headhref="dir_000014_000027.html" color="steelblue1" fontcolor="steelblue1"];
  dir_aafb7b3d6163970d8050a76700034a42->dir_2b29f64ce2c2391f4d61529a9cfbfadc [headlabel="5", labeldistance=1.5 headhref="dir_000015_000000.html" color="steelblue1" fontcolor="steelblue1"];
  dir_aafb7b3d6163970d8050a76700034a42->dir_75f9c592c170c46f3bece06d6b7d1abb [headlabel="4", labeldistance=1.5 headhref="dir_000015_000014.html" color="steelblue1" fontcolor="steelblue1"];
  dir_aafb7b3d6163970d8050a76700034a42->dir_b7f07fbd3c3ade2e34c74ef8087ada03 [headlabel="2", labeldistance=1.5 headhref="dir_000015_000026.html" color="steelblue1" fontcolor="steelblue1"];
  dir_e20325069525a82b6e2d87984dde0df3->dir_2b29f64ce2c2391f4d61529a9cfbfadc [headlabel="5", labeldistance=1.5 headhref="dir_000016_000000.html" color="steelblue1" fontcolor="steelblue1"];
  dir_e20325069525a82b6e2d87984dde0df3->dir_75f9c592c170c46f3bece06d6b7d1abb [headlabel="4", labeldistance=1.5 headhref="dir_000016_000014.html" color="steelblue1" fontcolor="steelblue1"];
  dir_e20325069525a82b6e2d87984dde0df3->dir_b7f07fbd3c3ade2e34c74ef8087ada03 [headlabel="2", labeldistance=1.5 headhref="dir_000016_000026.html" color="steelblue1" fontcolor="steelblue1"];
  dir_23e4906fcdd7da6618f3115db8cf3dde->dir_2b29f64ce2c2391f4d61529a9cfbfadc [headlabel="12", labeldistance=1.5 headhref="dir_000017_000000.html" color="steelblue1" fontcolor="steelblue1"];
  dir_23e4906fcdd7da6618f3115db8cf3dde->dir_75f9c592c170c46f3bece06d6b7d1abb [headlabel="9", labeldistance=1.5 headhref="dir_000017_000014.html" color="steelblue1" fontcolor="steelblue1"];
  dir_23e4906fcdd7da6618f3115db8cf3dde->dir_b7f07fbd3c3ade2e34c74ef8087ada03 [headlabel="4", labeldistance=1.5 headhref="dir_000017_000026.html" color="steelblue1" fontcolor="steelblue1"];
  dir_001fdc8d235dfb37affcfd015378ed6e->dir_2b29f64ce2c2391f4d61529a9cfbfadc [headlabel="8", labeldistance=1.5 headhref="dir_000018_000000.html" color="steelblue1" fontcolor="steelblue1"];
  dir_001fdc8d235dfb37affcfd015378ed6e->dir_75f9c592c170c46f3bece06d6b7d1abb [headlabel="6", labeldistance=1.5 headhref="dir_000018_000014.html" color="steelblue1" fontcolor="steelblue1"];
  dir_001fdc8d235dfb37affcfd015378ed6e->dir_b7f07fbd3c3ade2e34c74ef8087ada03 [headlabel="4", labeldistance=1.5 headhref="dir_000018_000026.html" color="steelblue1" fontcolor="steelblue1"];
  dir_7f17d1db7be8f76fb1d95b84527fedc7->dir_2b29f64ce2c2391f4d61529a9cfbfadc [headlabel="6", labeldistance=1.5 headhref="dir_000019_000000.html" color="steelblue1" fontcolor="steelblue1"];
  dir_7f17d1db7be8f76fb1d95b84527fedc7->dir_75f9c592c170c46f3bece06d6b7d1abb [headlabel="3", labeldistance=1.5 headhref="dir_000019_000014.html" color="steelblue1" fontcolor="steelblue1"];
  dir_7f17d1db7be8f76fb1d95b84527fedc7->dir_b7f07fbd3c3ade2e34c74ef8087ada03 [headlabel="3", labeldistance=1.5 headhref="dir_000019_000026.html" color="steelblue1" fontcolor="steelblue1"];
  dir_7f17d1db7be8f76fb1d95b84527fedc7->dir_e889ab5df943dbb4e21a950950d6a244 [headlabel="1", labeldistance=1.5 headhref="dir_000019_000027.html" color="steelblue1" fontcolor="steelblue1"];
  dir_05eec1e5075f070a8c0d92b3799a3159->dir_2b29f64ce2c2391f4d61529a9cfbfadc [headlabel="5", labeldistance=1.5 headhref="dir_000020_000000.html" color="steelblue1" fontcolor="steelblue1"];
  dir_05eec1e5075f070a8c0d92b3799a3159->dir_75f9c592c170c46f3bece06d6b7d1abb [headlabel="4", labeldistance=1.5 headhref="dir_000020_000014.html" color="steelblue1" fontcolor="steelblue1"];
  dir_05eec1e5075f070a8c0d92b3799a3159->dir_b7f07fbd3c3ade2e34c74ef8087ada03 [headlabel="2", labeldistance=1.5 headhref="dir_000020_000026.html" color="steelblue1" fontcolor="steelblue1"];
  dir_af90337233042d63fbf0db8769936f16->dir_2b29f64ce2c2391f4d61529a9cfbfadc [headlabel="8", labeldistance=1.5 headhref="dir_000021_000000.html" color="steelblue1" fontcolor="steelblue1"];
  dir_af90337233042d63fbf0db8769936f16->dir_75f9c592c170c46f3bece06d6b7d1abb [headlabel="6", labeldistance=1.5 headhref="dir_000021_000014.html" color="steelblue1" fontcolor="steelblue1"];
  dir_af90337233042d63fbf0db8769936f16->dir_b7f07fbd3c3ade2e34c74ef8087ada03 [headlabel="6", labeldistance=1.5 headhref="dir_000021_000026.html" color="steelblue1" fontcolor="steelblue1"];
  dir_b35f631f5a509d49759f5c0caee1203f->dir_2b29f64ce2c2391f4d61529a9cfbfadc [headlabel="21", labeldistance=1.5 headhref="dir_000028_000000.html" color="steelblue1" fontcolor="steelblue1"];
  dir_b35f631f5a509d49759f5c0caee1203f->dir_6fda68ccab80d9c4773b3773f8baa663 [headlabel="1", labeldistance=1.5 headhref="dir_000028_000008.html" color="steelblue1" fontcolor="steelblue1"];
  dir_b35f631f5a509d49759f5c0caee1203f->dir_75f9c592c170c46f3bece06d6b7d1abb [headlabel="11", labeldistance=1.5 headhref="dir_000028_000014.html" color="steelblue1" fontcolor="steelblue1"];
  dir_b35f631f5a509d49759f5c0caee1203f->dir_b7f07fbd3c3ade2e34c74ef8087ada03 [headlabel="31", labeldistance=1.5 headhref="dir_000028_000026.html" color="steelblue1" fontcolor="steelblue1"];
  dir_e889ab5df943dbb4e21a950950d6a244->dir_6fda68ccab80d9c4773b3773f8baa663 [headlabel="1", labeldistance=1.5 headhref="dir_000027_000008.html" color="steelblue1" fontcolor="steelblue1"];
}
