digraph "/home/man/Documents/graph-tool-cmake/src/graph/inference/blockmodel"
{
 // LATEX_PDF_SIZE
  bgcolor="transparent";
  edge [fontname=Helvetica,fontsize=10,labelfontname=Helvetica,labelfontsize=10];
  node [fontname=Helvetica,fontsize=10,shape=box,height=0.2,width=0.4];
  compound=true
  subgraph clusterdir_d3cfcef8a3de40d9c0cd32e192b4484c {
    graph [ bgcolor="#edf0f7", pencolor="grey50", label="inference", fontname=Helvetica,fontsize=10 style="filled,dashed", URL="dir_d3cfcef8a3de40d9c0cd32e192b4484c.html",tooltip=""]
  dir_75f9c592c170c46f3bece06d6b7d1abb [label="loops", fillcolor="#e4e9f3", color="grey25", style="filled", URL="dir_75f9c592c170c46f3bece06d6b7d1abb.html",tooltip=""];
  dir_b35f631f5a509d49759f5c0caee1203f [label="uncertain", fillcolor="#e4e9f3", color="grey25", style="filled", URL="dir_b35f631f5a509d49759f5c0caee1203f.html",tooltip=""];
  dir_b7f07fbd3c3ade2e34c74ef8087ada03 [label="support", fillcolor="#e4e9f3", color="grey25", style="filled", URL="dir_b7f07fbd3c3ade2e34c74ef8087ada03.html",tooltip=""];
  dir_2b29f64ce2c2391f4d61529a9cfbfadc [label="blockmodel", fillcolor="#edf0f7", color="grey25", style="filled,bold", URL="dir_2b29f64ce2c2391f4d61529a9cfbfadc.html",tooltip=""];
  }
  dir_6fda68ccab80d9c4773b3773f8baa663 [label="generation", fillcolor="#edf0f7", color="grey50", style="filled", URL="dir_6fda68ccab80d9c4773b3773f8baa663.html",tooltip=""];
  dir_2b29f64ce2c2391f4d61529a9cfbfadc->dir_6fda68ccab80d9c4773b3773f8baa663 [headlabel="2", labeldistance=1.5 headhref="dir_000000_000008.html" color="steelblue1" fontcolor="steelblue1"];
  dir_2b29f64ce2c2391f4d61529a9cfbfadc->dir_75f9c592c170c46f3bece06d6b7d1abb [headlabel="9", labeldistance=1.5 headhref="dir_000000_000014.html" color="steelblue1" fontcolor="steelblue1"];
  dir_2b29f64ce2c2391f4d61529a9cfbfadc->dir_b35f631f5a509d49759f5c0caee1203f [headlabel="1", labeldistance=1.5 headhref="dir_000000_000028.html" color="steelblue1" fontcolor="steelblue1"];
  dir_2b29f64ce2c2391f4d61529a9cfbfadc->dir_b7f07fbd3c3ade2e34c74ef8087ada03 [headlabel="15", labeldistance=1.5 headhref="dir_000000_000026.html" color="steelblue1" fontcolor="steelblue1"];
}
