digraph "/home/man/Documents/graph-tool-cmake/src/graph/inference/support"
{
 // LATEX_PDF_SIZE
  bgcolor="transparent";
  edge [fontname=Helvetica,fontsize=10,labelfontname=Helvetica,labelfontsize=10];
  node [fontname=Helvetica,fontsize=10,shape=box,height=0.2,width=0.4];
  compound=true
  subgraph clusterdir_d3cfcef8a3de40d9c0cd32e192b4484c {
    graph [ bgcolor="#edf0f7", pencolor="grey50", label="inference", fontname=Helvetica,fontsize=10 style="filled,dashed", URL="dir_d3cfcef8a3de40d9c0cd32e192b4484c.html",tooltip=""]
  dir_b7f07fbd3c3ade2e34c74ef8087ada03 [label="support", fillcolor="#edf0f7", color="grey25", style="filled,bold", URL="dir_b7f07fbd3c3ade2e34c74ef8087ada03.html",tooltip=""];
  }
}
