digraph "/home/man/Documents/graph-tool-cmake/src/graph/generation/dynamic_sampler.hh"
{
 // LATEX_PDF_SIZE
  bgcolor="transparent";
  edge [fontname=Helvetica,fontsize=10,labelfontname=Helvetica,labelfontsize=10];
  node [fontname=Helvetica,fontsize=10,shape=box,height=0.2,width=0.4];
  Node1 [label="/home/man/Documents\l/graph-tool-cmake/src\l/graph/generation/dynamic\l_sampler.hh",height=0.2,width=0.4,color="gray40", fillcolor="grey60", style="filled", fontcolor="black",tooltip=" "];
  Node1 -> Node2 [dir="back",color="steelblue1",style="solid"];
  Node2 [label="/home/man/Documents\l/graph-tool-cmake/src\l/graph/generation/graph\l_generation.cc",height=0.2,width=0.4,color="grey40", fillcolor="white", style="filled",URL="$graph__generation_8cc.html",tooltip=" "];
  Node1 -> Node3 [dir="back",color="steelblue1",style="solid"];
  Node3 [label="/home/man/Documents\l/graph-tool-cmake/src\l/graph/generation/graph\l_price.hh",height=0.2,width=0.4,color="grey40", fillcolor="white", style="filled",URL="$graph__price_8hh.html",tooltip=" "];
  Node3 -> Node4 [dir="back",color="steelblue1",style="solid"];
  Node4 [label="/home/man/Documents\l/graph-tool-cmake/src\l/graph/generation/graph\l_price.cc",height=0.2,width=0.4,color="grey40", fillcolor="white", style="filled",URL="$graph__price_8cc.html",tooltip=" "];
  Node1 -> Node5 [dir="back",color="steelblue1",style="solid"];
  Node5 [label="/home/man/Documents\l/graph-tool-cmake/src\l/graph/inference/blockmodel\l/graph_blockmodel_elist.hh",height=0.2,width=0.4,color="grey40", fillcolor="white", style="filled",URL="$graph__blockmodel__elist_8hh.html",tooltip=" "];
  Node5 -> Node6 [dir="back",color="steelblue1",style="solid"];
  Node6 [label="/home/man/Documents\l/graph-tool-cmake/src\l/graph/inference/blockmodel\l/graph_blockmodel_util.hh",height=0.2,width=0.4,color="grey40", fillcolor="white", style="filled",URL="$graph__blockmodel__util_8hh.html",tooltip=" "];
  Node6 -> Node7 [dir="back",color="steelblue1",style="solid"];
  Node7 [label="/home/man/Documents\l/graph-tool-cmake/src\l/graph/inference/blockmodel\l/graph_blockmodel.cc",height=0.2,width=0.4,color="grey40", fillcolor="white", style="filled",URL="$graph__blockmodel_8cc.html",tooltip=" "];
  Node6 -> Node8 [dir="back",color="steelblue1",style="solid"];
  Node8 [label="/home/man/Documents\l/graph-tool-cmake/src\l/graph/inference/blockmodel\l/graph_blockmodel.hh",height=0.2,width=0.4,color="red", fillcolor="#FFF0F0", style="filled",URL="$graph__blockmodel_8hh.html",tooltip=" "];
  Node8 -> Node7 [dir="back",color="steelblue1",style="solid"];
  Node8 -> Node9 [dir="back",color="steelblue1",style="solid"];
  Node9 [label="/home/man/Documents\l/graph-tool-cmake/src\l/graph/inference/blockmodel\l/graph_blockmodel_exhaustive.cc",height=0.2,width=0.4,color="grey40", fillcolor="white", style="filled",URL="$graph__blockmodel__exhaustive_8cc.html",tooltip=" "];
  Node8 -> Node10 [dir="back",color="steelblue1",style="solid"];
  Node10 [label="/home/man/Documents\l/graph-tool-cmake/src\l/graph/inference/blockmodel\l/graph_blockmodel_gibbs.cc",height=0.2,width=0.4,color="grey40", fillcolor="white", style="filled",URL="$graph__blockmodel__gibbs_8cc.html",tooltip=" "];
  Node8 -> Node11 [dir="back",color="steelblue1",style="solid"];
  Node11 [label="/home/man/Documents\l/graph-tool-cmake/src\l/graph/inference/blockmodel\l/graph_blockmodel_imp.cc",height=0.2,width=0.4,color="grey40", fillcolor="white", style="filled",URL="$graph__blockmodel__imp_8cc.html",tooltip=" "];
  Node8 -> Node12 [dir="back",color="steelblue1",style="solid"];
  Node12 [label="/home/man/Documents\l/graph-tool-cmake/src\l/graph/inference/blockmodel\l/graph_blockmodel_imp2.cc",height=0.2,width=0.4,color="grey40", fillcolor="white", style="filled",URL="$graph__blockmodel__imp2_8cc.html",tooltip=" "];
  Node8 -> Node13 [dir="back",color="steelblue1",style="solid"];
  Node13 [label="/home/man/Documents\l/graph-tool-cmake/src\l/graph/inference/blockmodel\l/graph_blockmodel_imp3.cc",height=0.2,width=0.4,color="grey40", fillcolor="white", style="filled",URL="$graph__blockmodel__imp3_8cc.html",tooltip=" "];
  Node8 -> Node14 [dir="back",color="steelblue1",style="solid"];
  Node14 [label="/home/man/Documents\l/graph-tool-cmake/src\l/graph/inference/blockmodel\l/graph_blockmodel_mcmc.cc",height=0.2,width=0.4,color="grey40", fillcolor="white", style="filled",URL="$graph__blockmodel__mcmc_8cc.html",tooltip=" "];
  Node8 -> Node15 [dir="back",color="steelblue1",style="solid"];
  Node15 [label="/home/man/Documents\l/graph-tool-cmake/src\l/graph/inference/blockmodel\l/graph_blockmodel_multicanonical.cc",height=0.2,width=0.4,color="grey40", fillcolor="white", style="filled",URL="$graph__blockmodel__multicanonical_8cc.html",tooltip=" "];
  Node8 -> Node16 [dir="back",color="steelblue1",style="solid"];
  Node16 [label="/home/man/Documents\l/graph-tool-cmake/src\l/graph/inference/blockmodel\l/graph_blockmodel_multicanonical\l_multiflip.cc",height=0.2,width=0.4,color="grey40", fillcolor="white", style="filled",URL="$graph__blockmodel__multicanonical__multiflip_8cc.html",tooltip=" "];
  Node8 -> Node17 [dir="back",color="steelblue1",style="solid"];
  Node17 [label="/home/man/Documents\l/graph-tool-cmake/src\l/graph/inference/blockmodel\l/graph_blockmodel_multiflip_mcmc.cc",height=0.2,width=0.4,color="grey40", fillcolor="white", style="filled",URL="$graph__blockmodel__multiflip__mcmc_8cc.html",tooltip=" "];
  Node8 -> Node18 [dir="back",color="steelblue1",style="solid"];
  Node18 [label="/home/man/Documents\l/graph-tool-cmake/src\l/graph/inference/blockmodel\l/graph_blockmodel_multilevel_mcmc.cc",height=0.2,width=0.4,color="grey40", fillcolor="white", style="filled",URL="$graph__blockmodel__multilevel__mcmc_8cc.html",tooltip=" "];
  Node8 -> Node19 [dir="back",color="steelblue1",style="solid"];
  Node19 [label="/home/man/Documents\l/graph-tool-cmake/src\l/graph/inference/layers\l/graph_blockmodel_layers.cc",height=0.2,width=0.4,color="grey40", fillcolor="white", style="filled",URL="$graph__blockmodel__layers_8cc.html",tooltip=" "];
  Node8 -> Node20 [dir="back",color="steelblue1",style="solid"];
  Node20 [label="/home/man/Documents\l/graph-tool-cmake/src\l/graph/inference/layers\l/graph_blockmodel_layers\l_exhaustive.cc",height=0.2,width=0.4,color="grey40", fillcolor="white", style="filled",URL="$graph__blockmodel__layers__exhaustive_8cc.html",tooltip=" "];
  Node8 -> Node21 [dir="back",color="steelblue1",style="solid"];
  Node21 [label="/home/man/Documents\l/graph-tool-cmake/src\l/graph/inference/layers\l/graph_blockmodel_layers\l_gibbs.cc",height=0.2,width=0.4,color="grey40", fillcolor="white", style="filled",URL="$graph__blockmodel__layers__gibbs_8cc.html",tooltip=" "];
  Node8 -> Node22 [dir="back",color="steelblue1",style="solid"];
  Node22 [label="/home/man/Documents\l/graph-tool-cmake/src\l/graph/inference/layers\l/graph_blockmodel_layers_imp.cc",height=0.2,width=0.4,color="grey40", fillcolor="white", style="filled",URL="$graph__blockmodel__layers__imp_8cc.html",tooltip=" "];
  Node8 -> Node23 [dir="back",color="steelblue1",style="solid"];
  Node23 [label="/home/man/Documents\l/graph-tool-cmake/src\l/graph/inference/layers\l/graph_blockmodel_layers\l_mcmc.cc",height=0.2,width=0.4,color="grey40", fillcolor="white", style="filled",URL="$graph__blockmodel__layers__mcmc_8cc.html",tooltip=" "];
  Node8 -> Node24 [dir="back",color="steelblue1",style="solid"];
  Node24 [label="/home/man/Documents\l/graph-tool-cmake/src\l/graph/inference/layers\l/graph_blockmodel_layers\l_multicanonical.cc",height=0.2,width=0.4,color="grey40", fillcolor="white", style="filled",URL="$graph__blockmodel__layers__multicanonical_8cc.html",tooltip=" "];
  Node8 -> Node25 [dir="back",color="steelblue1",style="solid"];
  Node25 [label="/home/man/Documents\l/graph-tool-cmake/src\l/graph/inference/layers\l/graph_blockmodel_layers\l_multicanonical_multiflip.cc",height=0.2,width=0.4,color="grey40", fillcolor="white", style="filled",URL="$graph__blockmodel__layers__multicanonical__multiflip_8cc.html",tooltip=" "];
  Node8 -> Node26 [dir="back",color="steelblue1",style="solid"];
  Node26 [label="/home/man/Documents\l/graph-tool-cmake/src\l/graph/inference/layers\l/graph_blockmodel_layers\l_multiflip_mcmc.cc",height=0.2,width=0.4,color="grey40", fillcolor="white", style="filled",URL="$graph__blockmodel__layers__multiflip__mcmc_8cc.html",tooltip=" "];
  Node8 -> Node27 [dir="back",color="steelblue1",style="solid"];
  Node27 [label="/home/man/Documents\l/graph-tool-cmake/src\l/graph/inference/layers\l/graph_blockmodel_layers\l_multilevel_mcmc.cc",height=0.2,width=0.4,color="grey40", fillcolor="white", style="filled",URL="$graph__blockmodel__layers__multilevel__mcmc_8cc.html",tooltip=" "];
  Node8 -> Node28 [dir="back",color="steelblue1",style="solid"];
  Node28 [label="/home/man/Documents\l/graph-tool-cmake/src\l/graph/inference/overlap\l/graph_blockmodel_overlap\l_util.hh",height=0.2,width=0.4,color="red", fillcolor="#FFF0F0", style="filled",URL="$graph__blockmodel__overlap__util_8hh.html",tooltip=" "];
  Node28 -> Node40 [dir="back",color="steelblue1",style="solid"];
  Node40 [label="/home/man/Documents\l/graph-tool-cmake/src\l/graph/inference/overlap\l/graph_blockmodel_overlap.hh",height=0.2,width=0.4,color="red", fillcolor="#FFF0F0", style="filled",URL="$graph__blockmodel__overlap_8hh.html",tooltip=" "];
  Node8 -> Node51 [dir="back",color="steelblue1",style="solid"];
  Node51 [label="/home/man/Documents\l/graph-tool-cmake/src\l/graph/inference/ranked\l/graph_ranked.cc",height=0.2,width=0.4,color="grey40", fillcolor="white", style="filled",URL="$graph__ranked_8cc.html",tooltip=" "];
  Node8 -> Node52 [dir="back",color="steelblue1",style="solid"];
  Node52 [label="/home/man/Documents\l/graph-tool-cmake/src\l/graph/inference/ranked\l/graph_ranked_gibbs.cc",height=0.2,width=0.4,color="grey40", fillcolor="white", style="filled",URL="$graph__ranked__gibbs_8cc.html",tooltip=" "];
  Node8 -> Node53 [dir="back",color="steelblue1",style="solid"];
  Node53 [label="/home/man/Documents\l/graph-tool-cmake/src\l/graph/inference/ranked\l/graph_ranked_mcmc.cc",height=0.2,width=0.4,color="grey40", fillcolor="white", style="filled",URL="$graph__ranked__mcmc_8cc.html",tooltip=" "];
  Node8 -> Node54 [dir="back",color="steelblue1",style="solid"];
  Node54 [label="/home/man/Documents\l/graph-tool-cmake/src\l/graph/inference/ranked\l/graph_ranked_multiflip\l_mcmc.cc",height=0.2,width=0.4,color="grey40", fillcolor="white", style="filled",URL="$graph__ranked__multiflip__mcmc_8cc.html",tooltip=" "];
  Node8 -> Node55 [dir="back",color="steelblue1",style="solid"];
  Node55 [label="/home/man/Documents\l/graph-tool-cmake/src\l/graph/inference/ranked\l/graph_ranked_multilevel\l_mcmc.cc",height=0.2,width=0.4,color="grey40", fillcolor="white", style="filled",URL="$graph__ranked__multilevel__mcmc_8cc.html",tooltip=" "];
  Node6 -> Node9 [dir="back",color="steelblue1",style="solid"];
  Node6 -> Node10 [dir="back",color="steelblue1",style="solid"];
  Node6 -> Node11 [dir="back",color="steelblue1",style="solid"];
  Node6 -> Node12 [dir="back",color="steelblue1",style="solid"];
  Node6 -> Node13 [dir="back",color="steelblue1",style="solid"];
  Node6 -> Node14 [dir="back",color="steelblue1",style="solid"];
  Node6 -> Node15 [dir="back",color="steelblue1",style="solid"];
  Node6 -> Node16 [dir="back",color="steelblue1",style="solid"];
  Node6 -> Node17 [dir="back",color="steelblue1",style="solid"];
  Node6 -> Node75 [dir="back",color="steelblue1",style="solid"];
  Node75 [label="/home/man/Documents\l/graph-tool-cmake/src\l/graph/inference/blockmodel\l/graph_blockmodel_multiflip_mcmc.hh",height=0.2,width=0.4,color="red", fillcolor="#FFF0F0", style="filled",URL="$graph__blockmodel__multiflip__mcmc_8hh.html",tooltip=" "];
  Node75 -> Node16 [dir="back",color="steelblue1",style="solid"];
  Node75 -> Node17 [dir="back",color="steelblue1",style="solid"];
  Node75 -> Node25 [dir="back",color="steelblue1",style="solid"];
  Node75 -> Node26 [dir="back",color="steelblue1",style="solid"];
  Node6 -> Node18 [dir="back",color="steelblue1",style="solid"];
  Node6 -> Node82 [dir="back",color="steelblue1",style="solid"];
  Node82 [label="/home/man/Documents\l/graph-tool-cmake/src\l/graph/inference/blockmodel\l/graph_blockmodel_multilevel_mcmc.hh",height=0.2,width=0.4,color="red", fillcolor="#FFF0F0", style="filled",URL="$graph__blockmodel__multilevel__mcmc_8hh.html",tooltip=" "];
  Node82 -> Node18 [dir="back",color="steelblue1",style="solid"];
  Node82 -> Node27 [dir="back",color="steelblue1",style="solid"];
  Node6 -> Node89 [dir="back",color="steelblue1",style="solid"];
  Node89 [label="/home/man/Documents\l/graph-tool-cmake/src\l/graph/inference/histogram\l/graph_histogram.hh",height=0.2,width=0.4,color="red", fillcolor="#FFF0F0", style="filled",URL="$graph__histogram_8hh.html",tooltip=" "];
  Node6 -> Node92 [dir="back",color="steelblue1",style="solid"];
  Node92 [label="/home/man/Documents\l/graph-tool-cmake/src\l/graph/inference/layers\l/graph_blockmodel_layers.hh",height=0.2,width=0.4,color="red", fillcolor="#FFF0F0", style="filled",URL="$graph__blockmodel__layers_8hh.html",tooltip=" "];
  Node92 -> Node19 [dir="back",color="steelblue1",style="solid"];
  Node92 -> Node20 [dir="back",color="steelblue1",style="solid"];
  Node92 -> Node21 [dir="back",color="steelblue1",style="solid"];
  Node92 -> Node22 [dir="back",color="steelblue1",style="solid"];
  Node92 -> Node23 [dir="back",color="steelblue1",style="solid"];
  Node92 -> Node24 [dir="back",color="steelblue1",style="solid"];
  Node92 -> Node25 [dir="back",color="steelblue1",style="solid"];
  Node92 -> Node26 [dir="back",color="steelblue1",style="solid"];
  Node92 -> Node27 [dir="back",color="steelblue1",style="solid"];
  Node6 -> Node20 [dir="back",color="steelblue1",style="solid"];
  Node6 -> Node21 [dir="back",color="steelblue1",style="solid"];
  Node6 -> Node22 [dir="back",color="steelblue1",style="solid"];
  Node6 -> Node23 [dir="back",color="steelblue1",style="solid"];
  Node6 -> Node24 [dir="back",color="steelblue1",style="solid"];
  Node6 -> Node25 [dir="back",color="steelblue1",style="solid"];
  Node6 -> Node26 [dir="back",color="steelblue1",style="solid"];
  Node6 -> Node27 [dir="back",color="steelblue1",style="solid"];
  Node6 -> Node93 [dir="back",color="steelblue1",style="solid"];
  Node93 [label="/home/man/Documents\l/graph-tool-cmake/src\l/graph/inference/modularity\l/graph_modularity.hh",height=0.2,width=0.4,color="red", fillcolor="#FFF0F0", style="filled",URL="$modularity_2graph__modularity_8hh.html",tooltip=" "];
  Node6 -> Node97 [dir="back",color="steelblue1",style="solid"];
  Node97 [label="/home/man/Documents\l/graph-tool-cmake/src\l/graph/inference/norm\l_cut/graph_norm_cut.hh",height=0.2,width=0.4,color="red", fillcolor="#FFF0F0", style="filled",URL="$graph__norm__cut_8hh.html",tooltip=" "];
  Node6 -> Node40 [dir="back",color="steelblue1",style="solid"];
  Node6 -> Node28 [dir="back",color="steelblue1",style="solid"];
  Node6 -> Node101 [dir="back",color="steelblue1",style="solid"];
  Node101 [label="/home/man/Documents\l/graph-tool-cmake/src\l/graph/inference/partition\l_centroid/graph_partition\l_centroid.hh",height=0.2,width=0.4,color="red", fillcolor="#FFF0F0", style="filled",URL="$graph__partition__centroid_8hh.html",tooltip=" "];
  Node6 -> Node104 [dir="back",color="steelblue1",style="solid"];
  Node104 [label="/home/man/Documents\l/graph-tool-cmake/src\l/graph/inference/partition\l_centroid/graph_partition\l_centroid_rmi.hh",height=0.2,width=0.4,color="red", fillcolor="#FFF0F0", style="filled",URL="$graph__partition__centroid__rmi_8hh.html",tooltip=" "];
  Node6 -> Node107 [dir="back",color="steelblue1",style="solid"];
  Node107 [label="/home/man/Documents\l/graph-tool-cmake/src\l/graph/inference/partition\l_modes/graph_partition_mode.hh",height=0.2,width=0.4,color="red", fillcolor="#FFF0F0", style="filled",URL="$graph__partition__mode_8hh.html",tooltip=" "];
  Node107 -> Node109 [dir="back",color="steelblue1",style="solid"];
  Node109 [label="/home/man/Documents\l/graph-tool-cmake/src\l/graph/inference/partition\l_modes/graph_partition_mode\l_clustering.hh",height=0.2,width=0.4,color="red", fillcolor="#FFF0F0", style="filled",URL="$graph__partition__mode__clustering_8hh.html",tooltip=" "];
  Node6 -> Node109 [dir="back",color="steelblue1",style="solid"];
  Node6 -> Node112 [dir="back",color="steelblue1",style="solid"];
  Node112 [label="/home/man/Documents\l/graph-tool-cmake/src\l/graph/inference/planted\l_partition/graph_planted\l_partition.hh",height=0.2,width=0.4,color="red", fillcolor="#FFF0F0", style="filled",URL="$graph__planted__partition_8hh.html",tooltip=" "];
  Node6 -> Node116 [dir="back",color="steelblue1",style="solid"];
  Node116 [label="/home/man/Documents\l/graph-tool-cmake/src\l/graph/inference/ranked\l/graph_ranked.hh",height=0.2,width=0.4,color="grey40", fillcolor="white", style="filled",URL="$graph__ranked_8hh.html",tooltip=" "];
  Node116 -> Node51 [dir="back",color="steelblue1",style="solid"];
  Node116 -> Node52 [dir="back",color="steelblue1",style="solid"];
  Node116 -> Node53 [dir="back",color="steelblue1",style="solid"];
  Node116 -> Node54 [dir="back",color="steelblue1",style="solid"];
  Node116 -> Node55 [dir="back",color="steelblue1",style="solid"];
  Node6 -> Node117 [dir="back",color="steelblue1",style="solid"];
  Node117 [label="/home/man/Documents\l/graph-tool-cmake/src\l/graph/inference/ranked\l/graph_ranked_multiflip\l_mcmc.hh",height=0.2,width=0.4,color="grey40", fillcolor="white", style="filled",URL="$graph__ranked__multiflip__mcmc_8hh.html",tooltip=" "];
  Node117 -> Node54 [dir="back",color="steelblue1",style="solid"];
  Node6 -> Node118 [dir="back",color="steelblue1",style="solid"];
  Node118 [label="/home/man/Documents\l/graph-tool-cmake/src\l/graph/inference/ranked\l/graph_ranked_multilevel\l_mcmc.hh",height=0.2,width=0.4,color="grey40", fillcolor="white", style="filled",URL="$graph__ranked__multilevel__mcmc_8hh.html",tooltip=" "];
  Node118 -> Node55 [dir="back",color="steelblue1",style="solid"];
  Node6 -> Node119 [dir="back",color="steelblue1",style="solid"];
  Node119 [label="/home/man/Documents\l/graph-tool-cmake/src\l/graph/inference/uncertain\l/graph_blockmodel_measured.hh",height=0.2,width=0.4,color="red", fillcolor="#FFF0F0", style="filled",URL="$graph__blockmodel__measured_8hh.html",tooltip=" "];
  Node6 -> Node121 [dir="back",color="steelblue1",style="solid"];
  Node121 [label="/home/man/Documents\l/graph-tool-cmake/src\l/graph/inference/uncertain\l/graph_blockmodel_uncertain\l_marginal.hh",height=0.2,width=0.4,color="red", fillcolor="#FFF0F0", style="filled",URL="$graph__blockmodel__uncertain__marginal_8hh.html",tooltip=" "];
}
