digraph "/home/man/Documents/graph-tool-cmake/src/graph/fast_vector_property_map.hh"
{
 // LATEX_PDF_SIZE
  bgcolor="transparent";
  edge [fontname=Helvetica,fontsize=10,labelfontname=Helvetica,labelfontsize=10];
  node [fontname=Helvetica,fontsize=10,shape=box,height=0.2,width=0.4];
  Node1 [label="/home/man/Documents\l/graph-tool-cmake/src\l/graph/fast_vector_property\l_map.hh",height=0.2,width=0.4,color="gray40", fillcolor="grey60", style="filled", fontcolor="black",tooltip=" "];
  Node1 -> Node2 [dir="back",color="steelblue1",style="solid"];
  Node2 [label="/home/man/Documents\l/graph-tool-cmake/src\l/graph/graph.hh",height=0.2,width=0.4,color="red", fillcolor="#FFF0F0", style="filled",URL="$graph_8hh.html",tooltip=" "];
  Node2 -> Node3 [dir="back",color="steelblue1",style="solid"];
  Node3 [label="/home/man/Documents\l/graph-tool-cmake/src\l/graph/centrality/graph\l_betweenness.cc",height=0.2,width=0.4,color="grey40", fillcolor="white", style="filled",URL="$graph__betweenness_8cc.html",tooltip=" "];
  Node2 -> Node4 [dir="back",color="steelblue1",style="solid"];
  Node4 [label="/home/man/Documents\l/graph-tool-cmake/src\l/graph/centrality/graph\l_centrality_bind.cc",height=0.2,width=0.4,color="grey40", fillcolor="white", style="filled",URL="$graph__centrality__bind_8cc.html",tooltip=" "];
  Node2 -> Node5 [dir="back",color="steelblue1",style="solid"];
  Node5 [label="/home/man/Documents\l/graph-tool-cmake/src\l/graph/centrality/graph\l_closeness.cc",height=0.2,width=0.4,color="grey40", fillcolor="white", style="filled",URL="$graph__closeness_8cc.html",tooltip=" "];
  Node2 -> Node6 [dir="back",color="steelblue1",style="solid"];
  Node6 [label="/home/man/Documents\l/graph-tool-cmake/src\l/graph/centrality/graph\l_eigentrust.cc",height=0.2,width=0.4,color="grey40", fillcolor="white", style="filled",URL="$graph__eigentrust_8cc.html",tooltip=" "];
  Node2 -> Node7 [dir="back",color="steelblue1",style="solid"];
  Node7 [label="/home/man/Documents\l/graph-tool-cmake/src\l/graph/centrality/graph\l_eigentrust.hh",height=0.2,width=0.4,color="grey40", fillcolor="white", style="filled",URL="$graph__eigentrust_8hh.html",tooltip=" "];
  Node7 -> Node6 [dir="back",color="steelblue1",style="solid"];
  Node2 -> Node8 [dir="back",color="steelblue1",style="solid"];
  Node8 [label="/home/man/Documents\l/graph-tool-cmake/src\l/graph/centrality/graph\l_eigenvector.cc",height=0.2,width=0.4,color="grey40", fillcolor="white", style="filled",URL="$graph__eigenvector_8cc.html",tooltip=" "];
  Node2 -> Node9 [dir="back",color="steelblue1",style="solid"];
  Node9 [label="/home/man/Documents\l/graph-tool-cmake/src\l/graph/centrality/graph\l_eigenvector.hh",height=0.2,width=0.4,color="grey40", fillcolor="white", style="filled",URL="$graph__eigenvector_8hh.html",tooltip=" "];
  Node9 -> Node8 [dir="back",color="steelblue1",style="solid"];
  Node2 -> Node10 [dir="back",color="steelblue1",style="solid"];
  Node10 [label="/home/man/Documents\l/graph-tool-cmake/src\l/graph/centrality/graph\l_hits.cc",height=0.2,width=0.4,color="grey40", fillcolor="white", style="filled",URL="$graph__hits_8cc.html",tooltip=" "];
  Node2 -> Node11 [dir="back",color="steelblue1",style="solid"];
  Node11 [label="/home/man/Documents\l/graph-tool-cmake/src\l/graph/centrality/graph\l_hits.hh",height=0.2,width=0.4,color="grey40", fillcolor="white", style="filled",URL="$graph__hits_8hh.html",tooltip=" "];
  Node11 -> Node10 [dir="back",color="steelblue1",style="solid"];
  Node2 -> Node12 [dir="back",color="steelblue1",style="solid"];
  Node12 [label="/home/man/Documents\l/graph-tool-cmake/src\l/graph/centrality/graph\l_katz.cc",height=0.2,width=0.4,color="grey40", fillcolor="white", style="filled",URL="$graph__katz_8cc.html",tooltip=" "];
  Node2 -> Node13 [dir="back",color="steelblue1",style="solid"];
  Node13 [label="/home/man/Documents\l/graph-tool-cmake/src\l/graph/centrality/graph\l_katz.hh",height=0.2,width=0.4,color="grey40", fillcolor="white", style="filled",URL="$graph__katz_8hh.html",tooltip=" "];
  Node13 -> Node12 [dir="back",color="steelblue1",style="solid"];
  Node2 -> Node14 [dir="back",color="steelblue1",style="solid"];
  Node14 [label="/home/man/Documents\l/graph-tool-cmake/src\l/graph/centrality/graph\l_pagerank.cc",height=0.2,width=0.4,color="grey40", fillcolor="white", style="filled",URL="$graph__pagerank_8cc.html",tooltip=" "];
  Node2 -> Node15 [dir="back",color="steelblue1",style="solid"];
  Node15 [label="/home/man/Documents\l/graph-tool-cmake/src\l/graph/centrality/graph\l_pagerank.hh",height=0.2,width=0.4,color="grey40", fillcolor="white", style="filled",URL="$graph__pagerank_8hh.html",tooltip=" "];
  Node15 -> Node14 [dir="back",color="steelblue1",style="solid"];
  Node2 -> Node16 [dir="back",color="steelblue1",style="solid"];
  Node16 [label="/home/man/Documents\l/graph-tool-cmake/src\l/graph/centrality/graph\l_trust_transitivity.cc",height=0.2,width=0.4,color="grey40", fillcolor="white", style="filled",URL="$graph__trust__transitivity_8cc.html",tooltip=" "];
  Node2 -> Node17 [dir="back",color="steelblue1",style="solid"];
  Node17 [label="/home/man/Documents\l/graph-tool-cmake/src\l/graph/centrality/graph\l_trust_transitivity.hh",height=0.2,width=0.4,color="grey40", fillcolor="white", style="filled",URL="$graph__trust__transitivity_8hh.html",tooltip=" "];
  Node17 -> Node16 [dir="back",color="steelblue1",style="solid"];
  Node2 -> Node18 [dir="back",color="steelblue1",style="solid"];
  Node18 [label="/home/man/Documents\l/graph-tool-cmake/src\l/graph/clustering/graph\l_clustering.cc",height=0.2,width=0.4,color="grey40", fillcolor="white", style="filled",URL="$graph__clustering_8cc.html",tooltip=" "];
  Node2 -> Node19 [dir="back",color="steelblue1",style="solid"];
  Node19 [label="/home/man/Documents\l/graph-tool-cmake/src\l/graph/clustering/graph\l_motifs.cc",height=0.2,width=0.4,color="grey40", fillcolor="white", style="filled",URL="$graph__motifs_8cc.html",tooltip=" "];
  Node2 -> Node20 [dir="back",color="steelblue1",style="solid"];
  Node20 [label="/home/man/Documents\l/graph-tool-cmake/src\l/graph/correlations/graph\l_assortativity.cc",height=0.2,width=0.4,color="grey40", fillcolor="white", style="filled",URL="$graph__assortativity_8cc.html",tooltip=" "];
  Node2 -> Node21 [dir="back",color="steelblue1",style="solid"];
  Node21 [label="/home/man/Documents\l/graph-tool-cmake/src\l/graph/correlations/graph\l_avg_correlations.cc",height=0.2,width=0.4,color="grey40", fillcolor="white", style="filled",URL="$graph__avg__correlations_8cc.html",tooltip=" "];
  Node2 -> Node22 [dir="back",color="steelblue1",style="solid"];
  Node22 [label="/home/man/Documents\l/graph-tool-cmake/src\l/graph/correlations/graph\l_avg_correlations_combined.cc",height=0.2,width=0.4,color="grey40", fillcolor="white", style="filled",URL="$graph__avg__correlations__combined_8cc.html",tooltip=" "];
  Node2 -> Node23 [dir="back",color="steelblue1",style="solid"];
  Node23 [label="/home/man/Documents\l/graph-tool-cmake/src\l/graph/correlations/graph\l_avg_correlations_imp1.cc",height=0.2,width=0.4,color="grey40", fillcolor="white", style="filled",URL="$graph__avg__correlations__imp1_8cc.html",tooltip=" "];
  Node2 -> Node24 [dir="back",color="steelblue1",style="solid"];
  Node24 [label="/home/man/Documents\l/graph-tool-cmake/src\l/graph/correlations/graph\l_correlations.cc",height=0.2,width=0.4,color="grey40", fillcolor="white", style="filled",URL="$graph__correlations_8cc.html",tooltip=" "];
  Node2 -> Node25 [dir="back",color="steelblue1",style="solid"];
  Node25 [label="/home/man/Documents\l/graph-tool-cmake/src\l/graph/correlations/graph\l_correlations_bind.cc",height=0.2,width=0.4,color="grey40", fillcolor="white", style="filled",URL="$graph__correlations__bind_8cc.html",tooltip=" "];
  Node2 -> Node26 [dir="back",color="steelblue1",style="solid"];
  Node26 [label="/home/man/Documents\l/graph-tool-cmake/src\l/graph/correlations/graph\l_correlations_combined.cc",height=0.2,width=0.4,color="grey40", fillcolor="white", style="filled",URL="$graph__correlations__combined_8cc.html",tooltip=" "];
  Node2 -> Node27 [dir="back",color="steelblue1",style="solid"];
  Node27 [label="/home/man/Documents\l/graph-tool-cmake/src\l/graph/correlations/graph\l_correlations_imp1.cc",height=0.2,width=0.4,color="grey40", fillcolor="white", style="filled",URL="$graph__correlations__imp1_8cc.html",tooltip=" "];
  Node2 -> Node28 [dir="back",color="steelblue1",style="solid"];
  Node28 [label="/home/man/Documents\l/graph-tool-cmake/src\l/graph/draw/graph_cairo\l_draw.cc",height=0.2,width=0.4,color="grey40", fillcolor="white", style="filled",URL="$graph__cairo__draw_8cc.html",tooltip=" "];
  Node2 -> Node29 [dir="back",color="steelblue1",style="solid"];
  Node29 [label="/home/man/Documents\l/graph-tool-cmake/src\l/graph/draw/graph_tree\l_cts.cc",height=0.2,width=0.4,color="grey40", fillcolor="white", style="filled",URL="$graph__tree__cts_8cc.html",tooltip=" "];
  Node2 -> Node30 [dir="back",color="steelblue1",style="solid"];
  Node30 [label="/home/man/Documents\l/graph-tool-cmake/src\l/graph/dynamics/graph\l_continuous.cc",height=0.2,width=0.4,color="grey40", fillcolor="white", style="filled",URL="$graph__continuous_8cc.html",tooltip=" "];
  Node2 -> Node31 [dir="back",color="steelblue1",style="solid"];
  Node31 [label="/home/man/Documents\l/graph-tool-cmake/src\l/graph/dynamics/graph\l_continuous.hh",height=0.2,width=0.4,color="grey40", fillcolor="white", style="filled",URL="$graph__continuous_8hh.html",tooltip=" "];
  Node31 -> Node30 [dir="back",color="steelblue1",style="solid"];
  Node2 -> Node32 [dir="back",color="steelblue1",style="solid"];
  Node32 [label="/home/man/Documents\l/graph-tool-cmake/src\l/graph/dynamics/graph\l_discrete.cc",height=0.2,width=0.4,color="grey40", fillcolor="white", style="filled",URL="$graph__discrete_8cc.html",tooltip=" "];
  Node2 -> Node33 [dir="back",color="steelblue1",style="solid"];
  Node33 [label="/home/man/Documents\l/graph-tool-cmake/src\l/graph/dynamics/graph\l_discrete.hh",height=0.2,width=0.4,color="grey40", fillcolor="white", style="filled",URL="$graph__discrete_8hh.html",tooltip=" "];
  Node33 -> Node32 [dir="back",color="steelblue1",style="solid"];
  Node2 -> Node34 [dir="back",color="steelblue1",style="solid"];
  Node34 [label="/home/man/Documents\l/graph-tool-cmake/src\l/graph/dynamics/graph\l_dynamics.cc",height=0.2,width=0.4,color="grey40", fillcolor="white", style="filled",URL="$graph__dynamics_8cc.html",tooltip=" "];
  Node2 -> Node35 [dir="back",color="steelblue1",style="solid"];
  Node35 [label="/home/man/Documents\l/graph-tool-cmake/src\l/graph/flow/graph_edmonds\l_karp.cc",height=0.2,width=0.4,color="grey40", fillcolor="white", style="filled",URL="$graph__edmonds__karp_8cc.html",tooltip=" "];
  Node2 -> Node36 [dir="back",color="steelblue1",style="solid"];
  Node36 [label="/home/man/Documents\l/graph-tool-cmake/src\l/graph/flow/graph_flow\l_bind.cc",height=0.2,width=0.4,color="grey40", fillcolor="white", style="filled",URL="$graph__flow__bind_8cc.html",tooltip=" "];
  Node2 -> Node37 [dir="back",color="steelblue1",style="solid"];
  Node37 [label="/home/man/Documents\l/graph-tool-cmake/src\l/graph/flow/graph_kolmogorov.cc",height=0.2,width=0.4,color="grey40", fillcolor="white", style="filled",URL="$graph__kolmogorov_8cc.html",tooltip=" "];
  Node2 -> Node38 [dir="back",color="steelblue1",style="solid"];
  Node38 [label="/home/man/Documents\l/graph-tool-cmake/src\l/graph/flow/graph_minimum\l_cut.cc",height=0.2,width=0.4,color="grey40", fillcolor="white", style="filled",URL="$graph__minimum__cut_8cc.html",tooltip=" "];
  Node2 -> Node39 [dir="back",color="steelblue1",style="solid"];
  Node39 [label="/home/man/Documents\l/graph-tool-cmake/src\l/graph/flow/graph_push\l_relabel.cc",height=0.2,width=0.4,color="grey40", fillcolor="white", style="filled",URL="$graph__push__relabel_8cc.html",tooltip=" "];
  Node2 -> Node40 [dir="back",color="steelblue1",style="solid"];
  Node40 [label="/home/man/Documents\l/graph-tool-cmake/src\l/graph/generation/graph\l_community_network.cc",height=0.2,width=0.4,color="grey40", fillcolor="white", style="filled",URL="$graph__community__network_8cc.html",tooltip=" "];
  Node2 -> Node41 [dir="back",color="steelblue1",style="solid"];
  Node41 [label="/home/man/Documents\l/graph-tool-cmake/src\l/graph/generation/graph\l_community_network_eavg.cc",height=0.2,width=0.4,color="grey40", fillcolor="white", style="filled",URL="$graph__community__network__eavg_8cc.html",tooltip=" "];
  Node2 -> Node42 [dir="back",color="steelblue1",style="solid"];
  Node42 [label="/home/man/Documents\l/graph-tool-cmake/src\l/graph/generation/graph\l_community_network_eavg\l_imp1.cc",height=0.2,width=0.4,color="grey40", fillcolor="white", style="filled",URL="$graph__community__network__eavg__imp1_8cc.html",tooltip=" "];
  Node2 -> Node43 [dir="back",color="steelblue1",style="solid"];
  Node43 [label="/home/man/Documents\l/graph-tool-cmake/src\l/graph/generation/graph\l_community_network_edges.cc",height=0.2,width=0.4,color="grey40", fillcolor="white", style="filled",URL="$graph__community__network__edges_8cc.html",tooltip=" "];
  Node2 -> Node44 [dir="back",color="steelblue1",style="solid"];
  Node44 [label="/home/man/Documents\l/graph-tool-cmake/src\l/graph/generation/graph\l_community_network_vavg.cc",height=0.2,width=0.4,color="grey40", fillcolor="white", style="filled",URL="$graph__community__network__vavg_8cc.html",tooltip=" "];
  Node2 -> Node45 [dir="back",color="steelblue1",style="solid"];
  Node45 [label="/home/man/Documents\l/graph-tool-cmake/src\l/graph/generation/graph\l_complete.cc",height=0.2,width=0.4,color="grey40", fillcolor="white", style="filled",URL="$graph__complete_8cc.html",tooltip=" "];
  Node2 -> Node46 [dir="back",color="steelblue1",style="solid"];
  Node46 [label="/home/man/Documents\l/graph-tool-cmake/src\l/graph/generation/graph\l_generation.cc",height=0.2,width=0.4,color="grey40", fillcolor="white", style="filled",URL="$graph__generation_8cc.html",tooltip=" "];
  Node2 -> Node47 [dir="back",color="steelblue1",style="solid"];
  Node47 [label="/home/man/Documents\l/graph-tool-cmake/src\l/graph/generation/graph\l_geometric.cc",height=0.2,width=0.4,color="grey40", fillcolor="white", style="filled",URL="$graph__geometric_8cc.html",tooltip=" "];
  Node2 -> Node48 [dir="back",color="steelblue1",style="solid"];
  Node48 [label="/home/man/Documents\l/graph-tool-cmake/src\l/graph/generation/graph\l_knn.hh",height=0.2,width=0.4,color="red", fillcolor="#FFF0F0", style="filled",URL="$graph__knn_8hh.html",tooltip=" "];
  Node2 -> Node50 [dir="back",color="steelblue1",style="solid"];
  Node50 [label="/home/man/Documents\l/graph-tool-cmake/src\l/graph/generation/graph\l_lattice.cc",height=0.2,width=0.4,color="grey40", fillcolor="white", style="filled",URL="$graph__lattice_8cc.html",tooltip=" "];
  Node1 -> Node323 [dir="back",color="steelblue1",style="solid"];
  Node323 [label="/home/man/Documents\l/graph-tool-cmake/src\l/graph/graph_properties.hh",height=0.2,width=0.4,color="red", fillcolor="#FFF0F0", style="filled",URL="$graph__properties_8hh.html",tooltip=" "];
  Node323 -> Node5 [dir="back",color="steelblue1",style="solid"];
  Node323 -> Node18 [dir="back",color="steelblue1",style="solid"];
  Node323 -> Node19 [dir="back",color="steelblue1",style="solid"];
  Node323 -> Node20 [dir="back",color="steelblue1",style="solid"];
  Node323 -> Node21 [dir="back",color="steelblue1",style="solid"];
  Node323 -> Node22 [dir="back",color="steelblue1",style="solid"];
  Node323 -> Node23 [dir="back",color="steelblue1",style="solid"];
  Node323 -> Node24 [dir="back",color="steelblue1",style="solid"];
  Node323 -> Node26 [dir="back",color="steelblue1",style="solid"];
  Node323 -> Node27 [dir="back",color="steelblue1",style="solid"];
  Node323 -> Node29 [dir="back",color="steelblue1",style="solid"];
  Node323 -> Node30 [dir="back",color="steelblue1",style="solid"];
  Node323 -> Node32 [dir="back",color="steelblue1",style="solid"];
  Node323 -> Node35 [dir="back",color="steelblue1",style="solid"];
  Node323 -> Node37 [dir="back",color="steelblue1",style="solid"];
  Node323 -> Node38 [dir="back",color="steelblue1",style="solid"];
  Node323 -> Node39 [dir="back",color="steelblue1",style="solid"];
  Node323 -> Node40 [dir="back",color="steelblue1",style="solid"];
  Node323 -> Node41 [dir="back",color="steelblue1",style="solid"];
  Node323 -> Node42 [dir="back",color="steelblue1",style="solid"];
  Node323 -> Node43 [dir="back",color="steelblue1",style="solid"];
  Node323 -> Node44 [dir="back",color="steelblue1",style="solid"];
  Node323 -> Node2 [dir="back",color="steelblue1",style="solid"];
}
