digraph "/home/man/Documents/graph-tool-cmake/src/graph/centrality/graph_centrality_bind.cc"
{
 // LATEX_PDF_SIZE
  bgcolor="transparent";
  edge [fontname=Helvetica,fontsize=10,labelfontname=Helvetica,labelfontsize=10];
  node [fontname=Helvetica,fontsize=10,shape=box,height=0.2,width=0.4];
  Node1 [label="/home/man/Documents\l/graph-tool-cmake/src\l/graph/centrality/graph\l_centrality_bind.cc",height=0.2,width=0.4,color="gray40", fillcolor="grey60", style="filled", fontcolor="black",tooltip=" "];
  Node1 -> Node2 [color="steelblue1",style="solid"];
  Node2 [label="graph.hh",height=0.2,width=0.4,color="grey40", fillcolor="white", style="filled",URL="$graph_8hh.html",tooltip=" "];
  Node2 -> Node3 [color="steelblue1",style="solid"];
  Node3 [label="config.h",height=0.2,width=0.4,color="grey60", fillcolor="#E0E0E0", style="filled",tooltip=" "];
  Node2 -> Node4 [color="steelblue1",style="solid"];
  Node4 [label="iterator",height=0.2,width=0.4,color="grey60", fillcolor="#E0E0E0", style="filled",tooltip=" "];
  Node2 -> Node5 [color="steelblue1",style="solid"];
  Node5 [label="boost/python/object.hpp",height=0.2,width=0.4,color="grey60", fillcolor="#E0E0E0", style="filled",tooltip=" "];
  Node2 -> Node6 [color="steelblue1",style="solid"];
  Node6 [label="boost/python/list.hpp",height=0.2,width=0.4,color="grey60", fillcolor="#E0E0E0", style="filled",tooltip=" "];
  Node2 -> Node7 [color="steelblue1",style="solid"];
  Node7 [label="boost/python/tuple.hpp",height=0.2,width=0.4,color="grey60", fillcolor="#E0E0E0", style="filled",tooltip=" "];
  Node2 -> Node8 [color="steelblue1",style="solid"];
  Node8 [label="boost/any.hpp",height=0.2,width=0.4,color="grey60", fillcolor="#E0E0E0", style="filled",tooltip=" "];
  Node2 -> Node9 [color="steelblue1",style="solid"];
  Node9 [label="graph_adjacency.hh",height=0.2,width=0.4,color="grey40", fillcolor="white", style="filled",URL="$graph__adjacency_8hh.html",tooltip=" "];
  Node9 -> Node10 [color="steelblue1",style="solid"];
  Node10 [label="vector",height=0.2,width=0.4,color="grey60", fillcolor="#E0E0E0", style="filled",tooltip=" "];
  Node9 -> Node11 [color="steelblue1",style="solid"];
  Node11 [label="deque",height=0.2,width=0.4,color="grey60", fillcolor="#E0E0E0", style="filled",tooltip=" "];
  Node9 -> Node12 [color="steelblue1",style="solid"];
  Node12 [label="utility",height=0.2,width=0.4,color="grey60", fillcolor="#E0E0E0", style="filled",tooltip=" "];
  Node9 -> Node13 [color="steelblue1",style="solid"];
  Node13 [label="boost/iterator.hpp",height=0.2,width=0.4,color="grey60", fillcolor="#E0E0E0", style="filled",tooltip=" "];
  Node9 -> Node14 [color="steelblue1",style="solid"];
  Node14 [label="boost/graph/graph_traits.hpp",height=0.2,width=0.4,color="grey60", fillcolor="#E0E0E0", style="filled",tooltip=" "];
  Node9 -> Node15 [color="steelblue1",style="solid"];
  Node15 [label="boost/range/irange.hpp",height=0.2,width=0.4,color="grey60", fillcolor="#E0E0E0", style="filled",tooltip=" "];
  Node9 -> Node16 [color="steelblue1",style="solid"];
  Node16 [label="boost/property_map\l/property_map.hpp",height=0.2,width=0.4,color="grey60", fillcolor="#E0E0E0", style="filled",tooltip=" "];
  Node9 -> Node17 [color="steelblue1",style="solid"];
  Node17 [label="boost/graph/properties.hpp",height=0.2,width=0.4,color="grey60", fillcolor="#E0E0E0", style="filled",tooltip=" "];
  Node9 -> Node18 [color="steelblue1",style="solid"];
  Node18 [label="boost/iterator/iterator\l_facade.hpp",height=0.2,width=0.4,color="grey60", fillcolor="#E0E0E0", style="filled",tooltip=" "];
  Node9 -> Node19 [color="steelblue1",style="solid"];
  Node19 [label="transform_iterator.hh",height=0.2,width=0.4,color="grey40", fillcolor="white", style="filled",URL="$transform__iterator_8hh.html",tooltip=" "];
  Node19 -> Node4 [color="steelblue1",style="solid"];
  Node19 -> Node20 [color="steelblue1",style="solid"];
  Node20 [label="boost/iterator/transform\l_iterator.hpp",height=0.2,width=0.4,color="grey60", fillcolor="#E0E0E0", style="filled",tooltip=" "];
  Node2 -> Node14 [color="steelblue1",style="solid"];
  Node2 -> Node21 [color="steelblue1",style="solid"];
  Node21 [label="fast_vector_property\l_map.hh",height=0.2,width=0.4,color="grey40", fillcolor="white", style="filled",URL="$fast__vector__property__map_8hh.html",tooltip=" "];
  Node21 -> Node16 [color="steelblue1",style="solid"];
  Node21 -> Node22 [color="steelblue1",style="solid"];
  Node22 [label="memory",height=0.2,width=0.4,color="grey60", fillcolor="#E0E0E0", style="filled",tooltip=" "];
  Node21 -> Node10 [color="steelblue1",style="solid"];
  Node2 -> Node23 [color="steelblue1",style="solid"];
  Node23 [label="boost/variant.hpp",height=0.2,width=0.4,color="grey60", fillcolor="#E0E0E0", style="filled",tooltip=" "];
  Node2 -> Node24 [color="steelblue1",style="solid"];
  Node24 [label="boost/mpl/bool_fwd.hpp",height=0.2,width=0.4,color="grey60", fillcolor="#E0E0E0", style="filled",tooltip=" "];
  Node2 -> Node25 [color="steelblue1",style="solid"];
  Node25 [label="graph_properties.hh",height=0.2,width=0.4,color="grey40", fillcolor="white", style="filled",URL="$graph__properties_8hh.html",tooltip=" "];
  Node25 -> Node26 [color="steelblue1",style="solid"];
  Node26 [label="string",height=0.2,width=0.4,color="grey60", fillcolor="#E0E0E0", style="filled",tooltip=" "];
  Node25 -> Node10 [color="steelblue1",style="solid"];
  Node25 -> Node27 [color="steelblue1",style="solid"];
  Node27 [label="unordered_map",height=0.2,width=0.4,color="grey60", fillcolor="#E0E0E0", style="filled",tooltip=" "];
  Node25 -> Node28 [color="steelblue1",style="solid"];
  Node28 [label="boost/functional/hash.hpp",height=0.2,width=0.4,color="grey60", fillcolor="#E0E0E0", style="filled",tooltip=" "];
  Node25 -> Node5 [color="steelblue1",style="solid"];
  Node25 -> Node29 [color="steelblue1",style="solid"];
  Node29 [label="boost/python/extract.hpp",height=0.2,width=0.4,color="grey60", fillcolor="#E0E0E0", style="filled",tooltip=" "];
  Node25 -> Node30 [color="steelblue1",style="solid"];
  Node30 [label="boost/lexical_cast.hpp",height=0.2,width=0.4,color="grey60", fillcolor="#E0E0E0", style="filled",tooltip=" "];
  Node25 -> Node16 [color="steelblue1",style="solid"];
  Node25 -> Node21 [color="steelblue1",style="solid"];
  Node25 -> Node31 [color="steelblue1",style="solid"];
  Node31 [label="boost/mpl/vector.hpp",height=0.2,width=0.4,color="grey60", fillcolor="#E0E0E0", style="filled",tooltip=" "];
  Node25 -> Node32 [color="steelblue1",style="solid"];
  Node32 [label="boost/mpl/for_each.hpp",height=0.2,width=0.4,color="grey60", fillcolor="#E0E0E0", style="filled",tooltip=" "];
  Node25 -> Node33 [color="steelblue1",style="solid"];
  Node33 [label="boost/mpl/transform.hpp",height=0.2,width=0.4,color="grey60", fillcolor="#E0E0E0", style="filled",tooltip=" "];
  Node25 -> Node34 [color="steelblue1",style="solid"];
  Node34 [label="boost/mpl/find.hpp",height=0.2,width=0.4,color="grey60", fillcolor="#E0E0E0", style="filled",tooltip=" "];
  Node25 -> Node35 [color="steelblue1",style="solid"];
  Node35 [label="boost/mpl/bind.hpp",height=0.2,width=0.4,color="grey60", fillcolor="#E0E0E0", style="filled",tooltip=" "];
  Node25 -> Node36 [color="steelblue1",style="solid"];
  Node36 [label="graph_exceptions.hh",height=0.2,width=0.4,color="grey40", fillcolor="white", style="filled",URL="$graph__exceptions_8hh.html",tooltip=" "];
  Node36 -> Node3 [color="steelblue1",style="solid"];
  Node36 -> Node26 [color="steelblue1",style="solid"];
  Node1 -> Node37 [color="steelblue1",style="solid"];
  Node37 [label="boost/python.hpp",height=0.2,width=0.4,color="grey60", fillcolor="#E0E0E0", style="filled",tooltip=" "];
}
