digraph "eigentrust"
{
 // LATEX_PDF_SIZE
  bgcolor="transparent";
  edge [fontname=Helvetica,fontsize=10,labelfontname=Helvetica,labelfontsize=10];
  node [fontname=Helvetica,fontsize=10,shape=box,height=0.2,width=0.4];
  rankdir="RL";
  Node1 [label="eigentrust",height=0.2,width=0.4,color="gray40", fillcolor="grey60", style="filled", fontcolor="black",tooltip=" "];
  Node1 -> Node2 [dir="back",color="steelblue1",style="solid"];
  Node2 [label="export_eigentrust",height=0.2,width=0.4,color="grey40", fillcolor="white", style="filled",URL="$graph__eigentrust_8cc.html#a1113a2e16bb7344461f7c6410d7e8517",tooltip=" "];
  Node2 -> Node3 [dir="back",color="steelblue1",style="solid"];
  Node3 [label="BOOST_PYTHON_MODULE",height=0.2,width=0.4,color="grey40", fillcolor="white", style="filled",URL="$graph__centrality__bind_8cc.html#a22fe376412341ba0f0c4db486fb0c8d1",tooltip=" "];
}
