digraph "/home/man/Documents/graph-tool-cmake/src/graph/generation/graph_knn.cc"
{
 // LATEX_PDF_SIZE
  bgcolor="transparent";
  edge [fontname=Helvetica,fontsize=10,labelfontname=Helvetica,labelfontsize=10];
  node [fontname=Helvetica,fontsize=10,shape=box,height=0.2,width=0.4];
  Node1 [label="/home/man/Documents\l/graph-tool-cmake/src\l/graph/generation/graph\l_knn.cc",height=0.2,width=0.4,color="gray40", fillcolor="grey60", style="filled", fontcolor="black",tooltip=" "];
  Node1 -> Node2 [color="steelblue1",style="solid"];
  Node2 [label="graph_knn.hh",height=0.2,width=0.4,color="grey40", fillcolor="white", style="filled",URL="$graph__knn_8hh.html",tooltip=" "];
  Node2 -> Node3 [color="steelblue1",style="solid"];
  Node3 [label="tuple",height=0.2,width=0.4,color="grey60", fillcolor="#E0E0E0", style="filled",tooltip=" "];
  Node2 -> Node4 [color="steelblue1",style="solid"];
  Node4 [label="random",height=0.2,width=0.4,color="grey60", fillcolor="#E0E0E0", style="filled",tooltip=" "];
  Node2 -> Node5 [color="steelblue1",style="solid"];
  Node5 [label="boost/functional/hash.hpp",height=0.2,width=0.4,color="grey60", fillcolor="#E0E0E0", style="filled",tooltip=" "];
  Node2 -> Node6 [color="steelblue1",style="solid"];
  Node6 [label="graph.hh",height=0.2,width=0.4,color="grey40", fillcolor="white", style="filled",URL="$graph_8hh.html",tooltip=" "];
  Node6 -> Node7 [color="steelblue1",style="solid"];
  Node7 [label="config.h",height=0.2,width=0.4,color="grey60", fillcolor="#E0E0E0", style="filled",tooltip=" "];
  Node6 -> Node8 [color="steelblue1",style="solid"];
  Node8 [label="iterator",height=0.2,width=0.4,color="grey60", fillcolor="#E0E0E0", style="filled",tooltip=" "];
  Node6 -> Node9 [color="steelblue1",style="solid"];
  Node9 [label="boost/python/object.hpp",height=0.2,width=0.4,color="grey60", fillcolor="#E0E0E0", style="filled",tooltip=" "];
  Node6 -> Node10 [color="steelblue1",style="solid"];
  Node10 [label="boost/python/list.hpp",height=0.2,width=0.4,color="grey60", fillcolor="#E0E0E0", style="filled",tooltip=" "];
  Node6 -> Node11 [color="steelblue1",style="solid"];
  Node11 [label="boost/python/tuple.hpp",height=0.2,width=0.4,color="grey60", fillcolor="#E0E0E0", style="filled",tooltip=" "];
  Node6 -> Node12 [color="steelblue1",style="solid"];
  Node12 [label="boost/any.hpp",height=0.2,width=0.4,color="grey60", fillcolor="#E0E0E0", style="filled",tooltip=" "];
  Node6 -> Node13 [color="steelblue1",style="solid"];
  Node13 [label="graph_adjacency.hh",height=0.2,width=0.4,color="red", fillcolor="#FFF0F0", style="filled",URL="$graph__adjacency_8hh.html",tooltip=" "];
  Node13 -> Node14 [color="steelblue1",style="solid"];
  Node14 [label="vector",height=0.2,width=0.4,color="grey60", fillcolor="#E0E0E0", style="filled",tooltip=" "];
  Node13 -> Node18 [color="steelblue1",style="solid"];
  Node18 [label="boost/graph/graph_traits.hpp",height=0.2,width=0.4,color="grey60", fillcolor="#E0E0E0", style="filled",tooltip=" "];
  Node6 -> Node18 [color="steelblue1",style="solid"];
  Node6 -> Node25 [color="steelblue1",style="solid"];
  Node25 [label="fast_vector_property\l_map.hh",height=0.2,width=0.4,color="red", fillcolor="#FFF0F0", style="filled",URL="$fast__vector__property__map_8hh.html",tooltip=" "];
  Node25 -> Node14 [color="steelblue1",style="solid"];
  Node6 -> Node27 [color="steelblue1",style="solid"];
  Node27 [label="boost/variant.hpp",height=0.2,width=0.4,color="grey60", fillcolor="#E0E0E0", style="filled",tooltip=" "];
  Node6 -> Node28 [color="steelblue1",style="solid"];
  Node28 [label="boost/mpl/bool_fwd.hpp",height=0.2,width=0.4,color="grey60", fillcolor="#E0E0E0", style="filled",tooltip=" "];
  Node6 -> Node29 [color="steelblue1",style="solid"];
  Node29 [label="graph_properties.hh",height=0.2,width=0.4,color="red", fillcolor="#FFF0F0", style="filled",URL="$graph__properties_8hh.html",tooltip=" "];
  Node29 -> Node30 [color="steelblue1",style="solid"];
  Node30 [label="string",height=0.2,width=0.4,color="grey60", fillcolor="#E0E0E0", style="filled",tooltip=" "];
  Node29 -> Node14 [color="steelblue1",style="solid"];
  Node29 -> Node5 [color="steelblue1",style="solid"];
  Node29 -> Node9 [color="steelblue1",style="solid"];
  Node29 -> Node33 [color="steelblue1",style="solid"];
  Node33 [label="boost/lexical_cast.hpp",height=0.2,width=0.4,color="grey60", fillcolor="#E0E0E0", style="filled",tooltip=" "];
  Node29 -> Node25 [color="steelblue1",style="solid"];
  Node29 -> Node34 [color="steelblue1",style="solid"];
  Node34 [label="boost/mpl/vector.hpp",height=0.2,width=0.4,color="grey60", fillcolor="#E0E0E0", style="filled",tooltip=" "];
  Node2 -> Node40 [color="steelblue1",style="solid"];
  Node40 [label="graph_filtering.hh",height=0.2,width=0.4,color="grey40", fillcolor="white", style="filled",URL="$graph__filtering_8hh.html",tooltip=" "];
  Node40 -> Node6 [color="steelblue1",style="solid"];
  Node40 -> Node41 [color="steelblue1",style="solid"];
  Node41 [label="boost/version.hpp",height=0.2,width=0.4,color="grey60", fillcolor="#E0E0E0", style="filled",tooltip=" "];
  Node40 -> Node18 [color="steelblue1",style="solid"];
  Node40 -> Node34 [color="steelblue1",style="solid"];
  Node40 -> Node42 [color="steelblue1",style="solid"];
  Node42 [label="boost/mpl/if.hpp",height=0.2,width=0.4,color="grey60", fillcolor="#E0E0E0", style="filled",tooltip=" "];
  Node40 -> Node43 [color="steelblue1",style="solid"];
  Node43 [label="boost/mpl/logical.hpp",height=0.2,width=0.4,color="grey60", fillcolor="#E0E0E0", style="filled",tooltip=" "];
  Node40 -> Node44 [color="steelblue1",style="solid"];
  Node44 [label="boost/mpl/back_inserter.hpp",height=0.2,width=0.4,color="grey60", fillcolor="#E0E0E0", style="filled",tooltip=" "];
  Node40 -> Node45 [color="steelblue1",style="solid"];
  Node45 [label="boost/mpl/assert.hpp",height=0.2,width=0.4,color="grey60", fillcolor="#E0E0E0", style="filled",tooltip=" "];
  Node40 -> Node46 [color="steelblue1",style="solid"];
  Node46 [label="graph_adaptor.hh",height=0.2,width=0.4,color="red", fillcolor="#FFF0F0", style="filled",URL="$graph__adaptor_8hh.html",tooltip=" "];
  Node46 -> Node18 [color="steelblue1",style="solid"];
  Node40 -> Node49 [color="steelblue1",style="solid"];
  Node49 [label="graph_filtered.hh",height=0.2,width=0.4,color="red", fillcolor="#FFF0F0", style="filled",URL="$graph__filtered_8hh.html",tooltip=" "];
  Node49 -> Node18 [color="steelblue1",style="solid"];
  Node40 -> Node53 [color="steelblue1",style="solid"];
  Node53 [label="graph_reverse.hh",height=0.2,width=0.4,color="red", fillcolor="#FFF0F0", style="filled",URL="$graph__reverse_8hh.html",tooltip=" "];
  Node40 -> Node54 [color="steelblue1",style="solid"];
  Node54 [label="graph_util.hh",height=0.2,width=0.4,color="grey40", fillcolor="white", style="filled",URL="$graph__util_8hh.html",tooltip=" "];
  Node54 -> Node34 [color="steelblue1",style="solid"];
  Node54 -> Node18 [color="steelblue1",style="solid"];
  Node54 -> Node55 [color="steelblue1",style="solid"];
  Node55 [label="boost/algorithm/string\l/split.hpp",height=0.2,width=0.4,color="grey60", fillcolor="#E0E0E0", style="filled",tooltip=" "];
  Node54 -> Node56 [color="steelblue1",style="solid"];
  Node56 [label="boost/algorithm/string\l/trim.hpp",height=0.2,width=0.4,color="grey60", fillcolor="#E0E0E0", style="filled",tooltip=" "];
  Node54 -> Node33 [color="steelblue1",style="solid"];
  Node54 -> Node57 [color="steelblue1",style="solid"];
  Node57 [label="boost/range/iterator\l_range.hpp",height=0.2,width=0.4,color="grey60", fillcolor="#E0E0E0", style="filled",tooltip=" "];
  Node54 -> Node30 [color="steelblue1",style="solid"];
  Node54 -> Node5 [color="steelblue1",style="solid"];
  Node54 -> Node4 [color="steelblue1",style="solid"];
  Node54 -> Node58 [color="steelblue1",style="solid"];
  Node58 [label="graph_selectors.hh",height=0.2,width=0.4,color="red", fillcolor="#FFF0F0", style="filled",URL="$graph__selectors_8hh.html",tooltip=" "];
  Node58 -> Node59 [color="steelblue1",style="solid"];
  Node59 [label="type_traits",height=0.2,width=0.4,color="grey60", fillcolor="#E0E0E0", style="filled",tooltip=" "];
  Node58 -> Node60 [color="steelblue1",style="solid"];
  Node60 [label="boost/mpl/pair.hpp",height=0.2,width=0.4,color="grey60", fillcolor="#E0E0E0", style="filled",tooltip=" "];
  Node58 -> Node61 [color="steelblue1",style="solid"];
  Node61 [label="boost/mpl/map.hpp",height=0.2,width=0.4,color="grey60", fillcolor="#E0E0E0", style="filled",tooltip=" "];
  Node58 -> Node34 [color="steelblue1",style="solid"];
  Node58 -> Node45 [color="steelblue1",style="solid"];
  Node58 -> Node44 [color="steelblue1",style="solid"];
  Node58 -> Node12 [color="steelblue1",style="solid"];
  Node58 -> Node18 [color="steelblue1",style="solid"];
  Node58 -> Node29 [color="steelblue1",style="solid"];
  Node58 -> Node6 [color="steelblue1",style="solid"];
  Node54 -> Node49 [color="steelblue1",style="solid"];
  Node40 -> Node63 [color="steelblue1",style="solid"];
  Node63 [label="mpl_nested_loop.hh",height=0.2,width=0.4,color="grey40", fillcolor="white", style="filled",URL="$mpl__nested__loop_8hh.html",tooltip=" "];
  Node40 -> Node59 [color="steelblue1",style="solid"];
  Node2 -> Node54 [color="steelblue1",style="solid"];
  Node2 -> Node64 [color="steelblue1",style="solid"];
  Node64 [label="parallel_rng.hh",height=0.2,width=0.4,color="grey40", fillcolor="white", style="filled",URL="$parallel__rng_8hh.html",tooltip=" "];
  Node64 -> Node7 [color="steelblue1",style="solid"];
  Node64 -> Node14 [color="steelblue1",style="solid"];
  Node2 -> Node65 [color="steelblue1",style="solid"];
  Node65 [label="random.hh",height=0.2,width=0.4,color="red", fillcolor="#FFF0F0", style="filled",URL="$random_8hh.html",tooltip=" "];
  Node2 -> Node67 [color="steelblue1",style="solid"];
  Node67 [label="hash_map_wrap.hh",height=0.2,width=0.4,color="red", fillcolor="#FFF0F0", style="filled",URL="$hash__map__wrap_8hh.html",tooltip=" "];
  Node67 -> Node7 [color="steelblue1",style="solid"];
  Node67 -> Node3 [color="steelblue1",style="solid"];
  Node67 -> Node14 [color="steelblue1",style="solid"];
  Node67 -> Node13 [color="steelblue1",style="solid"];
  Node1 -> Node70 [color="steelblue1",style="solid"];
  Node70 [label="numpy_bind.hh",height=0.2,width=0.4,color="grey40", fillcolor="white", style="filled",URL="$numpy__bind_8hh.html",tooltip=" "];
  Node70 -> Node14 [color="steelblue1",style="solid"];
  Node70 -> Node71 [color="steelblue1",style="solid"];
  Node71 [label="boost/python.hpp",height=0.2,width=0.4,color="grey60", fillcolor="#E0E0E0", style="filled",tooltip=" "];
  Node70 -> Node72 [color="steelblue1",style="solid"];
  Node72 [label="numpy/arrayobject.h",height=0.2,width=0.4,color="grey60", fillcolor="#E0E0E0", style="filled",tooltip=" "];
  Node70 -> Node73 [color="steelblue1",style="solid"];
  Node73 [label="boost/array.hpp",height=0.2,width=0.4,color="grey60", fillcolor="#E0E0E0", style="filled",tooltip=" "];
  Node70 -> Node74 [color="steelblue1",style="solid"];
  Node74 [label="boost/multi_array.hpp",height=0.2,width=0.4,color="grey60", fillcolor="#E0E0E0", style="filled",tooltip=" "];
  Node70 -> Node75 [color="steelblue1",style="solid"];
  Node75 [label="boost/mpl/int.hpp",height=0.2,width=0.4,color="grey60", fillcolor="#E0E0E0", style="filled",tooltip=" "];
  Node70 -> Node61 [color="steelblue1",style="solid"];
  Node70 -> Node60 [color="steelblue1",style="solid"];
  Node70 -> Node76 [color="steelblue1",style="solid"];
  Node76 [label="demangle.hh",height=0.2,width=0.4,color="grey40", fillcolor="white", style="filled",URL="$demangle_8hh.html",tooltip=" "];
  Node76 -> Node30 [color="steelblue1",style="solid"];
}
