digraph "export_openmp"
{
 // LATEX_PDF_SIZE
  bgcolor="transparent";
  edge [fontname=Helvetica,fontsize=10,labelfontname=Helvetica,labelfontsize=10];
  node [fontname=Helvetica,fontsize=10,shape=box,height=0.2,width=0.4];
  rankdir="LR";
  Node1 [label="export_openmp",height=0.2,width=0.4,color="gray40", fillcolor="grey60", style="filled", fontcolor="black",tooltip=" "];
  Node1 -> Node2 [color="steelblue1",style="solid"];
  Node2 [label="openmp_enabled",height=0.2,width=0.4,color="grey40", fillcolor="white", style="filled",URL="$graph__openmp_8cc.html#afa8894f7bfee2d2364d0deb315d544b5",tooltip=" "];
  Node1 -> Node3 [color="steelblue1",style="solid"];
  Node3 [label="openmp_get_num_threads",height=0.2,width=0.4,color="grey40", fillcolor="white", style="filled",URL="$graph__openmp_8cc.html#a9f678d5d1e3109c709b4bf2e761a2491",tooltip=" "];
  Node1 -> Node4 [color="steelblue1",style="solid"];
  Node4 [label="openmp_get_schedule",height=0.2,width=0.4,color="grey40", fillcolor="white", style="filled",URL="$graph__openmp_8cc.html#a322b847c9118463d61620107ed86645a",tooltip=" "];
  Node1 -> Node5 [color="steelblue1",style="solid"];
  Node5 [label="openmp_set_num_threads",height=0.2,width=0.4,color="grey40", fillcolor="white", style="filled",URL="$graph__openmp_8cc.html#a9efb542cf13dd1d918f6dcbd25ce6eab",tooltip=" "];
  Node1 -> Node6 [color="steelblue1",style="solid"];
  Node6 [label="openmp_set_schedule",height=0.2,width=0.4,color="grey40", fillcolor="white", style="filled",URL="$graph__openmp_8cc.html#a722ef6e8b0bcdfb89606e1a522c8201a",tooltip=" "];
}
