digraph "/home/man/Documents/graph-tool-cmake/src/graph/inference/uncertain/graph_blockmodel_latent_closure.cc"
{
 // LATEX_PDF_SIZE
  bgcolor="transparent";
  edge [fontname=Helvetica,fontsize=10,labelfontname=Helvetica,labelfontsize=10];
  node [fontname=Helvetica,fontsize=10,shape=box,height=0.2,width=0.4];
  Node1 [label="/home/man/Documents\l/graph-tool-cmake/src\l/graph/inference/uncertain\l/graph_blockmodel_latent\l_closure.cc",height=0.2,width=0.4,color="gray40", fillcolor="grey60", style="filled", fontcolor="black",tooltip=" "];
  Node1 -> Node2 [color="steelblue1",style="solid"];
  Node2 [label="graph_tool.hh",height=0.2,width=0.4,color="grey40", fillcolor="white", style="filled",URL="$graph__tool_8hh.html",tooltip=" "];
  Node2 -> Node3 [color="steelblue1",style="solid"];
  Node3 [label="graph.hh",height=0.2,width=0.4,color="grey40", fillcolor="white", style="filled",URL="$graph_8hh.html",tooltip=" "];
  Node3 -> Node4 [color="steelblue1",style="solid"];
  Node4 [label="config.h",height=0.2,width=0.4,color="grey60", fillcolor="#E0E0E0", style="filled",tooltip=" "];
  Node3 -> Node5 [color="steelblue1",style="solid"];
  Node5 [label="iterator",height=0.2,width=0.4,color="grey60", fillcolor="#E0E0E0", style="filled",tooltip=" "];
  Node3 -> Node6 [color="steelblue1",style="solid"];
  Node6 [label="boost/python/object.hpp",height=0.2,width=0.4,color="grey60", fillcolor="#E0E0E0", style="filled",tooltip=" "];
  Node3 -> Node7 [color="steelblue1",style="solid"];
  Node7 [label="boost/python/list.hpp",height=0.2,width=0.4,color="grey60", fillcolor="#E0E0E0", style="filled",tooltip=" "];
  Node3 -> Node8 [color="steelblue1",style="solid"];
  Node8 [label="boost/python/tuple.hpp",height=0.2,width=0.4,color="grey60", fillcolor="#E0E0E0", style="filled",tooltip=" "];
  Node3 -> Node9 [color="steelblue1",style="solid"];
  Node9 [label="boost/any.hpp",height=0.2,width=0.4,color="grey60", fillcolor="#E0E0E0", style="filled",tooltip=" "];
  Node3 -> Node10 [color="steelblue1",style="solid"];
  Node10 [label="graph_adjacency.hh",height=0.2,width=0.4,color="red", fillcolor="#FFF0F0", style="filled",URL="$graph__adjacency_8hh.html",tooltip=" "];
  Node10 -> Node11 [color="steelblue1",style="solid"];
  Node11 [label="vector",height=0.2,width=0.4,color="grey60", fillcolor="#E0E0E0", style="filled",tooltip=" "];
  Node10 -> Node15 [color="steelblue1",style="solid"];
  Node15 [label="boost/graph/graph_traits.hpp",height=0.2,width=0.4,color="grey60", fillcolor="#E0E0E0", style="filled",tooltip=" "];
  Node3 -> Node15 [color="steelblue1",style="solid"];
  Node3 -> Node22 [color="steelblue1",style="solid"];
  Node22 [label="fast_vector_property\l_map.hh",height=0.2,width=0.4,color="red", fillcolor="#FFF0F0", style="filled",URL="$fast__vector__property__map_8hh.html",tooltip=" "];
  Node22 -> Node23 [color="steelblue1",style="solid"];
  Node23 [label="memory",height=0.2,width=0.4,color="grey60", fillcolor="#E0E0E0", style="filled",tooltip=" "];
  Node22 -> Node11 [color="steelblue1",style="solid"];
  Node3 -> Node24 [color="steelblue1",style="solid"];
  Node24 [label="boost/variant.hpp",height=0.2,width=0.4,color="grey60", fillcolor="#E0E0E0", style="filled",tooltip=" "];
  Node3 -> Node25 [color="steelblue1",style="solid"];
  Node25 [label="boost/mpl/bool_fwd.hpp",height=0.2,width=0.4,color="grey60", fillcolor="#E0E0E0", style="filled",tooltip=" "];
  Node3 -> Node26 [color="steelblue1",style="solid"];
  Node26 [label="graph_properties.hh",height=0.2,width=0.4,color="red", fillcolor="#FFF0F0", style="filled",URL="$graph__properties_8hh.html",tooltip=" "];
  Node26 -> Node11 [color="steelblue1",style="solid"];
  Node26 -> Node6 [color="steelblue1",style="solid"];
  Node26 -> Node22 [color="steelblue1",style="solid"];
  Node26 -> Node32 [color="steelblue1",style="solid"];
  Node32 [label="boost/mpl/vector.hpp",height=0.2,width=0.4,color="grey60", fillcolor="#E0E0E0", style="filled",tooltip=" "];
  Node2 -> Node38 [color="steelblue1",style="solid"];
  Node38 [label="graph_filtering.hh",height=0.2,width=0.4,color="red", fillcolor="#FFF0F0", style="filled",URL="$graph__filtering_8hh.html",tooltip=" "];
  Node38 -> Node3 [color="steelblue1",style="solid"];
  Node38 -> Node39 [color="steelblue1",style="solid"];
  Node39 [label="boost/version.hpp",height=0.2,width=0.4,color="grey60", fillcolor="#E0E0E0", style="filled",tooltip=" "];
  Node38 -> Node15 [color="steelblue1",style="solid"];
  Node38 -> Node32 [color="steelblue1",style="solid"];
  Node38 -> Node40 [color="steelblue1",style="solid"];
  Node40 [label="boost/mpl/if.hpp",height=0.2,width=0.4,color="grey60", fillcolor="#E0E0E0", style="filled",tooltip=" "];
  Node38 -> Node41 [color="steelblue1",style="solid"];
  Node41 [label="boost/mpl/logical.hpp",height=0.2,width=0.4,color="grey60", fillcolor="#E0E0E0", style="filled",tooltip=" "];
  Node38 -> Node42 [color="steelblue1",style="solid"];
  Node42 [label="boost/mpl/back_inserter.hpp",height=0.2,width=0.4,color="grey60", fillcolor="#E0E0E0", style="filled",tooltip=" "];
  Node38 -> Node43 [color="steelblue1",style="solid"];
  Node43 [label="boost/mpl/assert.hpp",height=0.2,width=0.4,color="grey60", fillcolor="#E0E0E0", style="filled",tooltip=" "];
  Node38 -> Node44 [color="steelblue1",style="solid"];
  Node44 [label="graph_adaptor.hh",height=0.2,width=0.4,color="red", fillcolor="#FFF0F0", style="filled",URL="$graph__adaptor_8hh.html",tooltip=" "];
  Node44 -> Node15 [color="steelblue1",style="solid"];
  Node38 -> Node52 [color="steelblue1",style="solid"];
  Node52 [label="graph_util.hh",height=0.2,width=0.4,color="red", fillcolor="#FFF0F0", style="filled",URL="$graph__util_8hh.html",tooltip=" "];
  Node52 -> Node32 [color="steelblue1",style="solid"];
  Node52 -> Node15 [color="steelblue1",style="solid"];
  Node52 -> Node57 [color="steelblue1",style="solid"];
  Node57 [label="graph_selectors.hh",height=0.2,width=0.4,color="red", fillcolor="#FFF0F0", style="filled",URL="$graph__selectors_8hh.html",tooltip=" "];
  Node57 -> Node32 [color="steelblue1",style="solid"];
  Node57 -> Node43 [color="steelblue1",style="solid"];
  Node57 -> Node42 [color="steelblue1",style="solid"];
  Node57 -> Node9 [color="steelblue1",style="solid"];
  Node57 -> Node15 [color="steelblue1",style="solid"];
  Node57 -> Node26 [color="steelblue1",style="solid"];
  Node57 -> Node3 [color="steelblue1",style="solid"];
  Node2 -> Node26 [color="steelblue1",style="solid"];
  Node2 -> Node57 [color="steelblue1",style="solid"];
  Node1 -> Node63 [color="steelblue1",style="solid"];
  Node63 [label="random.hh",height=0.2,width=0.4,color="grey40", fillcolor="white", style="filled",URL="$random_8hh.html",tooltip=" "];
  Node63 -> Node64 [color="steelblue1",style="solid"];
  Node64 [label="pcg_random.hpp",height=0.2,width=0.4,color="grey60", fillcolor="#E0E0E0", style="filled",tooltip=" "];
  Node1 -> Node65 [color="steelblue1",style="solid"];
  Node65 [label="boost/python.hpp",height=0.2,width=0.4,color="grey60", fillcolor="#E0E0E0", style="filled",tooltip=" "];
  Node1 -> Node66 [color="steelblue1",style="solid"];
  Node66 [label="../blockmodel/graph\l_blockmodel.hh",height=0.2,width=0.4,color="grey40", fillcolor="white", style="filled",URL="$graph__blockmodel_8hh.html",tooltip=" "];
  Node66 -> Node4 [color="steelblue1",style="solid"];
  Node66 -> Node11 [color="steelblue1",style="solid"];
  Node66 -> Node67 [color="steelblue1",style="solid"];
  Node67 [label="idx_map.hh",height=0.2,width=0.4,color="red", fillcolor="#FFF0F0", style="filled",URL="$idx__map_8hh.html",tooltip=" "];
  Node67 -> Node11 [color="steelblue1",style="solid"];
  Node66 -> Node69 [color="steelblue1",style="solid"];
  Node69 [label="../support/graph_state.hh",height=0.2,width=0.4,color="grey40", fillcolor="white", style="filled",URL="$graph__state_8hh.html",tooltip=" "];
  Node69 -> Node65 [color="steelblue1",style="solid"];
  Node69 -> Node70 [color="steelblue1",style="solid"];
  Node70 [label="boost/preprocessor\l/comparison/equal.hpp",height=0.2,width=0.4,color="grey60", fillcolor="#E0E0E0", style="filled",tooltip=" "];
  Node69 -> Node71 [color="steelblue1",style="solid"];
  Node71 [label="boost/preprocessor\l/cat.hpp",height=0.2,width=0.4,color="grey60", fillcolor="#E0E0E0", style="filled",tooltip=" "];
  Node69 -> Node72 [color="steelblue1",style="solid"];
  Node72 [label="boost/preprocessor\l/seq/size.hpp",height=0.2,width=0.4,color="grey60", fillcolor="#E0E0E0", style="filled",tooltip=" "];
  Node69 -> Node73 [color="steelblue1",style="solid"];
  Node73 [label="boost/preprocessor\l/seq/for_each_i.hpp",height=0.2,width=0.4,color="grey60", fillcolor="#E0E0E0", style="filled",tooltip=" "];
  Node69 -> Node74 [color="steelblue1",style="solid"];
  Node74 [label="boost/preprocessor\l/stringize.hpp",height=0.2,width=0.4,color="grey60", fillcolor="#E0E0E0", style="filled",tooltip=" "];
  Node69 -> Node75 [color="steelblue1",style="solid"];
  Node75 [label="boost/preprocessor\l/tuple/elem.hpp",height=0.2,width=0.4,color="grey60", fillcolor="#E0E0E0", style="filled",tooltip=" "];
  Node69 -> Node76 [color="steelblue1",style="solid"];
  Node76 [label="boost/preprocessor\l/arithmetic/dec.hpp",height=0.2,width=0.4,color="grey60", fillcolor="#E0E0E0", style="filled",tooltip=" "];
  Node69 -> Node77 [color="steelblue1",style="solid"];
  Node77 [label="boost/preprocessor\l/seq/transform.hpp",height=0.2,width=0.4,color="grey60", fillcolor="#E0E0E0", style="filled",tooltip=" "];
  Node69 -> Node78 [color="steelblue1",style="solid"];
  Node78 [label="boost/preprocessor\l/seq/filter.hpp",height=0.2,width=0.4,color="grey60", fillcolor="#E0E0E0", style="filled",tooltip=" "];
  Node69 -> Node79 [color="steelblue1",style="solid"];
  Node79 [label="boost/preprocessor\l/seq/first_n.hpp",height=0.2,width=0.4,color="grey60", fillcolor="#E0E0E0", style="filled",tooltip=" "];
  Node69 -> Node3 [color="steelblue1",style="solid"];
  Node69 -> Node57 [color="steelblue1",style="solid"];
  Node69 -> Node26 [color="steelblue1",style="solid"];
  Node69 -> Node38 [color="steelblue1",style="solid"];
  Node69 -> Node52 [color="steelblue1",style="solid"];
  Node69 -> Node80 [color="steelblue1",style="solid"];
  Node80 [label="numpy_bind.hh",height=0.2,width=0.4,color="red", fillcolor="#FFF0F0", style="filled",URL="$numpy__bind_8hh.html",tooltip=" "];
  Node80 -> Node11 [color="steelblue1",style="solid"];
  Node80 -> Node65 [color="steelblue1",style="solid"];
  Node69 -> Node4 [color="steelblue1",style="solid"];
  Node69 -> Node23 [color="steelblue1",style="solid"];
  Node66 -> Node86 [color="steelblue1",style="solid"];
  Node86 [label="graph_blockmodel_util.hh",height=0.2,width=0.4,color="red", fillcolor="#FFF0F0", style="filled",URL="$graph__blockmodel__util_8hh.html",tooltip=" "];
  Node86 -> Node4 [color="steelblue1",style="solid"];
  Node1 -> Node103 [color="steelblue1",style="solid"];
  Node103 [label="graph_blockmodel_latent\l_closure.hh",height=0.2,width=0.4,color="grey40", fillcolor="white", style="filled",URL="$graph__blockmodel__latent__closure_8hh.html",tooltip=" "];
  Node103 -> Node4 [color="steelblue1",style="solid"];
  Node103 -> Node11 [color="steelblue1",style="solid"];
  Node103 -> Node69 [color="steelblue1",style="solid"];
  Node103 -> Node96 [color="steelblue1",style="solid"];
  Node96 [label="boost/range/counting\l_range.hpp",height=0.2,width=0.4,color="grey60", fillcolor="#E0E0E0", style="filled",tooltip=" "];
  Node1 -> Node104 [color="steelblue1",style="solid"];
  Node104 [label="graph_blockmodel_latent\l_layers.hh",height=0.2,width=0.4,color="grey40", fillcolor="white", style="filled",URL="$graph__blockmodel__latent__layers_8hh.html",tooltip=" "];
  Node104 -> Node4 [color="steelblue1",style="solid"];
  Node104 -> Node11 [color="steelblue1",style="solid"];
  Node104 -> Node69 [color="steelblue1",style="solid"];
  Node104 -> Node105 [color="steelblue1",style="solid"];
  Node105 [label="graph_blockmodel_uncertain\l_util.hh",height=0.2,width=0.4,color="red", fillcolor="#FFF0F0", style="filled",URL="$graph__blockmodel__uncertain__util_8hh.html",tooltip=" "];
  Node105 -> Node4 [color="steelblue1",style="solid"];
  Node104 -> Node106 [color="steelblue1",style="solid"];
  Node106 [label="graph_blockmodel_measured.hh",height=0.2,width=0.4,color="red", fillcolor="#FFF0F0", style="filled",URL="$graph__blockmodel__measured_8hh.html",tooltip=" "];
  Node106 -> Node4 [color="steelblue1",style="solid"];
  Node106 -> Node11 [color="steelblue1",style="solid"];
  Node106 -> Node69 [color="steelblue1",style="solid"];
  Node106 -> Node86 [color="steelblue1",style="solid"];
  Node1 -> Node69 [color="steelblue1",style="solid"];
}
