digraph "/home/man/Documents/graph-tool-cmake/src/graph/correlations/graph_correlations.hh"
{
 // LATEX_PDF_SIZE
  bgcolor="transparent";
  edge [fontname=Helvetica,fontsize=10,labelfontname=Helvetica,labelfontsize=10];
  node [fontname=Helvetica,fontsize=10,shape=box,height=0.2,width=0.4];
  Node1 [label="/home/man/Documents\l/graph-tool-cmake/src\l/graph/correlations/graph\l_correlations.hh",height=0.2,width=0.4,color="gray40", fillcolor="grey60", style="filled", fontcolor="black",tooltip=" "];
  Node1 -> Node2 [dir="back",color="steelblue1",style="solid"];
  Node2 [label="/home/man/Documents\l/graph-tool-cmake/src\l/graph/correlations/graph\l_avg_correlations.hh",height=0.2,width=0.4,color="grey40", fillcolor="white", style="filled",URL="$graph__avg__correlations_8hh.html",tooltip=" "];
  Node2 -> Node3 [dir="back",color="steelblue1",style="solid"];
  Node3 [label="/home/man/Documents\l/graph-tool-cmake/src\l/graph/correlations/graph\l_avg_correlations.cc",height=0.2,width=0.4,color="grey40", fillcolor="white", style="filled",URL="$graph__avg__correlations_8cc.html",tooltip=" "];
  Node2 -> Node4 [dir="back",color="steelblue1",style="solid"];
  Node4 [label="/home/man/Documents\l/graph-tool-cmake/src\l/graph/correlations/graph\l_avg_correlations_combined.cc",height=0.2,width=0.4,color="grey40", fillcolor="white", style="filled",URL="$graph__avg__correlations__combined_8cc.html",tooltip=" "];
  Node2 -> Node5 [dir="back",color="steelblue1",style="solid"];
  Node5 [label="/home/man/Documents\l/graph-tool-cmake/src\l/graph/correlations/graph\l_avg_correlations_imp1.cc",height=0.2,width=0.4,color="grey40", fillcolor="white", style="filled",URL="$graph__avg__correlations__imp1_8cc.html",tooltip=" "];
  Node1 -> Node6 [dir="back",color="steelblue1",style="solid"];
  Node6 [label="/home/man/Documents\l/graph-tool-cmake/src\l/graph/correlations/graph\l_corr_hist.hh",height=0.2,width=0.4,color="grey40", fillcolor="white", style="filled",URL="$graph__corr__hist_8hh.html",tooltip=" "];
  Node6 -> Node7 [dir="back",color="steelblue1",style="solid"];
  Node7 [label="/home/man/Documents\l/graph-tool-cmake/src\l/graph/correlations/graph\l_correlations.cc",height=0.2,width=0.4,color="grey40", fillcolor="white", style="filled",URL="$graph__correlations_8cc.html",tooltip=" "];
  Node6 -> Node8 [dir="back",color="steelblue1",style="solid"];
  Node8 [label="/home/man/Documents\l/graph-tool-cmake/src\l/graph/correlations/graph\l_correlations_combined.cc",height=0.2,width=0.4,color="grey40", fillcolor="white", style="filled",URL="$graph__correlations__combined_8cc.html",tooltip=" "];
  Node6 -> Node9 [dir="back",color="steelblue1",style="solid"];
  Node9 [label="/home/man/Documents\l/graph-tool-cmake/src\l/graph/correlations/graph\l_correlations_imp1.cc",height=0.2,width=0.4,color="grey40", fillcolor="white", style="filled",URL="$graph__correlations__imp1_8cc.html",tooltip=" "];
}
