digraph "export_partition_mode"
{
 // LATEX_PDF_SIZE
  bgcolor="transparent";
  edge [fontname=Helvetica,fontsize=10,labelfontname=Helvetica,labelfontsize=10];
  node [fontname=Helvetica,fontsize=10,shape=box,height=0.2,width=0.4];
  rankdir="LR";
  Node1 [label="export_partition_mode",height=0.2,width=0.4,color="gray40", fillcolor="grey60", style="filled", fontcolor="black",tooltip=" "];
  Node1 -> Node2 [color="steelblue1",style="solid"];
  Node2 [label="graph_tool::PartitionMode\lState::add_partition",height=0.2,width=0.4,color="grey40", fillcolor="white", style="filled",URL="$classgraph__tool_1_1PartitionModeState.html#aa8ae30e919f4759049ad966b5e6240ea",tooltip=" "];
  Node2 -> Node2 [color="steelblue1",style="solid"];
  Node2 -> Node3 [color="steelblue1",style="solid"];
  Node3 [label="graph_tool::PartitionMode\lState::clean_labels",height=0.2,width=0.4,color="red", fillcolor="#FFF0F0", style="filled",URL="$classgraph__tool_1_1PartitionModeState.html#aad6ec8c1ff673ea1827d171beafaefba",tooltip=" "];
  Node3 -> Node3 [color="steelblue1",style="solid"];
  Node3 -> Node4 [color="steelblue1",style="solid"];
  Node4 [label="idx_set::end",height=0.2,width=0.4,color="grey40", fillcolor="white", style="filled",URL="$classidx__set.html#af92eda91ac7fdd6512c6ceb32d22d15d",tooltip=" "];
  Node3 -> Node5 [color="steelblue1",style="solid"];
  Node5 [label="idx_set::find",height=0.2,width=0.4,color="red", fillcolor="#FFF0F0", style="filled",URL="$classidx__set.html#acf58b6a152fe192b586e1c9ee73558b5",tooltip=" "];
  Node5 -> Node4 [color="steelblue1",style="solid"];
  Node3 -> Node8 [color="steelblue1",style="solid"];
  Node8 [label="boost::get",height=0.2,width=0.4,color="red", fillcolor="#FFF0F0", style="filled",URL="$namespaceboost.html#a16c10260e678081f48c16db5bdd0f5ea",tooltip=" "];
  Node8 -> Node8 [color="steelblue1",style="solid"];
  Node2 -> Node11 [color="steelblue1",style="solid"];
  Node11 [label="graph_tool::PartitionMode\lState::relabel",height=0.2,width=0.4,color="red", fillcolor="#FFF0F0", style="filled",URL="$classgraph__tool_1_1PartitionModeState.html#abb915f1507691e434cc5b3a97834e8fb",tooltip=" "];
  Node11 -> Node13 [color="steelblue1",style="solid"];
  Node13 [label="graph_tool::PartitionMode\lState::get_partition",height=0.2,width=0.4,color="grey40", fillcolor="white", style="filled",URL="$classgraph__tool_1_1PartitionModeState.html#a6b1c2feeb4eb14bbd0966fcb6d579f1d",tooltip=" "];
  Node13 -> Node14 [color="steelblue1",style="solid"];
  Node14 [label="idx_map::find",height=0.2,width=0.4,color="red", fillcolor="#FFF0F0", style="filled",URL="$classidx__map.html#a726b88bd6e966e76909b8a62b5b41ca9",tooltip=" "];
  Node14 -> Node15 [color="steelblue1",style="solid"];
  Node15 [label="idx_map::begin",height=0.2,width=0.4,color="grey40", fillcolor="white", style="filled",URL="$classidx__map.html#adfc59aadc681d10ca019307696b1ccc0",tooltip=" "];
  Node14 -> Node16 [color="steelblue1",style="solid"];
  Node16 [label="idx_map::end",height=0.2,width=0.4,color="grey40", fillcolor="white", style="filled",URL="$classidx__map.html#a263b32ec4987f44a80d78076b42d4cf4",tooltip=" "];
  Node11 -> Node19 [color="steelblue1",style="solid"];
  Node19 [label="graph_tool::relabel\l_nested",height=0.2,width=0.4,color="grey40", fillcolor="white", style="filled",URL="$namespacegraph__tool.html#a8ff07e0f4d1ac9ad0f13f95aab2b4305",tooltip=" "];
  Node1 -> Node20 [color="steelblue1",style="solid"];
  Node20 [label="graph_tool::PartitionMode\lState::align_mode",height=0.2,width=0.4,color="grey40", fillcolor="white", style="filled",URL="$classgraph__tool_1_1PartitionModeState.html#ab2c18cdd114f17fb2453246ca1153f55",tooltip=" "];
  Node20 -> Node2 [color="steelblue1",style="solid"];
  Node20 -> Node16 [color="steelblue1",style="solid"];
  Node20 -> Node14 [color="steelblue1",style="solid"];
  Node20 -> Node8 [color="steelblue1",style="solid"];
  Node20 -> Node21 [color="steelblue1",style="solid"];
  Node21 [label="graph_tool::PartitionMode\lState::get_nested_partition",height=0.2,width=0.4,color="grey40", fillcolor="white", style="filled",URL="$classgraph__tool_1_1PartitionModeState.html#a69950ad53952641702c1e09bcb34e42a",tooltip=" "];
  Node21 -> Node13 [color="steelblue1",style="solid"];
  Node20 -> Node22 [color="steelblue1",style="solid"];
  Node22 [label="graph_tool::maximum\l_bipartite_weighted\l_matching",height=0.2,width=0.4,color="red", fillcolor="#FFF0F0", style="filled",URL="$namespacegraph__tool.html#adecc3b94387297164c5746bfbb1ff4ca",tooltip=" "];
  Node22 -> Node8 [color="steelblue1",style="solid"];
  Node22 -> Node45 [color="steelblue1",style="solid"];
  Node45 [label="boost::vertices",height=0.2,width=0.4,color="red", fillcolor="#FFF0F0", style="filled",URL="$namespaceboost.html#a0bc22071c353fa26cd0d16cc817ddde2",tooltip=" "];
  Node45 -> Node45 [color="steelblue1",style="solid"];
  Node22 -> Node46 [color="steelblue1",style="solid"];
  Node46 [label="graph_tool::vertices\l_range",height=0.2,width=0.4,color="red", fillcolor="#FFF0F0", style="filled",URL="$namespacegraph__tool.html#a92ab479b81d8c9a030d42854fefabf1a",tooltip=" "];
  Node46 -> Node45 [color="steelblue1",style="solid"];
  Node20 -> Node19 [color="steelblue1",style="solid"];
  Node20 -> Node47 [color="steelblue1",style="solid"];
  Node47 [label="graph_tool::PartitionMode\lState::remove_partition",height=0.2,width=0.4,color="red", fillcolor="#FFF0F0", style="filled",URL="$classgraph__tool_1_1PartitionModeState.html#a5a3ab9ca5be9451dbcf3086825b21af6",tooltip=" "];
  Node47 -> Node16 [color="steelblue1",style="solid"];
  Node47 -> Node14 [color="steelblue1",style="solid"];
  Node20 -> Node45 [color="steelblue1",style="solid"];
  Node20 -> Node46 [color="steelblue1",style="solid"];
  Node1 -> Node49 [color="steelblue1",style="solid"];
  Node49 [label="graph_tool::PartitionMode\lState::entropy",height=0.2,width=0.4,color="grey40", fillcolor="white", style="filled",URL="$classgraph__tool_1_1PartitionModeState.html#a5673af0979c88aabfbb43e31577edb81",tooltip=" "];
  Node49 -> Node50 [color="steelblue1",style="solid"];
  Node50 [label="graph_tool::safelog",height=0.2,width=0.4,color="grey40", fillcolor="white", style="filled",URL="$namespacegraph__tool.html#a2775c645bfb6f1026c90168f54315c51",tooltip=" "];
  Node1 -> Node51 [color="steelblue1",style="solid"];
  Node51 [label="graph_tool::PartitionMode\lState::get_B",height=0.2,width=0.4,color="grey40", fillcolor="white", style="filled",URL="$classgraph__tool_1_1PartitionModeState.html#a07a151feda73a8e9b602061c9a46a335",tooltip=" "];
  Node1 -> Node52 [color="steelblue1",style="solid"];
  Node52 [label="get_bv",height=0.2,width=0.4,color="grey40", fillcolor="white", style="filled",URL="$graph__partition__mode_8cc.html#acbc8ec7cf65a18dac10afd4fb8620b41",tooltip=" "];
  Node1 -> Node53 [color="steelblue1",style="solid"];
  Node53 [label="graph_tool::PartitionMode\lState::get_coupled_state",height=0.2,width=0.4,color="grey40", fillcolor="white", style="filled",URL="$classgraph__tool_1_1PartitionModeState.html#aaff6041bcaf99b4260bcfe430431014f",tooltip=" "];
  Node1 -> Node54 [color="steelblue1",style="solid"];
  Node54 [label="graph_tool::PartitionMode\lState::get_M",height=0.2,width=0.4,color="grey40", fillcolor="white", style="filled",URL="$classgraph__tool_1_1PartitionModeState.html#a7537566266635d81bd9acf2cfc077ca5",tooltip=" "];
  Node54 -> Node55 [color="steelblue1",style="solid"];
  Node55 [label="idx_map::size",height=0.2,width=0.4,color="grey40", fillcolor="white", style="filled",URL="$classidx__map.html#a4e3de3e6e7f8e7cba80b67090753acfa",tooltip=" "];
  Node1 -> Node56 [color="steelblue1",style="solid"];
  Node56 [label="graph_tool::PartitionMode\lState::get_map",height=0.2,width=0.4,color="grey40", fillcolor="white", style="filled",URL="$classgraph__tool_1_1PartitionModeState.html#adb88118f7b59d9f197a29b35ad5bce54",tooltip=" "];
  Node56 -> Node46 [color="steelblue1",style="solid"];
  Node1 -> Node57 [color="steelblue1",style="solid"];
  Node57 [label="graph_tool::PartitionMode\lState::get_map_b",height=0.2,width=0.4,color="grey40", fillcolor="white", style="filled",URL="$classgraph__tool_1_1PartitionModeState.html#a53c635426ae401281b5d7a68b5db77ba",tooltip=" "];
  Node1 -> Node58 [color="steelblue1",style="solid"];
  Node58 [label="graph_tool::PartitionMode\lState::get_marginal",height=0.2,width=0.4,color="grey40", fillcolor="white", style="filled",URL="$classgraph__tool_1_1PartitionModeState.html#a14b19b1ce85905e3b4d84164bcb9549e",tooltip=" "];
  Node58 -> Node46 [color="steelblue1",style="solid"];
  Node1 -> Node21 [color="steelblue1",style="solid"];
  Node1 -> Node13 [color="steelblue1",style="solid"];
  Node1 -> Node59 [color="steelblue1",style="solid"];
  Node59 [label="graph_tool::PartitionMode\lState::get_partitions",height=0.2,width=0.4,color="grey40", fillcolor="white", style="filled",URL="$classgraph__tool_1_1PartitionModeState.html#a8bc45fae64b97e2c91be5900f9dbdaef",tooltip=" "];
  Node1 -> Node60 [color="steelblue1",style="solid"];
  Node60 [label="graph_tool::nested\l_partition_align_labels",height=0.2,width=0.4,color="grey40", fillcolor="white", style="filled",URL="$namespacegraph__tool.html#a04c3cbf7fbb0902c501b1cda62e185bf",tooltip=" "];
  Node60 -> Node61 [color="steelblue1",style="solid"];
  Node61 [label="graph_tool::partition\l_align_labels",height=0.2,width=0.4,color="red", fillcolor="#FFF0F0", style="filled",URL="$namespacegraph__tool.html#af77d906003ccb5ae226b3a5cce40486a",tooltip=" "];
  Node61 -> Node4 [color="steelblue1",style="solid"];
  Node61 -> Node5 [color="steelblue1",style="solid"];
  Node61 -> Node8 [color="steelblue1",style="solid"];
  Node61 -> Node22 [color="steelblue1",style="solid"];
  Node61 -> Node45 [color="steelblue1",style="solid"];
  Node61 -> Node46 [color="steelblue1",style="solid"];
  Node60 -> Node19 [color="steelblue1",style="solid"];
  Node1 -> Node62 [color="steelblue1",style="solid"];
  Node62 [label="graph_tool::nested\l_partition_order_labels",height=0.2,width=0.4,color="grey40", fillcolor="white", style="filled",URL="$namespacegraph__tool.html#af0a19f9e2707a9eb0f2253df933589e8",tooltip=" "];
  Node62 -> Node63 [color="steelblue1",style="solid"];
  Node63 [label="graph_tool::partition\l_order_labels",height=0.2,width=0.4,color="grey40", fillcolor="white", style="filled",URL="$namespacegraph__tool.html#a212807684548703f946ea7dd5fafad20",tooltip=" "];
  Node62 -> Node19 [color="steelblue1",style="solid"];
  Node1 -> Node64 [color="steelblue1",style="solid"];
  Node64 [label="graph_tool::nested\l_partition_overlap_center",height=0.2,width=0.4,color="grey40", fillcolor="white", style="filled",URL="$namespacegraph__tool.html#a792f3f8880ee630c7bb68ce9e36f726f",tooltip=" "];
  Node64 -> Node15 [color="steelblue1",style="solid"];
  Node64 -> Node65 [color="steelblue1",style="solid"];
  Node65 [label="idx_map::clear",height=0.2,width=0.4,color="red", fillcolor="#FFF0F0", style="filled",URL="$classidx__map.html#a894b49c1fd2228a756ae5f4bf09bbb1a",tooltip=" "];
  Node64 -> Node66 [color="steelblue1",style="solid"];
  Node66 [label="idx_map::empty",height=0.2,width=0.4,color="grey40", fillcolor="white", style="filled",URL="$classidx__map.html#ac432e85d4c473e6b3cedeca5767ce7e4",tooltip=" "];
  Node64 -> Node16 [color="steelblue1",style="solid"];
  Node64 -> Node60 [color="steelblue1",style="solid"];
  Node1 -> Node67 [color="steelblue1",style="solid"];
  Node67 [label="graph_tool::nested\l_partition_shuffle_labels",height=0.2,width=0.4,color="grey40", fillcolor="white", style="filled",URL="$namespacegraph__tool.html#ad1278e03f837cfd9918a14fb4e7d1de6",tooltip=" "];
  Node67 -> Node68 [color="steelblue1",style="solid"];
  Node68 [label="graph_tool::partition\l_shuffle_labels",height=0.2,width=0.4,color="grey40", fillcolor="white", style="filled",URL="$namespacegraph__tool.html#a4f2931778e659ea53e434265a77656f1",tooltip=" "];
  Node67 -> Node19 [color="steelblue1",style="solid"];
  Node1 -> Node61 [color="steelblue1",style="solid"];
  Node1 -> Node63 [color="steelblue1",style="solid"];
  Node1 -> Node69 [color="steelblue1",style="solid"];
  Node69 [label="graph_tool::partition\l_overlap",height=0.2,width=0.4,color="red", fillcolor="#FFF0F0", style="filled",URL="$namespacegraph__tool.html#aec361e4f422207e564910d58891ec693",tooltip=" "];
  Node69 -> Node8 [color="steelblue1",style="solid"];
  Node69 -> Node22 [color="steelblue1",style="solid"];
  Node69 -> Node46 [color="steelblue1",style="solid"];
  Node1 -> Node70 [color="steelblue1",style="solid"];
  Node70 [label="graph_tool::partition\l_overlap_center",height=0.2,width=0.4,color="grey40", fillcolor="white", style="filled",URL="$namespacegraph__tool.html#a8be77613ee98975fa50682ad57b26ec5",tooltip=" "];
  Node70 -> Node15 [color="steelblue1",style="solid"];
  Node70 -> Node65 [color="steelblue1",style="solid"];
  Node70 -> Node16 [color="steelblue1",style="solid"];
  Node70 -> Node61 [color="steelblue1",style="solid"];
  Node1 -> Node68 [color="steelblue1",style="solid"];
  Node1 -> Node71 [color="steelblue1",style="solid"];
  Node71 [label="graph_tool::PartitionMode\lState::posterior_cdev",height=0.2,width=0.4,color="grey40", fillcolor="white", style="filled",URL="$classgraph__tool_1_1PartitionModeState.html#aead4eb0e98c5ffc1a9d730cb9c8294c5",tooltip=" "];
  Node71 -> Node55 [color="steelblue1",style="solid"];
  Node1 -> Node72 [color="steelblue1",style="solid"];
  Node72 [label="graph_tool::PartitionMode\lState::posterior_entropy",height=0.2,width=0.4,color="red", fillcolor="#FFF0F0", style="filled",URL="$classgraph__tool_1_1PartitionModeState.html#aeab240215343aef412dfc4f8c8f70b8e",tooltip=" "];
  Node72 -> Node55 [color="steelblue1",style="solid"];
  Node1 -> Node74 [color="steelblue1",style="solid"];
  Node74 [label="graph_tool::PartitionMode\lState::posterior_lprob",height=0.2,width=0.4,color="grey40", fillcolor="white", style="filled",URL="$classgraph__tool_1_1PartitionModeState.html#a35207af0781ffc72b4dc64d09acb8100",tooltip=" "];
  Node74 -> Node74 [color="steelblue1",style="solid"];
  Node1 -> Node11 [color="steelblue1",style="solid"];
  Node1 -> Node75 [color="steelblue1",style="solid"];
  Node75 [label="graph_tool::PartitionMode\lState::relabel_partition",height=0.2,width=0.4,color="red", fillcolor="#FFF0F0", style="filled",URL="$classgraph__tool_1_1PartitionModeState.html#a1c10cee70c308acb670d04e275c9db6d",tooltip=" "];
  Node75 -> Node65 [color="steelblue1",style="solid"];
  Node75 -> Node66 [color="steelblue1",style="solid"];
  Node75 -> Node16 [color="steelblue1",style="solid"];
  Node75 -> Node14 [color="steelblue1",style="solid"];
  Node75 -> Node8 [color="steelblue1",style="solid"];
  Node75 -> Node22 [color="steelblue1",style="solid"];
  Node75 -> Node19 [color="steelblue1",style="solid"];
  Node75 -> Node55 [color="steelblue1",style="solid"];
  Node75 -> Node46 [color="steelblue1",style="solid"];
  Node1 -> Node47 [color="steelblue1",style="solid"];
  Node1 -> Node76 [color="steelblue1",style="solid"];
  Node76 [label="graph_tool::PartitionMode\lState::replace_partitions",height=0.2,width=0.4,color="grey40", fillcolor="white", style="filled",URL="$classgraph__tool_1_1PartitionModeState.html#a21437f0783e4d8d8317b0db9dcfa9f75",tooltip=" "];
  Node76 -> Node2 [color="steelblue1",style="solid"];
  Node76 -> Node21 [color="steelblue1",style="solid"];
  Node76 -> Node47 [color="steelblue1",style="solid"];
  Node76 -> Node77 [color="steelblue1",style="solid"];
  Node77 [label="graph_tool::PartitionMode\lState::virtual_add_partition",height=0.2,width=0.4,color="grey40", fillcolor="white", style="filled",URL="$classgraph__tool_1_1PartitionModeState.html#ad2c1c7824fe4fb5da69c422a37146648",tooltip=" "];
  Node77 -> Node11 [color="steelblue1",style="solid"];
  Node76 -> Node78 [color="steelblue1",style="solid"];
  Node78 [label="graph_tool::PartitionMode\lState::virtual_remove_partition",height=0.2,width=0.4,color="grey40", fillcolor="white", style="filled",URL="$classgraph__tool_1_1PartitionModeState.html#a336a6a116e0d9f27adfde65acac5da3f",tooltip=" "];
  Node1 -> Node79 [color="steelblue1",style="solid"];
  Node79 [label="graph_tool::PartitionMode\lState::sample_nested_partition",height=0.2,width=0.4,color="grey40", fillcolor="white", style="filled",URL="$classgraph__tool_1_1PartitionModeState.html#ab15b779a07c87b6ea36b3d6d7021c9a6",tooltip=" "];
  Node79 -> Node80 [color="steelblue1",style="solid"];
  Node80 [label="graph_tool::PartitionMode\lState::sample_partition",height=0.2,width=0.4,color="red", fillcolor="#FFF0F0", style="filled",URL="$classgraph__tool_1_1PartitionModeState.html#a8b75fc4e1ad8fa708b01b1f741baca1c",tooltip=" "];
  Node1 -> Node80 [color="steelblue1",style="solid"];
  Node1 -> Node77 [color="steelblue1",style="solid"];
  Node1 -> Node78 [color="steelblue1",style="solid"];
  Node1 -> Node82 [color="steelblue1",style="solid"];
  Node82 [label="wrap_vector_owned",height=0.2,width=0.4,color="grey40", fillcolor="white", style="filled",URL="$numpy__bind_8hh.html#a990020f9c0e4e735d00ae28350d4397b",tooltip=" "];
}
