digraph "export_closeness"
{
 // LATEX_PDF_SIZE
  bgcolor="transparent";
  edge [fontname=Helvetica,fontsize=10,labelfontname=Helvetica,labelfontsize=10];
  node [fontname=Helvetica,fontsize=10,shape=box,height=0.2,width=0.4];
  rankdir="LR";
  Node1 [label="export_closeness",height=0.2,width=0.4,color="gray40", fillcolor="grey60", style="filled", fontcolor="black",tooltip=" "];
  Node1 -> Node2 [color="steelblue1",style="solid"];
  Node2 [label="do_get_closeness",height=0.2,width=0.4,color="grey40", fillcolor="white", style="filled",URL="$graph__closeness_8cc.html#a46f3d3379d793c2bb23b52424aa9a24d",tooltip=" "];
  Node2 -> Node3 [color="steelblue1",style="solid"];
  Node3 [label="graph_tool::GraphInterface\l::get_vertex_index",height=0.2,width=0.4,color="grey40", fillcolor="white", style="filled",URL="$classgraph__tool_1_1GraphInterface.html#a4a8b2130874eb17e73e578e39b851b64",tooltip=" "];
}
