digraph "/home/man/Documents/graph-tool-cmake/src/graph/stats/graph_distance.hh"
{
 // LATEX_PDF_SIZE
  bgcolor="transparent";
  edge [fontname=Helvetica,fontsize=10,labelfontname=Helvetica,labelfontsize=10];
  node [fontname=Helvetica,fontsize=10,shape=box,height=0.2,width=0.4];
  Node1 [label="/home/man/Documents\l/graph-tool-cmake/src\l/graph/stats/graph_distance.hh",height=0.2,width=0.4,color="gray40", fillcolor="grey60", style="filled", fontcolor="black",tooltip=" "];
  Node1 -> Node2 [color="steelblue1",style="solid"];
  Node2 [label="boost/graph/breadth\l_first_search.hpp",height=0.2,width=0.4,color="grey60", fillcolor="#E0E0E0", style="filled",tooltip=" "];
  Node1 -> Node3 [color="steelblue1",style="solid"];
  Node3 [label="boost/graph/dijkstra\l_shortest_paths.hpp",height=0.2,width=0.4,color="grey60", fillcolor="#E0E0E0", style="filled",tooltip=" "];
  Node1 -> Node4 [color="steelblue1",style="solid"];
  Node4 [label="boost/python/object.hpp",height=0.2,width=0.4,color="grey60", fillcolor="#E0E0E0", style="filled",tooltip=" "];
  Node1 -> Node5 [color="steelblue1",style="solid"];
  Node5 [label="boost/python/list.hpp",height=0.2,width=0.4,color="grey60", fillcolor="#E0E0E0", style="filled",tooltip=" "];
  Node1 -> Node6 [color="steelblue1",style="solid"];
  Node6 [label="histogram.hh",height=0.2,width=0.4,color="grey40", fillcolor="white", style="filled",URL="$histogram_8hh.html",tooltip=" "];
  Node6 -> Node7 [color="steelblue1",style="solid"];
  Node7 [label="vector",height=0.2,width=0.4,color="grey60", fillcolor="#E0E0E0", style="filled",tooltip=" "];
  Node6 -> Node8 [color="steelblue1",style="solid"];
  Node8 [label="utility",height=0.2,width=0.4,color="grey60", fillcolor="#E0E0E0", style="filled",tooltip=" "];
  Node6 -> Node9 [color="steelblue1",style="solid"];
  Node9 [label="algorithm",height=0.2,width=0.4,color="grey60", fillcolor="#E0E0E0", style="filled",tooltip=" "];
  Node6 -> Node10 [color="steelblue1",style="solid"];
  Node10 [label="array",height=0.2,width=0.4,color="grey60", fillcolor="#E0E0E0", style="filled",tooltip=" "];
  Node6 -> Node11 [color="steelblue1",style="solid"];
  Node11 [label="boost/multi_array.hpp",height=0.2,width=0.4,color="grey60", fillcolor="#E0E0E0", style="filled",tooltip=" "];
  Node6 -> Node12 [color="steelblue1",style="solid"];
  Node12 [label="boost/mpl/if.hpp",height=0.2,width=0.4,color="grey60", fillcolor="#E0E0E0", style="filled",tooltip=" "];
  Node6 -> Node13 [color="steelblue1",style="solid"];
  Node13 [label="boost/mpl/int.hpp",height=0.2,width=0.4,color="grey60", fillcolor="#E0E0E0", style="filled",tooltip=" "];
  Node1 -> Node14 [color="steelblue1",style="solid"];
  Node14 [label="numpy_bind.hh",height=0.2,width=0.4,color="grey40", fillcolor="white", style="filled",URL="$numpy__bind_8hh.html",tooltip=" "];
  Node14 -> Node7 [color="steelblue1",style="solid"];
  Node14 -> Node15 [color="steelblue1",style="solid"];
  Node15 [label="boost/python.hpp",height=0.2,width=0.4,color="grey60", fillcolor="#E0E0E0", style="filled",tooltip=" "];
  Node14 -> Node16 [color="steelblue1",style="solid"];
  Node16 [label="numpy/arrayobject.h",height=0.2,width=0.4,color="grey60", fillcolor="#E0E0E0", style="filled",tooltip=" "];
  Node14 -> Node17 [color="steelblue1",style="solid"];
  Node17 [label="boost/array.hpp",height=0.2,width=0.4,color="grey60", fillcolor="#E0E0E0", style="filled",tooltip=" "];
  Node14 -> Node11 [color="steelblue1",style="solid"];
  Node14 -> Node13 [color="steelblue1",style="solid"];
  Node14 -> Node18 [color="steelblue1",style="solid"];
  Node18 [label="boost/mpl/map.hpp",height=0.2,width=0.4,color="grey60", fillcolor="#E0E0E0", style="filled",tooltip=" "];
  Node14 -> Node19 [color="steelblue1",style="solid"];
  Node19 [label="boost/mpl/pair.hpp",height=0.2,width=0.4,color="grey60", fillcolor="#E0E0E0", style="filled",tooltip=" "];
  Node14 -> Node20 [color="steelblue1",style="solid"];
  Node20 [label="demangle.hh",height=0.2,width=0.4,color="grey40", fillcolor="white", style="filled",URL="$demangle_8hh.html",tooltip=" "];
  Node20 -> Node21 [color="steelblue1",style="solid"];
  Node21 [label="string",height=0.2,width=0.4,color="grey60", fillcolor="#E0E0E0", style="filled",tooltip=" "];
  Node1 -> Node22 [color="steelblue1",style="solid"];
  Node22 [label="hash_map_wrap.hh",height=0.2,width=0.4,color="grey40", fillcolor="white", style="filled",URL="$hash__map__wrap_8hh.html",tooltip=" "];
  Node22 -> Node23 [color="steelblue1",style="solid"];
  Node23 [label="config.h",height=0.2,width=0.4,color="grey60", fillcolor="#E0E0E0", style="filled",tooltip=" "];
  Node22 -> Node24 [color="steelblue1",style="solid"];
  Node24 [label="unordered_set",height=0.2,width=0.4,color="grey60", fillcolor="#E0E0E0", style="filled",tooltip=" "];
  Node22 -> Node25 [color="steelblue1",style="solid"];
  Node25 [label="unordered_map",height=0.2,width=0.4,color="grey60", fillcolor="#E0E0E0", style="filled",tooltip=" "];
  Node22 -> Node26 [color="steelblue1",style="solid"];
  Node26 [label="tuple",height=0.2,width=0.4,color="grey60", fillcolor="#E0E0E0", style="filled",tooltip=" "];
  Node22 -> Node7 [color="steelblue1",style="solid"];
  Node22 -> Node8 [color="steelblue1",style="solid"];
  Node22 -> Node27 [color="steelblue1",style="solid"];
  Node27 [label="limits",height=0.2,width=0.4,color="grey60", fillcolor="#E0E0E0", style="filled",tooltip=" "];
  Node22 -> Node28 [color="steelblue1",style="solid"];
  Node28 [label="graph_adjacency.hh",height=0.2,width=0.4,color="grey40", fillcolor="white", style="filled",URL="$graph__adjacency_8hh.html",tooltip=" "];
  Node28 -> Node7 [color="steelblue1",style="solid"];
  Node28 -> Node29 [color="steelblue1",style="solid"];
  Node29 [label="deque",height=0.2,width=0.4,color="grey60", fillcolor="#E0E0E0", style="filled",tooltip=" "];
  Node28 -> Node8 [color="steelblue1",style="solid"];
  Node28 -> Node30 [color="steelblue1",style="solid"];
  Node30 [label="boost/iterator.hpp",height=0.2,width=0.4,color="grey60", fillcolor="#E0E0E0", style="filled",tooltip=" "];
  Node28 -> Node31 [color="steelblue1",style="solid"];
  Node31 [label="boost/graph/graph_traits.hpp",height=0.2,width=0.4,color="grey60", fillcolor="#E0E0E0", style="filled",tooltip=" "];
  Node28 -> Node32 [color="steelblue1",style="solid"];
  Node32 [label="boost/range/irange.hpp",height=0.2,width=0.4,color="grey60", fillcolor="#E0E0E0", style="filled",tooltip=" "];
  Node28 -> Node33 [color="steelblue1",style="solid"];
  Node33 [label="boost/property_map\l/property_map.hpp",height=0.2,width=0.4,color="grey60", fillcolor="#E0E0E0", style="filled",tooltip=" "];
  Node28 -> Node34 [color="steelblue1",style="solid"];
  Node34 [label="boost/graph/properties.hpp",height=0.2,width=0.4,color="grey60", fillcolor="#E0E0E0", style="filled",tooltip=" "];
  Node28 -> Node35 [color="steelblue1",style="solid"];
  Node35 [label="boost/iterator/iterator\l_facade.hpp",height=0.2,width=0.4,color="grey60", fillcolor="#E0E0E0", style="filled",tooltip=" "];
  Node28 -> Node36 [color="steelblue1",style="solid"];
  Node36 [label="transform_iterator.hh",height=0.2,width=0.4,color="grey40", fillcolor="white", style="filled",URL="$transform__iterator_8hh.html",tooltip=" "];
  Node36 -> Node37 [color="steelblue1",style="solid"];
  Node37 [label="iterator",height=0.2,width=0.4,color="grey60", fillcolor="#E0E0E0", style="filled",tooltip=" "];
  Node36 -> Node38 [color="steelblue1",style="solid"];
  Node38 [label="boost/iterator/transform\l_iterator.hpp",height=0.2,width=0.4,color="grey60", fillcolor="#E0E0E0", style="filled",tooltip=" "];
}
