digraph "do_bfs"
{
 // LATEX_PDF_SIZE
  bgcolor="transparent";
  edge [fontname=Helvetica,fontsize=10,labelfontname=Helvetica,labelfontsize=10];
  node [fontname=Helvetica,fontsize=10,shape=box,height=0.2,width=0.4];
  rankdir="RL";
  Node1 [label="do_bfs",height=0.2,width=0.4,color="gray40", fillcolor="grey60", style="filled", fontcolor="black",tooltip=" "];
  Node1 -> Node2 [dir="back",color="steelblue1",style="solid"];
  Node2 [label="bfs_search",height=0.2,width=0.4,color="grey40", fillcolor="white", style="filled",URL="$graph__bfs_8cc.html#a974a07feb5087004873e4f5385f6de73",tooltip=" "];
  Node2 -> Node3 [dir="back",color="steelblue1",style="solid"];
  Node3 [label="export_bfs",height=0.2,width=0.4,color="grey40", fillcolor="white", style="filled",URL="$graph__bfs_8cc.html#add6bf34ff8b0c4ccc5b18e48d51ec2c6",tooltip=" "];
  Node3 -> Node4 [dir="back",color="steelblue1",style="solid"];
  Node4 [label="BOOST_PYTHON_MODULE",height=0.2,width=0.4,color="grey40", fillcolor="white", style="filled",URL="$graph__search__bind_8cc.html#adde3008ba3d872d5c4d807813f0d6a83",tooltip=" "];
  Node1 -> Node5 [dir="back",color="steelblue1",style="solid"];
  Node5 [label="bfs_search_array",height=0.2,width=0.4,color="grey40", fillcolor="white", style="filled",URL="$graph__bfs_8cc.html#a413017ac64d74412f1b8d170b75ea43f",tooltip=" "];
  Node5 -> Node3 [dir="back",color="steelblue1",style="solid"];
  Node1 -> Node6 [dir="back",color="steelblue1",style="solid"];
  Node6 [label="bfs_search_generator",height=0.2,width=0.4,color="grey40", fillcolor="white", style="filled",URL="$graph__bfs_8cc.html#a6d1dade38fa5773297baa82717747a8a",tooltip=" "];
  Node6 -> Node3 [dir="back",color="steelblue1",style="solid"];
}
