digraph "/home/man/Documents/graph-tool-cmake/src/graph/inference/norm_cut/graph_norm_cut.hh"
{
 // LATEX_PDF_SIZE
  bgcolor="transparent";
  edge [fontname=Helvetica,fontsize=10,labelfontname=Helvetica,labelfontsize=10];
  node [fontname=Helvetica,fontsize=10,shape=box,height=0.2,width=0.4];
  Node1 [label="/home/man/Documents\l/graph-tool-cmake/src\l/graph/inference/norm\l_cut/graph_norm_cut.hh",height=0.2,width=0.4,color="gray40", fillcolor="grey60", style="filled", fontcolor="black",tooltip=" "];
  Node1 -> Node2 [color="steelblue1",style="solid"];
  Node2 [label="config.h",height=0.2,width=0.4,color="grey60", fillcolor="#E0E0E0", style="filled",tooltip=" "];
  Node1 -> Node3 [color="steelblue1",style="solid"];
  Node3 [label="vector",height=0.2,width=0.4,color="grey60", fillcolor="#E0E0E0", style="filled",tooltip=" "];
  Node1 -> Node4 [color="steelblue1",style="solid"];
  Node4 [label="idx_map.hh",height=0.2,width=0.4,color="grey40", fillcolor="white", style="filled",URL="$idx__map_8hh.html",tooltip=" "];
  Node4 -> Node3 [color="steelblue1",style="solid"];
  Node4 -> Node5 [color="steelblue1",style="solid"];
  Node5 [label="utility",height=0.2,width=0.4,color="grey60", fillcolor="#E0E0E0", style="filled",tooltip=" "];
  Node4 -> Node6 [color="steelblue1",style="solid"];
  Node6 [label="limits",height=0.2,width=0.4,color="grey60", fillcolor="#E0E0E0", style="filled",tooltip=" "];
  Node1 -> Node7 [color="steelblue1",style="solid"];
  Node7 [label="../blockmodel/graph\l_blockmodel_util.hh",height=0.2,width=0.4,color="grey40", fillcolor="white", style="filled",URL="$graph__blockmodel__util_8hh.html",tooltip=" "];
  Node7 -> Node2 [color="steelblue1",style="solid"];
  Node7 -> Node8 [color="steelblue1",style="solid"];
  Node8 [label="graph_blockmodel_entropy.hh",height=0.2,width=0.4,color="grey40", fillcolor="white", style="filled",URL="$graph__blockmodel__entropy_8hh.html",tooltip=" "];
  Node8 -> Node9 [color="steelblue1",style="solid"];
  Node9 [label="../support/util.hh",height=0.2,width=0.4,color="red", fillcolor="#FFF0F0", style="filled",URL="$util_8hh.html",tooltip=" "];
  Node9 -> Node2 [color="steelblue1",style="solid"];
  Node7 -> Node12 [color="steelblue1",style="solid"];
  Node12 [label="graph_blockmodel_partition.hh",height=0.2,width=0.4,color="grey40", fillcolor="white", style="filled",URL="$graph__blockmodel__partition_8hh.html",tooltip=" "];
  Node12 -> Node9 [color="steelblue1",style="solid"];
  Node12 -> Node13 [color="steelblue1",style="solid"];
  Node13 [label="../support/int_part.hh",height=0.2,width=0.4,color="grey40", fillcolor="white", style="filled",URL="$int__part_8hh.html",tooltip=" "];
  Node13 -> Node2 [color="steelblue1",style="solid"];
  Node13 -> Node14 [color="steelblue1",style="solid"];
  Node14 [label="boost/multi_array.hpp",height=0.2,width=0.4,color="grey60", fillcolor="#E0E0E0", style="filled",tooltip=" "];
  Node12 -> Node15 [color="steelblue1",style="solid"];
  Node15 [label="hash_map_wrap.hh",height=0.2,width=0.4,color="red", fillcolor="#FFF0F0", style="filled",URL="$hash__map__wrap_8hh.html",tooltip=" "];
  Node15 -> Node2 [color="steelblue1",style="solid"];
  Node15 -> Node3 [color="steelblue1",style="solid"];
  Node15 -> Node5 [color="steelblue1",style="solid"];
  Node15 -> Node6 [color="steelblue1",style="solid"];
  Node15 -> Node19 [color="steelblue1",style="solid"];
  Node19 [label="graph_adjacency.hh",height=0.2,width=0.4,color="red", fillcolor="#FFF0F0", style="filled",URL="$graph__adjacency_8hh.html",tooltip=" "];
  Node19 -> Node3 [color="steelblue1",style="solid"];
  Node19 -> Node5 [color="steelblue1",style="solid"];
  Node19 -> Node22 [color="steelblue1",style="solid"];
  Node22 [label="boost/graph/graph_traits.hpp",height=0.2,width=0.4,color="grey60", fillcolor="#E0E0E0", style="filled",tooltip=" "];
  Node12 -> Node30 [color="steelblue1",style="solid"];
  Node30 [label="boost/range/counting\l_range.hpp",height=0.2,width=0.4,color="grey60", fillcolor="#E0E0E0", style="filled",tooltip=" "];
  Node7 -> Node31 [color="steelblue1",style="solid"];
  Node31 [label="graph_blockmodel_entries.hh",height=0.2,width=0.4,color="grey40", fillcolor="white", style="filled",URL="$graph__blockmodel__entries_8hh.html",tooltip=" "];
  Node31 -> Node32 [color="steelblue1",style="solid"];
  Node32 [label="graph_blockmodel_weights.hh",height=0.2,width=0.4,color="grey40", fillcolor="white", style="filled",URL="$graph__blockmodel__weights_8hh.html",tooltip=" "];
  Node7 -> Node33 [color="steelblue1",style="solid"];
  Node33 [label="graph_blockmodel_emat.hh",height=0.2,width=0.4,color="grey40", fillcolor="white", style="filled",URL="$graph__blockmodel__emat_8hh.html",tooltip=" "];
  Node33 -> Node14 [color="steelblue1",style="solid"];
  Node33 -> Node15 [color="steelblue1",style="solid"];
  Node7 -> Node34 [color="steelblue1",style="solid"];
  Node34 [label="graph_blockmodel_elist.hh",height=0.2,width=0.4,color="grey40", fillcolor="white", style="filled",URL="$graph__blockmodel__elist_8hh.html",tooltip=" "];
  Node34 -> Node35 [color="steelblue1",style="solid"];
  Node35 [label="../../generation/sampler.hh",height=0.2,width=0.4,color="red", fillcolor="#FFF0F0", style="filled",URL="$sampler_8hh.html",tooltip=" "];
  Node34 -> Node39 [color="steelblue1",style="solid"];
  Node39 [label="../../generation/dynamic\l_sampler.hh",height=0.2,width=0.4,color="red", fillcolor="#FFF0F0", style="filled",URL="$dynamic__sampler_8hh.html",tooltip=" "];
  Node7 -> Node32 [color="steelblue1",style="solid"];
  Node1 -> Node40 [color="steelblue1",style="solid"];
  Node40 [label="../support/graph_state.hh",height=0.2,width=0.4,color="grey40", fillcolor="white", style="filled",URL="$graph__state_8hh.html",tooltip=" "];
  Node40 -> Node41 [color="steelblue1",style="solid"];
  Node41 [label="boost/python.hpp",height=0.2,width=0.4,color="grey60", fillcolor="#E0E0E0", style="filled",tooltip=" "];
  Node40 -> Node42 [color="steelblue1",style="solid"];
  Node42 [label="boost/preprocessor\l/comparison/equal.hpp",height=0.2,width=0.4,color="grey60", fillcolor="#E0E0E0", style="filled",tooltip=" "];
  Node40 -> Node43 [color="steelblue1",style="solid"];
  Node43 [label="boost/preprocessor\l/cat.hpp",height=0.2,width=0.4,color="grey60", fillcolor="#E0E0E0", style="filled",tooltip=" "];
  Node40 -> Node44 [color="steelblue1",style="solid"];
  Node44 [label="boost/preprocessor\l/seq/size.hpp",height=0.2,width=0.4,color="grey60", fillcolor="#E0E0E0", style="filled",tooltip=" "];
  Node40 -> Node45 [color="steelblue1",style="solid"];
  Node45 [label="boost/preprocessor\l/seq/for_each_i.hpp",height=0.2,width=0.4,color="grey60", fillcolor="#E0E0E0", style="filled",tooltip=" "];
  Node40 -> Node46 [color="steelblue1",style="solid"];
  Node46 [label="boost/preprocessor\l/stringize.hpp",height=0.2,width=0.4,color="grey60", fillcolor="#E0E0E0", style="filled",tooltip=" "];
  Node40 -> Node47 [color="steelblue1",style="solid"];
  Node47 [label="boost/preprocessor\l/tuple/elem.hpp",height=0.2,width=0.4,color="grey60", fillcolor="#E0E0E0", style="filled",tooltip=" "];
  Node40 -> Node48 [color="steelblue1",style="solid"];
  Node48 [label="boost/preprocessor\l/arithmetic/dec.hpp",height=0.2,width=0.4,color="grey60", fillcolor="#E0E0E0", style="filled",tooltip=" "];
  Node40 -> Node49 [color="steelblue1",style="solid"];
  Node49 [label="boost/preprocessor\l/seq/transform.hpp",height=0.2,width=0.4,color="grey60", fillcolor="#E0E0E0", style="filled",tooltip=" "];
  Node40 -> Node50 [color="steelblue1",style="solid"];
  Node50 [label="boost/preprocessor\l/seq/filter.hpp",height=0.2,width=0.4,color="grey60", fillcolor="#E0E0E0", style="filled",tooltip=" "];
  Node40 -> Node51 [color="steelblue1",style="solid"];
  Node51 [label="boost/preprocessor\l/seq/first_n.hpp",height=0.2,width=0.4,color="grey60", fillcolor="#E0E0E0", style="filled",tooltip=" "];
  Node40 -> Node52 [color="steelblue1",style="solid"];
  Node52 [label="graph.hh",height=0.2,width=0.4,color="grey40", fillcolor="white", style="filled",URL="$graph_8hh.html",tooltip=" "];
  Node52 -> Node2 [color="steelblue1",style="solid"];
  Node52 -> Node28 [color="steelblue1",style="solid"];
  Node28 [label="iterator",height=0.2,width=0.4,color="grey60", fillcolor="#E0E0E0", style="filled",tooltip=" "];
  Node52 -> Node53 [color="steelblue1",style="solid"];
  Node53 [label="boost/python/object.hpp",height=0.2,width=0.4,color="grey60", fillcolor="#E0E0E0", style="filled",tooltip=" "];
  Node52 -> Node54 [color="steelblue1",style="solid"];
  Node54 [label="boost/python/list.hpp",height=0.2,width=0.4,color="grey60", fillcolor="#E0E0E0", style="filled",tooltip=" "];
  Node52 -> Node55 [color="steelblue1",style="solid"];
  Node55 [label="boost/python/tuple.hpp",height=0.2,width=0.4,color="grey60", fillcolor="#E0E0E0", style="filled",tooltip=" "];
  Node52 -> Node56 [color="steelblue1",style="solid"];
  Node56 [label="boost/any.hpp",height=0.2,width=0.4,color="grey60", fillcolor="#E0E0E0", style="filled",tooltip=" "];
  Node52 -> Node19 [color="steelblue1",style="solid"];
  Node52 -> Node22 [color="steelblue1",style="solid"];
  Node52 -> Node57 [color="steelblue1",style="solid"];
  Node57 [label="fast_vector_property\l_map.hh",height=0.2,width=0.4,color="red", fillcolor="#FFF0F0", style="filled",URL="$fast__vector__property__map_8hh.html",tooltip=" "];
  Node57 -> Node58 [color="steelblue1",style="solid"];
  Node58 [label="memory",height=0.2,width=0.4,color="grey60", fillcolor="#E0E0E0", style="filled",tooltip=" "];
  Node57 -> Node3 [color="steelblue1",style="solid"];
  Node52 -> Node59 [color="steelblue1",style="solid"];
  Node59 [label="boost/variant.hpp",height=0.2,width=0.4,color="grey60", fillcolor="#E0E0E0", style="filled",tooltip=" "];
  Node52 -> Node60 [color="steelblue1",style="solid"];
  Node60 [label="boost/mpl/bool_fwd.hpp",height=0.2,width=0.4,color="grey60", fillcolor="#E0E0E0", style="filled",tooltip=" "];
  Node52 -> Node61 [color="steelblue1",style="solid"];
  Node61 [label="graph_properties.hh",height=0.2,width=0.4,color="red", fillcolor="#FFF0F0", style="filled",URL="$graph__properties_8hh.html",tooltip=" "];
  Node61 -> Node3 [color="steelblue1",style="solid"];
  Node61 -> Node53 [color="steelblue1",style="solid"];
  Node61 -> Node57 [color="steelblue1",style="solid"];
  Node40 -> Node72 [color="steelblue1",style="solid"];
  Node72 [label="graph_selectors.hh",height=0.2,width=0.4,color="red", fillcolor="#FFF0F0", style="filled",URL="$graph__selectors_8hh.html",tooltip=" "];
  Node72 -> Node5 [color="steelblue1",style="solid"];
  Node72 -> Node73 [color="steelblue1",style="solid"];
  Node73 [label="type_traits",height=0.2,width=0.4,color="grey60", fillcolor="#E0E0E0", style="filled",tooltip=" "];
  Node72 -> Node56 [color="steelblue1",style="solid"];
  Node72 -> Node22 [color="steelblue1",style="solid"];
  Node72 -> Node61 [color="steelblue1",style="solid"];
  Node72 -> Node52 [color="steelblue1",style="solid"];
  Node40 -> Node61 [color="steelblue1",style="solid"];
  Node40 -> Node79 [color="steelblue1",style="solid"];
  Node79 [label="graph_filtering.hh",height=0.2,width=0.4,color="red", fillcolor="#FFF0F0", style="filled",URL="$graph__filtering_8hh.html",tooltip=" "];
  Node79 -> Node52 [color="steelblue1",style="solid"];
  Node79 -> Node22 [color="steelblue1",style="solid"];
  Node79 -> Node90 [color="steelblue1",style="solid"];
  Node90 [label="graph_util.hh",height=0.2,width=0.4,color="red", fillcolor="#FFF0F0", style="filled",URL="$graph__util_8hh.html",tooltip=" "];
  Node90 -> Node22 [color="steelblue1",style="solid"];
  Node90 -> Node72 [color="steelblue1",style="solid"];
  Node79 -> Node73 [color="steelblue1",style="solid"];
  Node40 -> Node90 [color="steelblue1",style="solid"];
  Node40 -> Node96 [color="steelblue1",style="solid"];
  Node96 [label="numpy_bind.hh",height=0.2,width=0.4,color="red", fillcolor="#FFF0F0", style="filled",URL="$numpy__bind_8hh.html",tooltip=" "];
  Node96 -> Node3 [color="steelblue1",style="solid"];
  Node96 -> Node41 [color="steelblue1",style="solid"];
  Node96 -> Node14 [color="steelblue1",style="solid"];
  Node40 -> Node2 [color="steelblue1",style="solid"];
  Node40 -> Node58 [color="steelblue1",style="solid"];
}
