digraph "vector_map"
{
 // LATEX_PDF_SIZE
  bgcolor="transparent";
  edge [fontname=Helvetica,fontsize=10,labelfontname=Helvetica,labelfontsize=10];
  node [fontname=Helvetica,fontsize=10,shape=box,height=0.2,width=0.4];
  rankdir="RL";
  Node1 [label="vector_map",height=0.2,width=0.4,color="gray40", fillcolor="grey60", style="filled", fontcolor="black",tooltip=" "];
  Node1 -> Node2 [dir="back",color="steelblue1",style="solid"];
  Node2 [label="graph_tool::do_group\l_vector_property::dispatch\l_descriptor",height=0.2,width=0.4,color="grey40", fillcolor="white", style="filled",URL="$structgraph__tool_1_1do__group__vector__property.html#aba270f1877314444183f9096bb90cec4",tooltip=" "];
  Node2 -> Node3 [dir="back",color="steelblue1",style="solid"];
  Node3 [label="graph_tool::do_group\l_vector_property::operator()",height=0.2,width=0.4,color="grey40", fillcolor="white", style="filled",URL="$structgraph__tool_1_1do__group__vector__property.html#a969b1050fc11eb17f93a27c877a21965",tooltip=" "];
  Node1 -> Node4 [dir="back",color="steelblue1",style="solid"];
  Node4 [label="graph_tool::do_group\l_vector_property::group\l_or_ungroup",height=0.2,width=0.4,color="grey40", fillcolor="white", style="filled",URL="$structgraph__tool_1_1do__group__vector__property.html#a2470ca6c043c18b76e42a244cdaa7e2a",tooltip=" "];
  Node4 -> Node2 [dir="back",color="steelblue1",style="solid"];
  Node1 -> Node3 [dir="back",color="steelblue1",style="solid"];
  Node1 -> Node5 [dir="back",color="steelblue1",style="solid"];
  Node5 [label="check_value_type::operator()",height=0.2,width=0.4,color="grey40", fillcolor="white", style="filled",URL="$structcheck__value__type.html#a84ef0ca3930cea1c56f2d7c3d65c2dcc",tooltip=" "];
}
