digraph "export_latent_closure_state"
{
 // LATEX_PDF_SIZE
  bgcolor="transparent";
  edge [fontname=Helvetica,fontsize=10,labelfontname=Helvetica,labelfontsize=10];
  node [fontname=Helvetica,fontsize=10,shape=box,height=0.2,width=0.4];
  rankdir="LR";
  Node1 [label="export_latent_closure\l_state",height=0.2,width=0.4,color="gray40", fillcolor="grey60", style="filled", fontcolor="black",tooltip=" "];
  Node1 -> Node2 [color="steelblue1",style="solid"];
  Node2 [label="make_latent_closure\l_state",height=0.2,width=0.4,color="grey40", fillcolor="white", style="filled",URL="$graph__blockmodel__latent__closure_8cc.html#a9dedfbd057e81b5615f8000075109875",tooltip=" "];
  Node1 -> Node3 [color="steelblue1",style="solid"];
  Node3 [label="name_demangle",height=0.2,width=0.4,color="grey40", fillcolor="white", style="filled",URL="$demangle_8cc.html#a1ae3cdbca103f0ab9f6fe6a9cd40b3e0",tooltip=" "];
}
