digraph "uncheck"
{
 // LATEX_PDF_SIZE
  bgcolor="transparent";
  edge [fontname=Helvetica,fontsize=10,labelfontname=Helvetica,labelfontsize=10];
  node [fontname=Helvetica,fontsize=10,shape=box,height=0.2,width=0.4];
  rankdir="RL";
  Node1 [label="uncheck",height=0.2,width=0.4,color="gray40", fillcolor="grey60", style="filled", fontcolor="black",tooltip=" "];
  Node1 -> Node2 [dir="back",color="steelblue1",style="solid"];
  Node2 [label="similarity_fast",height=0.2,width=0.4,color="grey40", fillcolor="white", style="filled",URL="$graph__similarity__imp_8cc.html#acafb7a533fb2815b5acffa56c81e6b35",tooltip=" "];
  Node2 -> Node3 [dir="back",color="steelblue1",style="solid"];
  Node3 [label="export_similarity",height=0.2,width=0.4,color="grey40", fillcolor="white", style="filled",URL="$graph__similarity_8cc.html#a24c52b4fb062fd30a5af1a3e0b214086",tooltip=" "];
  Node3 -> Node4 [dir="back",color="steelblue1",style="solid"];
  Node4 [label="BOOST_PYTHON_MODULE",height=0.2,width=0.4,color="grey40", fillcolor="white", style="filled",URL="$graph__topology_8cc.html#a1f8068349bfdbea49136a3447b5239ac",tooltip=" "];
}
