digraph "/home/man/Documents/graph-tool-cmake/src/graph/spectral/graph_laplacian.hh"
{
 // LATEX_PDF_SIZE
  bgcolor="transparent";
  edge [fontname=Helvetica,fontsize=10,labelfontname=Helvetica,labelfontsize=10];
  node [fontname=Helvetica,fontsize=10,shape=box,height=0.2,width=0.4];
  Node1 [label="/home/man/Documents\l/graph-tool-cmake/src\l/graph/spectral/graph\l_laplacian.hh",height=0.2,width=0.4,color="gray40", fillcolor="grey60", style="filled", fontcolor="black",tooltip=" "];
  Node1 -> Node2 [dir="back",color="steelblue1",style="solid"];
  Node2 [label="/home/man/Documents\l/graph-tool-cmake/src\l/graph/spectral/graph\l_laplacian.cc",height=0.2,width=0.4,color="grey40", fillcolor="white", style="filled",URL="$graph__laplacian_8cc.html",tooltip=" "];
  Node1 -> Node3 [dir="back",color="steelblue1",style="solid"];
  Node3 [label="/home/man/Documents\l/graph-tool-cmake/src\l/graph/spectral/graph\l_norm_laplacian.cc",height=0.2,width=0.4,color="grey40", fillcolor="white", style="filled",URL="$graph__norm__laplacian_8cc.html",tooltip=" "];
}
