digraph "get_source"
{
 // LATEX_PDF_SIZE
  bgcolor="transparent";
  edge [fontname=Helvetica,fontsize=10,labelfontname=Helvetica,labelfontsize=10];
  node [fontname=Helvetica,fontsize=10,shape=box,height=0.2,width=0.4];
  rankdir="RL";
  Node1 [label="get_source",height=0.2,width=0.4,color="gray40", fillcolor="grey60", style="filled", fontcolor="black",tooltip=" "];
  Node1 -> Node2 [dir="back",color="steelblue1",style="solid"];
  Node2 [label="get_be_from_b_overlap",height=0.2,width=0.4,color="grey40", fillcolor="white", style="filled",URL="$graph__blockmodel__overlap_8cc.html#a349594ab58a2154563182637bb230935",tooltip=" "];
  Node2 -> Node3 [dir="back",color="steelblue1",style="solid"];
  Node3 [label="export_overlap_blockmodel\l_state",height=0.2,width=0.4,color="grey40", fillcolor="white", style="filled",URL="$graph__blockmodel__overlap_8cc.html#ad0aeab8cb05608c82cb71eccc0ae8c99",tooltip=" "];
  Node3 -> Node4 [dir="back",color="steelblue1",style="solid"];
  Node4 [label="BOOST_PYTHON_MODULE",height=0.2,width=0.4,color="grey40", fillcolor="white", style="filled",URL="$graph__inference_8cc.html#aa52d8fe13d2a62317b6e603933a10b92",tooltip=" "];
  Node1 -> Node5 [dir="back",color="steelblue1",style="solid"];
  Node5 [label="get_eg_overlap",height=0.2,width=0.4,color="grey40", fillcolor="white", style="filled",URL="$graph__blockmodel__overlap_8cc.html#a79e6e61f4a3378fe97619a1ad75f1758",tooltip=" "];
  Node5 -> Node3 [dir="back",color="steelblue1",style="solid"];
  Node1 -> Node6 [dir="back",color="steelblue1",style="solid"];
  Node6 [label="get_nodeset_overlap",height=0.2,width=0.4,color="grey40", fillcolor="white", style="filled",URL="$graph__blockmodel__overlap_8cc.html#afd4b4018a24c6c3fdb4b9a84e2ecfba2",tooltip=" "];
  Node1 -> Node7 [dir="back",color="steelblue1",style="solid"];
  Node7 [label="get_nodeset_overlap\l::operator()",height=0.2,width=0.4,color="grey40", fillcolor="white", style="filled",URL="$structget__nodeset__overlap.html#a7a4da62d0eca3844b57e3c57c14e176d",tooltip=" "];
}
