digraph "/home/man/Documents/graph-tool-cmake/src/graph/inference/planted_partition/graph_planted_partition.hh"
{
 // LATEX_PDF_SIZE
  bgcolor="transparent";
  edge [fontname=Helvetica,fontsize=10,labelfontname=Helvetica,labelfontsize=10];
  node [fontname=Helvetica,fontsize=10,shape=box,height=0.2,width=0.4];
  Node1 [label="/home/man/Documents\l/graph-tool-cmake/src\l/graph/inference/planted\l_partition/graph_planted\l_partition.hh",height=0.2,width=0.4,color="gray40", fillcolor="grey60", style="filled", fontcolor="black",tooltip=" "];
  Node1 -> Node2 [color="steelblue1",style="solid"];
  Node2 [label="config.h",height=0.2,width=0.4,color="grey60", fillcolor="#E0E0E0", style="filled",tooltip=" "];
  Node1 -> Node3 [color="steelblue1",style="solid"];
  Node3 [label="vector",height=0.2,width=0.4,color="grey60", fillcolor="#E0E0E0", style="filled",tooltip=" "];
  Node1 -> Node4 [color="steelblue1",style="solid"];
  Node4 [label="../blockmodel/graph\l_blockmodel_util.hh",height=0.2,width=0.4,color="grey40", fillcolor="white", style="filled",URL="$graph__blockmodel__util_8hh.html",tooltip=" "];
  Node4 -> Node2 [color="steelblue1",style="solid"];
  Node4 -> Node5 [color="steelblue1",style="solid"];
  Node5 [label="graph_blockmodel_entropy.hh",height=0.2,width=0.4,color="grey40", fillcolor="white", style="filled",URL="$graph__blockmodel__entropy_8hh.html",tooltip=" "];
  Node5 -> Node6 [color="steelblue1",style="solid"];
  Node6 [label="../support/util.hh",height=0.2,width=0.4,color="red", fillcolor="#FFF0F0", style="filled",URL="$util_8hh.html",tooltip=" "];
  Node6 -> Node2 [color="steelblue1",style="solid"];
  Node4 -> Node9 [color="steelblue1",style="solid"];
  Node9 [label="graph_blockmodel_partition.hh",height=0.2,width=0.4,color="grey40", fillcolor="white", style="filled",URL="$graph__blockmodel__partition_8hh.html",tooltip=" "];
  Node9 -> Node6 [color="steelblue1",style="solid"];
  Node9 -> Node10 [color="steelblue1",style="solid"];
  Node10 [label="../support/int_part.hh",height=0.2,width=0.4,color="grey40", fillcolor="white", style="filled",URL="$int__part_8hh.html",tooltip=" "];
  Node10 -> Node2 [color="steelblue1",style="solid"];
  Node10 -> Node11 [color="steelblue1",style="solid"];
  Node11 [label="boost/multi_array.hpp",height=0.2,width=0.4,color="grey60", fillcolor="#E0E0E0", style="filled",tooltip=" "];
  Node9 -> Node12 [color="steelblue1",style="solid"];
  Node12 [label="hash_map_wrap.hh",height=0.2,width=0.4,color="red", fillcolor="#FFF0F0", style="filled",URL="$hash__map__wrap_8hh.html",tooltip=" "];
  Node12 -> Node2 [color="steelblue1",style="solid"];
  Node12 -> Node3 [color="steelblue1",style="solid"];
  Node12 -> Node16 [color="steelblue1",style="solid"];
  Node16 [label="utility",height=0.2,width=0.4,color="grey60", fillcolor="#E0E0E0", style="filled",tooltip=" "];
  Node12 -> Node17 [color="steelblue1",style="solid"];
  Node17 [label="limits",height=0.2,width=0.4,color="grey60", fillcolor="#E0E0E0", style="filled",tooltip=" "];
  Node12 -> Node18 [color="steelblue1",style="solid"];
  Node18 [label="graph_adjacency.hh",height=0.2,width=0.4,color="red", fillcolor="#FFF0F0", style="filled",URL="$graph__adjacency_8hh.html",tooltip=" "];
  Node18 -> Node3 [color="steelblue1",style="solid"];
  Node18 -> Node16 [color="steelblue1",style="solid"];
  Node18 -> Node21 [color="steelblue1",style="solid"];
  Node21 [label="boost/graph/graph_traits.hpp",height=0.2,width=0.4,color="grey60", fillcolor="#E0E0E0", style="filled",tooltip=" "];
  Node9 -> Node29 [color="steelblue1",style="solid"];
  Node29 [label="boost/range/counting\l_range.hpp",height=0.2,width=0.4,color="grey60", fillcolor="#E0E0E0", style="filled",tooltip=" "];
  Node4 -> Node30 [color="steelblue1",style="solid"];
  Node30 [label="graph_blockmodel_entries.hh",height=0.2,width=0.4,color="grey40", fillcolor="white", style="filled",URL="$graph__blockmodel__entries_8hh.html",tooltip=" "];
  Node30 -> Node31 [color="steelblue1",style="solid"];
  Node31 [label="graph_blockmodel_weights.hh",height=0.2,width=0.4,color="grey40", fillcolor="white", style="filled",URL="$graph__blockmodel__weights_8hh.html",tooltip=" "];
  Node4 -> Node32 [color="steelblue1",style="solid"];
  Node32 [label="graph_blockmodel_emat.hh",height=0.2,width=0.4,color="grey40", fillcolor="white", style="filled",URL="$graph__blockmodel__emat_8hh.html",tooltip=" "];
  Node32 -> Node11 [color="steelblue1",style="solid"];
  Node32 -> Node12 [color="steelblue1",style="solid"];
  Node4 -> Node33 [color="steelblue1",style="solid"];
  Node33 [label="graph_blockmodel_elist.hh",height=0.2,width=0.4,color="grey40", fillcolor="white", style="filled",URL="$graph__blockmodel__elist_8hh.html",tooltip=" "];
  Node33 -> Node34 [color="steelblue1",style="solid"];
  Node34 [label="../../generation/sampler.hh",height=0.2,width=0.4,color="red", fillcolor="#FFF0F0", style="filled",URL="$sampler_8hh.html",tooltip=" "];
  Node33 -> Node38 [color="steelblue1",style="solid"];
  Node38 [label="../../generation/dynamic\l_sampler.hh",height=0.2,width=0.4,color="red", fillcolor="#FFF0F0", style="filled",URL="$dynamic__sampler_8hh.html",tooltip=" "];
  Node4 -> Node31 [color="steelblue1",style="solid"];
  Node1 -> Node39 [color="steelblue1",style="solid"];
  Node39 [label="../support/graph_state.hh",height=0.2,width=0.4,color="grey40", fillcolor="white", style="filled",URL="$graph__state_8hh.html",tooltip=" "];
  Node39 -> Node40 [color="steelblue1",style="solid"];
  Node40 [label="boost/python.hpp",height=0.2,width=0.4,color="grey60", fillcolor="#E0E0E0", style="filled",tooltip=" "];
  Node39 -> Node41 [color="steelblue1",style="solid"];
  Node41 [label="boost/preprocessor\l/comparison/equal.hpp",height=0.2,width=0.4,color="grey60", fillcolor="#E0E0E0", style="filled",tooltip=" "];
  Node39 -> Node42 [color="steelblue1",style="solid"];
  Node42 [label="boost/preprocessor\l/cat.hpp",height=0.2,width=0.4,color="grey60", fillcolor="#E0E0E0", style="filled",tooltip=" "];
  Node39 -> Node43 [color="steelblue1",style="solid"];
  Node43 [label="boost/preprocessor\l/seq/size.hpp",height=0.2,width=0.4,color="grey60", fillcolor="#E0E0E0", style="filled",tooltip=" "];
  Node39 -> Node44 [color="steelblue1",style="solid"];
  Node44 [label="boost/preprocessor\l/seq/for_each_i.hpp",height=0.2,width=0.4,color="grey60", fillcolor="#E0E0E0", style="filled",tooltip=" "];
  Node39 -> Node45 [color="steelblue1",style="solid"];
  Node45 [label="boost/preprocessor\l/stringize.hpp",height=0.2,width=0.4,color="grey60", fillcolor="#E0E0E0", style="filled",tooltip=" "];
  Node39 -> Node46 [color="steelblue1",style="solid"];
  Node46 [label="boost/preprocessor\l/tuple/elem.hpp",height=0.2,width=0.4,color="grey60", fillcolor="#E0E0E0", style="filled",tooltip=" "];
  Node39 -> Node47 [color="steelblue1",style="solid"];
  Node47 [label="boost/preprocessor\l/arithmetic/dec.hpp",height=0.2,width=0.4,color="grey60", fillcolor="#E0E0E0", style="filled",tooltip=" "];
  Node39 -> Node48 [color="steelblue1",style="solid"];
  Node48 [label="boost/preprocessor\l/seq/transform.hpp",height=0.2,width=0.4,color="grey60", fillcolor="#E0E0E0", style="filled",tooltip=" "];
  Node39 -> Node49 [color="steelblue1",style="solid"];
  Node49 [label="boost/preprocessor\l/seq/filter.hpp",height=0.2,width=0.4,color="grey60", fillcolor="#E0E0E0", style="filled",tooltip=" "];
  Node39 -> Node50 [color="steelblue1",style="solid"];
  Node50 [label="boost/preprocessor\l/seq/first_n.hpp",height=0.2,width=0.4,color="grey60", fillcolor="#E0E0E0", style="filled",tooltip=" "];
  Node39 -> Node51 [color="steelblue1",style="solid"];
  Node51 [label="graph.hh",height=0.2,width=0.4,color="grey40", fillcolor="white", style="filled",URL="$graph_8hh.html",tooltip=" "];
  Node51 -> Node2 [color="steelblue1",style="solid"];
  Node51 -> Node27 [color="steelblue1",style="solid"];
  Node27 [label="iterator",height=0.2,width=0.4,color="grey60", fillcolor="#E0E0E0", style="filled",tooltip=" "];
  Node51 -> Node52 [color="steelblue1",style="solid"];
  Node52 [label="boost/python/object.hpp",height=0.2,width=0.4,color="grey60", fillcolor="#E0E0E0", style="filled",tooltip=" "];
  Node51 -> Node53 [color="steelblue1",style="solid"];
  Node53 [label="boost/python/list.hpp",height=0.2,width=0.4,color="grey60", fillcolor="#E0E0E0", style="filled",tooltip=" "];
  Node51 -> Node54 [color="steelblue1",style="solid"];
  Node54 [label="boost/python/tuple.hpp",height=0.2,width=0.4,color="grey60", fillcolor="#E0E0E0", style="filled",tooltip=" "];
  Node51 -> Node55 [color="steelblue1",style="solid"];
  Node55 [label="boost/any.hpp",height=0.2,width=0.4,color="grey60", fillcolor="#E0E0E0", style="filled",tooltip=" "];
  Node51 -> Node18 [color="steelblue1",style="solid"];
  Node51 -> Node21 [color="steelblue1",style="solid"];
  Node51 -> Node56 [color="steelblue1",style="solid"];
  Node56 [label="fast_vector_property\l_map.hh",height=0.2,width=0.4,color="red", fillcolor="#FFF0F0", style="filled",URL="$fast__vector__property__map_8hh.html",tooltip=" "];
  Node56 -> Node57 [color="steelblue1",style="solid"];
  Node57 [label="memory",height=0.2,width=0.4,color="grey60", fillcolor="#E0E0E0", style="filled",tooltip=" "];
  Node56 -> Node3 [color="steelblue1",style="solid"];
  Node51 -> Node58 [color="steelblue1",style="solid"];
  Node58 [label="boost/variant.hpp",height=0.2,width=0.4,color="grey60", fillcolor="#E0E0E0", style="filled",tooltip=" "];
  Node51 -> Node59 [color="steelblue1",style="solid"];
  Node59 [label="boost/mpl/bool_fwd.hpp",height=0.2,width=0.4,color="grey60", fillcolor="#E0E0E0", style="filled",tooltip=" "];
  Node51 -> Node60 [color="steelblue1",style="solid"];
  Node60 [label="graph_properties.hh",height=0.2,width=0.4,color="red", fillcolor="#FFF0F0", style="filled",URL="$graph__properties_8hh.html",tooltip=" "];
  Node60 -> Node3 [color="steelblue1",style="solid"];
  Node60 -> Node52 [color="steelblue1",style="solid"];
  Node60 -> Node56 [color="steelblue1",style="solid"];
  Node39 -> Node71 [color="steelblue1",style="solid"];
  Node71 [label="graph_selectors.hh",height=0.2,width=0.4,color="red", fillcolor="#FFF0F0", style="filled",URL="$graph__selectors_8hh.html",tooltip=" "];
  Node71 -> Node16 [color="steelblue1",style="solid"];
  Node71 -> Node72 [color="steelblue1",style="solid"];
  Node72 [label="type_traits",height=0.2,width=0.4,color="grey60", fillcolor="#E0E0E0", style="filled",tooltip=" "];
  Node71 -> Node55 [color="steelblue1",style="solid"];
  Node71 -> Node21 [color="steelblue1",style="solid"];
  Node71 -> Node60 [color="steelblue1",style="solid"];
  Node71 -> Node51 [color="steelblue1",style="solid"];
  Node39 -> Node60 [color="steelblue1",style="solid"];
  Node39 -> Node78 [color="steelblue1",style="solid"];
  Node78 [label="graph_filtering.hh",height=0.2,width=0.4,color="red", fillcolor="#FFF0F0", style="filled",URL="$graph__filtering_8hh.html",tooltip=" "];
  Node78 -> Node51 [color="steelblue1",style="solid"];
  Node78 -> Node21 [color="steelblue1",style="solid"];
  Node78 -> Node89 [color="steelblue1",style="solid"];
  Node89 [label="graph_util.hh",height=0.2,width=0.4,color="red", fillcolor="#FFF0F0", style="filled",URL="$graph__util_8hh.html",tooltip=" "];
  Node89 -> Node21 [color="steelblue1",style="solid"];
  Node89 -> Node71 [color="steelblue1",style="solid"];
  Node78 -> Node72 [color="steelblue1",style="solid"];
  Node39 -> Node89 [color="steelblue1",style="solid"];
  Node39 -> Node95 [color="steelblue1",style="solid"];
  Node95 [label="numpy_bind.hh",height=0.2,width=0.4,color="red", fillcolor="#FFF0F0", style="filled",URL="$numpy__bind_8hh.html",tooltip=" "];
  Node95 -> Node3 [color="steelblue1",style="solid"];
  Node95 -> Node40 [color="steelblue1",style="solid"];
  Node95 -> Node11 [color="steelblue1",style="solid"];
  Node39 -> Node2 [color="steelblue1",style="solid"];
  Node39 -> Node57 [color="steelblue1",style="solid"];
  Node1 -> Node100 [color="steelblue1",style="solid"];
  Node100 [label="idx_map.hh",height=0.2,width=0.4,color="grey40", fillcolor="white", style="filled",URL="$idx__map_8hh.html",tooltip=" "];
  Node100 -> Node3 [color="steelblue1",style="solid"];
  Node100 -> Node16 [color="steelblue1",style="solid"];
  Node100 -> Node17 [color="steelblue1",style="solid"];
}
