digraph "/home/man/Documents/graph-tool-cmake/src/graph/layout/graph_sfdp.cc"
{
 // LATEX_PDF_SIZE
  bgcolor="transparent";
  edge [fontname=Helvetica,fontsize=10,labelfontname=Helvetica,labelfontsize=10];
  node [fontname=Helvetica,fontsize=10,shape=box,height=0.2,width=0.4];
  Node1 [label="/home/man/Documents\l/graph-tool-cmake/src\l/graph/layout/graph_sfdp.cc",height=0.2,width=0.4,color="gray40", fillcolor="grey60", style="filled", fontcolor="black",tooltip=" "];
  Node1 -> Node2 [color="steelblue1",style="solid"];
  Node2 [label="graph_filtering.hh",height=0.2,width=0.4,color="grey40", fillcolor="white", style="filled",URL="$graph__filtering_8hh.html",tooltip=" "];
  Node2 -> Node3 [color="steelblue1",style="solid"];
  Node3 [label="graph.hh",height=0.2,width=0.4,color="grey40", fillcolor="white", style="filled",URL="$graph_8hh.html",tooltip=" "];
  Node3 -> Node4 [color="steelblue1",style="solid"];
  Node4 [label="config.h",height=0.2,width=0.4,color="grey60", fillcolor="#E0E0E0", style="filled",tooltip=" "];
  Node3 -> Node5 [color="steelblue1",style="solid"];
  Node5 [label="iterator",height=0.2,width=0.4,color="grey60", fillcolor="#E0E0E0", style="filled",tooltip=" "];
  Node3 -> Node6 [color="steelblue1",style="solid"];
  Node6 [label="boost/python/object.hpp",height=0.2,width=0.4,color="grey60", fillcolor="#E0E0E0", style="filled",tooltip=" "];
  Node3 -> Node7 [color="steelblue1",style="solid"];
  Node7 [label="boost/python/list.hpp",height=0.2,width=0.4,color="grey60", fillcolor="#E0E0E0", style="filled",tooltip=" "];
  Node3 -> Node8 [color="steelblue1",style="solid"];
  Node8 [label="boost/python/tuple.hpp",height=0.2,width=0.4,color="grey60", fillcolor="#E0E0E0", style="filled",tooltip=" "];
  Node3 -> Node9 [color="steelblue1",style="solid"];
  Node9 [label="boost/any.hpp",height=0.2,width=0.4,color="grey60", fillcolor="#E0E0E0", style="filled",tooltip=" "];
  Node3 -> Node10 [color="steelblue1",style="solid"];
  Node10 [label="graph_adjacency.hh",height=0.2,width=0.4,color="red", fillcolor="#FFF0F0", style="filled",URL="$graph__adjacency_8hh.html",tooltip=" "];
  Node10 -> Node11 [color="steelblue1",style="solid"];
  Node11 [label="vector",height=0.2,width=0.4,color="grey60", fillcolor="#E0E0E0", style="filled",tooltip=" "];
  Node10 -> Node15 [color="steelblue1",style="solid"];
  Node15 [label="boost/graph/graph_traits.hpp",height=0.2,width=0.4,color="grey60", fillcolor="#E0E0E0", style="filled",tooltip=" "];
  Node10 -> Node17 [color="steelblue1",style="solid"];
  Node17 [label="boost/property_map\l/property_map.hpp",height=0.2,width=0.4,color="grey60", fillcolor="#E0E0E0", style="filled",tooltip=" "];
  Node3 -> Node15 [color="steelblue1",style="solid"];
  Node3 -> Node22 [color="steelblue1",style="solid"];
  Node22 [label="fast_vector_property\l_map.hh",height=0.2,width=0.4,color="red", fillcolor="#FFF0F0", style="filled",URL="$fast__vector__property__map_8hh.html",tooltip=" "];
  Node22 -> Node17 [color="steelblue1",style="solid"];
  Node22 -> Node11 [color="steelblue1",style="solid"];
  Node3 -> Node24 [color="steelblue1",style="solid"];
  Node24 [label="boost/variant.hpp",height=0.2,width=0.4,color="grey60", fillcolor="#E0E0E0", style="filled",tooltip=" "];
  Node3 -> Node25 [color="steelblue1",style="solid"];
  Node25 [label="boost/mpl/bool_fwd.hpp",height=0.2,width=0.4,color="grey60", fillcolor="#E0E0E0", style="filled",tooltip=" "];
  Node3 -> Node26 [color="steelblue1",style="solid"];
  Node26 [label="graph_properties.hh",height=0.2,width=0.4,color="grey40", fillcolor="white", style="filled",URL="$graph__properties_8hh.html",tooltip=" "];
  Node26 -> Node27 [color="steelblue1",style="solid"];
  Node27 [label="string",height=0.2,width=0.4,color="grey60", fillcolor="#E0E0E0", style="filled",tooltip=" "];
  Node26 -> Node11 [color="steelblue1",style="solid"];
  Node26 -> Node28 [color="steelblue1",style="solid"];
  Node28 [label="unordered_map",height=0.2,width=0.4,color="grey60", fillcolor="#E0E0E0", style="filled",tooltip=" "];
  Node26 -> Node29 [color="steelblue1",style="solid"];
  Node29 [label="boost/functional/hash.hpp",height=0.2,width=0.4,color="grey60", fillcolor="#E0E0E0", style="filled",tooltip=" "];
  Node26 -> Node6 [color="steelblue1",style="solid"];
  Node26 -> Node30 [color="steelblue1",style="solid"];
  Node30 [label="boost/python/extract.hpp",height=0.2,width=0.4,color="grey60", fillcolor="#E0E0E0", style="filled",tooltip=" "];
  Node26 -> Node31 [color="steelblue1",style="solid"];
  Node31 [label="boost/lexical_cast.hpp",height=0.2,width=0.4,color="grey60", fillcolor="#E0E0E0", style="filled",tooltip=" "];
  Node26 -> Node17 [color="steelblue1",style="solid"];
  Node26 -> Node22 [color="steelblue1",style="solid"];
  Node26 -> Node32 [color="steelblue1",style="solid"];
  Node32 [label="boost/mpl/vector.hpp",height=0.2,width=0.4,color="grey60", fillcolor="#E0E0E0", style="filled",tooltip=" "];
  Node26 -> Node33 [color="steelblue1",style="solid"];
  Node33 [label="boost/mpl/for_each.hpp",height=0.2,width=0.4,color="grey60", fillcolor="#E0E0E0", style="filled",tooltip=" "];
  Node26 -> Node34 [color="steelblue1",style="solid"];
  Node34 [label="boost/mpl/transform.hpp",height=0.2,width=0.4,color="grey60", fillcolor="#E0E0E0", style="filled",tooltip=" "];
  Node26 -> Node35 [color="steelblue1",style="solid"];
  Node35 [label="boost/mpl/find.hpp",height=0.2,width=0.4,color="grey60", fillcolor="#E0E0E0", style="filled",tooltip=" "];
  Node26 -> Node36 [color="steelblue1",style="solid"];
  Node36 [label="boost/mpl/bind.hpp",height=0.2,width=0.4,color="grey60", fillcolor="#E0E0E0", style="filled",tooltip=" "];
  Node26 -> Node37 [color="steelblue1",style="solid"];
  Node37 [label="graph_exceptions.hh",height=0.2,width=0.4,color="grey40", fillcolor="white", style="filled",URL="$graph__exceptions_8hh.html",tooltip=" "];
  Node37 -> Node4 [color="steelblue1",style="solid"];
  Node37 -> Node27 [color="steelblue1",style="solid"];
  Node2 -> Node38 [color="steelblue1",style="solid"];
  Node38 [label="boost/version.hpp",height=0.2,width=0.4,color="grey60", fillcolor="#E0E0E0", style="filled",tooltip=" "];
  Node2 -> Node15 [color="steelblue1",style="solid"];
  Node2 -> Node32 [color="steelblue1",style="solid"];
  Node2 -> Node39 [color="steelblue1",style="solid"];
  Node39 [label="boost/mpl/if.hpp",height=0.2,width=0.4,color="grey60", fillcolor="#E0E0E0", style="filled",tooltip=" "];
  Node2 -> Node40 [color="steelblue1",style="solid"];
  Node40 [label="boost/mpl/logical.hpp",height=0.2,width=0.4,color="grey60", fillcolor="#E0E0E0", style="filled",tooltip=" "];
  Node2 -> Node41 [color="steelblue1",style="solid"];
  Node41 [label="boost/mpl/back_inserter.hpp",height=0.2,width=0.4,color="grey60", fillcolor="#E0E0E0", style="filled",tooltip=" "];
  Node2 -> Node42 [color="steelblue1",style="solid"];
  Node42 [label="boost/mpl/assert.hpp",height=0.2,width=0.4,color="grey60", fillcolor="#E0E0E0", style="filled",tooltip=" "];
  Node2 -> Node43 [color="steelblue1",style="solid"];
  Node43 [label="graph_adaptor.hh",height=0.2,width=0.4,color="red", fillcolor="#FFF0F0", style="filled",URL="$graph__adaptor_8hh.html",tooltip=" "];
  Node43 -> Node15 [color="steelblue1",style="solid"];
  Node2 -> Node46 [color="steelblue1",style="solid"];
  Node46 [label="graph_filtered.hh",height=0.2,width=0.4,color="red", fillcolor="#FFF0F0", style="filled",URL="$graph__filtered_8hh.html",tooltip=" "];
  Node46 -> Node15 [color="steelblue1",style="solid"];
  Node2 -> Node50 [color="steelblue1",style="solid"];
  Node50 [label="graph_reverse.hh",height=0.2,width=0.4,color="red", fillcolor="#FFF0F0", style="filled",URL="$graph__reverse_8hh.html",tooltip=" "];
  Node2 -> Node51 [color="steelblue1",style="solid"];
  Node51 [label="graph_util.hh",height=0.2,width=0.4,color="red", fillcolor="#FFF0F0", style="filled",URL="$graph__util_8hh.html",tooltip=" "];
  Node51 -> Node32 [color="steelblue1",style="solid"];
  Node51 -> Node15 [color="steelblue1",style="solid"];
  Node51 -> Node31 [color="steelblue1",style="solid"];
  Node51 -> Node27 [color="steelblue1",style="solid"];
  Node51 -> Node29 [color="steelblue1",style="solid"];
  Node51 -> Node46 [color="steelblue1",style="solid"];
  Node2 -> Node61 [color="steelblue1",style="solid"];
  Node61 [label="mpl_nested_loop.hh",height=0.2,width=0.4,color="grey40", fillcolor="white", style="filled",URL="$mpl__nested__loop_8hh.html",tooltip=" "];
  Node2 -> Node57 [color="steelblue1",style="solid"];
  Node57 [label="type_traits",height=0.2,width=0.4,color="grey60", fillcolor="#E0E0E0", style="filled",tooltip=" "];
  Node1 -> Node3 [color="steelblue1",style="solid"];
  Node1 -> Node26 [color="steelblue1",style="solid"];
  Node1 -> Node37 [color="steelblue1",style="solid"];
  Node1 -> Node62 [color="steelblue1",style="solid"];
  Node62 [label="graph_sfdp.hh",height=0.2,width=0.4,color="grey40", fillcolor="white", style="filled",URL="$graph__sfdp_8hh.html",tooltip=" "];
  Node62 -> Node63 [color="steelblue1",style="solid"];
  Node63 [label="limits",height=0.2,width=0.4,color="grey60", fillcolor="#E0E0E0", style="filled",tooltip=" "];
  Node62 -> Node64 [color="steelblue1",style="solid"];
  Node64 [label="iostream",height=0.2,width=0.4,color="grey60", fillcolor="#E0E0E0", style="filled",tooltip=" "];
  Node62 -> Node65 [color="steelblue1",style="solid"];
  Node65 [label="idx_map.hh",height=0.2,width=0.4,color="red", fillcolor="#FFF0F0", style="filled",URL="$idx__map_8hh.html",tooltip=" "];
  Node65 -> Node11 [color="steelblue1",style="solid"];
  Node65 -> Node63 [color="steelblue1",style="solid"];
  Node1 -> Node66 [color="steelblue1",style="solid"];
  Node66 [label="random.hh",height=0.2,width=0.4,color="grey40", fillcolor="white", style="filled",URL="$random_8hh.html",tooltip=" "];
  Node66 -> Node67 [color="steelblue1",style="solid"];
  Node67 [label="pcg_random.hpp",height=0.2,width=0.4,color="grey60", fillcolor="#E0E0E0", style="filled",tooltip=" "];
  Node1 -> Node68 [color="steelblue1",style="solid"];
  Node68 [label="hash_map_wrap.hh",height=0.2,width=0.4,color="red", fillcolor="#FFF0F0", style="filled",URL="$hash__map__wrap_8hh.html",tooltip=" "];
  Node68 -> Node4 [color="steelblue1",style="solid"];
  Node68 -> Node69 [color="steelblue1",style="solid"];
  Node69 [label="unordered_set",height=0.2,width=0.4,color="grey60", fillcolor="#E0E0E0", style="filled",tooltip=" "];
  Node68 -> Node28 [color="steelblue1",style="solid"];
  Node68 -> Node11 [color="steelblue1",style="solid"];
  Node68 -> Node63 [color="steelblue1",style="solid"];
  Node68 -> Node10 [color="steelblue1",style="solid"];
  Node1 -> Node71 [color="steelblue1",style="solid"];
  Node71 [label="numpy_bind.hh",height=0.2,width=0.4,color="red", fillcolor="#FFF0F0", style="filled",URL="$numpy__bind_8hh.html",tooltip=" "];
  Node71 -> Node11 [color="steelblue1",style="solid"];
  Node71 -> Node72 [color="steelblue1",style="solid"];
  Node72 [label="boost/python.hpp",height=0.2,width=0.4,color="grey60", fillcolor="#E0E0E0", style="filled",tooltip=" "];
  Node1 -> Node78 [color="steelblue1",style="solid"];
  Node78 [label="boost/multi_array/multi\l_array_ref.hpp",height=0.2,width=0.4,color="grey60", fillcolor="#E0E0E0", style="filled",tooltip=" "];
  Node1 -> Node72 [color="steelblue1",style="solid"];
}
