digraph "/home/man/Documents/graph-tool-cmake/src/graph/inference/uncertain/graph_blockmodel_dynamics_continuous.hh"
{
 // LATEX_PDF_SIZE
  bgcolor="transparent";
  edge [fontname=Helvetica,fontsize=10,labelfontname=Helvetica,labelfontsize=10];
  node [fontname=Helvetica,fontsize=10,shape=box,height=0.2,width=0.4];
  Node1 [label="/home/man/Documents\l/graph-tool-cmake/src\l/graph/inference/uncertain\l/graph_blockmodel_dynamics\l_continuous.hh",height=0.2,width=0.4,color="gray40", fillcolor="grey60", style="filled", fontcolor="black",tooltip=" "];
  Node1 -> Node2 [color="steelblue1",style="solid"];
  Node2 [label="config.h",height=0.2,width=0.4,color="grey60", fillcolor="#E0E0E0", style="filled",tooltip=" "];
  Node1 -> Node3 [color="steelblue1",style="solid"];
  Node3 [label="vector",height=0.2,width=0.4,color="grey60", fillcolor="#E0E0E0", style="filled",tooltip=" "];
  Node1 -> Node4 [color="steelblue1",style="solid"];
  Node4 [label="graph_python_interface.hh",height=0.2,width=0.4,color="grey40", fillcolor="white", style="filled",URL="$graph__python__interface_8hh.html",tooltip=" "];
  Node4 -> Node5 [color="steelblue1",style="solid"];
  Node5 [label="boost/python.hpp",height=0.2,width=0.4,color="grey60", fillcolor="#E0E0E0", style="filled",tooltip=" "];
  Node4 -> Node6 [color="steelblue1",style="solid"];
  Node6 [label="boost/graph/graph_traits.hpp",height=0.2,width=0.4,color="grey60", fillcolor="#E0E0E0", style="filled",tooltip=" "];
  Node4 -> Node7 [color="steelblue1",style="solid"];
  Node7 [label="boost/property_map\l/dynamic_property_map.hpp",height=0.2,width=0.4,color="grey60", fillcolor="#E0E0E0", style="filled",tooltip=" "];
  Node4 -> Node8 [color="steelblue1",style="solid"];
  Node8 [label="graph.hh",height=0.2,width=0.4,color="grey40", fillcolor="white", style="filled",URL="$graph_8hh.html",tooltip=" "];
  Node8 -> Node2 [color="steelblue1",style="solid"];
  Node8 -> Node9 [color="steelblue1",style="solid"];
  Node9 [label="iterator",height=0.2,width=0.4,color="grey60", fillcolor="#E0E0E0", style="filled",tooltip=" "];
  Node8 -> Node10 [color="steelblue1",style="solid"];
  Node10 [label="boost/python/object.hpp",height=0.2,width=0.4,color="grey60", fillcolor="#E0E0E0", style="filled",tooltip=" "];
  Node8 -> Node11 [color="steelblue1",style="solid"];
  Node11 [label="boost/python/list.hpp",height=0.2,width=0.4,color="grey60", fillcolor="#E0E0E0", style="filled",tooltip=" "];
  Node8 -> Node12 [color="steelblue1",style="solid"];
  Node12 [label="boost/python/tuple.hpp",height=0.2,width=0.4,color="grey60", fillcolor="#E0E0E0", style="filled",tooltip=" "];
  Node8 -> Node13 [color="steelblue1",style="solid"];
  Node13 [label="boost/any.hpp",height=0.2,width=0.4,color="grey60", fillcolor="#E0E0E0", style="filled",tooltip=" "];
  Node8 -> Node14 [color="steelblue1",style="solid"];
  Node14 [label="graph_adjacency.hh",height=0.2,width=0.4,color="red", fillcolor="#FFF0F0", style="filled",URL="$graph__adjacency_8hh.html",tooltip=" "];
  Node14 -> Node3 [color="steelblue1",style="solid"];
  Node14 -> Node15 [color="steelblue1",style="solid"];
  Node15 [label="deque",height=0.2,width=0.4,color="grey60", fillcolor="#E0E0E0", style="filled",tooltip=" "];
  Node14 -> Node16 [color="steelblue1",style="solid"];
  Node16 [label="utility",height=0.2,width=0.4,color="grey60", fillcolor="#E0E0E0", style="filled",tooltip=" "];
  Node14 -> Node17 [color="steelblue1",style="solid"];
  Node17 [label="boost/iterator.hpp",height=0.2,width=0.4,color="grey60", fillcolor="#E0E0E0", style="filled",tooltip=" "];
  Node14 -> Node6 [color="steelblue1",style="solid"];
  Node14 -> Node18 [color="steelblue1",style="solid"];
  Node18 [label="boost/range/irange.hpp",height=0.2,width=0.4,color="grey60", fillcolor="#E0E0E0", style="filled",tooltip=" "];
  Node14 -> Node19 [color="steelblue1",style="solid"];
  Node19 [label="boost/property_map\l/property_map.hpp",height=0.2,width=0.4,color="grey60", fillcolor="#E0E0E0", style="filled",tooltip=" "];
  Node14 -> Node20 [color="steelblue1",style="solid"];
  Node20 [label="boost/graph/properties.hpp",height=0.2,width=0.4,color="grey60", fillcolor="#E0E0E0", style="filled",tooltip=" "];
  Node8 -> Node6 [color="steelblue1",style="solid"];
  Node8 -> Node24 [color="steelblue1",style="solid"];
  Node24 [label="fast_vector_property\l_map.hh",height=0.2,width=0.4,color="red", fillcolor="#FFF0F0", style="filled",URL="$fast__vector__property__map_8hh.html",tooltip=" "];
  Node24 -> Node19 [color="steelblue1",style="solid"];
  Node24 -> Node3 [color="steelblue1",style="solid"];
  Node8 -> Node26 [color="steelblue1",style="solid"];
  Node26 [label="boost/variant.hpp",height=0.2,width=0.4,color="grey60", fillcolor="#E0E0E0", style="filled",tooltip=" "];
  Node8 -> Node27 [color="steelblue1",style="solid"];
  Node27 [label="boost/mpl/bool_fwd.hpp",height=0.2,width=0.4,color="grey60", fillcolor="#E0E0E0", style="filled",tooltip=" "];
  Node8 -> Node28 [color="steelblue1",style="solid"];
  Node28 [label="graph_properties.hh",height=0.2,width=0.4,color="red", fillcolor="#FFF0F0", style="filled",URL="$graph__properties_8hh.html",tooltip=" "];
  Node28 -> Node29 [color="steelblue1",style="solid"];
  Node29 [label="string",height=0.2,width=0.4,color="grey60", fillcolor="#E0E0E0", style="filled",tooltip=" "];
  Node28 -> Node3 [color="steelblue1",style="solid"];
  Node28 -> Node10 [color="steelblue1",style="solid"];
  Node28 -> Node19 [color="steelblue1",style="solid"];
  Node28 -> Node24 [color="steelblue1",style="solid"];
  Node28 -> Node34 [color="steelblue1",style="solid"];
  Node34 [label="boost/mpl/vector.hpp",height=0.2,width=0.4,color="grey60", fillcolor="#E0E0E0", style="filled",tooltip=" "];
  Node28 -> Node36 [color="steelblue1",style="solid"];
  Node36 [label="boost/mpl/transform.hpp",height=0.2,width=0.4,color="grey60", fillcolor="#E0E0E0", style="filled",tooltip=" "];
  Node4 -> Node40 [color="steelblue1",style="solid"];
  Node40 [label="graph_filtering.hh",height=0.2,width=0.4,color="grey40", fillcolor="white", style="filled",URL="$graph__filtering_8hh.html",tooltip=" "];
  Node40 -> Node8 [color="steelblue1",style="solid"];
  Node40 -> Node41 [color="steelblue1",style="solid"];
  Node41 [label="boost/version.hpp",height=0.2,width=0.4,color="grey60", fillcolor="#E0E0E0", style="filled",tooltip=" "];
  Node40 -> Node6 [color="steelblue1",style="solid"];
  Node40 -> Node34 [color="steelblue1",style="solid"];
  Node40 -> Node42 [color="steelblue1",style="solid"];
  Node42 [label="boost/mpl/if.hpp",height=0.2,width=0.4,color="grey60", fillcolor="#E0E0E0", style="filled",tooltip=" "];
  Node40 -> Node43 [color="steelblue1",style="solid"];
  Node43 [label="boost/mpl/logical.hpp",height=0.2,width=0.4,color="grey60", fillcolor="#E0E0E0", style="filled",tooltip=" "];
  Node40 -> Node44 [color="steelblue1",style="solid"];
  Node44 [label="boost/mpl/back_inserter.hpp",height=0.2,width=0.4,color="grey60", fillcolor="#E0E0E0", style="filled",tooltip=" "];
  Node40 -> Node45 [color="steelblue1",style="solid"];
  Node45 [label="boost/mpl/assert.hpp",height=0.2,width=0.4,color="grey60", fillcolor="#E0E0E0", style="filled",tooltip=" "];
  Node40 -> Node46 [color="steelblue1",style="solid"];
  Node46 [label="graph_adaptor.hh",height=0.2,width=0.4,color="red", fillcolor="#FFF0F0", style="filled",URL="$graph__adaptor_8hh.html",tooltip=" "];
  Node46 -> Node6 [color="steelblue1",style="solid"];
  Node40 -> Node49 [color="steelblue1",style="solid"];
  Node49 [label="graph_filtered.hh",height=0.2,width=0.4,color="red", fillcolor="#FFF0F0", style="filled",URL="$graph__filtered_8hh.html",tooltip=" "];
  Node49 -> Node6 [color="steelblue1",style="solid"];
  Node49 -> Node20 [color="steelblue1",style="solid"];
  Node40 -> Node53 [color="steelblue1",style="solid"];
  Node53 [label="graph_reverse.hh",height=0.2,width=0.4,color="red", fillcolor="#FFF0F0", style="filled",URL="$graph__reverse_8hh.html",tooltip=" "];
  Node53 -> Node16 [color="steelblue1",style="solid"];
  Node40 -> Node54 [color="steelblue1",style="solid"];
  Node54 [label="graph_util.hh",height=0.2,width=0.4,color="red", fillcolor="#FFF0F0", style="filled",URL="$graph__util_8hh.html",tooltip=" "];
  Node54 -> Node34 [color="steelblue1",style="solid"];
  Node54 -> Node6 [color="steelblue1",style="solid"];
  Node54 -> Node29 [color="steelblue1",style="solid"];
  Node54 -> Node59 [color="steelblue1",style="solid"];
  Node59 [label="graph_selectors.hh",height=0.2,width=0.4,color="grey40", fillcolor="white", style="filled",URL="$graph__selectors_8hh.html",tooltip=" "];
  Node59 -> Node16 [color="steelblue1",style="solid"];
  Node59 -> Node60 [color="steelblue1",style="solid"];
  Node60 [label="type_traits",height=0.2,width=0.4,color="grey60", fillcolor="#E0E0E0", style="filled",tooltip=" "];
  Node59 -> Node61 [color="steelblue1",style="solid"];
  Node61 [label="boost/mpl/pair.hpp",height=0.2,width=0.4,color="grey60", fillcolor="#E0E0E0", style="filled",tooltip=" "];
  Node59 -> Node62 [color="steelblue1",style="solid"];
  Node62 [label="boost/mpl/map.hpp",height=0.2,width=0.4,color="grey60", fillcolor="#E0E0E0", style="filled",tooltip=" "];
  Node59 -> Node63 [color="steelblue1",style="solid"];
  Node63 [label="boost/mpl/at.hpp",height=0.2,width=0.4,color="grey60", fillcolor="#E0E0E0", style="filled",tooltip=" "];
  Node59 -> Node34 [color="steelblue1",style="solid"];
  Node59 -> Node36 [color="steelblue1",style="solid"];
  Node59 -> Node45 [color="steelblue1",style="solid"];
  Node59 -> Node44 [color="steelblue1",style="solid"];
  Node59 -> Node13 [color="steelblue1",style="solid"];
  Node59 -> Node6 [color="steelblue1",style="solid"];
  Node59 -> Node28 [color="steelblue1",style="solid"];
  Node59 -> Node8 [color="steelblue1",style="solid"];
  Node54 -> Node49 [color="steelblue1",style="solid"];
  Node40 -> Node64 [color="steelblue1",style="solid"];
  Node64 [label="mpl_nested_loop.hh",height=0.2,width=0.4,color="grey40", fillcolor="white", style="filled",URL="$mpl__nested__loop_8hh.html",tooltip=" "];
  Node40 -> Node60 [color="steelblue1",style="solid"];
  Node4 -> Node59 [color="steelblue1",style="solid"];
  Node4 -> Node65 [color="steelblue1",style="solid"];
  Node65 [label="demangle.hh",height=0.2,width=0.4,color="grey40", fillcolor="white", style="filled",URL="$demangle_8hh.html",tooltip=" "];
  Node65 -> Node29 [color="steelblue1",style="solid"];
  Node4 -> Node66 [color="steelblue1",style="solid"];
  Node66 [label="numpy_bind.hh",height=0.2,width=0.4,color="grey40", fillcolor="white", style="filled",URL="$numpy__bind_8hh.html",tooltip=" "];
  Node66 -> Node3 [color="steelblue1",style="solid"];
  Node66 -> Node5 [color="steelblue1",style="solid"];
  Node66 -> Node67 [color="steelblue1",style="solid"];
  Node67 [label="numpy/arrayobject.h",height=0.2,width=0.4,color="grey60", fillcolor="#E0E0E0", style="filled",tooltip=" "];
  Node66 -> Node68 [color="steelblue1",style="solid"];
  Node68 [label="boost/array.hpp",height=0.2,width=0.4,color="grey60", fillcolor="#E0E0E0", style="filled",tooltip=" "];
  Node66 -> Node69 [color="steelblue1",style="solid"];
  Node69 [label="boost/multi_array.hpp",height=0.2,width=0.4,color="grey60", fillcolor="#E0E0E0", style="filled",tooltip=" "];
  Node66 -> Node70 [color="steelblue1",style="solid"];
  Node70 [label="boost/mpl/int.hpp",height=0.2,width=0.4,color="grey60", fillcolor="#E0E0E0", style="filled",tooltip=" "];
  Node66 -> Node62 [color="steelblue1",style="solid"];
  Node66 -> Node61 [color="steelblue1",style="solid"];
  Node66 -> Node65 [color="steelblue1",style="solid"];
  Node4 -> Node71 [color="steelblue1",style="solid"];
  Node71 [label="coroutine.hh",height=0.2,width=0.4,color="grey40", fillcolor="white", style="filled",URL="$coroutine_8hh.html",tooltip=" "];
  Node71 -> Node2 [color="steelblue1",style="solid"];
  Node71 -> Node41 [color="steelblue1",style="solid"];
}
