digraph "/home/man/Documents/graph-tool-cmake/src/graph/inference/overlap/graph_blockmodel_overlap_partition.hh"
{
 // LATEX_PDF_SIZE
  bgcolor="transparent";
  edge [fontname=Helvetica,fontsize=10,labelfontname=Helvetica,labelfontsize=10];
  node [fontname=Helvetica,fontsize=10,shape=box,height=0.2,width=0.4];
  Node1 [label="/home/man/Documents\l/graph-tool-cmake/src\l/graph/inference/overlap\l/graph_blockmodel_overlap\l_partition.hh",height=0.2,width=0.4,color="gray40", fillcolor="grey60", style="filled", fontcolor="black",tooltip=" "];
  Node1 -> Node2 [color="steelblue1",style="solid"];
  Node2 [label="graph_blockmodel_overlap\l_util.hh",height=0.2,width=0.4,color="grey40", fillcolor="white", style="filled",URL="$graph__blockmodel__overlap__util_8hh.html",tooltip=" "];
  Node2 -> Node3 [color="steelblue1",style="solid"];
  Node3 [label="config.h",height=0.2,width=0.4,color="grey60", fillcolor="#E0E0E0", style="filled",tooltip=" "];
  Node2 -> Node4 [color="steelblue1",style="solid"];
  Node4 [label="tuple",height=0.2,width=0.4,color="grey60", fillcolor="#E0E0E0", style="filled",tooltip=" "];
  Node2 -> Node5 [color="steelblue1",style="solid"];
  Node5 [label="../blockmodel/graph\l_blockmodel.hh",height=0.2,width=0.4,color="grey40", fillcolor="white", style="filled",URL="$graph__blockmodel_8hh.html",tooltip=" "];
  Node5 -> Node3 [color="steelblue1",style="solid"];
  Node5 -> Node6 [color="steelblue1",style="solid"];
  Node6 [label="vector",height=0.2,width=0.4,color="grey60", fillcolor="#E0E0E0", style="filled",tooltip=" "];
  Node5 -> Node7 [color="steelblue1",style="solid"];
  Node7 [label="idx_map.hh",height=0.2,width=0.4,color="grey40", fillcolor="white", style="filled",URL="$idx__map_8hh.html",tooltip=" "];
  Node7 -> Node6 [color="steelblue1",style="solid"];
  Node7 -> Node8 [color="steelblue1",style="solid"];
  Node8 [label="utility",height=0.2,width=0.4,color="grey60", fillcolor="#E0E0E0", style="filled",tooltip=" "];
  Node7 -> Node9 [color="steelblue1",style="solid"];
  Node9 [label="limits",height=0.2,width=0.4,color="grey60", fillcolor="#E0E0E0", style="filled",tooltip=" "];
  Node5 -> Node10 [color="steelblue1",style="solid"];
  Node10 [label="../support/graph_state.hh",height=0.2,width=0.4,color="grey40", fillcolor="white", style="filled",URL="$graph__state_8hh.html",tooltip=" "];
  Node10 -> Node11 [color="steelblue1",style="solid"];
  Node11 [label="boost/python.hpp",height=0.2,width=0.4,color="grey60", fillcolor="#E0E0E0", style="filled",tooltip=" "];
  Node10 -> Node12 [color="steelblue1",style="solid"];
  Node12 [label="boost/preprocessor\l/comparison/equal.hpp",height=0.2,width=0.4,color="grey60", fillcolor="#E0E0E0", style="filled",tooltip=" "];
  Node10 -> Node13 [color="steelblue1",style="solid"];
  Node13 [label="boost/preprocessor\l/cat.hpp",height=0.2,width=0.4,color="grey60", fillcolor="#E0E0E0", style="filled",tooltip=" "];
  Node10 -> Node14 [color="steelblue1",style="solid"];
  Node14 [label="boost/preprocessor\l/seq/size.hpp",height=0.2,width=0.4,color="grey60", fillcolor="#E0E0E0", style="filled",tooltip=" "];
  Node10 -> Node15 [color="steelblue1",style="solid"];
  Node15 [label="boost/preprocessor\l/seq/for_each_i.hpp",height=0.2,width=0.4,color="grey60", fillcolor="#E0E0E0", style="filled",tooltip=" "];
  Node10 -> Node16 [color="steelblue1",style="solid"];
  Node16 [label="boost/preprocessor\l/stringize.hpp",height=0.2,width=0.4,color="grey60", fillcolor="#E0E0E0", style="filled",tooltip=" "];
  Node10 -> Node17 [color="steelblue1",style="solid"];
  Node17 [label="boost/preprocessor\l/tuple/elem.hpp",height=0.2,width=0.4,color="grey60", fillcolor="#E0E0E0", style="filled",tooltip=" "];
  Node10 -> Node18 [color="steelblue1",style="solid"];
  Node18 [label="boost/preprocessor\l/arithmetic/dec.hpp",height=0.2,width=0.4,color="grey60", fillcolor="#E0E0E0", style="filled",tooltip=" "];
  Node10 -> Node19 [color="steelblue1",style="solid"];
  Node19 [label="boost/preprocessor\l/seq/transform.hpp",height=0.2,width=0.4,color="grey60", fillcolor="#E0E0E0", style="filled",tooltip=" "];
  Node10 -> Node20 [color="steelblue1",style="solid"];
  Node20 [label="boost/preprocessor\l/seq/filter.hpp",height=0.2,width=0.4,color="grey60", fillcolor="#E0E0E0", style="filled",tooltip=" "];
  Node10 -> Node21 [color="steelblue1",style="solid"];
  Node21 [label="boost/preprocessor\l/seq/first_n.hpp",height=0.2,width=0.4,color="grey60", fillcolor="#E0E0E0", style="filled",tooltip=" "];
  Node10 -> Node22 [color="steelblue1",style="solid"];
  Node22 [label="graph.hh",height=0.2,width=0.4,color="red", fillcolor="#FFF0F0", style="filled",URL="$graph_8hh.html",tooltip=" "];
  Node22 -> Node3 [color="steelblue1",style="solid"];
  Node22 -> Node23 [color="steelblue1",style="solid"];
  Node23 [label="iterator",height=0.2,width=0.4,color="grey60", fillcolor="#E0E0E0", style="filled",tooltip=" "];
  Node22 -> Node24 [color="steelblue1",style="solid"];
  Node24 [label="boost/python/object.hpp",height=0.2,width=0.4,color="grey60", fillcolor="#E0E0E0", style="filled",tooltip=" "];
  Node22 -> Node25 [color="steelblue1",style="solid"];
  Node25 [label="boost/python/list.hpp",height=0.2,width=0.4,color="grey60", fillcolor="#E0E0E0", style="filled",tooltip=" "];
  Node22 -> Node26 [color="steelblue1",style="solid"];
  Node26 [label="boost/python/tuple.hpp",height=0.2,width=0.4,color="grey60", fillcolor="#E0E0E0", style="filled",tooltip=" "];
  Node22 -> Node27 [color="steelblue1",style="solid"];
  Node27 [label="boost/any.hpp",height=0.2,width=0.4,color="grey60", fillcolor="#E0E0E0", style="filled",tooltip=" "];
  Node22 -> Node28 [color="steelblue1",style="solid"];
  Node28 [label="graph_adjacency.hh",height=0.2,width=0.4,color="red", fillcolor="#FFF0F0", style="filled",URL="$graph__adjacency_8hh.html",tooltip=" "];
  Node28 -> Node6 [color="steelblue1",style="solid"];
  Node28 -> Node8 [color="steelblue1",style="solid"];
  Node28 -> Node31 [color="steelblue1",style="solid"];
  Node31 [label="boost/graph/graph_traits.hpp",height=0.2,width=0.4,color="grey60", fillcolor="#E0E0E0", style="filled",tooltip=" "];
  Node22 -> Node31 [color="steelblue1",style="solid"];
  Node22 -> Node42 [color="steelblue1",style="solid"];
  Node42 [label="graph_properties.hh",height=0.2,width=0.4,color="red", fillcolor="#FFF0F0", style="filled",URL="$graph__properties_8hh.html",tooltip=" "];
  Node42 -> Node6 [color="steelblue1",style="solid"];
  Node42 -> Node24 [color="steelblue1",style="solid"];
  Node10 -> Node54 [color="steelblue1",style="solid"];
  Node54 [label="graph_selectors.hh",height=0.2,width=0.4,color="red", fillcolor="#FFF0F0", style="filled",URL="$graph__selectors_8hh.html",tooltip=" "];
  Node54 -> Node8 [color="steelblue1",style="solid"];
  Node54 -> Node27 [color="steelblue1",style="solid"];
  Node54 -> Node31 [color="steelblue1",style="solid"];
  Node54 -> Node42 [color="steelblue1",style="solid"];
  Node54 -> Node22 [color="steelblue1",style="solid"];
  Node10 -> Node42 [color="steelblue1",style="solid"];
  Node10 -> Node61 [color="steelblue1",style="solid"];
  Node61 [label="graph_filtering.hh",height=0.2,width=0.4,color="red", fillcolor="#FFF0F0", style="filled",URL="$graph__filtering_8hh.html",tooltip=" "];
  Node61 -> Node22 [color="steelblue1",style="solid"];
  Node61 -> Node31 [color="steelblue1",style="solid"];
  Node61 -> Node73 [color="steelblue1",style="solid"];
  Node73 [label="graph_util.hh",height=0.2,width=0.4,color="red", fillcolor="#FFF0F0", style="filled",URL="$graph__util_8hh.html",tooltip=" "];
  Node73 -> Node31 [color="steelblue1",style="solid"];
  Node73 -> Node54 [color="steelblue1",style="solid"];
  Node10 -> Node73 [color="steelblue1",style="solid"];
  Node10 -> Node79 [color="steelblue1",style="solid"];
  Node79 [label="numpy_bind.hh",height=0.2,width=0.4,color="red", fillcolor="#FFF0F0", style="filled",URL="$numpy__bind_8hh.html",tooltip=" "];
  Node79 -> Node6 [color="steelblue1",style="solid"];
  Node79 -> Node11 [color="steelblue1",style="solid"];
  Node79 -> Node82 [color="steelblue1",style="solid"];
  Node82 [label="boost/multi_array.hpp",height=0.2,width=0.4,color="grey60", fillcolor="#E0E0E0", style="filled",tooltip=" "];
  Node10 -> Node3 [color="steelblue1",style="solid"];
  Node10 -> Node39 [color="steelblue1",style="solid"];
  Node39 [label="memory",height=0.2,width=0.4,color="grey60", fillcolor="#E0E0E0", style="filled",tooltip=" "];
  Node5 -> Node85 [color="steelblue1",style="solid"];
  Node85 [label="graph_blockmodel_util.hh",height=0.2,width=0.4,color="grey40", fillcolor="white", style="filled",URL="$graph__blockmodel__util_8hh.html",tooltip=" "];
  Node85 -> Node3 [color="steelblue1",style="solid"];
  Node85 -> Node86 [color="steelblue1",style="solid"];
  Node86 [label="graph_blockmodel_entropy.hh",height=0.2,width=0.4,color="grey40", fillcolor="white", style="filled",URL="$graph__blockmodel__entropy_8hh.html",tooltip=" "];
  Node86 -> Node87 [color="steelblue1",style="solid"];
  Node87 [label="../support/util.hh",height=0.2,width=0.4,color="red", fillcolor="#FFF0F0", style="filled",URL="$util_8hh.html",tooltip=" "];
  Node87 -> Node3 [color="steelblue1",style="solid"];
  Node85 -> Node90 [color="steelblue1",style="solid"];
  Node90 [label="graph_blockmodel_partition.hh",height=0.2,width=0.4,color="grey40", fillcolor="white", style="filled",URL="$graph__blockmodel__partition_8hh.html",tooltip=" "];
  Node90 -> Node87 [color="steelblue1",style="solid"];
  Node90 -> Node91 [color="steelblue1",style="solid"];
  Node91 [label="../support/int_part.hh",height=0.2,width=0.4,color="grey40", fillcolor="white", style="filled",URL="$int__part_8hh.html",tooltip=" "];
  Node91 -> Node3 [color="steelblue1",style="solid"];
  Node91 -> Node82 [color="steelblue1",style="solid"];
  Node90 -> Node92 [color="steelblue1",style="solid"];
  Node92 [label="hash_map_wrap.hh",height=0.2,width=0.4,color="red", fillcolor="#FFF0F0", style="filled",URL="$hash__map__wrap_8hh.html",tooltip=" "];
  Node92 -> Node3 [color="steelblue1",style="solid"];
  Node92 -> Node4 [color="steelblue1",style="solid"];
  Node92 -> Node6 [color="steelblue1",style="solid"];
  Node92 -> Node8 [color="steelblue1",style="solid"];
  Node92 -> Node9 [color="steelblue1",style="solid"];
  Node92 -> Node28 [color="steelblue1",style="solid"];
  Node90 -> Node94 [color="steelblue1",style="solid"];
  Node94 [label="boost/range/counting\l_range.hpp",height=0.2,width=0.4,color="grey60", fillcolor="#E0E0E0", style="filled",tooltip=" "];
  Node85 -> Node95 [color="steelblue1",style="solid"];
  Node95 [label="graph_blockmodel_entries.hh",height=0.2,width=0.4,color="grey40", fillcolor="white", style="filled",URL="$graph__blockmodel__entries_8hh.html",tooltip=" "];
  Node95 -> Node96 [color="steelblue1",style="solid"];
  Node96 [label="graph_blockmodel_weights.hh",height=0.2,width=0.4,color="grey40", fillcolor="white", style="filled",URL="$graph__blockmodel__weights_8hh.html",tooltip=" "];
  Node85 -> Node97 [color="steelblue1",style="solid"];
  Node97 [label="graph_blockmodel_emat.hh",height=0.2,width=0.4,color="grey40", fillcolor="white", style="filled",URL="$graph__blockmodel__emat_8hh.html",tooltip=" "];
  Node97 -> Node82 [color="steelblue1",style="solid"];
  Node97 -> Node92 [color="steelblue1",style="solid"];
  Node85 -> Node98 [color="steelblue1",style="solid"];
  Node98 [label="graph_blockmodel_elist.hh",height=0.2,width=0.4,color="grey40", fillcolor="white", style="filled",URL="$graph__blockmodel__elist_8hh.html",tooltip=" "];
  Node98 -> Node99 [color="steelblue1",style="solid"];
  Node99 [label="../../generation/sampler.hh",height=0.2,width=0.4,color="red", fillcolor="#FFF0F0", style="filled",URL="$sampler_8hh.html",tooltip=" "];
  Node98 -> Node102 [color="steelblue1",style="solid"];
  Node102 [label="../../generation/dynamic\l_sampler.hh",height=0.2,width=0.4,color="red", fillcolor="#FFF0F0", style="filled",URL="$dynamic__sampler_8hh.html",tooltip=" "];
  Node85 -> Node96 [color="steelblue1",style="solid"];
  Node2 -> Node85 [color="steelblue1",style="solid"];
  Node2 -> Node1 [color="steelblue1",style="solid"];
  Node1 -> Node103 [color="steelblue1",style="solid"];
  Node103 [label="boost/container/small\l_vector.hpp",height=0.2,width=0.4,color="grey60", fillcolor="#E0E0E0", style="filled",tooltip=" "];
}
