digraph "/home/man/Documents/graph-tool-cmake/src/graph/inference/overlap/graph_blockmodel_overlap_multiflip_mcmc.cc"
{
 // LATEX_PDF_SIZE
  bgcolor="transparent";
  edge [fontname=Helvetica,fontsize=10,labelfontname=Helvetica,labelfontsize=10];
  node [fontname=Helvetica,fontsize=10,shape=box,height=0.2,width=0.4];
  Node1 [label="/home/man/Documents\l/graph-tool-cmake/src\l/graph/inference/overlap\l/graph_blockmodel_overlap\l_multiflip_mcmc.cc",height=0.2,width=0.4,color="gray40", fillcolor="grey60", style="filled", fontcolor="black",tooltip=" "];
  Node1 -> Node2 [color="steelblue1",style="solid"];
  Node2 [label="graph_tool.hh",height=0.2,width=0.4,color="grey40", fillcolor="white", style="filled",URL="$graph__tool_8hh.html",tooltip=" "];
  Node2 -> Node3 [color="steelblue1",style="solid"];
  Node3 [label="graph.hh",height=0.2,width=0.4,color="grey40", fillcolor="white", style="filled",URL="$graph_8hh.html",tooltip=" "];
  Node3 -> Node4 [color="steelblue1",style="solid"];
  Node4 [label="config.h",height=0.2,width=0.4,color="grey60", fillcolor="#E0E0E0", style="filled",tooltip=" "];
  Node3 -> Node5 [color="steelblue1",style="solid"];
  Node5 [label="iterator",height=0.2,width=0.4,color="grey60", fillcolor="#E0E0E0", style="filled",tooltip=" "];
  Node3 -> Node6 [color="steelblue1",style="solid"];
  Node6 [label="boost/python/object.hpp",height=0.2,width=0.4,color="grey60", fillcolor="#E0E0E0", style="filled",tooltip=" "];
  Node3 -> Node7 [color="steelblue1",style="solid"];
  Node7 [label="boost/python/list.hpp",height=0.2,width=0.4,color="grey60", fillcolor="#E0E0E0", style="filled",tooltip=" "];
  Node3 -> Node8 [color="steelblue1",style="solid"];
  Node8 [label="boost/python/tuple.hpp",height=0.2,width=0.4,color="grey60", fillcolor="#E0E0E0", style="filled",tooltip=" "];
  Node3 -> Node9 [color="steelblue1",style="solid"];
  Node9 [label="boost/any.hpp",height=0.2,width=0.4,color="grey60", fillcolor="#E0E0E0", style="filled",tooltip=" "];
  Node3 -> Node10 [color="steelblue1",style="solid"];
  Node10 [label="graph_adjacency.hh",height=0.2,width=0.4,color="red", fillcolor="#FFF0F0", style="filled",URL="$graph__adjacency_8hh.html",tooltip=" "];
  Node10 -> Node11 [color="steelblue1",style="solid"];
  Node11 [label="vector",height=0.2,width=0.4,color="grey60", fillcolor="#E0E0E0", style="filled",tooltip=" "];
  Node10 -> Node15 [color="steelblue1",style="solid"];
  Node15 [label="boost/graph/graph_traits.hpp",height=0.2,width=0.4,color="grey60", fillcolor="#E0E0E0", style="filled",tooltip=" "];
  Node3 -> Node15 [color="steelblue1",style="solid"];
  Node3 -> Node22 [color="steelblue1",style="solid"];
  Node22 [label="fast_vector_property\l_map.hh",height=0.2,width=0.4,color="red", fillcolor="#FFF0F0", style="filled",URL="$fast__vector__property__map_8hh.html",tooltip=" "];
  Node22 -> Node11 [color="steelblue1",style="solid"];
  Node3 -> Node24 [color="steelblue1",style="solid"];
  Node24 [label="boost/variant.hpp",height=0.2,width=0.4,color="grey60", fillcolor="#E0E0E0", style="filled",tooltip=" "];
  Node3 -> Node25 [color="steelblue1",style="solid"];
  Node25 [label="boost/mpl/bool_fwd.hpp",height=0.2,width=0.4,color="grey60", fillcolor="#E0E0E0", style="filled",tooltip=" "];
  Node3 -> Node26 [color="steelblue1",style="solid"];
  Node26 [label="graph_properties.hh",height=0.2,width=0.4,color="red", fillcolor="#FFF0F0", style="filled",URL="$graph__properties_8hh.html",tooltip=" "];
  Node26 -> Node27 [color="steelblue1",style="solid"];
  Node27 [label="string",height=0.2,width=0.4,color="grey60", fillcolor="#E0E0E0", style="filled",tooltip=" "];
  Node26 -> Node11 [color="steelblue1",style="solid"];
  Node26 -> Node6 [color="steelblue1",style="solid"];
  Node26 -> Node22 [color="steelblue1",style="solid"];
  Node26 -> Node32 [color="steelblue1",style="solid"];
  Node32 [label="boost/mpl/vector.hpp",height=0.2,width=0.4,color="grey60", fillcolor="#E0E0E0", style="filled",tooltip=" "];
  Node2 -> Node38 [color="steelblue1",style="solid"];
  Node38 [label="graph_filtering.hh",height=0.2,width=0.4,color="grey40", fillcolor="white", style="filled",URL="$graph__filtering_8hh.html",tooltip=" "];
  Node38 -> Node3 [color="steelblue1",style="solid"];
  Node38 -> Node39 [color="steelblue1",style="solid"];
  Node39 [label="boost/version.hpp",height=0.2,width=0.4,color="grey60", fillcolor="#E0E0E0", style="filled",tooltip=" "];
  Node38 -> Node15 [color="steelblue1",style="solid"];
  Node38 -> Node32 [color="steelblue1",style="solid"];
  Node38 -> Node40 [color="steelblue1",style="solid"];
  Node40 [label="boost/mpl/if.hpp",height=0.2,width=0.4,color="grey60", fillcolor="#E0E0E0", style="filled",tooltip=" "];
  Node38 -> Node41 [color="steelblue1",style="solid"];
  Node41 [label="boost/mpl/logical.hpp",height=0.2,width=0.4,color="grey60", fillcolor="#E0E0E0", style="filled",tooltip=" "];
  Node38 -> Node42 [color="steelblue1",style="solid"];
  Node42 [label="boost/mpl/back_inserter.hpp",height=0.2,width=0.4,color="grey60", fillcolor="#E0E0E0", style="filled",tooltip=" "];
  Node38 -> Node43 [color="steelblue1",style="solid"];
  Node43 [label="boost/mpl/assert.hpp",height=0.2,width=0.4,color="grey60", fillcolor="#E0E0E0", style="filled",tooltip=" "];
  Node38 -> Node44 [color="steelblue1",style="solid"];
  Node44 [label="graph_adaptor.hh",height=0.2,width=0.4,color="red", fillcolor="#FFF0F0", style="filled",URL="$graph__adaptor_8hh.html",tooltip=" "];
  Node44 -> Node15 [color="steelblue1",style="solid"];
  Node38 -> Node47 [color="steelblue1",style="solid"];
  Node47 [label="graph_filtered.hh",height=0.2,width=0.4,color="red", fillcolor="#FFF0F0", style="filled",URL="$graph__filtered_8hh.html",tooltip=" "];
  Node47 -> Node15 [color="steelblue1",style="solid"];
  Node38 -> Node51 [color="steelblue1",style="solid"];
  Node51 [label="graph_reverse.hh",height=0.2,width=0.4,color="red", fillcolor="#FFF0F0", style="filled",URL="$graph__reverse_8hh.html",tooltip=" "];
  Node38 -> Node52 [color="steelblue1",style="solid"];
  Node52 [label="graph_util.hh",height=0.2,width=0.4,color="red", fillcolor="#FFF0F0", style="filled",URL="$graph__util_8hh.html",tooltip=" "];
  Node52 -> Node32 [color="steelblue1",style="solid"];
  Node52 -> Node15 [color="steelblue1",style="solid"];
  Node52 -> Node27 [color="steelblue1",style="solid"];
  Node52 -> Node57 [color="steelblue1",style="solid"];
  Node57 [label="graph_selectors.hh",height=0.2,width=0.4,color="red", fillcolor="#FFF0F0", style="filled",URL="$graph__selectors_8hh.html",tooltip=" "];
  Node57 -> Node58 [color="steelblue1",style="solid"];
  Node58 [label="type_traits",height=0.2,width=0.4,color="grey60", fillcolor="#E0E0E0", style="filled",tooltip=" "];
  Node57 -> Node32 [color="steelblue1",style="solid"];
  Node57 -> Node43 [color="steelblue1",style="solid"];
  Node57 -> Node42 [color="steelblue1",style="solid"];
  Node57 -> Node9 [color="steelblue1",style="solid"];
  Node57 -> Node15 [color="steelblue1",style="solid"];
  Node57 -> Node26 [color="steelblue1",style="solid"];
  Node57 -> Node3 [color="steelblue1",style="solid"];
  Node52 -> Node47 [color="steelblue1",style="solid"];
  Node38 -> Node62 [color="steelblue1",style="solid"];
  Node62 [label="mpl_nested_loop.hh",height=0.2,width=0.4,color="grey40", fillcolor="white", style="filled",URL="$mpl__nested__loop_8hh.html",tooltip=" "];
  Node38 -> Node58 [color="steelblue1",style="solid"];
  Node2 -> Node26 [color="steelblue1",style="solid"];
  Node2 -> Node57 [color="steelblue1",style="solid"];
  Node1 -> Node63 [color="steelblue1",style="solid"];
  Node63 [label="random.hh",height=0.2,width=0.4,color="grey40", fillcolor="white", style="filled",URL="$random_8hh.html",tooltip=" "];
  Node63 -> Node64 [color="steelblue1",style="solid"];
  Node64 [label="pcg_random.hpp",height=0.2,width=0.4,color="grey60", fillcolor="#E0E0E0", style="filled",tooltip=" "];
  Node1 -> Node65 [color="steelblue1",style="solid"];
  Node65 [label="boost/python.hpp",height=0.2,width=0.4,color="grey60", fillcolor="#E0E0E0", style="filled",tooltip=" "];
  Node1 -> Node66 [color="steelblue1",style="solid"];
  Node66 [label="graph_blockmodel_overlap\l_util.hh",height=0.2,width=0.4,color="grey40", fillcolor="white", style="filled",URL="$graph__blockmodel__overlap__util_8hh.html",tooltip=" "];
  Node66 -> Node4 [color="steelblue1",style="solid"];
  Node66 -> Node67 [color="steelblue1",style="solid"];
  Node67 [label="tuple",height=0.2,width=0.4,color="grey60", fillcolor="#E0E0E0", style="filled",tooltip=" "];
  Node66 -> Node68 [color="steelblue1",style="solid"];
  Node68 [label="../blockmodel/graph\l_blockmodel.hh",height=0.2,width=0.4,color="grey40", fillcolor="white", style="filled",URL="$graph__blockmodel_8hh.html",tooltip=" "];
  Node68 -> Node4 [color="steelblue1",style="solid"];
  Node68 -> Node11 [color="steelblue1",style="solid"];
  Node68 -> Node69 [color="steelblue1",style="solid"];
  Node69 [label="idx_map.hh",height=0.2,width=0.4,color="red", fillcolor="#FFF0F0", style="filled",URL="$idx__map_8hh.html",tooltip=" "];
  Node69 -> Node11 [color="steelblue1",style="solid"];
  Node68 -> Node71 [color="steelblue1",style="solid"];
  Node71 [label="../support/graph_state.hh",height=0.2,width=0.4,color="red", fillcolor="#FFF0F0", style="filled",URL="$graph__state_8hh.html",tooltip=" "];
  Node71 -> Node65 [color="steelblue1",style="solid"];
  Node71 -> Node3 [color="steelblue1",style="solid"];
  Node71 -> Node57 [color="steelblue1",style="solid"];
  Node71 -> Node26 [color="steelblue1",style="solid"];
  Node71 -> Node38 [color="steelblue1",style="solid"];
  Node71 -> Node52 [color="steelblue1",style="solid"];
  Node71 -> Node4 [color="steelblue1",style="solid"];
  Node68 -> Node88 [color="steelblue1",style="solid"];
  Node88 [label="graph_blockmodel_util.hh",height=0.2,width=0.4,color="red", fillcolor="#FFF0F0", style="filled",URL="$graph__blockmodel__util_8hh.html",tooltip=" "];
  Node88 -> Node4 [color="steelblue1",style="solid"];
  Node66 -> Node88 [color="steelblue1",style="solid"];
  Node66 -> Node104 [color="steelblue1",style="solid"];
  Node104 [label="graph_blockmodel_overlap\l_partition.hh",height=0.2,width=0.4,color="red", fillcolor="#FFF0F0", style="filled",URL="$graph__blockmodel__overlap__partition_8hh.html",tooltip=" "];
  Node104 -> Node66 [color="steelblue1",style="solid"];
  Node1 -> Node106 [color="steelblue1",style="solid"];
  Node106 [label="graph_blockmodel_overlap.hh",height=0.2,width=0.4,color="grey40", fillcolor="white", style="filled",URL="$graph__blockmodel__overlap_8hh.html",tooltip=" "];
  Node106 -> Node4 [color="steelblue1",style="solid"];
  Node106 -> Node67 [color="steelblue1",style="solid"];
  Node106 -> Node69 [color="steelblue1",style="solid"];
  Node106 -> Node71 [color="steelblue1",style="solid"];
  Node106 -> Node88 [color="steelblue1",style="solid"];
  Node106 -> Node66 [color="steelblue1",style="solid"];
  Node1 -> Node107 [color="steelblue1",style="solid"];
  Node107 [label="../blockmodel/graph\l_blockmodel_multiflip\l_mcmc.hh",height=0.2,width=0.4,color="grey40", fillcolor="white", style="filled",URL="$graph__blockmodel__multiflip__mcmc_8hh.html",tooltip=" "];
  Node107 -> Node4 [color="steelblue1",style="solid"];
  Node107 -> Node11 [color="steelblue1",style="solid"];
  Node107 -> Node108 [color="steelblue1",style="solid"];
  Node108 [label="algorithm",height=0.2,width=0.4,color="grey60", fillcolor="#E0E0E0", style="filled",tooltip=" "];
  Node107 -> Node2 [color="steelblue1",style="solid"];
  Node107 -> Node71 [color="steelblue1",style="solid"];
  Node107 -> Node88 [color="steelblue1",style="solid"];
  Node107 -> Node32 [color="steelblue1",style="solid"];
  Node107 -> Node69 [color="steelblue1",style="solid"];
  Node107 -> Node109 [color="steelblue1",style="solid"];
  Node109 [label="../loops/merge_split.hh",height=0.2,width=0.4,color="grey40", fillcolor="white", style="filled",URL="$merge__split_8hh.html",tooltip=" "];
  Node1 -> Node110 [color="steelblue1",style="solid"];
  Node110 [label="../loops/mcmc_loop.hh",height=0.2,width=0.4,color="grey40", fillcolor="white", style="filled",URL="$mcmc__loop_8hh.html",tooltip=" "];
  Node110 -> Node4 [color="steelblue1",style="solid"];
  Node110 -> Node111 [color="steelblue1",style="solid"];
  Node111 [label="iostream",height=0.2,width=0.4,color="grey60", fillcolor="#E0E0E0", style="filled",tooltip=" "];
  Node110 -> Node67 [color="steelblue1",style="solid"];
  Node110 -> Node95 [color="steelblue1",style="solid"];
  Node95 [label="hash_map_wrap.hh",height=0.2,width=0.4,color="red", fillcolor="#FFF0F0", style="filled",URL="$hash__map__wrap_8hh.html",tooltip=" "];
  Node95 -> Node4 [color="steelblue1",style="solid"];
  Node95 -> Node67 [color="steelblue1",style="solid"];
  Node95 -> Node11 [color="steelblue1",style="solid"];
  Node95 -> Node10 [color="steelblue1",style="solid"];
  Node110 -> Node112 [color="steelblue1",style="solid"];
  Node112 [label="parallel_rng.hh",height=0.2,width=0.4,color="grey40", fillcolor="white", style="filled",URL="$parallel__rng_8hh.html",tooltip=" "];
  Node112 -> Node4 [color="steelblue1",style="solid"];
  Node112 -> Node11 [color="steelblue1",style="solid"];
  Node110 -> Node113 [color="steelblue1",style="solid"];
  Node113 [label="graph_python_interface.hh",height=0.2,width=0.4,color="red", fillcolor="#FFF0F0", style="filled",URL="$graph__python__interface_8hh.html",tooltip=" "];
  Node113 -> Node65 [color="steelblue1",style="solid"];
  Node113 -> Node15 [color="steelblue1",style="solid"];
  Node113 -> Node3 [color="steelblue1",style="solid"];
  Node113 -> Node38 [color="steelblue1",style="solid"];
  Node113 -> Node57 [color="steelblue1",style="solid"];
}
