digraph "export_matching"
{
 // LATEX_PDF_SIZE
  bgcolor="transparent";
  edge [fontname=Helvetica,fontsize=10,labelfontname=Helvetica,labelfontsize=10];
  node [fontname=Helvetica,fontsize=10,shape=box,height=0.2,width=0.4];
  rankdir="LR";
  Node1 [label="export_matching",height=0.2,width=0.4,color="gray40", fillcolor="grey60", style="filled", fontcolor="black",tooltip=" "];
  Node1 -> Node2 [color="steelblue1",style="solid"];
  Node2 [label="get_max_bip_weighted\l_matching",height=0.2,width=0.4,color="grey40", fillcolor="white", style="filled",URL="$graph__matching_8cc.html#aac3d6e99fcd196c42365ced9337ab997",tooltip=" "];
  Node2 -> Node3 [color="steelblue1",style="solid"];
  Node3 [label="boost::get",height=0.2,width=0.4,color="grey40", fillcolor="white", style="filled",URL="$namespaceboost.html#a16c10260e678081f48c16db5bdd0f5ea",tooltip=" "];
  Node3 -> Node3 [color="steelblue1",style="solid"];
  Node3 -> Node4 [color="steelblue1",style="solid"];
  Node4 [label="boost::undirected_adaptor\l::original_graph",height=0.2,width=0.4,color="grey40", fillcolor="white", style="filled",URL="$classboost_1_1undirected__adaptor.html#a11e557bb4f3d7c15354f98390f1d3644",tooltip=" "];
  Node2 -> Node5 [color="steelblue1",style="solid"];
  Node5 [label="graph_tool::maximum\l_bipartite_weighted\l_matching",height=0.2,width=0.4,color="grey40", fillcolor="white", style="filled",URL="$namespacegraph__tool.html#adecc3b94387297164c5746bfbb1ff4ca",tooltip=" "];
  Node5 -> Node6 [color="steelblue1",style="solid"];
  Node6 [label="boost::add_edge",height=0.2,width=0.4,color="grey40", fillcolor="white", style="filled",URL="$namespaceboost.html#a2ca660300636fcb45d338069833665ae",tooltip=" "];
  Node6 -> Node6 [color="steelblue1",style="solid"];
  Node6 -> Node4 [color="steelblue1",style="solid"];
  Node5 -> Node7 [color="steelblue1",style="solid"];
  Node7 [label="boost::add_vertex",height=0.2,width=0.4,color="grey40", fillcolor="white", style="filled",URL="$namespaceboost.html#a9440b0ee2e6a885ba5cd53babca04ae8",tooltip=" "];
  Node7 -> Node7 [color="steelblue1",style="solid"];
  Node7 -> Node4 [color="steelblue1",style="solid"];
  Node5 -> Node8 [color="steelblue1",style="solid"];
  Node8 [label="graph_tool::edges_range",height=0.2,width=0.4,color="grey40", fillcolor="white", style="filled",URL="$namespacegraph__tool.html#a84f027f8994c1005336b0a12eb0c9dc4",tooltip=" "];
  Node8 -> Node9 [color="steelblue1",style="solid"];
  Node9 [label="boost::edges",height=0.2,width=0.4,color="grey40", fillcolor="white", style="filled",URL="$namespaceboost.html#a3ac91f028a5f50644ba12e9e803bb2f8",tooltip=" "];
  Node9 -> Node9 [color="steelblue1",style="solid"];
  Node9 -> Node4 [color="steelblue1",style="solid"];
  Node8 -> Node10 [color="steelblue1",style="solid"];
  Node10 [label="graph_tool::mk_range",height=0.2,width=0.4,color="grey40", fillcolor="white", style="filled",URL="$namespacegraph__tool.html#a6ecc1e46efb4f620acabfe5728f7a2a6",tooltip=" "];
  Node5 -> Node3 [color="steelblue1",style="solid"];
  Node5 -> Node11 [color="steelblue1",style="solid"];
  Node11 [label="boost::checked_vector\l_property_map::get_unchecked",height=0.2,width=0.4,color="grey40", fillcolor="white", style="filled",URL="$classboost_1_1checked__vector__property__map.html#afc8aa547b3e8b4df8662342d55f6fd15",tooltip=" "];
  Node11 -> Node12 [color="steelblue1",style="solid"];
  Node12 [label="boost::checked_vector\l_property_map::reserve",height=0.2,width=0.4,color="grey40", fillcolor="white", style="filled",URL="$classboost_1_1checked__vector__property__map.html#ad42f677fcb713ec7f22a3f9629fd40db",tooltip=" "];
  Node5 -> Node13 [color="steelblue1",style="solid"];
  Node13 [label="graph_tool::maximum\l_bipartite_weighted\l_imperfect_matching",height=0.2,width=0.4,color="grey40", fillcolor="white", style="filled",URL="$namespacegraph__tool.html#a0c7a350aa83d4a65efed62a2db888884",tooltip=" "];
  Node13 -> Node6 [color="steelblue1",style="solid"];
  Node13 -> Node7 [color="steelblue1",style="solid"];
  Node13 -> Node8 [color="steelblue1",style="solid"];
  Node13 -> Node3 [color="steelblue1",style="solid"];
  Node13 -> Node11 [color="steelblue1",style="solid"];
  Node13 -> Node14 [color="steelblue1",style="solid"];
  Node14 [label="graph_tool::maximum\l_bipartite_weighted\l_perfect_matching",height=0.2,width=0.4,color="grey40", fillcolor="white", style="filled",URL="$namespacegraph__tool.html#a35462bc5ea627d1ee91177535c680038",tooltip=" "];
  Node14 -> Node6 [color="steelblue1",style="solid"];
  Node14 -> Node7 [color="steelblue1",style="solid"];
  Node14 -> Node15 [color="steelblue1",style="solid"];
  Node15 [label="boost::edge",height=0.2,width=0.4,color="grey40", fillcolor="white", style="filled",URL="$namespaceboost.html#a598b4480c610319f1d97be25667c6e56",tooltip=" "];
  Node15 -> Node15 [color="steelblue1",style="solid"];
  Node15 -> Node4 [color="steelblue1",style="solid"];
  Node14 -> Node8 [color="steelblue1",style="solid"];
  Node14 -> Node3 [color="steelblue1",style="solid"];
  Node14 -> Node16 [color="steelblue1",style="solid"];
  Node16 [label="boost::in_degree",height=0.2,width=0.4,color="grey40", fillcolor="white", style="filled",URL="$namespaceboost.html#aae9c29dc182236ee5b058b9e63c0d70a",tooltip=" "];
  Node14 -> Node17 [color="steelblue1",style="solid"];
  Node17 [label="boost::num_vertices",height=0.2,width=0.4,color="grey40", fillcolor="white", style="filled",URL="$namespaceboost.html#ac848f876a7fa2caa8fb1879b7c522ebc",tooltip=" "];
  Node17 -> Node17 [color="steelblue1",style="solid"];
  Node17 -> Node4 [color="steelblue1",style="solid"];
  Node14 -> Node18 [color="steelblue1",style="solid"];
  Node18 [label="boost::out_degree",height=0.2,width=0.4,color="grey40", fillcolor="white", style="filled",URL="$namespaceboost.html#ac2aab26c4c5fb471f6eef10ae4496089",tooltip=" "];
  Node18 -> Node19 [color="steelblue1",style="solid"];
  Node19 [label="boost::degree",height=0.2,width=0.4,color="grey40", fillcolor="white", style="filled",URL="$namespaceboost.html#ac08426adc887cd2f50850eb97baaae7d",tooltip=" "];
  Node19 -> Node18 [color="steelblue1",style="solid"];
  Node18 -> Node4 [color="steelblue1",style="solid"];
  Node14 -> Node20 [color="steelblue1",style="solid"];
  Node20 [label="graph_tool::out_edges\l_range",height=0.2,width=0.4,color="grey40", fillcolor="white", style="filled",URL="$namespacegraph__tool.html#a347f8a3e503c35e8a4d54184d8d90a6f",tooltip=" "];
  Node20 -> Node10 [color="steelblue1",style="solid"];
  Node14 -> Node21 [color="steelblue1",style="solid"];
  Node21 [label="graph_tool::out_neighbors\l_range",height=0.2,width=0.4,color="grey40", fillcolor="white", style="filled",URL="$namespacegraph__tool.html#a839ad7b0e6f54ea9e6b0f1bb55a7b19c",tooltip=" "];
  Node21 -> Node10 [color="steelblue1",style="solid"];
  Node21 -> Node22 [color="steelblue1",style="solid"];
  Node22 [label="boost::out_neighbors",height=0.2,width=0.4,color="grey40", fillcolor="white", style="filled",URL="$namespaceboost.html#a57f92469ea1bdd1e62a67f2bbd781fea",tooltip=" "];
  Node22 -> Node23 [color="steelblue1",style="solid"];
  Node23 [label="boost::all_neighbors",height=0.2,width=0.4,color="grey40", fillcolor="white", style="filled",URL="$namespaceboost.html#aa79739d31ce142279771d2b585c3dc8a",tooltip=" "];
  Node23 -> Node22 [color="steelblue1",style="solid"];
  Node22 -> Node4 [color="steelblue1",style="solid"];
  Node14 -> Node24 [color="steelblue1",style="solid"];
  Node24 [label="boost::remove_edge",height=0.2,width=0.4,color="grey40", fillcolor="white", style="filled",URL="$namespaceboost.html#a45af224fa845fa533ba00155abf50467",tooltip=" "];
  Node24 -> Node15 [color="steelblue1",style="solid"];
  Node24 -> Node24 [color="steelblue1",style="solid"];
  Node14 -> Node25 [color="steelblue1",style="solid"];
  Node25 [label="boost::adj_list::set\l_keep_epos",height=0.2,width=0.4,color="grey40", fillcolor="white", style="filled",URL="$classboost_1_1adj__list.html#a854aaa5cdac7fd6f0ca7b607d62dc1f0",tooltip=" "];
  Node14 -> Node26 [color="steelblue1",style="solid"];
  Node26 [label="graph_tool::source",height=0.2,width=0.4,color="grey40", fillcolor="white", style="filled",URL="$namespacegraph__tool.html#a0b44c0af404cec1513acb7b9602557f8",tooltip=" "];
  Node26 -> Node9 [color="steelblue1",style="solid"];
  Node26 -> Node26 [color="steelblue1",style="solid"];
  Node26 -> Node27 [color="steelblue1",style="solid"];
  Node27 [label="graph_tool::target",height=0.2,width=0.4,color="grey40", fillcolor="white", style="filled",URL="$namespacegraph__tool.html#aff9f07ca294560a9de57ab80deffa0cc",tooltip=" "];
  Node27 -> Node9 [color="steelblue1",style="solid"];
  Node27 -> Node26 [color="steelblue1",style="solid"];
  Node27 -> Node27 [color="steelblue1",style="solid"];
  Node14 -> Node27 [color="steelblue1",style="solid"];
  Node14 -> Node28 [color="steelblue1",style="solid"];
  Node28 [label="boost::vertices",height=0.2,width=0.4,color="grey40", fillcolor="white", style="filled",URL="$namespaceboost.html#a0bc22071c353fa26cd0d16cc817ddde2",tooltip=" "];
  Node28 -> Node4 [color="steelblue1",style="solid"];
  Node28 -> Node28 [color="steelblue1",style="solid"];
  Node14 -> Node29 [color="steelblue1",style="solid"];
  Node29 [label="graph_tool::vertices\l_range",height=0.2,width=0.4,color="grey40", fillcolor="white", style="filled",URL="$namespacegraph__tool.html#a92ab479b81d8c9a030d42854fefabf1a",tooltip=" "];
  Node29 -> Node10 [color="steelblue1",style="solid"];
  Node29 -> Node28 [color="steelblue1",style="solid"];
  Node13 -> Node17 [color="steelblue1",style="solid"];
  Node13 -> Node26 [color="steelblue1",style="solid"];
  Node13 -> Node27 [color="steelblue1",style="solid"];
  Node13 -> Node28 [color="steelblue1",style="solid"];
  Node13 -> Node29 [color="steelblue1",style="solid"];
  Node5 -> Node17 [color="steelblue1",style="solid"];
  Node5 -> Node26 [color="steelblue1",style="solid"];
  Node5 -> Node27 [color="steelblue1",style="solid"];
  Node5 -> Node28 [color="steelblue1",style="solid"];
  Node5 -> Node29 [color="steelblue1",style="solid"];
  Node2 -> Node29 [color="steelblue1",style="solid"];
  Node1 -> Node30 [color="steelblue1",style="solid"];
  Node30 [label="get_max_matching",height=0.2,width=0.4,color="grey40", fillcolor="white", style="filled",URL="$graph__matching_8cc.html#aabc598297129ccf76490b5253fd559d4",tooltip=" "];
  Node30 -> Node3 [color="steelblue1",style="solid"];
  Node30 -> Node29 [color="steelblue1",style="solid"];
  Node1 -> Node31 [color="steelblue1",style="solid"];
  Node31 [label="get_max_weighted_matching",height=0.2,width=0.4,color="grey40", fillcolor="white", style="filled",URL="$graph__matching_8cc.html#a3990dfa644ac1b4f78e499ff5d7432d4",tooltip=" "];
  Node31 -> Node3 [color="steelblue1",style="solid"];
  Node31 -> Node29 [color="steelblue1",style="solid"];
  Node1 -> Node32 [color="steelblue1",style="solid"];
  Node32 [label="match_edges",height=0.2,width=0.4,color="grey40", fillcolor="white", style="filled",URL="$graph__matching_8cc.html#a7f5cbbe2776eb83a8a70da2d955833a3",tooltip=" "];
  Node32 -> Node15 [color="steelblue1",style="solid"];
  Node32 -> Node17 [color="steelblue1",style="solid"];
  Node32 -> Node29 [color="steelblue1",style="solid"];
}
