digraph "/home/man/Documents/graph-tool-cmake/src/graph/topology/graph_similarity_imp.cc"
{
 // LATEX_PDF_SIZE
  bgcolor="transparent";
  edge [fontname=Helvetica,fontsize=10,labelfontname=Helvetica,labelfontsize=10];
  node [fontname=Helvetica,fontsize=10,shape=box,height=0.2,width=0.4];
  Node1 [label="/home/man/Documents\l/graph-tool-cmake/src\l/graph/topology/graph\l_similarity_imp.cc",height=0.2,width=0.4,color="gray40", fillcolor="grey60", style="filled", fontcolor="black",tooltip=" "];
  Node1 -> Node2 [color="steelblue1",style="solid"];
  Node2 [label="graph_python_interface.hh",height=0.2,width=0.4,color="grey40", fillcolor="white", style="filled",URL="$graph__python__interface_8hh.html",tooltip=" "];
  Node2 -> Node3 [color="steelblue1",style="solid"];
  Node3 [label="boost/python.hpp",height=0.2,width=0.4,color="grey60", fillcolor="#E0E0E0", style="filled",tooltip=" "];
  Node2 -> Node4 [color="steelblue1",style="solid"];
  Node4 [label="boost/graph/graph_traits.hpp",height=0.2,width=0.4,color="grey60", fillcolor="#E0E0E0", style="filled",tooltip=" "];
  Node2 -> Node5 [color="steelblue1",style="solid"];
  Node5 [label="boost/property_map\l/dynamic_property_map.hpp",height=0.2,width=0.4,color="grey60", fillcolor="#E0E0E0", style="filled",tooltip=" "];
  Node2 -> Node6 [color="steelblue1",style="solid"];
  Node6 [label="graph.hh",height=0.2,width=0.4,color="grey40", fillcolor="white", style="filled",URL="$graph_8hh.html",tooltip=" "];
  Node6 -> Node7 [color="steelblue1",style="solid"];
  Node7 [label="config.h",height=0.2,width=0.4,color="grey60", fillcolor="#E0E0E0", style="filled",tooltip=" "];
  Node6 -> Node8 [color="steelblue1",style="solid"];
  Node8 [label="iterator",height=0.2,width=0.4,color="grey60", fillcolor="#E0E0E0", style="filled",tooltip=" "];
  Node6 -> Node9 [color="steelblue1",style="solid"];
  Node9 [label="boost/python/object.hpp",height=0.2,width=0.4,color="grey60", fillcolor="#E0E0E0", style="filled",tooltip=" "];
  Node6 -> Node10 [color="steelblue1",style="solid"];
  Node10 [label="boost/python/list.hpp",height=0.2,width=0.4,color="grey60", fillcolor="#E0E0E0", style="filled",tooltip=" "];
  Node6 -> Node11 [color="steelblue1",style="solid"];
  Node11 [label="boost/python/tuple.hpp",height=0.2,width=0.4,color="grey60", fillcolor="#E0E0E0", style="filled",tooltip=" "];
  Node6 -> Node12 [color="steelblue1",style="solid"];
  Node12 [label="boost/any.hpp",height=0.2,width=0.4,color="grey60", fillcolor="#E0E0E0", style="filled",tooltip=" "];
  Node6 -> Node13 [color="steelblue1",style="solid"];
  Node13 [label="graph_adjacency.hh",height=0.2,width=0.4,color="red", fillcolor="#FFF0F0", style="filled",URL="$graph__adjacency_8hh.html",tooltip=" "];
  Node13 -> Node14 [color="steelblue1",style="solid"];
  Node14 [label="vector",height=0.2,width=0.4,color="grey60", fillcolor="#E0E0E0", style="filled",tooltip=" "];
  Node13 -> Node16 [color="steelblue1",style="solid"];
  Node16 [label="utility",height=0.2,width=0.4,color="grey60", fillcolor="#E0E0E0", style="filled",tooltip=" "];
  Node13 -> Node4 [color="steelblue1",style="solid"];
  Node13 -> Node19 [color="steelblue1",style="solid"];
  Node19 [label="boost/property_map\l/property_map.hpp",height=0.2,width=0.4,color="grey60", fillcolor="#E0E0E0", style="filled",tooltip=" "];
  Node6 -> Node4 [color="steelblue1",style="solid"];
  Node6 -> Node24 [color="steelblue1",style="solid"];
  Node24 [label="fast_vector_property\l_map.hh",height=0.2,width=0.4,color="red", fillcolor="#FFF0F0", style="filled",URL="$fast__vector__property__map_8hh.html",tooltip=" "];
  Node24 -> Node19 [color="steelblue1",style="solid"];
  Node24 -> Node14 [color="steelblue1",style="solid"];
  Node6 -> Node26 [color="steelblue1",style="solid"];
  Node26 [label="boost/variant.hpp",height=0.2,width=0.4,color="grey60", fillcolor="#E0E0E0", style="filled",tooltip=" "];
  Node6 -> Node27 [color="steelblue1",style="solid"];
  Node27 [label="boost/mpl/bool_fwd.hpp",height=0.2,width=0.4,color="grey60", fillcolor="#E0E0E0", style="filled",tooltip=" "];
  Node6 -> Node28 [color="steelblue1",style="solid"];
  Node28 [label="graph_properties.hh",height=0.2,width=0.4,color="grey40", fillcolor="white", style="filled",URL="$graph__properties_8hh.html",tooltip=" "];
  Node28 -> Node29 [color="steelblue1",style="solid"];
  Node29 [label="string",height=0.2,width=0.4,color="grey60", fillcolor="#E0E0E0", style="filled",tooltip=" "];
  Node28 -> Node14 [color="steelblue1",style="solid"];
  Node28 -> Node30 [color="steelblue1",style="solid"];
  Node30 [label="unordered_map",height=0.2,width=0.4,color="grey60", fillcolor="#E0E0E0", style="filled",tooltip=" "];
  Node28 -> Node31 [color="steelblue1",style="solid"];
  Node31 [label="boost/functional/hash.hpp",height=0.2,width=0.4,color="grey60", fillcolor="#E0E0E0", style="filled",tooltip=" "];
  Node28 -> Node9 [color="steelblue1",style="solid"];
  Node28 -> Node32 [color="steelblue1",style="solid"];
  Node32 [label="boost/python/extract.hpp",height=0.2,width=0.4,color="grey60", fillcolor="#E0E0E0", style="filled",tooltip=" "];
  Node28 -> Node33 [color="steelblue1",style="solid"];
  Node33 [label="boost/lexical_cast.hpp",height=0.2,width=0.4,color="grey60", fillcolor="#E0E0E0", style="filled",tooltip=" "];
  Node28 -> Node19 [color="steelblue1",style="solid"];
  Node28 -> Node24 [color="steelblue1",style="solid"];
  Node28 -> Node34 [color="steelblue1",style="solid"];
  Node34 [label="boost/mpl/vector.hpp",height=0.2,width=0.4,color="grey60", fillcolor="#E0E0E0", style="filled",tooltip=" "];
  Node28 -> Node35 [color="steelblue1",style="solid"];
  Node35 [label="boost/mpl/for_each.hpp",height=0.2,width=0.4,color="grey60", fillcolor="#E0E0E0", style="filled",tooltip=" "];
  Node28 -> Node36 [color="steelblue1",style="solid"];
  Node36 [label="boost/mpl/transform.hpp",height=0.2,width=0.4,color="grey60", fillcolor="#E0E0E0", style="filled",tooltip=" "];
  Node28 -> Node37 [color="steelblue1",style="solid"];
  Node37 [label="boost/mpl/find.hpp",height=0.2,width=0.4,color="grey60", fillcolor="#E0E0E0", style="filled",tooltip=" "];
  Node28 -> Node38 [color="steelblue1",style="solid"];
  Node38 [label="boost/mpl/bind.hpp",height=0.2,width=0.4,color="grey60", fillcolor="#E0E0E0", style="filled",tooltip=" "];
  Node28 -> Node39 [color="steelblue1",style="solid"];
  Node39 [label="graph_exceptions.hh",height=0.2,width=0.4,color="grey40", fillcolor="white", style="filled",URL="$graph__exceptions_8hh.html",tooltip=" "];
  Node39 -> Node7 [color="steelblue1",style="solid"];
  Node39 -> Node29 [color="steelblue1",style="solid"];
  Node2 -> Node40 [color="steelblue1",style="solid"];
  Node40 [label="graph_filtering.hh",height=0.2,width=0.4,color="grey40", fillcolor="white", style="filled",URL="$graph__filtering_8hh.html",tooltip=" "];
  Node40 -> Node6 [color="steelblue1",style="solid"];
  Node40 -> Node41 [color="steelblue1",style="solid"];
  Node41 [label="boost/version.hpp",height=0.2,width=0.4,color="grey60", fillcolor="#E0E0E0", style="filled",tooltip=" "];
  Node40 -> Node4 [color="steelblue1",style="solid"];
  Node40 -> Node34 [color="steelblue1",style="solid"];
  Node40 -> Node42 [color="steelblue1",style="solid"];
  Node42 [label="boost/mpl/if.hpp",height=0.2,width=0.4,color="grey60", fillcolor="#E0E0E0", style="filled",tooltip=" "];
  Node40 -> Node43 [color="steelblue1",style="solid"];
  Node43 [label="boost/mpl/logical.hpp",height=0.2,width=0.4,color="grey60", fillcolor="#E0E0E0", style="filled",tooltip=" "];
  Node40 -> Node44 [color="steelblue1",style="solid"];
  Node44 [label="boost/mpl/back_inserter.hpp",height=0.2,width=0.4,color="grey60", fillcolor="#E0E0E0", style="filled",tooltip=" "];
  Node40 -> Node45 [color="steelblue1",style="solid"];
  Node45 [label="boost/mpl/assert.hpp",height=0.2,width=0.4,color="grey60", fillcolor="#E0E0E0", style="filled",tooltip=" "];
  Node40 -> Node46 [color="steelblue1",style="solid"];
  Node46 [label="graph_adaptor.hh",height=0.2,width=0.4,color="red", fillcolor="#FFF0F0", style="filled",URL="$graph__adaptor_8hh.html",tooltip=" "];
  Node46 -> Node4 [color="steelblue1",style="solid"];
  Node40 -> Node49 [color="steelblue1",style="solid"];
  Node49 [label="graph_filtered.hh",height=0.2,width=0.4,color="red", fillcolor="#FFF0F0", style="filled",URL="$graph__filtered_8hh.html",tooltip=" "];
  Node49 -> Node4 [color="steelblue1",style="solid"];
  Node40 -> Node53 [color="steelblue1",style="solid"];
  Node53 [label="graph_reverse.hh",height=0.2,width=0.4,color="red", fillcolor="#FFF0F0", style="filled",URL="$graph__reverse_8hh.html",tooltip=" "];
  Node53 -> Node16 [color="steelblue1",style="solid"];
  Node40 -> Node54 [color="steelblue1",style="solid"];
  Node54 [label="graph_util.hh",height=0.2,width=0.4,color="red", fillcolor="#FFF0F0", style="filled",URL="$graph__util_8hh.html",tooltip=" "];
  Node54 -> Node34 [color="steelblue1",style="solid"];
  Node54 -> Node4 [color="steelblue1",style="solid"];
  Node54 -> Node33 [color="steelblue1",style="solid"];
  Node54 -> Node29 [color="steelblue1",style="solid"];
  Node54 -> Node31 [color="steelblue1",style="solid"];
  Node54 -> Node59 [color="steelblue1",style="solid"];
  Node59 [label="graph_selectors.hh",height=0.2,width=0.4,color="red", fillcolor="#FFF0F0", style="filled",URL="$graph__selectors_8hh.html",tooltip=" "];
  Node59 -> Node16 [color="steelblue1",style="solid"];
  Node59 -> Node60 [color="steelblue1",style="solid"];
  Node60 [label="type_traits",height=0.2,width=0.4,color="grey60", fillcolor="#E0E0E0", style="filled",tooltip=" "];
  Node59 -> Node61 [color="steelblue1",style="solid"];
  Node61 [label="boost/mpl/pair.hpp",height=0.2,width=0.4,color="grey60", fillcolor="#E0E0E0", style="filled",tooltip=" "];
  Node59 -> Node62 [color="steelblue1",style="solid"];
  Node62 [label="boost/mpl/map.hpp",height=0.2,width=0.4,color="grey60", fillcolor="#E0E0E0", style="filled",tooltip=" "];
  Node59 -> Node34 [color="steelblue1",style="solid"];
  Node59 -> Node36 [color="steelblue1",style="solid"];
  Node59 -> Node45 [color="steelblue1",style="solid"];
  Node59 -> Node44 [color="steelblue1",style="solid"];
  Node59 -> Node12 [color="steelblue1",style="solid"];
  Node59 -> Node4 [color="steelblue1",style="solid"];
  Node59 -> Node28 [color="steelblue1",style="solid"];
  Node59 -> Node6 [color="steelblue1",style="solid"];
  Node54 -> Node49 [color="steelblue1",style="solid"];
  Node40 -> Node64 [color="steelblue1",style="solid"];
  Node64 [label="mpl_nested_loop.hh",height=0.2,width=0.4,color="grey40", fillcolor="white", style="filled",URL="$mpl__nested__loop_8hh.html",tooltip=" "];
  Node40 -> Node60 [color="steelblue1",style="solid"];
  Node2 -> Node59 [color="steelblue1",style="solid"];
  Node2 -> Node65 [color="steelblue1",style="solid"];
  Node65 [label="demangle.hh",height=0.2,width=0.4,color="grey40", fillcolor="white", style="filled",URL="$demangle_8hh.html",tooltip=" "];
  Node65 -> Node29 [color="steelblue1",style="solid"];
  Node2 -> Node66 [color="steelblue1",style="solid"];
  Node66 [label="numpy_bind.hh",height=0.2,width=0.4,color="red", fillcolor="#FFF0F0", style="filled",URL="$numpy__bind_8hh.html",tooltip=" "];
  Node66 -> Node14 [color="steelblue1",style="solid"];
  Node66 -> Node3 [color="steelblue1",style="solid"];
  Node66 -> Node62 [color="steelblue1",style="solid"];
  Node66 -> Node61 [color="steelblue1",style="solid"];
  Node66 -> Node65 [color="steelblue1",style="solid"];
  Node2 -> Node71 [color="steelblue1",style="solid"];
  Node71 [label="coroutine.hh",height=0.2,width=0.4,color="grey40", fillcolor="white", style="filled",URL="$coroutine_8hh.html",tooltip=" "];
  Node71 -> Node7 [color="steelblue1",style="solid"];
  Node71 -> Node41 [color="steelblue1",style="solid"];
  Node1 -> Node6 [color="steelblue1",style="solid"];
  Node1 -> Node40 [color="steelblue1",style="solid"];
  Node1 -> Node28 [color="steelblue1",style="solid"];
  Node1 -> Node59 [color="steelblue1",style="solid"];
  Node1 -> Node72 [color="steelblue1",style="solid"];
  Node72 [label="graph_similarity.hh",height=0.2,width=0.4,color="red", fillcolor="#FFF0F0", style="filled",URL="$graph__similarity_8hh.html",tooltip=" "];
}
