digraph "/home/man/Documents/graph-tool-cmake/src/graph/generation/graph_price.hh"
{
 // LATEX_PDF_SIZE
  bgcolor="transparent";
  edge [fontname=Helvetica,fontsize=10,labelfontname=Helvetica,labelfontsize=10];
  node [fontname=Helvetica,fontsize=10,shape=box,height=0.2,width=0.4];
  Node1 [label="/home/man/Documents\l/graph-tool-cmake/src\l/graph/generation/graph\l_price.hh",height=0.2,width=0.4,color="gray40", fillcolor="grey60", style="filled", fontcolor="black",tooltip=" "];
  Node1 -> Node2 [color="steelblue1",style="solid"];
  Node2 [label="boost/functional/hash.hpp",height=0.2,width=0.4,color="grey60", fillcolor="#E0E0E0", style="filled",tooltip=" "];
  Node1 -> Node3 [color="steelblue1",style="solid"];
  Node3 [label="graph_util.hh",height=0.2,width=0.4,color="grey40", fillcolor="white", style="filled",URL="$graph__util_8hh.html",tooltip=" "];
  Node3 -> Node4 [color="steelblue1",style="solid"];
  Node4 [label="boost/mpl/vector.hpp",height=0.2,width=0.4,color="grey60", fillcolor="#E0E0E0", style="filled",tooltip=" "];
  Node3 -> Node5 [color="steelblue1",style="solid"];
  Node5 [label="boost/graph/graph_traits.hpp",height=0.2,width=0.4,color="grey60", fillcolor="#E0E0E0", style="filled",tooltip=" "];
  Node3 -> Node6 [color="steelblue1",style="solid"];
  Node6 [label="boost/algorithm/string\l/split.hpp",height=0.2,width=0.4,color="grey60", fillcolor="#E0E0E0", style="filled",tooltip=" "];
  Node3 -> Node7 [color="steelblue1",style="solid"];
  Node7 [label="boost/algorithm/string\l/trim.hpp",height=0.2,width=0.4,color="grey60", fillcolor="#E0E0E0", style="filled",tooltip=" "];
  Node3 -> Node8 [color="steelblue1",style="solid"];
  Node8 [label="boost/lexical_cast.hpp",height=0.2,width=0.4,color="grey60", fillcolor="#E0E0E0", style="filled",tooltip=" "];
  Node3 -> Node9 [color="steelblue1",style="solid"];
  Node9 [label="boost/range/iterator\l_range.hpp",height=0.2,width=0.4,color="grey60", fillcolor="#E0E0E0", style="filled",tooltip=" "];
  Node3 -> Node10 [color="steelblue1",style="solid"];
  Node10 [label="string",height=0.2,width=0.4,color="grey60", fillcolor="#E0E0E0", style="filled",tooltip=" "];
  Node3 -> Node2 [color="steelblue1",style="solid"];
  Node3 -> Node11 [color="steelblue1",style="solid"];
  Node11 [label="random",height=0.2,width=0.4,color="grey60", fillcolor="#E0E0E0", style="filled",tooltip=" "];
  Node3 -> Node12 [color="steelblue1",style="solid"];
  Node12 [label="graph_selectors.hh",height=0.2,width=0.4,color="grey40", fillcolor="white", style="filled",URL="$graph__selectors_8hh.html",tooltip=" "];
  Node12 -> Node13 [color="steelblue1",style="solid"];
  Node13 [label="utility",height=0.2,width=0.4,color="grey60", fillcolor="#E0E0E0", style="filled",tooltip=" "];
  Node12 -> Node14 [color="steelblue1",style="solid"];
  Node14 [label="type_traits",height=0.2,width=0.4,color="grey60", fillcolor="#E0E0E0", style="filled",tooltip=" "];
  Node12 -> Node15 [color="steelblue1",style="solid"];
  Node15 [label="boost/mpl/pair.hpp",height=0.2,width=0.4,color="grey60", fillcolor="#E0E0E0", style="filled",tooltip=" "];
  Node12 -> Node16 [color="steelblue1",style="solid"];
  Node16 [label="boost/mpl/map.hpp",height=0.2,width=0.4,color="grey60", fillcolor="#E0E0E0", style="filled",tooltip=" "];
  Node12 -> Node17 [color="steelblue1",style="solid"];
  Node17 [label="boost/mpl/at.hpp",height=0.2,width=0.4,color="grey60", fillcolor="#E0E0E0", style="filled",tooltip=" "];
  Node12 -> Node4 [color="steelblue1",style="solid"];
  Node12 -> Node18 [color="steelblue1",style="solid"];
  Node18 [label="boost/mpl/transform.hpp",height=0.2,width=0.4,color="grey60", fillcolor="#E0E0E0", style="filled",tooltip=" "];
  Node12 -> Node19 [color="steelblue1",style="solid"];
  Node19 [label="boost/mpl/assert.hpp",height=0.2,width=0.4,color="grey60", fillcolor="#E0E0E0", style="filled",tooltip=" "];
  Node12 -> Node20 [color="steelblue1",style="solid"];
  Node20 [label="boost/mpl/back_inserter.hpp",height=0.2,width=0.4,color="grey60", fillcolor="#E0E0E0", style="filled",tooltip=" "];
  Node12 -> Node21 [color="steelblue1",style="solid"];
  Node21 [label="boost/any.hpp",height=0.2,width=0.4,color="grey60", fillcolor="#E0E0E0", style="filled",tooltip=" "];
  Node12 -> Node5 [color="steelblue1",style="solid"];
  Node12 -> Node22 [color="steelblue1",style="solid"];
  Node22 [label="graph_properties.hh",height=0.2,width=0.4,color="grey40", fillcolor="white", style="filled",URL="$graph__properties_8hh.html",tooltip=" "];
  Node22 -> Node10 [color="steelblue1",style="solid"];
  Node22 -> Node23 [color="steelblue1",style="solid"];
  Node23 [label="vector",height=0.2,width=0.4,color="grey60", fillcolor="#E0E0E0", style="filled",tooltip=" "];
  Node22 -> Node24 [color="steelblue1",style="solid"];
  Node24 [label="unordered_map",height=0.2,width=0.4,color="grey60", fillcolor="#E0E0E0", style="filled",tooltip=" "];
  Node22 -> Node2 [color="steelblue1",style="solid"];
  Node22 -> Node25 [color="steelblue1",style="solid"];
  Node25 [label="boost/python/object.hpp",height=0.2,width=0.4,color="grey60", fillcolor="#E0E0E0", style="filled",tooltip=" "];
  Node22 -> Node26 [color="steelblue1",style="solid"];
  Node26 [label="boost/python/extract.hpp",height=0.2,width=0.4,color="grey60", fillcolor="#E0E0E0", style="filled",tooltip=" "];
  Node22 -> Node8 [color="steelblue1",style="solid"];
  Node22 -> Node27 [color="steelblue1",style="solid"];
  Node27 [label="boost/property_map\l/property_map.hpp",height=0.2,width=0.4,color="grey60", fillcolor="#E0E0E0", style="filled",tooltip=" "];
  Node22 -> Node28 [color="steelblue1",style="solid"];
  Node28 [label="fast_vector_property\l_map.hh",height=0.2,width=0.4,color="red", fillcolor="#FFF0F0", style="filled",URL="$fast__vector__property__map_8hh.html",tooltip=" "];
  Node28 -> Node27 [color="steelblue1",style="solid"];
  Node28 -> Node23 [color="steelblue1",style="solid"];
  Node22 -> Node4 [color="steelblue1",style="solid"];
  Node22 -> Node30 [color="steelblue1",style="solid"];
  Node30 [label="boost/mpl/for_each.hpp",height=0.2,width=0.4,color="grey60", fillcolor="#E0E0E0", style="filled",tooltip=" "];
  Node22 -> Node18 [color="steelblue1",style="solid"];
  Node22 -> Node31 [color="steelblue1",style="solid"];
  Node31 [label="boost/mpl/find.hpp",height=0.2,width=0.4,color="grey60", fillcolor="#E0E0E0", style="filled",tooltip=" "];
  Node22 -> Node32 [color="steelblue1",style="solid"];
  Node32 [label="boost/mpl/bind.hpp",height=0.2,width=0.4,color="grey60", fillcolor="#E0E0E0", style="filled",tooltip=" "];
  Node22 -> Node33 [color="steelblue1",style="solid"];
  Node33 [label="graph_exceptions.hh",height=0.2,width=0.4,color="grey40", fillcolor="white", style="filled",URL="$graph__exceptions_8hh.html",tooltip=" "];
  Node33 -> Node34 [color="steelblue1",style="solid"];
  Node34 [label="config.h",height=0.2,width=0.4,color="grey60", fillcolor="#E0E0E0", style="filled",tooltip=" "];
  Node33 -> Node10 [color="steelblue1",style="solid"];
  Node12 -> Node35 [color="steelblue1",style="solid"];
  Node35 [label="graph.hh",height=0.2,width=0.4,color="red", fillcolor="#FFF0F0", style="filled",URL="$graph_8hh.html",tooltip=" "];
  Node35 -> Node34 [color="steelblue1",style="solid"];
  Node35 -> Node36 [color="steelblue1",style="solid"];
  Node36 [label="iterator",height=0.2,width=0.4,color="grey60", fillcolor="#E0E0E0", style="filled",tooltip=" "];
  Node35 -> Node25 [color="steelblue1",style="solid"];
  Node35 -> Node37 [color="steelblue1",style="solid"];
  Node37 [label="boost/python/list.hpp",height=0.2,width=0.4,color="grey60", fillcolor="#E0E0E0", style="filled",tooltip=" "];
  Node35 -> Node38 [color="steelblue1",style="solid"];
  Node38 [label="boost/python/tuple.hpp",height=0.2,width=0.4,color="grey60", fillcolor="#E0E0E0", style="filled",tooltip=" "];
  Node35 -> Node21 [color="steelblue1",style="solid"];
  Node35 -> Node39 [color="steelblue1",style="solid"];
  Node39 [label="graph_adjacency.hh",height=0.2,width=0.4,color="red", fillcolor="#FFF0F0", style="filled",URL="$graph__adjacency_8hh.html",tooltip=" "];
  Node39 -> Node23 [color="steelblue1",style="solid"];
  Node39 -> Node13 [color="steelblue1",style="solid"];
  Node39 -> Node5 [color="steelblue1",style="solid"];
  Node39 -> Node27 [color="steelblue1",style="solid"];
  Node39 -> Node43 [color="steelblue1",style="solid"];
  Node43 [label="boost/graph/properties.hpp",height=0.2,width=0.4,color="grey60", fillcolor="#E0E0E0", style="filled",tooltip=" "];
  Node35 -> Node5 [color="steelblue1",style="solid"];
  Node35 -> Node28 [color="steelblue1",style="solid"];
  Node35 -> Node47 [color="steelblue1",style="solid"];
  Node47 [label="boost/variant.hpp",height=0.2,width=0.4,color="grey60", fillcolor="#E0E0E0", style="filled",tooltip=" "];
  Node35 -> Node22 [color="steelblue1",style="solid"];
  Node3 -> Node49 [color="steelblue1",style="solid"];
  Node49 [label="graph_filtered.hh",height=0.2,width=0.4,color="grey40", fillcolor="white", style="filled",URL="$graph__filtered_8hh.html",tooltip=" "];
  Node49 -> Node5 [color="steelblue1",style="solid"];
  Node49 -> Node43 [color="steelblue1",style="solid"];
  Node49 -> Node50 [color="steelblue1",style="solid"];
  Node50 [label="boost/graph/adjacency\l_iterator.hpp",height=0.2,width=0.4,color="grey60", fillcolor="#E0E0E0", style="filled",tooltip=" "];
  Node49 -> Node51 [color="steelblue1",style="solid"];
  Node51 [label="boost/iterator/filter\l_iterator.hpp",height=0.2,width=0.4,color="grey60", fillcolor="#E0E0E0", style="filled",tooltip=" "];
  Node49 -> Node52 [color="steelblue1",style="solid"];
  Node52 [label="boost/graph/filtered\l_graph.hpp",height=0.2,width=0.4,color="grey60", fillcolor="#E0E0E0", style="filled",tooltip=" "];
  Node1 -> Node53 [color="steelblue1",style="solid"];
  Node53 [label="random.hh",height=0.2,width=0.4,color="grey40", fillcolor="white", style="filled",URL="$random_8hh.html",tooltip=" "];
  Node53 -> Node54 [color="steelblue1",style="solid"];
  Node54 [label="pcg_random.hpp",height=0.2,width=0.4,color="grey60", fillcolor="#E0E0E0", style="filled",tooltip=" "];
  Node1 -> Node55 [color="steelblue1",style="solid"];
  Node55 [label="idx_map.hh",height=0.2,width=0.4,color="grey40", fillcolor="white", style="filled",URL="$idx__map_8hh.html",tooltip=" "];
  Node55 -> Node23 [color="steelblue1",style="solid"];
  Node55 -> Node13 [color="steelblue1",style="solid"];
  Node55 -> Node56 [color="steelblue1",style="solid"];
  Node56 [label="limits",height=0.2,width=0.4,color="grey60", fillcolor="#E0E0E0", style="filled",tooltip=" "];
  Node1 -> Node57 [color="steelblue1",style="solid"];
  Node57 [label="dynamic_sampler.hh",height=0.2,width=0.4,color="grey40", fillcolor="white", style="filled",URL="$dynamic__sampler_8hh.html",tooltip=" "];
  Node57 -> Node53 [color="steelblue1",style="solid"];
  Node57 -> Node58 [color="steelblue1",style="solid"];
  Node58 [label="boost/mpl/if.hpp",height=0.2,width=0.4,color="grey60", fillcolor="#E0E0E0", style="filled",tooltip=" "];
}
