digraph "export_uncertain_state"
{
 // LATEX_PDF_SIZE
  bgcolor="transparent";
  edge [fontname=Helvetica,fontsize=10,labelfontname=Helvetica,labelfontsize=10];
  node [fontname=Helvetica,fontsize=10,shape=box,height=0.2,width=0.4];
  rankdir="LR";
  Node1 [label="export_uncertain_state",height=0.2,width=0.4,color="gray40", fillcolor="grey60", style="filled", fontcolor="black",tooltip=" "];
  Node1 -> Node2 [color="steelblue1",style="solid"];
  Node2 [label="collect_marginal_count\l_dispatch",height=0.2,width=0.4,color="grey40", fillcolor="white", style="filled",URL="$graph__blockmodel__uncertain__marginal_8cc.html#ace63b7345d7f81bdfdcc5b15292947b9",tooltip=" "];
  Node2 -> Node3 [color="steelblue1",style="solid"];
  Node3 [label="graph_tool::collect\l_marginal",height=0.2,width=0.4,color="grey40", fillcolor="white", style="filled",URL="$namespacegraph__tool.html#a2b7b04d1e8d23d585f7648f77bf34a3f",tooltip=" "];
  Node3 -> Node4 [color="steelblue1",style="solid"];
  Node4 [label="boost::add_edge",height=0.2,width=0.4,color="grey40", fillcolor="white", style="filled",URL="$namespaceboost.html#a2ca660300636fcb45d338069833665ae",tooltip=" "];
  Node4 -> Node4 [color="steelblue1",style="solid"];
  Node4 -> Node5 [color="steelblue1",style="solid"];
  Node5 [label="boost::undirected_adaptor\l::original_graph",height=0.2,width=0.4,color="grey40", fillcolor="white", style="filled",URL="$classboost_1_1undirected__adaptor.html#a11e557bb4f3d7c15354f98390f1d3644",tooltip=" "];
  Node3 -> Node6 [color="steelblue1",style="solid"];
  Node6 [label="boost::edge",height=0.2,width=0.4,color="grey40", fillcolor="white", style="filled",URL="$namespaceboost.html#a598b4480c610319f1d97be25667c6e56",tooltip=" "];
  Node6 -> Node6 [color="steelblue1",style="solid"];
  Node6 -> Node5 [color="steelblue1",style="solid"];
  Node3 -> Node7 [color="steelblue1",style="solid"];
  Node7 [label="graph_tool::edges_range",height=0.2,width=0.4,color="grey40", fillcolor="white", style="filled",URL="$namespacegraph__tool.html#a84f027f8994c1005336b0a12eb0c9dc4",tooltip=" "];
  Node7 -> Node8 [color="steelblue1",style="solid"];
  Node8 [label="boost::edges",height=0.2,width=0.4,color="grey40", fillcolor="white", style="filled",URL="$namespaceboost.html#a3ac91f028a5f50644ba12e9e803bb2f8",tooltip=" "];
  Node8 -> Node8 [color="steelblue1",style="solid"];
  Node8 -> Node5 [color="steelblue1",style="solid"];
  Node7 -> Node9 [color="steelblue1",style="solid"];
  Node9 [label="graph_tool::mk_range",height=0.2,width=0.4,color="grey40", fillcolor="white", style="filled",URL="$namespacegraph__tool.html#a6ecc1e46efb4f620acabfe5728f7a2a6",tooltip=" "];
  Node3 -> Node10 [color="steelblue1",style="solid"];
  Node10 [label="boost::get",height=0.2,width=0.4,color="grey40", fillcolor="white", style="filled",URL="$namespaceboost.html#a16c10260e678081f48c16db5bdd0f5ea",tooltip=" "];
  Node10 -> Node10 [color="steelblue1",style="solid"];
  Node10 -> Node5 [color="steelblue1",style="solid"];
  Node3 -> Node11 [color="steelblue1",style="solid"];
  Node11 [label="graph_tool::is_directed",height=0.2,width=0.4,color="grey40", fillcolor="white", style="filled",URL="$namespacegraph__tool.html#a815c22620d9f5756b899dc94e405e2f3",tooltip=" "];
  Node3 -> Node12 [color="steelblue1",style="solid"];
  Node12 [label="boost::put",height=0.2,width=0.4,color="grey40", fillcolor="white", style="filled",URL="$namespaceboost.html#a25c28d0fe87c5bdfa42dfb48f872a33e",tooltip=" "];
  Node12 -> Node5 [color="steelblue1",style="solid"];
  Node12 -> Node12 [color="steelblue1",style="solid"];
  Node3 -> Node13 [color="steelblue1",style="solid"];
  Node13 [label="graph_tool::source",height=0.2,width=0.4,color="grey40", fillcolor="white", style="filled",URL="$namespacegraph__tool.html#a0b44c0af404cec1513acb7b9602557f8",tooltip=" "];
  Node13 -> Node8 [color="steelblue1",style="solid"];
  Node13 -> Node13 [color="steelblue1",style="solid"];
  Node13 -> Node14 [color="steelblue1",style="solid"];
  Node14 [label="graph_tool::target",height=0.2,width=0.4,color="grey40", fillcolor="white", style="filled",URL="$namespacegraph__tool.html#aff9f07ca294560a9de57ab80deffa0cc",tooltip=" "];
  Node14 -> Node8 [color="steelblue1",style="solid"];
  Node14 -> Node13 [color="steelblue1",style="solid"];
  Node14 -> Node14 [color="steelblue1",style="solid"];
  Node3 -> Node14 [color="steelblue1",style="solid"];
  Node3 -> Node15 [color="steelblue1",style="solid"];
  Node15 [label="graph_tool::vertices\l_range",height=0.2,width=0.4,color="grey40", fillcolor="white", style="filled",URL="$namespacegraph__tool.html#a92ab479b81d8c9a030d42854fefabf1a",tooltip=" "];
  Node15 -> Node9 [color="steelblue1",style="solid"];
  Node15 -> Node16 [color="steelblue1",style="solid"];
  Node16 [label="boost::vertices",height=0.2,width=0.4,color="grey40", fillcolor="white", style="filled",URL="$namespaceboost.html#a0bc22071c353fa26cd0d16cc817ddde2",tooltip=" "];
  Node16 -> Node5 [color="steelblue1",style="solid"];
  Node16 -> Node16 [color="steelblue1",style="solid"];
  Node2 -> Node17 [color="steelblue1",style="solid"];
  Node17 [label="graph_tool::GraphInterface\l::get_graph_view",height=0.2,width=0.4,color="grey40", fillcolor="white", style="filled",URL="$classgraph__tool_1_1GraphInterface.html#a0ad81bb24c6df7fda2eaf1c3ac204631",tooltip=" "];
  Node17 -> Node18 [color="steelblue1",style="solid"];
  Node18 [label="check_filtered",height=0.2,width=0.4,color="grey40", fillcolor="white", style="filled",URL="$graph__filtering_8cc.html#ad37c324f3f9b7af208ce7d47bf897459",tooltip=" "];
  Node18 -> Node19 [color="steelblue1",style="solid"];
  Node19 [label="boost::num_vertices",height=0.2,width=0.4,color="grey40", fillcolor="white", style="filled",URL="$namespaceboost.html#ac848f876a7fa2caa8fb1879b7c522ebc",tooltip=" "];
  Node19 -> Node19 [color="steelblue1",style="solid"];
  Node19 -> Node5 [color="steelblue1",style="solid"];
  Node18 -> Node20 [color="steelblue1",style="solid"];
  Node20 [label="graph_tool::retrieve\l_graph_view",height=0.2,width=0.4,color="grey40", fillcolor="white", style="filled",URL="$namespacegraph__tool.html#a9a28e11d0e1410dc1f5a791c7d0302d4",tooltip=" "];
  Node20 -> Node21 [color="steelblue1",style="solid"];
  Node21 [label="graph_tool::GraphInterface\l::get_graph_views",height=0.2,width=0.4,color="grey40", fillcolor="white", style="filled",URL="$classgraph__tool_1_1GraphInterface.html#a30334fa1e71cef4af4236b17d98fbc28",tooltip=" "];
  Node1 -> Node22 [color="steelblue1",style="solid"];
  Node22 [label="collect_marginal_dispatch",height=0.2,width=0.4,color="grey40", fillcolor="white", style="filled",URL="$graph__blockmodel__uncertain__marginal_8cc.html#a65500727285a242b92180f485dbda47b",tooltip=" "];
  Node22 -> Node3 [color="steelblue1",style="solid"];
  Node22 -> Node17 [color="steelblue1",style="solid"];
  Node1 -> Node23 [color="steelblue1",style="solid"];
  Node23 [label="collect_xmarginal_dispatch",height=0.2,width=0.4,color="grey40", fillcolor="white", style="filled",URL="$graph__blockmodel__uncertain__marginal_8cc.html#adc92e50466d4dce2329d08a169fc7d21",tooltip=" "];
  Node23 -> Node3 [color="steelblue1",style="solid"];
  Node23 -> Node17 [color="steelblue1",style="solid"];
  Node1 -> Node8 [color="steelblue1",style="solid"];
  Node1 -> Node24 [color="steelblue1",style="solid"];
  Node24 [label="graph_tool::get_edge_prob",height=0.2,width=0.4,color="grey40", fillcolor="white", style="filled",URL="$namespacegraph__tool.html#a899fb68be32e02f1a34082c669084bf1",tooltip=" "];
  Node24 -> Node25 [color="steelblue1",style="solid"];
  Node25 [label="graph_tool::log_sum_exp",height=0.2,width=0.4,color="grey40", fillcolor="white", style="filled",URL="$namespacegraph__tool.html#a77c498f2d210d50149ed2c892bb7cf14",tooltip=" "];
  Node1 -> Node26 [color="steelblue1",style="solid"];
  Node26 [label="graph_tool::get_edges_prob",height=0.2,width=0.4,color="grey40", fillcolor="white", style="filled",URL="$namespacegraph__tool.html#a9d6687b8471eedf988907aa1c9f78477",tooltip=" "];
  Node26 -> Node8 [color="steelblue1",style="solid"];
  Node26 -> Node24 [color="steelblue1",style="solid"];
  Node1 -> Node17 [color="steelblue1",style="solid"];
  Node1 -> Node27 [color="steelblue1",style="solid"];
  Node27 [label="marginal_count_entropy",height=0.2,width=0.4,color="grey40", fillcolor="white", style="filled",URL="$graph__blockmodel__uncertain__marginal_8cc.html#a94e5ade176fccf3d16242e4d92835d70",tooltip=" "];
  Node27 -> Node17 [color="steelblue1",style="solid"];
  Node27 -> Node28 [color="steelblue1",style="solid"];
  Node28 [label="graph_tool::parallel\l_edge_loop",height=0.2,width=0.4,color="grey40", fillcolor="white", style="filled",URL="$namespacegraph__tool.html#ad32afef89dd41b6181a29713a37e658a",tooltip=" "];
  Node27 -> Node29 [color="steelblue1",style="solid"];
  Node29 [label="graph_tool::safelog_fast",height=0.2,width=0.4,color="grey40", fillcolor="white", style="filled",URL="$namespacegraph__tool.html#a79fcd257f84cbb496bcc1de77c0047d7",tooltip=" "];
  Node29 -> Node30 [color="steelblue1",style="solid"];
  Node30 [label="graph_tool::init_safelog",height=0.2,width=0.4,color="grey40", fillcolor="white", style="filled",URL="$namespacegraph__tool.html#a963421460fa76f55c786dff3f225ca7a",tooltip=" "];
  Node30 -> Node31 [color="steelblue1",style="solid"];
  Node31 [label="graph_tool::safelog",height=0.2,width=0.4,color="grey40", fillcolor="white", style="filled",URL="$namespacegraph__tool.html#a2775c645bfb6f1026c90168f54315c51",tooltip=" "];
  Node29 -> Node31 [color="steelblue1",style="solid"];
  Node27 -> Node32 [color="steelblue1",style="solid"];
  Node32 [label="graph_tool::xlogx_fast",height=0.2,width=0.4,color="grey40", fillcolor="white", style="filled",URL="$namespacegraph__tool.html#acd0efc0f2e935aea4becc57408917365",tooltip=" "];
  Node32 -> Node33 [color="steelblue1",style="solid"];
  Node33 [label="graph_tool::init_xlogx",height=0.2,width=0.4,color="grey40", fillcolor="white", style="filled",URL="$namespacegraph__tool.html#a59a115ed7fe0b83bad2cae1b4cc6bcdd",tooltip=" "];
  Node33 -> Node34 [color="steelblue1",style="solid"];
  Node34 [label="graph_tool::xlogx",height=0.2,width=0.4,color="grey40", fillcolor="white", style="filled",URL="$namespacegraph__tool.html#a9ed75f0f7d682110f07788df5dc472da",tooltip=" "];
  Node34 -> Node31 [color="steelblue1",style="solid"];
  Node32 -> Node34 [color="steelblue1",style="solid"];
  Node1 -> Node35 [color="steelblue1",style="solid"];
  Node35 [label="marginal_graph_lprob",height=0.2,width=0.4,color="grey40", fillcolor="white", style="filled",URL="$graph__blockmodel__uncertain__marginal_8cc.html#af79abfd731bd050670d350dc59df69a7",tooltip=" "];
  Node35 -> Node7 [color="steelblue1",style="solid"];
  Node35 -> Node17 [color="steelblue1",style="solid"];
  Node1 -> Node36 [color="steelblue1",style="solid"];
  Node36 [label="marginal_graph_sample",height=0.2,width=0.4,color="grey40", fillcolor="white", style="filled",URL="$graph__blockmodel__uncertain__marginal_8cc.html#a31e057eba3aac1825aa23b7bd3f4cb7f",tooltip=" "];
  Node36 -> Node37 [color="steelblue1",style="solid"];
  Node37 [label="parallel_rng::get",height=0.2,width=0.4,color="grey40", fillcolor="white", style="filled",URL="$classparallel__rng.html#afd65996eec87d3e27d8146841fbf8201",tooltip=" "];
  Node36 -> Node17 [color="steelblue1",style="solid"];
  Node36 -> Node38 [color="steelblue1",style="solid"];
  Node38 [label="parallel_rng::init",height=0.2,width=0.4,color="grey40", fillcolor="white", style="filled",URL="$classparallel__rng.html#a10056b36b2f7ef44e1238fb15e01e39d",tooltip=" "];
  Node36 -> Node28 [color="steelblue1",style="solid"];
  Node1 -> Node39 [color="steelblue1",style="solid"];
  Node39 [label="marginal_multigraph\l_lprob",height=0.2,width=0.4,color="grey40", fillcolor="white", style="filled",URL="$graph__blockmodel__uncertain__marginal_8cc.html#aae27ff1f0717f2d4b3af1b01a2e8591c",tooltip=" "];
  Node39 -> Node7 [color="steelblue1",style="solid"];
  Node39 -> Node17 [color="steelblue1",style="solid"];
  Node1 -> Node40 [color="steelblue1",style="solid"];
  Node40 [label="marginal_multigraph\l_sample",height=0.2,width=0.4,color="grey40", fillcolor="white", style="filled",URL="$graph__blockmodel__uncertain__marginal_8cc.html#a58be5f88881fd68217a1582b4438495c",tooltip=" "];
  Node40 -> Node37 [color="steelblue1",style="solid"];
  Node40 -> Node17 [color="steelblue1",style="solid"];
  Node40 -> Node38 [color="steelblue1",style="solid"];
  Node40 -> Node28 [color="steelblue1",style="solid"];
  Node40 -> Node41 [color="steelblue1",style="solid"];
  Node41 [label="graph_tool::Sampler\l::sample",height=0.2,width=0.4,color="grey40", fillcolor="white", style="filled",URL="$classgraph__tool_1_1Sampler.html#af3e807cbef2bbf3e5226e428bc6fc3b3",tooltip=" "];
  Node1 -> Node42 [color="steelblue1",style="solid"];
  Node42 [label="name_demangle",height=0.2,width=0.4,color="grey40", fillcolor="white", style="filled",URL="$demangle_8cc.html#a1ae3cdbca103f0ab9f6fe6a9cd40b3e0",tooltip=" "];
  Node1 -> Node43 [color="steelblue1",style="solid"];
  Node43 [label="graph_tool::set_state",height=0.2,width=0.4,color="grey40", fillcolor="white", style="filled",URL="$namespacegraph__tool.html#a7be574cb28a4f8be0e2744d04504bd32",tooltip=" "];
  Node43 -> Node7 [color="steelblue1",style="solid"];
  Node43 -> Node44 [color="steelblue1",style="solid"];
  Node44 [label="graph_tool::out_edges\l_range",height=0.2,width=0.4,color="grey40", fillcolor="white", style="filled",URL="$namespacegraph__tool.html#a347f8a3e503c35e8a4d54184d8d90a6f",tooltip=" "];
  Node44 -> Node9 [color="steelblue1",style="solid"];
  Node43 -> Node13 [color="steelblue1",style="solid"];
  Node43 -> Node14 [color="steelblue1",style="solid"];
  Node43 -> Node15 [color="steelblue1",style="solid"];
}
