digraph "/home/man/Documents/graph-tool-cmake/src/graph/inference/blockmodel/graph_blockmodel_imp2.cc"
{
 // LATEX_PDF_SIZE
  bgcolor="transparent";
  edge [fontname=Helvetica,fontsize=10,labelfontname=Helvetica,labelfontsize=10];
  node [fontname=Helvetica,fontsize=10,shape=box,height=0.2,width=0.4];
  Node1 [label="/home/man/Documents\l/graph-tool-cmake/src\l/graph/inference/blockmodel\l/graph_blockmodel_imp2.cc",height=0.2,width=0.4,color="gray40", fillcolor="grey60", style="filled", fontcolor="black",tooltip=" "];
  Node1 -> Node2 [color="steelblue1",style="solid"];
  Node2 [label="graph_tool.hh",height=0.2,width=0.4,color="grey40", fillcolor="white", style="filled",URL="$graph__tool_8hh.html",tooltip=" "];
  Node2 -> Node3 [color="steelblue1",style="solid"];
  Node3 [label="graph.hh",height=0.2,width=0.4,color="grey40", fillcolor="white", style="filled",URL="$graph_8hh.html",tooltip=" "];
  Node3 -> Node4 [color="steelblue1",style="solid"];
  Node4 [label="config.h",height=0.2,width=0.4,color="grey60", fillcolor="#E0E0E0", style="filled",tooltip=" "];
  Node3 -> Node5 [color="steelblue1",style="solid"];
  Node5 [label="iterator",height=0.2,width=0.4,color="grey60", fillcolor="#E0E0E0", style="filled",tooltip=" "];
  Node3 -> Node6 [color="steelblue1",style="solid"];
  Node6 [label="boost/python/object.hpp",height=0.2,width=0.4,color="grey60", fillcolor="#E0E0E0", style="filled",tooltip=" "];
  Node3 -> Node7 [color="steelblue1",style="solid"];
  Node7 [label="boost/python/list.hpp",height=0.2,width=0.4,color="grey60", fillcolor="#E0E0E0", style="filled",tooltip=" "];
  Node3 -> Node8 [color="steelblue1",style="solid"];
  Node8 [label="boost/python/tuple.hpp",height=0.2,width=0.4,color="grey60", fillcolor="#E0E0E0", style="filled",tooltip=" "];
  Node3 -> Node9 [color="steelblue1",style="solid"];
  Node9 [label="boost/any.hpp",height=0.2,width=0.4,color="grey60", fillcolor="#E0E0E0", style="filled",tooltip=" "];
  Node3 -> Node10 [color="steelblue1",style="solid"];
  Node10 [label="graph_adjacency.hh",height=0.2,width=0.4,color="red", fillcolor="#FFF0F0", style="filled",URL="$graph__adjacency_8hh.html",tooltip=" "];
  Node10 -> Node11 [color="steelblue1",style="solid"];
  Node11 [label="vector",height=0.2,width=0.4,color="grey60", fillcolor="#E0E0E0", style="filled",tooltip=" "];
  Node10 -> Node15 [color="steelblue1",style="solid"];
  Node15 [label="boost/graph/graph_traits.hpp",height=0.2,width=0.4,color="grey60", fillcolor="#E0E0E0", style="filled",tooltip=" "];
  Node3 -> Node15 [color="steelblue1",style="solid"];
  Node3 -> Node22 [color="steelblue1",style="solid"];
  Node22 [label="fast_vector_property\l_map.hh",height=0.2,width=0.4,color="red", fillcolor="#FFF0F0", style="filled",URL="$fast__vector__property__map_8hh.html",tooltip=" "];
  Node22 -> Node23 [color="steelblue1",style="solid"];
  Node23 [label="memory",height=0.2,width=0.4,color="grey60", fillcolor="#E0E0E0", style="filled",tooltip=" "];
  Node22 -> Node11 [color="steelblue1",style="solid"];
  Node3 -> Node24 [color="steelblue1",style="solid"];
  Node24 [label="boost/variant.hpp",height=0.2,width=0.4,color="grey60", fillcolor="#E0E0E0", style="filled",tooltip=" "];
  Node3 -> Node25 [color="steelblue1",style="solid"];
  Node25 [label="boost/mpl/bool_fwd.hpp",height=0.2,width=0.4,color="grey60", fillcolor="#E0E0E0", style="filled",tooltip=" "];
  Node3 -> Node26 [color="steelblue1",style="solid"];
  Node26 [label="graph_properties.hh",height=0.2,width=0.4,color="red", fillcolor="#FFF0F0", style="filled",URL="$graph__properties_8hh.html",tooltip=" "];
  Node26 -> Node11 [color="steelblue1",style="solid"];
  Node26 -> Node6 [color="steelblue1",style="solid"];
  Node26 -> Node22 [color="steelblue1",style="solid"];
  Node26 -> Node32 [color="steelblue1",style="solid"];
  Node32 [label="boost/mpl/vector.hpp",height=0.2,width=0.4,color="grey60", fillcolor="#E0E0E0", style="filled",tooltip=" "];
  Node2 -> Node38 [color="steelblue1",style="solid"];
  Node38 [label="graph_filtering.hh",height=0.2,width=0.4,color="red", fillcolor="#FFF0F0", style="filled",URL="$graph__filtering_8hh.html",tooltip=" "];
  Node38 -> Node3 [color="steelblue1",style="solid"];
  Node38 -> Node39 [color="steelblue1",style="solid"];
  Node39 [label="boost/version.hpp",height=0.2,width=0.4,color="grey60", fillcolor="#E0E0E0", style="filled",tooltip=" "];
  Node38 -> Node15 [color="steelblue1",style="solid"];
  Node38 -> Node32 [color="steelblue1",style="solid"];
  Node38 -> Node40 [color="steelblue1",style="solid"];
  Node40 [label="boost/mpl/if.hpp",height=0.2,width=0.4,color="grey60", fillcolor="#E0E0E0", style="filled",tooltip=" "];
  Node38 -> Node52 [color="steelblue1",style="solid"];
  Node52 [label="graph_util.hh",height=0.2,width=0.4,color="red", fillcolor="#FFF0F0", style="filled",URL="$graph__util_8hh.html",tooltip=" "];
  Node52 -> Node32 [color="steelblue1",style="solid"];
  Node52 -> Node15 [color="steelblue1",style="solid"];
  Node52 -> Node57 [color="steelblue1",style="solid"];
  Node57 [label="graph_selectors.hh",height=0.2,width=0.4,color="red", fillcolor="#FFF0F0", style="filled",URL="$graph__selectors_8hh.html",tooltip=" "];
  Node57 -> Node32 [color="steelblue1",style="solid"];
  Node57 -> Node9 [color="steelblue1",style="solid"];
  Node57 -> Node15 [color="steelblue1",style="solid"];
  Node57 -> Node26 [color="steelblue1",style="solid"];
  Node57 -> Node3 [color="steelblue1",style="solid"];
  Node2 -> Node26 [color="steelblue1",style="solid"];
  Node2 -> Node57 [color="steelblue1",style="solid"];
  Node1 -> Node63 [color="steelblue1",style="solid"];
  Node63 [label="random.hh",height=0.2,width=0.4,color="grey40", fillcolor="white", style="filled",URL="$random_8hh.html",tooltip=" "];
  Node63 -> Node64 [color="steelblue1",style="solid"];
  Node64 [label="pcg_random.hpp",height=0.2,width=0.4,color="grey60", fillcolor="#E0E0E0", style="filled",tooltip=" "];
  Node1 -> Node65 [color="steelblue1",style="solid"];
  Node65 [label="boost/python.hpp",height=0.2,width=0.4,color="grey60", fillcolor="#E0E0E0", style="filled",tooltip=" "];
  Node1 -> Node66 [color="steelblue1",style="solid"];
  Node66 [label="graph_blockmodel_util.hh",height=0.2,width=0.4,color="grey40", fillcolor="white", style="filled",URL="$graph__blockmodel__util_8hh.html",tooltip=" "];
  Node66 -> Node4 [color="steelblue1",style="solid"];
  Node66 -> Node67 [color="steelblue1",style="solid"];
  Node67 [label="graph_blockmodel_entropy.hh",height=0.2,width=0.4,color="red", fillcolor="#FFF0F0", style="filled",URL="$graph__blockmodel__entropy_8hh.html",tooltip=" "];
  Node66 -> Node71 [color="steelblue1",style="solid"];
  Node71 [label="graph_blockmodel_partition.hh",height=0.2,width=0.4,color="red", fillcolor="#FFF0F0", style="filled",URL="$graph__blockmodel__partition_8hh.html",tooltip=" "];
  Node66 -> Node79 [color="steelblue1",style="solid"];
  Node79 [label="graph_blockmodel_entries.hh",height=0.2,width=0.4,color="grey40", fillcolor="white", style="filled",URL="$graph__blockmodel__entries_8hh.html",tooltip=" "];
  Node79 -> Node80 [color="steelblue1",style="solid"];
  Node80 [label="graph_blockmodel_weights.hh",height=0.2,width=0.4,color="grey40", fillcolor="white", style="filled",URL="$graph__blockmodel__weights_8hh.html",tooltip=" "];
  Node66 -> Node81 [color="steelblue1",style="solid"];
  Node81 [label="graph_blockmodel_emat.hh",height=0.2,width=0.4,color="red", fillcolor="#FFF0F0", style="filled",URL="$graph__blockmodel__emat_8hh.html",tooltip=" "];
  Node66 -> Node82 [color="steelblue1",style="solid"];
  Node82 [label="graph_blockmodel_elist.hh",height=0.2,width=0.4,color="red", fillcolor="#FFF0F0", style="filled",URL="$graph__blockmodel__elist_8hh.html",tooltip=" "];
  Node82 -> Node83 [color="steelblue1",style="solid"];
  Node83 [label="../../generation/sampler.hh",height=0.2,width=0.4,color="grey40", fillcolor="white", style="filled",URL="$sampler_8hh.html",tooltip=" "];
  Node83 -> Node63 [color="steelblue1",style="solid"];
  Node83 -> Node40 [color="steelblue1",style="solid"];
  Node66 -> Node80 [color="steelblue1",style="solid"];
  Node1 -> Node85 [color="steelblue1",style="solid"];
  Node85 [label="graph_blockmodel.hh",height=0.2,width=0.4,color="grey40", fillcolor="white", style="filled",URL="$graph__blockmodel_8hh.html",tooltip=" "];
  Node85 -> Node4 [color="steelblue1",style="solid"];
  Node85 -> Node11 [color="steelblue1",style="solid"];
  Node85 -> Node86 [color="steelblue1",style="solid"];
  Node86 [label="idx_map.hh",height=0.2,width=0.4,color="red", fillcolor="#FFF0F0", style="filled",URL="$idx__map_8hh.html",tooltip=" "];
  Node86 -> Node11 [color="steelblue1",style="solid"];
  Node85 -> Node87 [color="steelblue1",style="solid"];
  Node87 [label="../support/graph_state.hh",height=0.2,width=0.4,color="grey40", fillcolor="white", style="filled",URL="$graph__state_8hh.html",tooltip=" "];
  Node87 -> Node65 [color="steelblue1",style="solid"];
  Node87 -> Node88 [color="steelblue1",style="solid"];
  Node88 [label="boost/preprocessor\l/comparison/equal.hpp",height=0.2,width=0.4,color="grey60", fillcolor="#E0E0E0", style="filled",tooltip=" "];
  Node87 -> Node89 [color="steelblue1",style="solid"];
  Node89 [label="boost/preprocessor\l/cat.hpp",height=0.2,width=0.4,color="grey60", fillcolor="#E0E0E0", style="filled",tooltip=" "];
  Node87 -> Node90 [color="steelblue1",style="solid"];
  Node90 [label="boost/preprocessor\l/seq/size.hpp",height=0.2,width=0.4,color="grey60", fillcolor="#E0E0E0", style="filled",tooltip=" "];
  Node87 -> Node91 [color="steelblue1",style="solid"];
  Node91 [label="boost/preprocessor\l/seq/for_each_i.hpp",height=0.2,width=0.4,color="grey60", fillcolor="#E0E0E0", style="filled",tooltip=" "];
  Node87 -> Node92 [color="steelblue1",style="solid"];
  Node92 [label="boost/preprocessor\l/stringize.hpp",height=0.2,width=0.4,color="grey60", fillcolor="#E0E0E0", style="filled",tooltip=" "];
  Node87 -> Node93 [color="steelblue1",style="solid"];
  Node93 [label="boost/preprocessor\l/tuple/elem.hpp",height=0.2,width=0.4,color="grey60", fillcolor="#E0E0E0", style="filled",tooltip=" "];
  Node87 -> Node94 [color="steelblue1",style="solid"];
  Node94 [label="boost/preprocessor\l/arithmetic/dec.hpp",height=0.2,width=0.4,color="grey60", fillcolor="#E0E0E0", style="filled",tooltip=" "];
  Node87 -> Node95 [color="steelblue1",style="solid"];
  Node95 [label="boost/preprocessor\l/seq/transform.hpp",height=0.2,width=0.4,color="grey60", fillcolor="#E0E0E0", style="filled",tooltip=" "];
  Node87 -> Node96 [color="steelblue1",style="solid"];
  Node96 [label="boost/preprocessor\l/seq/filter.hpp",height=0.2,width=0.4,color="grey60", fillcolor="#E0E0E0", style="filled",tooltip=" "];
  Node87 -> Node97 [color="steelblue1",style="solid"];
  Node97 [label="boost/preprocessor\l/seq/first_n.hpp",height=0.2,width=0.4,color="grey60", fillcolor="#E0E0E0", style="filled",tooltip=" "];
  Node87 -> Node3 [color="steelblue1",style="solid"];
  Node87 -> Node57 [color="steelblue1",style="solid"];
  Node87 -> Node26 [color="steelblue1",style="solid"];
  Node87 -> Node38 [color="steelblue1",style="solid"];
  Node87 -> Node52 [color="steelblue1",style="solid"];
  Node87 -> Node98 [color="steelblue1",style="solid"];
  Node98 [label="numpy_bind.hh",height=0.2,width=0.4,color="red", fillcolor="#FFF0F0", style="filled",URL="$numpy__bind_8hh.html",tooltip=" "];
  Node98 -> Node11 [color="steelblue1",style="solid"];
  Node98 -> Node65 [color="steelblue1",style="solid"];
  Node87 -> Node4 [color="steelblue1",style="solid"];
  Node87 -> Node23 [color="steelblue1",style="solid"];
  Node85 -> Node66 [color="steelblue1",style="solid"];
  Node1 -> Node103 [color="steelblue1",style="solid"];
  Node103 [label="../uncertain/graph\l_blockmodel_sample_edge.hh",height=0.2,width=0.4,color="grey40", fillcolor="white", style="filled",URL="$graph__blockmodel__sample__edge_8hh.html",tooltip=" "];
  Node103 -> Node76 [color="steelblue1",style="solid"];
  Node76 [label="tuple",height=0.2,width=0.4,color="grey60", fillcolor="#E0E0E0", style="filled",tooltip=" "];
  Node103 -> Node3 [color="steelblue1",style="solid"];
  Node103 -> Node38 [color="steelblue1",style="solid"];
  Node103 -> Node52 [color="steelblue1",style="solid"];
  Node103 -> Node83 [color="steelblue1",style="solid"];
  Node103 -> Node63 [color="steelblue1",style="solid"];
  Node1 -> Node87 [color="steelblue1",style="solid"];
}
