digraph "marginal_count_entropy"
{
 // LATEX_PDF_SIZE
  bgcolor="transparent";
  edge [fontname=Helvetica,fontsize=10,labelfontname=Helvetica,labelfontsize=10];
  node [fontname=Helvetica,fontsize=10,shape=box,height=0.2,width=0.4];
  rankdir="RL";
  Node1 [label="marginal_count_entropy",height=0.2,width=0.4,color="gray40", fillcolor="grey60", style="filled", fontcolor="black",tooltip=" "];
  Node1 -> Node2 [dir="back",color="steelblue1",style="solid"];
  Node2 [label="export_uncertain_state",height=0.2,width=0.4,color="grey40", fillcolor="white", style="filled",URL="$graph__blockmodel__uncertain_8cc.html#acfa6c36830a0a904dcbf017f82a07c40",tooltip=" "];
  Node2 -> Node3 [dir="back",color="steelblue1",style="solid"];
  Node3 [label="BOOST_PYTHON_MODULE",height=0.2,width=0.4,color="grey40", fillcolor="white", style="filled",URL="$graph__inference_8cc.html#aa52d8fe13d2a62317b6e603933a10b92",tooltip=" "];
}
