digraph "/home/man/Documents/graph-tool-cmake/src/graph/search/graph_astar.cc"
{
 // LATEX_PDF_SIZE
  bgcolor="transparent";
  edge [fontname=Helvetica,fontsize=10,labelfontname=Helvetica,labelfontsize=10];
  node [fontname=Helvetica,fontsize=10,shape=box,height=0.2,width=0.4];
  Node1 [label="/home/man/Documents\l/graph-tool-cmake/src\l/graph/search/graph_astar.cc",height=0.2,width=0.4,color="gray40", fillcolor="grey60", style="filled", fontcolor="black",tooltip=" "];
  Node1 -> Node2 [color="steelblue1",style="solid"];
  Node2 [label="graph_filtering.hh",height=0.2,width=0.4,color="grey40", fillcolor="white", style="filled",URL="$graph__filtering_8hh.html",tooltip=" "];
  Node2 -> Node3 [color="steelblue1",style="solid"];
  Node3 [label="graph.hh",height=0.2,width=0.4,color="grey40", fillcolor="white", style="filled",URL="$graph_8hh.html",tooltip=" "];
  Node3 -> Node4 [color="steelblue1",style="solid"];
  Node4 [label="config.h",height=0.2,width=0.4,color="grey60", fillcolor="#E0E0E0", style="filled",tooltip=" "];
  Node3 -> Node5 [color="steelblue1",style="solid"];
  Node5 [label="iterator",height=0.2,width=0.4,color="grey60", fillcolor="#E0E0E0", style="filled",tooltip=" "];
  Node3 -> Node6 [color="steelblue1",style="solid"];
  Node6 [label="boost/python/object.hpp",height=0.2,width=0.4,color="grey60", fillcolor="#E0E0E0", style="filled",tooltip=" "];
  Node3 -> Node7 [color="steelblue1",style="solid"];
  Node7 [label="boost/python/list.hpp",height=0.2,width=0.4,color="grey60", fillcolor="#E0E0E0", style="filled",tooltip=" "];
  Node3 -> Node8 [color="steelblue1",style="solid"];
  Node8 [label="boost/python/tuple.hpp",height=0.2,width=0.4,color="grey60", fillcolor="#E0E0E0", style="filled",tooltip=" "];
  Node3 -> Node9 [color="steelblue1",style="solid"];
  Node9 [label="boost/any.hpp",height=0.2,width=0.4,color="grey60", fillcolor="#E0E0E0", style="filled",tooltip=" "];
  Node3 -> Node10 [color="steelblue1",style="solid"];
  Node10 [label="graph_adjacency.hh",height=0.2,width=0.4,color="red", fillcolor="#FFF0F0", style="filled",URL="$graph__adjacency_8hh.html",tooltip=" "];
  Node10 -> Node13 [color="steelblue1",style="solid"];
  Node13 [label="utility",height=0.2,width=0.4,color="grey60", fillcolor="#E0E0E0", style="filled",tooltip=" "];
  Node10 -> Node15 [color="steelblue1",style="solid"];
  Node15 [label="boost/graph/graph_traits.hpp",height=0.2,width=0.4,color="grey60", fillcolor="#E0E0E0", style="filled",tooltip=" "];
  Node3 -> Node15 [color="steelblue1",style="solid"];
  Node3 -> Node22 [color="steelblue1",style="solid"];
  Node22 [label="fast_vector_property\l_map.hh",height=0.2,width=0.4,color="red", fillcolor="#FFF0F0", style="filled",URL="$fast__vector__property__map_8hh.html",tooltip=" "];
  Node3 -> Node24 [color="steelblue1",style="solid"];
  Node24 [label="boost/variant.hpp",height=0.2,width=0.4,color="grey60", fillcolor="#E0E0E0", style="filled",tooltip=" "];
  Node3 -> Node25 [color="steelblue1",style="solid"];
  Node25 [label="boost/mpl/bool_fwd.hpp",height=0.2,width=0.4,color="grey60", fillcolor="#E0E0E0", style="filled",tooltip=" "];
  Node3 -> Node26 [color="steelblue1",style="solid"];
  Node26 [label="graph_properties.hh",height=0.2,width=0.4,color="red", fillcolor="#FFF0F0", style="filled",URL="$graph__properties_8hh.html",tooltip=" "];
  Node26 -> Node27 [color="steelblue1",style="solid"];
  Node27 [label="string",height=0.2,width=0.4,color="grey60", fillcolor="#E0E0E0", style="filled",tooltip=" "];
  Node26 -> Node29 [color="steelblue1",style="solid"];
  Node29 [label="boost/functional/hash.hpp",height=0.2,width=0.4,color="grey60", fillcolor="#E0E0E0", style="filled",tooltip=" "];
  Node26 -> Node6 [color="steelblue1",style="solid"];
  Node26 -> Node31 [color="steelblue1",style="solid"];
  Node31 [label="boost/lexical_cast.hpp",height=0.2,width=0.4,color="grey60", fillcolor="#E0E0E0", style="filled",tooltip=" "];
  Node26 -> Node22 [color="steelblue1",style="solid"];
  Node26 -> Node32 [color="steelblue1",style="solid"];
  Node32 [label="boost/mpl/vector.hpp",height=0.2,width=0.4,color="grey60", fillcolor="#E0E0E0", style="filled",tooltip=" "];
  Node26 -> Node34 [color="steelblue1",style="solid"];
  Node34 [label="boost/mpl/transform.hpp",height=0.2,width=0.4,color="grey60", fillcolor="#E0E0E0", style="filled",tooltip=" "];
  Node2 -> Node38 [color="steelblue1",style="solid"];
  Node38 [label="boost/version.hpp",height=0.2,width=0.4,color="grey60", fillcolor="#E0E0E0", style="filled",tooltip=" "];
  Node2 -> Node15 [color="steelblue1",style="solid"];
  Node2 -> Node32 [color="steelblue1",style="solid"];
  Node2 -> Node39 [color="steelblue1",style="solid"];
  Node39 [label="boost/mpl/if.hpp",height=0.2,width=0.4,color="grey60", fillcolor="#E0E0E0", style="filled",tooltip=" "];
  Node2 -> Node40 [color="steelblue1",style="solid"];
  Node40 [label="boost/mpl/logical.hpp",height=0.2,width=0.4,color="grey60", fillcolor="#E0E0E0", style="filled",tooltip=" "];
  Node2 -> Node41 [color="steelblue1",style="solid"];
  Node41 [label="boost/mpl/back_inserter.hpp",height=0.2,width=0.4,color="grey60", fillcolor="#E0E0E0", style="filled",tooltip=" "];
  Node2 -> Node42 [color="steelblue1",style="solid"];
  Node42 [label="boost/mpl/assert.hpp",height=0.2,width=0.4,color="grey60", fillcolor="#E0E0E0", style="filled",tooltip=" "];
  Node2 -> Node43 [color="steelblue1",style="solid"];
  Node43 [label="graph_adaptor.hh",height=0.2,width=0.4,color="red", fillcolor="#FFF0F0", style="filled",URL="$graph__adaptor_8hh.html",tooltip=" "];
  Node43 -> Node44 [color="steelblue1",style="solid"];
  Node44 [label="boost/config.hpp",height=0.2,width=0.4,color="grey60", fillcolor="#E0E0E0", style="filled",tooltip=" "];
  Node43 -> Node45 [color="steelblue1",style="solid"];
  Node45 [label="boost/iterator_adaptors.hpp",height=0.2,width=0.4,color="grey60", fillcolor="#E0E0E0", style="filled",tooltip=" "];
  Node43 -> Node15 [color="steelblue1",style="solid"];
  Node2 -> Node46 [color="steelblue1",style="solid"];
  Node46 [label="graph_filtered.hh",height=0.2,width=0.4,color="red", fillcolor="#FFF0F0", style="filled",URL="$graph__filtered_8hh.html",tooltip=" "];
  Node46 -> Node15 [color="steelblue1",style="solid"];
  Node2 -> Node50 [color="steelblue1",style="solid"];
  Node50 [label="graph_reverse.hh",height=0.2,width=0.4,color="red", fillcolor="#FFF0F0", style="filled",URL="$graph__reverse_8hh.html",tooltip=" "];
  Node50 -> Node13 [color="steelblue1",style="solid"];
  Node2 -> Node51 [color="steelblue1",style="solid"];
  Node51 [label="graph_util.hh",height=0.2,width=0.4,color="grey40", fillcolor="white", style="filled",URL="$graph__util_8hh.html",tooltip=" "];
  Node51 -> Node32 [color="steelblue1",style="solid"];
  Node51 -> Node15 [color="steelblue1",style="solid"];
  Node51 -> Node52 [color="steelblue1",style="solid"];
  Node52 [label="boost/algorithm/string\l/split.hpp",height=0.2,width=0.4,color="grey60", fillcolor="#E0E0E0", style="filled",tooltip=" "];
  Node51 -> Node53 [color="steelblue1",style="solid"];
  Node53 [label="boost/algorithm/string\l/trim.hpp",height=0.2,width=0.4,color="grey60", fillcolor="#E0E0E0", style="filled",tooltip=" "];
  Node51 -> Node31 [color="steelblue1",style="solid"];
  Node51 -> Node54 [color="steelblue1",style="solid"];
  Node54 [label="boost/range/iterator\l_range.hpp",height=0.2,width=0.4,color="grey60", fillcolor="#E0E0E0", style="filled",tooltip=" "];
  Node51 -> Node27 [color="steelblue1",style="solid"];
  Node51 -> Node29 [color="steelblue1",style="solid"];
  Node51 -> Node55 [color="steelblue1",style="solid"];
  Node55 [label="random",height=0.2,width=0.4,color="grey60", fillcolor="#E0E0E0", style="filled",tooltip=" "];
  Node51 -> Node56 [color="steelblue1",style="solid"];
  Node56 [label="graph_selectors.hh",height=0.2,width=0.4,color="grey40", fillcolor="white", style="filled",URL="$graph__selectors_8hh.html",tooltip=" "];
  Node56 -> Node13 [color="steelblue1",style="solid"];
  Node56 -> Node57 [color="steelblue1",style="solid"];
  Node57 [label="type_traits",height=0.2,width=0.4,color="grey60", fillcolor="#E0E0E0", style="filled",tooltip=" "];
  Node56 -> Node58 [color="steelblue1",style="solid"];
  Node58 [label="boost/mpl/pair.hpp",height=0.2,width=0.4,color="grey60", fillcolor="#E0E0E0", style="filled",tooltip=" "];
  Node56 -> Node59 [color="steelblue1",style="solid"];
  Node59 [label="boost/mpl/map.hpp",height=0.2,width=0.4,color="grey60", fillcolor="#E0E0E0", style="filled",tooltip=" "];
  Node56 -> Node60 [color="steelblue1",style="solid"];
  Node60 [label="boost/mpl/at.hpp",height=0.2,width=0.4,color="grey60", fillcolor="#E0E0E0", style="filled",tooltip=" "];
  Node56 -> Node32 [color="steelblue1",style="solid"];
  Node56 -> Node34 [color="steelblue1",style="solid"];
  Node56 -> Node42 [color="steelblue1",style="solid"];
  Node56 -> Node41 [color="steelblue1",style="solid"];
  Node56 -> Node9 [color="steelblue1",style="solid"];
  Node56 -> Node15 [color="steelblue1",style="solid"];
  Node56 -> Node26 [color="steelblue1",style="solid"];
  Node56 -> Node3 [color="steelblue1",style="solid"];
  Node51 -> Node46 [color="steelblue1",style="solid"];
  Node2 -> Node61 [color="steelblue1",style="solid"];
  Node61 [label="mpl_nested_loop.hh",height=0.2,width=0.4,color="grey40", fillcolor="white", style="filled",URL="$mpl__nested__loop_8hh.html",tooltip=" "];
  Node2 -> Node57 [color="steelblue1",style="solid"];
  Node1 -> Node62 [color="steelblue1",style="solid"];
  Node62 [label="graph_python_interface.hh",height=0.2,width=0.4,color="grey40", fillcolor="white", style="filled",URL="$graph__python__interface_8hh.html",tooltip=" "];
  Node62 -> Node63 [color="steelblue1",style="solid"];
  Node63 [label="boost/python.hpp",height=0.2,width=0.4,color="grey60", fillcolor="#E0E0E0", style="filled",tooltip=" "];
  Node62 -> Node15 [color="steelblue1",style="solid"];
  Node62 -> Node64 [color="steelblue1",style="solid"];
  Node64 [label="boost/property_map\l/dynamic_property_map.hpp",height=0.2,width=0.4,color="grey60", fillcolor="#E0E0E0", style="filled",tooltip=" "];
  Node62 -> Node3 [color="steelblue1",style="solid"];
  Node62 -> Node2 [color="steelblue1",style="solid"];
  Node62 -> Node56 [color="steelblue1",style="solid"];
  Node62 -> Node65 [color="steelblue1",style="solid"];
  Node65 [label="demangle.hh",height=0.2,width=0.4,color="grey40", fillcolor="white", style="filled",URL="$demangle_8hh.html",tooltip=" "];
  Node65 -> Node27 [color="steelblue1",style="solid"];
  Node62 -> Node66 [color="steelblue1",style="solid"];
  Node66 [label="numpy_bind.hh",height=0.2,width=0.4,color="red", fillcolor="#FFF0F0", style="filled",URL="$numpy__bind_8hh.html",tooltip=" "];
  Node66 -> Node63 [color="steelblue1",style="solid"];
  Node66 -> Node59 [color="steelblue1",style="solid"];
  Node66 -> Node58 [color="steelblue1",style="solid"];
  Node66 -> Node65 [color="steelblue1",style="solid"];
  Node62 -> Node71 [color="steelblue1",style="solid"];
  Node71 [label="coroutine.hh",height=0.2,width=0.4,color="grey40", fillcolor="white", style="filled",URL="$coroutine_8hh.html",tooltip=" "];
  Node71 -> Node4 [color="steelblue1",style="solid"];
  Node71 -> Node38 [color="steelblue1",style="solid"];
  Node1 -> Node63 [color="steelblue1",style="solid"];
  Node1 -> Node72 [color="steelblue1",style="solid"];
  Node72 [label="boost/graph/astar_search.hpp",height=0.2,width=0.4,color="grey60", fillcolor="#E0E0E0", style="filled",tooltip=" "];
  Node1 -> Node3 [color="steelblue1",style="solid"];
  Node1 -> Node56 [color="steelblue1",style="solid"];
  Node1 -> Node51 [color="steelblue1",style="solid"];
  Node1 -> Node73 [color="steelblue1",style="solid"];
  Node73 [label="graph_astar.hh",height=0.2,width=0.4,color="grey40", fillcolor="white", style="filled",URL="$graph__astar_8hh.html",tooltip=" "];
  Node73 -> Node2 [color="steelblue1",style="solid"];
  Node73 -> Node62 [color="steelblue1",style="solid"];
  Node73 -> Node63 [color="steelblue1",style="solid"];
  Node73 -> Node3 [color="steelblue1",style="solid"];
  Node73 -> Node56 [color="steelblue1",style="solid"];
  Node73 -> Node51 [color="steelblue1",style="solid"];
  Node1 -> Node71 [color="steelblue1",style="solid"];
}
