digraph "/home/man/Documents/graph-tool-cmake/src/graph/inference/blockmodel/graph_blockmodel.hh"
{
 // LATEX_PDF_SIZE
  bgcolor="transparent";
  edge [fontname=Helvetica,fontsize=10,labelfontname=Helvetica,labelfontsize=10];
  node [fontname=Helvetica,fontsize=10,shape=box,height=0.2,width=0.4];
  Node1 [label="/home/man/Documents\l/graph-tool-cmake/src\l/graph/inference/blockmodel\l/graph_blockmodel.hh",height=0.2,width=0.4,color="gray40", fillcolor="grey60", style="filled", fontcolor="black",tooltip=" "];
  Node1 -> Node2 [dir="back",color="steelblue1",style="solid"];
  Node2 [label="/home/man/Documents\l/graph-tool-cmake/src\l/graph/inference/blockmodel\l/graph_blockmodel.cc",height=0.2,width=0.4,color="grey40", fillcolor="white", style="filled",URL="$graph__blockmodel_8cc.html",tooltip=" "];
  Node1 -> Node3 [dir="back",color="steelblue1",style="solid"];
  Node3 [label="/home/man/Documents\l/graph-tool-cmake/src\l/graph/inference/blockmodel\l/graph_blockmodel_exhaustive.cc",height=0.2,width=0.4,color="grey40", fillcolor="white", style="filled",URL="$graph__blockmodel__exhaustive_8cc.html",tooltip=" "];
  Node1 -> Node4 [dir="back",color="steelblue1",style="solid"];
  Node4 [label="/home/man/Documents\l/graph-tool-cmake/src\l/graph/inference/blockmodel\l/graph_blockmodel_gibbs.cc",height=0.2,width=0.4,color="grey40", fillcolor="white", style="filled",URL="$graph__blockmodel__gibbs_8cc.html",tooltip=" "];
  Node1 -> Node5 [dir="back",color="steelblue1",style="solid"];
  Node5 [label="/home/man/Documents\l/graph-tool-cmake/src\l/graph/inference/blockmodel\l/graph_blockmodel_imp.cc",height=0.2,width=0.4,color="grey40", fillcolor="white", style="filled",URL="$graph__blockmodel__imp_8cc.html",tooltip=" "];
  Node1 -> Node6 [dir="back",color="steelblue1",style="solid"];
  Node6 [label="/home/man/Documents\l/graph-tool-cmake/src\l/graph/inference/blockmodel\l/graph_blockmodel_imp2.cc",height=0.2,width=0.4,color="grey40", fillcolor="white", style="filled",URL="$graph__blockmodel__imp2_8cc.html",tooltip=" "];
  Node1 -> Node7 [dir="back",color="steelblue1",style="solid"];
  Node7 [label="/home/man/Documents\l/graph-tool-cmake/src\l/graph/inference/blockmodel\l/graph_blockmodel_imp3.cc",height=0.2,width=0.4,color="grey40", fillcolor="white", style="filled",URL="$graph__blockmodel__imp3_8cc.html",tooltip=" "];
  Node1 -> Node8 [dir="back",color="steelblue1",style="solid"];
  Node8 [label="/home/man/Documents\l/graph-tool-cmake/src\l/graph/inference/blockmodel\l/graph_blockmodel_mcmc.cc",height=0.2,width=0.4,color="grey40", fillcolor="white", style="filled",URL="$graph__blockmodel__mcmc_8cc.html",tooltip=" "];
  Node1 -> Node9 [dir="back",color="steelblue1",style="solid"];
  Node9 [label="/home/man/Documents\l/graph-tool-cmake/src\l/graph/inference/blockmodel\l/graph_blockmodel_multicanonical.cc",height=0.2,width=0.4,color="grey40", fillcolor="white", style="filled",URL="$graph__blockmodel__multicanonical_8cc.html",tooltip=" "];
  Node1 -> Node10 [dir="back",color="steelblue1",style="solid"];
  Node10 [label="/home/man/Documents\l/graph-tool-cmake/src\l/graph/inference/blockmodel\l/graph_blockmodel_multicanonical\l_multiflip.cc",height=0.2,width=0.4,color="grey40", fillcolor="white", style="filled",URL="$graph__blockmodel__multicanonical__multiflip_8cc.html",tooltip=" "];
  Node1 -> Node11 [dir="back",color="steelblue1",style="solid"];
  Node11 [label="/home/man/Documents\l/graph-tool-cmake/src\l/graph/inference/blockmodel\l/graph_blockmodel_multiflip_mcmc.cc",height=0.2,width=0.4,color="grey40", fillcolor="white", style="filled",URL="$graph__blockmodel__multiflip__mcmc_8cc.html",tooltip=" "];
  Node1 -> Node12 [dir="back",color="steelblue1",style="solid"];
  Node12 [label="/home/man/Documents\l/graph-tool-cmake/src\l/graph/inference/blockmodel\l/graph_blockmodel_multilevel_mcmc.cc",height=0.2,width=0.4,color="grey40", fillcolor="white", style="filled",URL="$graph__blockmodel__multilevel__mcmc_8cc.html",tooltip=" "];
  Node1 -> Node13 [dir="back",color="steelblue1",style="solid"];
  Node13 [label="/home/man/Documents\l/graph-tool-cmake/src\l/graph/inference/layers\l/graph_blockmodel_layers.cc",height=0.2,width=0.4,color="grey40", fillcolor="white", style="filled",URL="$graph__blockmodel__layers_8cc.html",tooltip=" "];
  Node1 -> Node14 [dir="back",color="steelblue1",style="solid"];
  Node14 [label="/home/man/Documents\l/graph-tool-cmake/src\l/graph/inference/layers\l/graph_blockmodel_layers\l_exhaustive.cc",height=0.2,width=0.4,color="grey40", fillcolor="white", style="filled",URL="$graph__blockmodel__layers__exhaustive_8cc.html",tooltip=" "];
  Node1 -> Node15 [dir="back",color="steelblue1",style="solid"];
  Node15 [label="/home/man/Documents\l/graph-tool-cmake/src\l/graph/inference/layers\l/graph_blockmodel_layers\l_gibbs.cc",height=0.2,width=0.4,color="grey40", fillcolor="white", style="filled",URL="$graph__blockmodel__layers__gibbs_8cc.html",tooltip=" "];
  Node1 -> Node16 [dir="back",color="steelblue1",style="solid"];
  Node16 [label="/home/man/Documents\l/graph-tool-cmake/src\l/graph/inference/layers\l/graph_blockmodel_layers_imp.cc",height=0.2,width=0.4,color="grey40", fillcolor="white", style="filled",URL="$graph__blockmodel__layers__imp_8cc.html",tooltip=" "];
  Node1 -> Node17 [dir="back",color="steelblue1",style="solid"];
  Node17 [label="/home/man/Documents\l/graph-tool-cmake/src\l/graph/inference/layers\l/graph_blockmodel_layers\l_mcmc.cc",height=0.2,width=0.4,color="grey40", fillcolor="white", style="filled",URL="$graph__blockmodel__layers__mcmc_8cc.html",tooltip=" "];
  Node1 -> Node18 [dir="back",color="steelblue1",style="solid"];
  Node18 [label="/home/man/Documents\l/graph-tool-cmake/src\l/graph/inference/layers\l/graph_blockmodel_layers\l_multicanonical.cc",height=0.2,width=0.4,color="grey40", fillcolor="white", style="filled",URL="$graph__blockmodel__layers__multicanonical_8cc.html",tooltip=" "];
  Node1 -> Node19 [dir="back",color="steelblue1",style="solid"];
  Node19 [label="/home/man/Documents\l/graph-tool-cmake/src\l/graph/inference/layers\l/graph_blockmodel_layers\l_multicanonical_multiflip.cc",height=0.2,width=0.4,color="grey40", fillcolor="white", style="filled",URL="$graph__blockmodel__layers__multicanonical__multiflip_8cc.html",tooltip=" "];
  Node1 -> Node20 [dir="back",color="steelblue1",style="solid"];
  Node20 [label="/home/man/Documents\l/graph-tool-cmake/src\l/graph/inference/layers\l/graph_blockmodel_layers\l_multiflip_mcmc.cc",height=0.2,width=0.4,color="grey40", fillcolor="white", style="filled",URL="$graph__blockmodel__layers__multiflip__mcmc_8cc.html",tooltip=" "];
  Node1 -> Node21 [dir="back",color="steelblue1",style="solid"];
  Node21 [label="/home/man/Documents\l/graph-tool-cmake/src\l/graph/inference/layers\l/graph_blockmodel_layers\l_multilevel_mcmc.cc",height=0.2,width=0.4,color="grey40", fillcolor="white", style="filled",URL="$graph__blockmodel__layers__multilevel__mcmc_8cc.html",tooltip=" "];
  Node1 -> Node22 [dir="back",color="steelblue1",style="solid"];
  Node22 [label="/home/man/Documents\l/graph-tool-cmake/src\l/graph/inference/overlap\l/graph_blockmodel_overlap\l_util.hh",height=0.2,width=0.4,color="red", fillcolor="#FFF0F0", style="filled",URL="$graph__blockmodel__overlap__util_8hh.html",tooltip=" "];
  Node22 -> Node23 [dir="back",color="steelblue1",style="solid"];
  Node23 [label="/home/man/Documents\l/graph-tool-cmake/src\l/graph/inference/layers\l/graph_blockmodel_layers\l_overlap.cc",height=0.2,width=0.4,color="grey40", fillcolor="white", style="filled",URL="$graph__blockmodel__layers__overlap_8cc.html",tooltip=" "];
  Node22 -> Node24 [dir="back",color="steelblue1",style="solid"];
  Node24 [label="/home/man/Documents\l/graph-tool-cmake/src\l/graph/inference/layers\l/graph_blockmodel_layers\l_overlap_exhaustive.cc",height=0.2,width=0.4,color="grey40", fillcolor="white", style="filled",URL="$graph__blockmodel__layers__overlap__exhaustive_8cc.html",tooltip=" "];
  Node22 -> Node25 [dir="back",color="steelblue1",style="solid"];
  Node25 [label="/home/man/Documents\l/graph-tool-cmake/src\l/graph/inference/layers\l/graph_blockmodel_layers\l_overlap_gibbs.cc",height=0.2,width=0.4,color="grey40", fillcolor="white", style="filled",URL="$graph__blockmodel__layers__overlap__gibbs_8cc.html",tooltip=" "];
  Node22 -> Node26 [dir="back",color="steelblue1",style="solid"];
  Node26 [label="/home/man/Documents\l/graph-tool-cmake/src\l/graph/inference/layers\l/graph_blockmodel_layers\l_overlap_mcmc.cc",height=0.2,width=0.4,color="grey40", fillcolor="white", style="filled",URL="$graph__blockmodel__layers__overlap__mcmc_8cc.html",tooltip=" "];
  Node1 -> Node45 [dir="back",color="steelblue1",style="solid"];
  Node45 [label="/home/man/Documents\l/graph-tool-cmake/src\l/graph/inference/ranked\l/graph_ranked.cc",height=0.2,width=0.4,color="grey40", fillcolor="white", style="filled",URL="$graph__ranked_8cc.html",tooltip=" "];
  Node1 -> Node46 [dir="back",color="steelblue1",style="solid"];
  Node46 [label="/home/man/Documents\l/graph-tool-cmake/src\l/graph/inference/ranked\l/graph_ranked_gibbs.cc",height=0.2,width=0.4,color="grey40", fillcolor="white", style="filled",URL="$graph__ranked__gibbs_8cc.html",tooltip=" "];
  Node1 -> Node47 [dir="back",color="steelblue1",style="solid"];
  Node47 [label="/home/man/Documents\l/graph-tool-cmake/src\l/graph/inference/ranked\l/graph_ranked_mcmc.cc",height=0.2,width=0.4,color="grey40", fillcolor="white", style="filled",URL="$graph__ranked__mcmc_8cc.html",tooltip=" "];
  Node1 -> Node48 [dir="back",color="steelblue1",style="solid"];
  Node48 [label="/home/man/Documents\l/graph-tool-cmake/src\l/graph/inference/ranked\l/graph_ranked_multiflip\l_mcmc.cc",height=0.2,width=0.4,color="grey40", fillcolor="white", style="filled",URL="$graph__ranked__multiflip__mcmc_8cc.html",tooltip=" "];
  Node1 -> Node49 [dir="back",color="steelblue1",style="solid"];
  Node49 [label="/home/man/Documents\l/graph-tool-cmake/src\l/graph/inference/ranked\l/graph_ranked_multilevel\l_mcmc.cc",height=0.2,width=0.4,color="grey40", fillcolor="white", style="filled",URL="$graph__ranked__multilevel__mcmc_8cc.html",tooltip=" "];
  Node1 -> Node50 [dir="back",color="steelblue1",style="solid"];
  Node50 [label="/home/man/Documents\l/graph-tool-cmake/src\l/graph/inference/uncertain\l/graph_blockmodel_dynamics\l_cising_glauber.cc",height=0.2,width=0.4,color="grey40", fillcolor="white", style="filled",URL="$graph__blockmodel__dynamics__cising__glauber_8cc.html",tooltip=" "];
  Node1 -> Node51 [dir="back",color="steelblue1",style="solid"];
  Node51 [label="/home/man/Documents\l/graph-tool-cmake/src\l/graph/inference/uncertain\l/graph_blockmodel_dynamics\l_cising_glauber_mcmc.cc",height=0.2,width=0.4,color="grey40", fillcolor="white", style="filled",URL="$graph__blockmodel__dynamics__cising__glauber__mcmc_8cc.html",tooltip=" "];
  Node1 -> Node52 [dir="back",color="steelblue1",style="solid"];
  Node52 [label="/home/man/Documents\l/graph-tool-cmake/src\l/graph/inference/uncertain\l/graph_blockmodel_dynamics\l_epidemics.cc",height=0.2,width=0.4,color="grey40", fillcolor="white", style="filled",URL="$graph__blockmodel__dynamics__epidemics_8cc.html",tooltip=" "];
  Node1 -> Node53 [dir="back",color="steelblue1",style="solid"];
  Node53 [label="/home/man/Documents\l/graph-tool-cmake/src\l/graph/inference/uncertain\l/graph_blockmodel_dynamics\l_epidemics_mcmc.cc",height=0.2,width=0.4,color="grey40", fillcolor="white", style="filled",URL="$graph__blockmodel__dynamics__epidemics__mcmc_8cc.html",tooltip=" "];
  Node1 -> Node54 [dir="back",color="steelblue1",style="solid"];
  Node54 [label="/home/man/Documents\l/graph-tool-cmake/src\l/graph/inference/uncertain\l/graph_blockmodel_dynamics\l_epidemics_mcmc_r.cc",height=0.2,width=0.4,color="grey40", fillcolor="white", style="filled",URL="$graph__blockmodel__dynamics__epidemics__mcmc__r_8cc.html",tooltip=" "];
  Node1 -> Node55 [dir="back",color="steelblue1",style="solid"];
  Node55 [label="/home/man/Documents\l/graph-tool-cmake/src\l/graph/inference/uncertain\l/graph_blockmodel_dynamics\l_ising_glauber.cc",height=0.2,width=0.4,color="grey40", fillcolor="white", style="filled",URL="$graph__blockmodel__dynamics__ising__glauber_8cc.html",tooltip=" "];
  Node1 -> Node56 [dir="back",color="steelblue1",style="solid"];
  Node56 [label="/home/man/Documents\l/graph-tool-cmake/src\l/graph/inference/uncertain\l/graph_blockmodel_dynamics\l_ising_glauber_mcmc.cc",height=0.2,width=0.4,color="grey40", fillcolor="white", style="filled",URL="$graph__blockmodel__dynamics__ising__glauber__mcmc_8cc.html",tooltip=" "];
  Node1 -> Node57 [dir="back",color="steelblue1",style="solid"];
  Node57 [label="/home/man/Documents\l/graph-tool-cmake/src\l/graph/inference/uncertain\l/graph_blockmodel_dynamics\l_pseudo_cising.cc",height=0.2,width=0.4,color="grey40", fillcolor="white", style="filled",URL="$graph__blockmodel__dynamics__pseudo__cising_8cc.html",tooltip=" "];
  Node1 -> Node58 [dir="back",color="steelblue1",style="solid"];
  Node58 [label="/home/man/Documents\l/graph-tool-cmake/src\l/graph/inference/uncertain\l/graph_blockmodel_dynamics\l_pseudo_cising_mcmc.cc",height=0.2,width=0.4,color="grey40", fillcolor="white", style="filled",URL="$graph__blockmodel__dynamics__pseudo__cising__mcmc_8cc.html",tooltip=" "];
  Node1 -> Node59 [dir="back",color="steelblue1",style="solid"];
  Node59 [label="/home/man/Documents\l/graph-tool-cmake/src\l/graph/inference/uncertain\l/graph_blockmodel_dynamics\l_pseudo_cising_mcmc_h.cc",height=0.2,width=0.4,color="grey40", fillcolor="white", style="filled",URL="$graph__blockmodel__dynamics__pseudo__cising__mcmc__h_8cc.html",tooltip=" "];
  Node1 -> Node60 [dir="back",color="steelblue1",style="solid"];
  Node60 [label="/home/man/Documents\l/graph-tool-cmake/src\l/graph/inference/uncertain\l/graph_blockmodel_dynamics\l_pseudo_ising.cc",height=0.2,width=0.4,color="grey40", fillcolor="white", style="filled",URL="$graph__blockmodel__dynamics__pseudo__ising_8cc.html",tooltip=" "];
  Node1 -> Node61 [dir="back",color="steelblue1",style="solid"];
  Node61 [label="/home/man/Documents\l/graph-tool-cmake/src\l/graph/inference/uncertain\l/graph_blockmodel_dynamics\l_pseudo_ising_mcmc.cc",height=0.2,width=0.4,color="grey40", fillcolor="white", style="filled",URL="$graph__blockmodel__dynamics__pseudo__ising__mcmc_8cc.html",tooltip=" "];
  Node1 -> Node62 [dir="back",color="steelblue1",style="solid"];
  Node62 [label="/home/man/Documents\l/graph-tool-cmake/src\l/graph/inference/uncertain\l/graph_blockmodel_dynamics\l_pseudo_ising_mcmc_h.cc",height=0.2,width=0.4,color="grey40", fillcolor="white", style="filled",URL="$graph__blockmodel__dynamics__pseudo__ising__mcmc__h_8cc.html",tooltip=" "];
  Node1 -> Node63 [dir="back",color="steelblue1",style="solid"];
  Node63 [label="/home/man/Documents\l/graph-tool-cmake/src\l/graph/inference/uncertain\l/graph_blockmodel_latent\l_closure.cc",height=0.2,width=0.4,color="grey40", fillcolor="white", style="filled",URL="$graph__blockmodel__latent__closure_8cc.html",tooltip=" "];
  Node1 -> Node64 [dir="back",color="steelblue1",style="solid"];
  Node64 [label="/home/man/Documents\l/graph-tool-cmake/src\l/graph/inference/uncertain\l/graph_blockmodel_latent\l_closure_mcmc.cc",height=0.2,width=0.4,color="grey40", fillcolor="white", style="filled",URL="$graph__blockmodel__latent__closure__mcmc_8cc.html",tooltip=" "];
  Node1 -> Node65 [dir="back",color="steelblue1",style="solid"];
  Node65 [label="/home/man/Documents\l/graph-tool-cmake/src\l/graph/inference/uncertain\l/graph_blockmodel_measured.cc",height=0.2,width=0.4,color="grey40", fillcolor="white", style="filled",URL="$graph__blockmodel__measured_8cc.html",tooltip=" "];
  Node1 -> Node66 [dir="back",color="steelblue1",style="solid"];
  Node66 [label="/home/man/Documents\l/graph-tool-cmake/src\l/graph/inference/uncertain\l/graph_blockmodel_measured\l_mcmc.cc",height=0.2,width=0.4,color="grey40", fillcolor="white", style="filled",URL="$graph__blockmodel__measured__mcmc_8cc.html",tooltip=" "];
  Node1 -> Node67 [dir="back",color="steelblue1",style="solid"];
  Node67 [label="/home/man/Documents\l/graph-tool-cmake/src\l/graph/inference/uncertain\l/graph_blockmodel_uncertain.cc",height=0.2,width=0.4,color="grey40", fillcolor="white", style="filled",URL="$graph__blockmodel__uncertain_8cc.html",tooltip=" "];
  Node1 -> Node68 [dir="back",color="steelblue1",style="solid"];
  Node68 [label="/home/man/Documents\l/graph-tool-cmake/src\l/graph/inference/uncertain\l/graph_blockmodel_uncertain\l_mcmc.cc",height=0.2,width=0.4,color="grey40", fillcolor="white", style="filled",URL="$graph__blockmodel__uncertain__mcmc_8cc.html",tooltip=" "];
}
