digraph "/home/man/Documents/graph-tool-cmake/src/graph/inference/uncertain/graph_blockmodel_dynamics_epidemics_mcmc_h.hh"
{
 // LATEX_PDF_SIZE
  bgcolor="transparent";
  edge [fontname=Helvetica,fontsize=10,labelfontname=Helvetica,labelfontsize=10];
  node [fontname=Helvetica,fontsize=10,shape=box,height=0.2,width=0.4];
  Node1 [label="/home/man/Documents\l/graph-tool-cmake/src\l/graph/inference/uncertain\l/graph_blockmodel_dynamics\l_epidemics_mcmc_h.hh",height=0.2,width=0.4,color="gray40", fillcolor="grey60", style="filled", fontcolor="black",tooltip=" "];
  Node1 -> Node2 [dir="back",color="steelblue1",style="solid"];
  Node2 [label="/home/man/Documents\l/graph-tool-cmake/src\l/graph/inference/uncertain\l/graph_blockmodel_dynamics\l_epidemics_mcmc_r.cc",height=0.2,width=0.4,color="grey40", fillcolor="white", style="filled",URL="$graph__blockmodel__dynamics__epidemics__mcmc__r_8cc.html",tooltip=" "];
}
