digraph "export_layered_overlap_blockmodel_gibbs"
{
 // LATEX_PDF_SIZE
  bgcolor="transparent";
  edge [fontname=Helvetica,fontsize=10,labelfontname=Helvetica,labelfontsize=10];
  node [fontname=Helvetica,fontsize=10,shape=box,height=0.2,width=0.4];
  rankdir="LR";
  Node1 [label="export_layered_overlap\l_blockmodel_gibbs",height=0.2,width=0.4,color="gray40", fillcolor="grey60", style="filled", fontcolor="black",tooltip=" "];
  Node1 -> Node2 [color="steelblue1",style="solid"];
  Node2 [label="gibbs_layered_overlap\l_sweep_parallel",height=0.2,width=0.4,color="grey40", fillcolor="white", style="filled",URL="$graph__blockmodel__layers__overlap__gibbs_8cc.html#a886ebbc1724f3c3b08a65f9c0e669a38",tooltip=" "];
  Node2 -> Node3 [color="steelblue1",style="solid"];
  Node3 [label="parallel_rng::get",height=0.2,width=0.4,color="grey40", fillcolor="white", style="filled",URL="$classparallel__rng.html#afd65996eec87d3e27d8146841fbf8201",tooltip=" "];
  Node2 -> Node4 [color="steelblue1",style="solid"];
  Node4 [label="parallel_rng::init",height=0.2,width=0.4,color="grey40", fillcolor="white", style="filled",URL="$classparallel__rng.html#a10056b36b2f7ef44e1238fb15e01e39d",tooltip=" "];
  Node2 -> Node5 [color="steelblue1",style="solid"];
  Node5 [label="graph_tool::tuple_apply",height=0.2,width=0.4,color="grey40", fillcolor="white", style="filled",URL="$namespacegraph__tool.html#a501393422064c4b3b65a1f4523de5218",tooltip=" "];
  Node5 -> Node6 [color="steelblue1",style="solid"];
  Node6 [label="graph_tool::detail\l::tuple_apply_impl",height=0.2,width=0.4,color="grey40", fillcolor="white", style="filled",URL="$namespacegraph__tool_1_1detail.html#a37171f74a282a47a8d9c52cded96356b",tooltip=" "];
}
