digraph "marginal_graph_sample"
{
 // LATEX_PDF_SIZE
  bgcolor="transparent";
  edge [fontname=Helvetica,fontsize=10,labelfontname=Helvetica,labelfontsize=10];
  node [fontname=Helvetica,fontsize=10,shape=box,height=0.2,width=0.4];
  rankdir="LR";
  Node1 [label="marginal_graph_sample",height=0.2,width=0.4,color="gray40", fillcolor="grey60", style="filled", fontcolor="black",tooltip=" "];
  Node1 -> Node2 [color="steelblue1",style="solid"];
  Node2 [label="parallel_rng::get",height=0.2,width=0.4,color="grey40", fillcolor="white", style="filled",URL="$classparallel__rng.html#afd65996eec87d3e27d8146841fbf8201",tooltip=" "];
  Node1 -> Node3 [color="steelblue1",style="solid"];
  Node3 [label="graph_tool::GraphInterface\l::get_graph_view",height=0.2,width=0.4,color="grey40", fillcolor="white", style="filled",URL="$classgraph__tool_1_1GraphInterface.html#a0ad81bb24c6df7fda2eaf1c3ac204631",tooltip=" "];
  Node3 -> Node4 [color="steelblue1",style="solid"];
  Node4 [label="check_filtered",height=0.2,width=0.4,color="grey40", fillcolor="white", style="filled",URL="$graph__filtering_8cc.html#ad37c324f3f9b7af208ce7d47bf897459",tooltip=" "];
  Node4 -> Node5 [color="steelblue1",style="solid"];
  Node5 [label="boost::num_vertices",height=0.2,width=0.4,color="grey40", fillcolor="white", style="filled",URL="$namespaceboost.html#ac848f876a7fa2caa8fb1879b7c522ebc",tooltip=" "];
  Node5 -> Node5 [color="steelblue1",style="solid"];
  Node5 -> Node6 [color="steelblue1",style="solid"];
  Node6 [label="boost::undirected_adaptor\l::original_graph",height=0.2,width=0.4,color="grey40", fillcolor="white", style="filled",URL="$classboost_1_1undirected__adaptor.html#a11e557bb4f3d7c15354f98390f1d3644",tooltip=" "];
  Node4 -> Node7 [color="steelblue1",style="solid"];
  Node7 [label="graph_tool::retrieve\l_graph_view",height=0.2,width=0.4,color="grey40", fillcolor="white", style="filled",URL="$namespacegraph__tool.html#a9a28e11d0e1410dc1f5a791c7d0302d4",tooltip=" "];
  Node7 -> Node8 [color="steelblue1",style="solid"];
  Node8 [label="graph_tool::GraphInterface\l::get_graph_views",height=0.2,width=0.4,color="grey40", fillcolor="white", style="filled",URL="$classgraph__tool_1_1GraphInterface.html#a30334fa1e71cef4af4236b17d98fbc28",tooltip=" "];
  Node1 -> Node9 [color="steelblue1",style="solid"];
  Node9 [label="parallel_rng::init",height=0.2,width=0.4,color="grey40", fillcolor="white", style="filled",URL="$classparallel__rng.html#a10056b36b2f7ef44e1238fb15e01e39d",tooltip=" "];
  Node1 -> Node10 [color="steelblue1",style="solid"];
  Node10 [label="graph_tool::parallel\l_edge_loop",height=0.2,width=0.4,color="grey40", fillcolor="white", style="filled",URL="$namespacegraph__tool.html#ad32afef89dd41b6181a29713a37e658a",tooltip=" "];
}
