digraph "similarity_fast"
{
 // LATEX_PDF_SIZE
  bgcolor="transparent";
  edge [fontname=Helvetica,fontsize=10,labelfontname=Helvetica,labelfontsize=10];
  node [fontname=Helvetica,fontsize=10,shape=box,height=0.2,width=0.4];
  rankdir="LR";
  Node1 [label="similarity_fast",height=0.2,width=0.4,color="gray40", fillcolor="grey60", style="filled", fontcolor="black",tooltip=" "];
  Node1 -> Node2 [color="steelblue1",style="solid"];
  Node2 [label="graph_tool::GraphInterface\l::get_graph_view",height=0.2,width=0.4,color="grey40", fillcolor="white", style="filled",URL="$classgraph__tool_1_1GraphInterface.html#a0ad81bb24c6df7fda2eaf1c3ac204631",tooltip=" "];
  Node2 -> Node3 [color="steelblue1",style="solid"];
  Node3 [label="check_filtered",height=0.2,width=0.4,color="grey40", fillcolor="white", style="filled",URL="$graph__filtering_8cc.html#ad37c324f3f9b7af208ce7d47bf897459",tooltip=" "];
  Node3 -> Node4 [color="steelblue1",style="solid"];
  Node4 [label="boost::num_vertices",height=0.2,width=0.4,color="grey40", fillcolor="white", style="filled",URL="$namespaceboost.html#ac848f876a7fa2caa8fb1879b7c522ebc",tooltip=" "];
  Node4 -> Node4 [color="steelblue1",style="solid"];
  Node4 -> Node5 [color="steelblue1",style="solid"];
  Node5 [label="boost::undirected_adaptor\l::original_graph",height=0.2,width=0.4,color="grey40", fillcolor="white", style="filled",URL="$classboost_1_1undirected__adaptor.html#a11e557bb4f3d7c15354f98390f1d3644",tooltip=" "];
  Node3 -> Node6 [color="steelblue1",style="solid"];
  Node6 [label="graph_tool::retrieve\l_graph_view",height=0.2,width=0.4,color="grey40", fillcolor="white", style="filled",URL="$namespacegraph__tool.html#a9a28e11d0e1410dc1f5a791c7d0302d4",tooltip=" "];
  Node6 -> Node7 [color="steelblue1",style="solid"];
  Node7 [label="graph_tool::GraphInterface\l::get_graph_views",height=0.2,width=0.4,color="grey40", fillcolor="white", style="filled",URL="$classgraph__tool_1_1GraphInterface.html#a30334fa1e71cef4af4236b17d98fbc28",tooltip=" "];
  Node1 -> Node8 [color="steelblue1",style="solid"];
  Node8 [label="graph_tool::get_similarity_fast",height=0.2,width=0.4,color="grey40", fillcolor="white", style="filled",URL="$namespacegraph__tool.html#ac4e86e55a34c0dfbc409d0ba7589618c",tooltip=" "];
  Node8 -> Node9 [color="steelblue1",style="solid"];
  Node9 [label="idx_map::clear",height=0.2,width=0.4,color="grey40", fillcolor="white", style="filled",URL="$classidx__map.html#a894b49c1fd2228a756ae5f4bf09bbb1a",tooltip=" "];
  Node9 -> Node10 [color="steelblue1",style="solid"];
  Node10 [label="idx_map::get_pos",height=0.2,width=0.4,color="grey40", fillcolor="white", style="filled",URL="$classidx__map.html#a1a6279629ebd6ef59a80b394d786a210",tooltip=" "];
  Node8 -> Node11 [color="steelblue1",style="solid"];
  Node11 [label="idx_set::clear",height=0.2,width=0.4,color="grey40", fillcolor="white", style="filled",URL="$classidx__set.html#a0da800934169bdf0e7335f648271cc5a",tooltip=" "];
  Node11 -> Node12 [color="steelblue1",style="solid"];
  Node12 [label="idx_set::get_pos",height=0.2,width=0.4,color="grey40", fillcolor="white", style="filled",URL="$classidx__set.html#a56e207910e0227f4eeccfd5de78d1220",tooltip=" "];
  Node8 -> Node13 [color="steelblue1",style="solid"];
  Node13 [label="boost::get",height=0.2,width=0.4,color="grey40", fillcolor="white", style="filled",URL="$namespaceboost.html#a16c10260e678081f48c16db5bdd0f5ea",tooltip=" "];
  Node13 -> Node13 [color="steelblue1",style="solid"];
  Node13 -> Node5 [color="steelblue1",style="solid"];
  Node8 -> Node14 [color="steelblue1",style="solid"];
  Node14 [label="graph_tool::parallel\l_loop_no_spawn",height=0.2,width=0.4,color="grey40", fillcolor="white", style="filled",URL="$namespacegraph__tool.html#aa2cf75c26b66de2d41606e25837d87b6",tooltip=" "];
  Node8 -> Node15 [color="steelblue1",style="solid"];
  Node15 [label="graph_tool::vertex\l_difference",height=0.2,width=0.4,color="grey40", fillcolor="white", style="filled",URL="$namespacegraph__tool.html#aa7ad1223ed39a933192cc515f25f199e",tooltip=" "];
  Node15 -> Node13 [color="steelblue1",style="solid"];
  Node15 -> Node16 [color="steelblue1",style="solid"];
  Node16 [label="graph_tool::out_edges\l_range",height=0.2,width=0.4,color="grey40", fillcolor="white", style="filled",URL="$namespacegraph__tool.html#a347f8a3e503c35e8a4d54184d8d90a6f",tooltip=" "];
  Node16 -> Node17 [color="steelblue1",style="solid"];
  Node17 [label="graph_tool::mk_range",height=0.2,width=0.4,color="grey40", fillcolor="white", style="filled",URL="$namespacegraph__tool.html#a6ecc1e46efb4f620acabfe5728f7a2a6",tooltip=" "];
  Node15 -> Node18 [color="steelblue1",style="solid"];
  Node18 [label="graph_tool::target",height=0.2,width=0.4,color="grey40", fillcolor="white", style="filled",URL="$namespacegraph__tool.html#aff9f07ca294560a9de57ab80deffa0cc",tooltip=" "];
  Node18 -> Node19 [color="steelblue1",style="solid"];
  Node19 [label="boost::edges",height=0.2,width=0.4,color="grey40", fillcolor="white", style="filled",URL="$namespaceboost.html#a3ac91f028a5f50644ba12e9e803bb2f8",tooltip=" "];
  Node19 -> Node19 [color="steelblue1",style="solid"];
  Node19 -> Node5 [color="steelblue1",style="solid"];
  Node18 -> Node20 [color="steelblue1",style="solid"];
  Node20 [label="graph_tool::source",height=0.2,width=0.4,color="grey40", fillcolor="white", style="filled",URL="$namespacegraph__tool.html#a0b44c0af404cec1513acb7b9602557f8",tooltip=" "];
  Node20 -> Node19 [color="steelblue1",style="solid"];
  Node20 -> Node20 [color="steelblue1",style="solid"];
  Node20 -> Node18 [color="steelblue1",style="solid"];
  Node18 -> Node18 [color="steelblue1",style="solid"];
  Node8 -> Node21 [color="steelblue1",style="solid"];
  Node21 [label="graph_tool::vertices\l_range",height=0.2,width=0.4,color="grey40", fillcolor="white", style="filled",URL="$namespacegraph__tool.html#a92ab479b81d8c9a030d42854fefabf1a",tooltip=" "];
  Node21 -> Node17 [color="steelblue1",style="solid"];
  Node21 -> Node22 [color="steelblue1",style="solid"];
  Node22 [label="boost::vertices",height=0.2,width=0.4,color="grey40", fillcolor="white", style="filled",URL="$namespaceboost.html#a0bc22071c353fa26cd0d16cc817ddde2",tooltip=" "];
  Node22 -> Node5 [color="steelblue1",style="solid"];
  Node22 -> Node22 [color="steelblue1",style="solid"];
  Node1 -> Node23 [color="steelblue1",style="solid"];
  Node23 [label="uncheck",height=0.2,width=0.4,color="grey40", fillcolor="white", style="filled",URL="$graph__similarity__imp_8cc.html#acc901248d33e25f3cd506e1a5c0dab5d",tooltip=" "];
  Node23 -> Node24 [color="steelblue1",style="solid"];
  Node24 [label="boost::get_unchecked",height=0.2,width=0.4,color="grey40", fillcolor="white", style="filled",URL="$namespaceboost.html#a8b45e47b2375b8d1cd889c5acf59c200",tooltip=" "];
  Node24 -> Node25 [color="steelblue1",style="solid"];
  Node25 [label="boost::checked_vector\l_property_map::get_unchecked",height=0.2,width=0.4,color="grey40", fillcolor="white", style="filled",URL="$classboost_1_1checked__vector__property__map.html#afc8aa547b3e8b4df8662342d55f6fd15",tooltip=" "];
  Node25 -> Node26 [color="steelblue1",style="solid"];
  Node26 [label="boost::checked_vector\l_property_map::reserve",height=0.2,width=0.4,color="grey40", fillcolor="white", style="filled",URL="$classboost_1_1checked__vector__property__map.html#ad42f677fcb713ec7f22a3f9629fd40db",tooltip=" "];
}
