digraph "overlap_multiflip_mcmc_sweep_parallel"
{
 // LATEX_PDF_SIZE
  bgcolor="transparent";
  edge [fontname=Helvetica,fontsize=10,labelfontname=Helvetica,labelfontsize=10];
  node [fontname=Helvetica,fontsize=10,shape=box,height=0.2,width=0.4];
  rankdir="RL";
  Node1 [label="overlap_multiflip_mcmc\l_sweep_parallel",height=0.2,width=0.4,color="gray40", fillcolor="grey60", style="filled", fontcolor="black",tooltip=" "];
  Node1 -> Node2 [dir="back",color="steelblue1",style="solid"];
  Node2 [label="export_overlap_blockmodel\l_multiflip_mcmc",height=0.2,width=0.4,color="grey40", fillcolor="white", style="filled",URL="$graph__blockmodel__overlap__multiflip__mcmc_8cc.html#a89dda131640a998cb0ed1321dd526956",tooltip=" "];
  Node2 -> Node3 [dir="back",color="steelblue1",style="solid"];
  Node3 [label="BOOST_PYTHON_MODULE",height=0.2,width=0.4,color="grey40", fillcolor="white", style="filled",URL="$graph__inference_8cc.html#aa52d8fe13d2a62317b6e603933a10b92",tooltip=" "];
}
