digraph "export_radial"
{
 // LATEX_PDF_SIZE
  bgcolor="transparent";
  edge [fontname=Helvetica,fontsize=10,labelfontname=Helvetica,labelfontsize=10];
  node [fontname=Helvetica,fontsize=10,shape=box,height=0.2,width=0.4];
  rankdir="LR";
  Node1 [label="export_radial",height=0.2,width=0.4,color="gray40", fillcolor="grey60", style="filled", fontcolor="black",tooltip=" "];
  Node1 -> Node2 [color="steelblue1",style="solid"];
  Node2 [label="get_radial",height=0.2,width=0.4,color="grey40", fillcolor="white", style="filled",URL="$graph__radial_8cc.html#a2d7db5af3d3b56d2854b0c4726af8771",tooltip=" "];
}
