digraph "/home/man/Documents/graph-tool-cmake/src/graph/inference/layers/graph_blockmodel_layers_exhaustive.cc"
{
 // LATEX_PDF_SIZE
  bgcolor="transparent";
  edge [fontname=Helvetica,fontsize=10,labelfontname=Helvetica,labelfontsize=10];
  node [fontname=Helvetica,fontsize=10,shape=box,height=0.2,width=0.4];
  Node1 [label="/home/man/Documents\l/graph-tool-cmake/src\l/graph/inference/layers\l/graph_blockmodel_layers\l_exhaustive.cc",height=0.2,width=0.4,color="gray40", fillcolor="grey60", style="filled", fontcolor="black",tooltip=" "];
  Node1 -> Node2 [color="steelblue1",style="solid"];
  Node2 [label="graph_tool.hh",height=0.2,width=0.4,color="grey40", fillcolor="white", style="filled",URL="$graph__tool_8hh.html",tooltip=" "];
  Node2 -> Node3 [color="steelblue1",style="solid"];
  Node3 [label="graph.hh",height=0.2,width=0.4,color="grey40", fillcolor="white", style="filled",URL="$graph_8hh.html",tooltip=" "];
  Node3 -> Node4 [color="steelblue1",style="solid"];
  Node4 [label="config.h",height=0.2,width=0.4,color="grey60", fillcolor="#E0E0E0", style="filled",tooltip=" "];
  Node3 -> Node5 [color="steelblue1",style="solid"];
  Node5 [label="iterator",height=0.2,width=0.4,color="grey60", fillcolor="#E0E0E0", style="filled",tooltip=" "];
  Node3 -> Node6 [color="steelblue1",style="solid"];
  Node6 [label="boost/python/object.hpp",height=0.2,width=0.4,color="grey60", fillcolor="#E0E0E0", style="filled",tooltip=" "];
  Node3 -> Node7 [color="steelblue1",style="solid"];
  Node7 [label="boost/python/list.hpp",height=0.2,width=0.4,color="grey60", fillcolor="#E0E0E0", style="filled",tooltip=" "];
  Node3 -> Node8 [color="steelblue1",style="solid"];
  Node8 [label="boost/python/tuple.hpp",height=0.2,width=0.4,color="grey60", fillcolor="#E0E0E0", style="filled",tooltip=" "];
  Node3 -> Node9 [color="steelblue1",style="solid"];
  Node9 [label="boost/any.hpp",height=0.2,width=0.4,color="grey60", fillcolor="#E0E0E0", style="filled",tooltip=" "];
  Node3 -> Node10 [color="steelblue1",style="solid"];
  Node10 [label="graph_adjacency.hh",height=0.2,width=0.4,color="red", fillcolor="#FFF0F0", style="filled",URL="$graph__adjacency_8hh.html",tooltip=" "];
  Node10 -> Node11 [color="steelblue1",style="solid"];
  Node11 [label="vector",height=0.2,width=0.4,color="grey60", fillcolor="#E0E0E0", style="filled",tooltip=" "];
  Node10 -> Node15 [color="steelblue1",style="solid"];
  Node15 [label="boost/graph/graph_traits.hpp",height=0.2,width=0.4,color="grey60", fillcolor="#E0E0E0", style="filled",tooltip=" "];
  Node3 -> Node15 [color="steelblue1",style="solid"];
  Node3 -> Node22 [color="steelblue1",style="solid"];
  Node22 [label="fast_vector_property\l_map.hh",height=0.2,width=0.4,color="red", fillcolor="#FFF0F0", style="filled",URL="$fast__vector__property__map_8hh.html",tooltip=" "];
  Node22 -> Node11 [color="steelblue1",style="solid"];
  Node3 -> Node24 [color="steelblue1",style="solid"];
  Node24 [label="boost/variant.hpp",height=0.2,width=0.4,color="grey60", fillcolor="#E0E0E0", style="filled",tooltip=" "];
  Node3 -> Node25 [color="steelblue1",style="solid"];
  Node25 [label="boost/mpl/bool_fwd.hpp",height=0.2,width=0.4,color="grey60", fillcolor="#E0E0E0", style="filled",tooltip=" "];
  Node3 -> Node26 [color="steelblue1",style="solid"];
  Node26 [label="graph_properties.hh",height=0.2,width=0.4,color="red", fillcolor="#FFF0F0", style="filled",URL="$graph__properties_8hh.html",tooltip=" "];
  Node26 -> Node11 [color="steelblue1",style="solid"];
  Node26 -> Node6 [color="steelblue1",style="solid"];
  Node26 -> Node22 [color="steelblue1",style="solid"];
  Node26 -> Node32 [color="steelblue1",style="solid"];
  Node32 [label="boost/mpl/vector.hpp",height=0.2,width=0.4,color="grey60", fillcolor="#E0E0E0", style="filled",tooltip=" "];
  Node2 -> Node38 [color="steelblue1",style="solid"];
  Node38 [label="graph_filtering.hh",height=0.2,width=0.4,color="red", fillcolor="#FFF0F0", style="filled",URL="$graph__filtering_8hh.html",tooltip=" "];
  Node38 -> Node3 [color="steelblue1",style="solid"];
  Node38 -> Node39 [color="steelblue1",style="solid"];
  Node39 [label="boost/version.hpp",height=0.2,width=0.4,color="grey60", fillcolor="#E0E0E0", style="filled",tooltip=" "];
  Node38 -> Node15 [color="steelblue1",style="solid"];
  Node38 -> Node32 [color="steelblue1",style="solid"];
  Node38 -> Node40 [color="steelblue1",style="solid"];
  Node40 [label="boost/mpl/if.hpp",height=0.2,width=0.4,color="grey60", fillcolor="#E0E0E0", style="filled",tooltip=" "];
  Node38 -> Node41 [color="steelblue1",style="solid"];
  Node41 [label="boost/mpl/logical.hpp",height=0.2,width=0.4,color="grey60", fillcolor="#E0E0E0", style="filled",tooltip=" "];
  Node2 -> Node26 [color="steelblue1",style="solid"];
  Node2 -> Node57 [color="steelblue1",style="solid"];
  Node57 [label="graph_selectors.hh",height=0.2,width=0.4,color="red", fillcolor="#FFF0F0", style="filled",URL="$graph__selectors_8hh.html",tooltip=" "];
  Node57 -> Node59 [color="steelblue1",style="solid"];
  Node59 [label="boost/mpl/pair.hpp",height=0.2,width=0.4,color="grey60", fillcolor="#E0E0E0", style="filled",tooltip=" "];
  Node57 -> Node60 [color="steelblue1",style="solid"];
  Node60 [label="boost/mpl/map.hpp",height=0.2,width=0.4,color="grey60", fillcolor="#E0E0E0", style="filled",tooltip=" "];
  Node57 -> Node32 [color="steelblue1",style="solid"];
  Node57 -> Node9 [color="steelblue1",style="solid"];
  Node57 -> Node15 [color="steelblue1",style="solid"];
  Node57 -> Node26 [color="steelblue1",style="solid"];
  Node57 -> Node3 [color="steelblue1",style="solid"];
  Node1 -> Node63 [color="steelblue1",style="solid"];
  Node63 [label="random.hh",height=0.2,width=0.4,color="grey40", fillcolor="white", style="filled",URL="$random_8hh.html",tooltip=" "];
  Node63 -> Node64 [color="steelblue1",style="solid"];
  Node64 [label="pcg_random.hpp",height=0.2,width=0.4,color="grey60", fillcolor="#E0E0E0", style="filled",tooltip=" "];
  Node1 -> Node65 [color="steelblue1",style="solid"];
  Node65 [label="boost/python.hpp",height=0.2,width=0.4,color="grey60", fillcolor="#E0E0E0", style="filled",tooltip=" "];
  Node1 -> Node66 [color="steelblue1",style="solid"];
  Node66 [label="../blockmodel/graph\l_blockmodel_util.hh",height=0.2,width=0.4,color="grey40", fillcolor="white", style="filled",URL="$graph__blockmodel__util_8hh.html",tooltip=" "];
  Node66 -> Node4 [color="steelblue1",style="solid"];
  Node66 -> Node67 [color="steelblue1",style="solid"];
  Node67 [label="graph_blockmodel_entropy.hh",height=0.2,width=0.4,color="red", fillcolor="#FFF0F0", style="filled",URL="$graph__blockmodel__entropy_8hh.html",tooltip=" "];
  Node66 -> Node71 [color="steelblue1",style="solid"];
  Node71 [label="graph_blockmodel_partition.hh",height=0.2,width=0.4,color="red", fillcolor="#FFF0F0", style="filled",URL="$graph__blockmodel__partition_8hh.html",tooltip=" "];
  Node66 -> Node79 [color="steelblue1",style="solid"];
  Node79 [label="graph_blockmodel_entries.hh",height=0.2,width=0.4,color="grey40", fillcolor="white", style="filled",URL="$graph__blockmodel__entries_8hh.html",tooltip=" "];
  Node79 -> Node80 [color="steelblue1",style="solid"];
  Node80 [label="graph_blockmodel_weights.hh",height=0.2,width=0.4,color="grey40", fillcolor="white", style="filled",URL="$graph__blockmodel__weights_8hh.html",tooltip=" "];
  Node66 -> Node81 [color="steelblue1",style="solid"];
  Node81 [label="graph_blockmodel_emat.hh",height=0.2,width=0.4,color="red", fillcolor="#FFF0F0", style="filled",URL="$graph__blockmodel__emat_8hh.html",tooltip=" "];
  Node81 -> Node73 [color="steelblue1",style="solid"];
  Node73 [label="boost/multi_array.hpp",height=0.2,width=0.4,color="grey60", fillcolor="#E0E0E0", style="filled",tooltip=" "];
  Node66 -> Node82 [color="steelblue1",style="solid"];
  Node82 [label="graph_blockmodel_elist.hh",height=0.2,width=0.4,color="red", fillcolor="#FFF0F0", style="filled",URL="$graph__blockmodel__elist_8hh.html",tooltip=" "];
  Node66 -> Node80 [color="steelblue1",style="solid"];
  Node1 -> Node85 [color="steelblue1",style="solid"];
  Node85 [label="../blockmodel/graph\l_blockmodel.hh",height=0.2,width=0.4,color="grey40", fillcolor="white", style="filled",URL="$graph__blockmodel_8hh.html",tooltip=" "];
  Node85 -> Node4 [color="steelblue1",style="solid"];
  Node85 -> Node11 [color="steelblue1",style="solid"];
  Node85 -> Node86 [color="steelblue1",style="solid"];
  Node86 [label="idx_map.hh",height=0.2,width=0.4,color="red", fillcolor="#FFF0F0", style="filled",URL="$idx__map_8hh.html",tooltip=" "];
  Node86 -> Node11 [color="steelblue1",style="solid"];
  Node85 -> Node87 [color="steelblue1",style="solid"];
  Node87 [label="../support/graph_state.hh",height=0.2,width=0.4,color="red", fillcolor="#FFF0F0", style="filled",URL="$graph__state_8hh.html",tooltip=" "];
  Node87 -> Node65 [color="steelblue1",style="solid"];
  Node87 -> Node3 [color="steelblue1",style="solid"];
  Node87 -> Node57 [color="steelblue1",style="solid"];
  Node87 -> Node26 [color="steelblue1",style="solid"];
  Node87 -> Node38 [color="steelblue1",style="solid"];
  Node87 -> Node98 [color="steelblue1",style="solid"];
  Node98 [label="numpy_bind.hh",height=0.2,width=0.4,color="grey40", fillcolor="white", style="filled",URL="$numpy__bind_8hh.html",tooltip=" "];
  Node98 -> Node11 [color="steelblue1",style="solid"];
  Node98 -> Node65 [color="steelblue1",style="solid"];
  Node98 -> Node99 [color="steelblue1",style="solid"];
  Node99 [label="numpy/arrayobject.h",height=0.2,width=0.4,color="grey60", fillcolor="#E0E0E0", style="filled",tooltip=" "];
  Node98 -> Node100 [color="steelblue1",style="solid"];
  Node100 [label="boost/array.hpp",height=0.2,width=0.4,color="grey60", fillcolor="#E0E0E0", style="filled",tooltip=" "];
  Node98 -> Node73 [color="steelblue1",style="solid"];
  Node98 -> Node101 [color="steelblue1",style="solid"];
  Node101 [label="boost/mpl/int.hpp",height=0.2,width=0.4,color="grey60", fillcolor="#E0E0E0", style="filled",tooltip=" "];
  Node98 -> Node60 [color="steelblue1",style="solid"];
  Node98 -> Node59 [color="steelblue1",style="solid"];
  Node98 -> Node102 [color="steelblue1",style="solid"];
  Node102 [label="demangle.hh",height=0.2,width=0.4,color="red", fillcolor="#FFF0F0", style="filled",URL="$demangle_8hh.html",tooltip=" "];
  Node87 -> Node4 [color="steelblue1",style="solid"];
  Node85 -> Node66 [color="steelblue1",style="solid"];
  Node1 -> Node103 [color="steelblue1",style="solid"];
  Node103 [label="graph_blockmodel_layers.hh",height=0.2,width=0.4,color="grey40", fillcolor="white", style="filled",URL="$graph__blockmodel__layers_8hh.html",tooltip=" "];
  Node103 -> Node4 [color="steelblue1",style="solid"];
  Node103 -> Node11 [color="steelblue1",style="solid"];
  Node103 -> Node87 [color="steelblue1",style="solid"];
  Node103 -> Node66 [color="steelblue1",style="solid"];
  Node103 -> Node104 [color="steelblue1",style="solid"];
  Node104 [label="graph_blockmodel_layers\l_util.hh",height=0.2,width=0.4,color="grey40", fillcolor="white", style="filled",URL="$graph__blockmodel__layers__util_8hh.html",tooltip=" "];
  Node104 -> Node4 [color="steelblue1",style="solid"];
  Node1 -> Node105 [color="steelblue1",style="solid"];
  Node105 [label="../blockmodel/graph\l_blockmodel_exhaustive.hh",height=0.2,width=0.4,color="grey40", fillcolor="white", style="filled",URL="$graph__blockmodel__exhaustive_8hh.html",tooltip=" "];
  Node105 -> Node4 [color="steelblue1",style="solid"];
  Node105 -> Node11 [color="steelblue1",style="solid"];
  Node105 -> Node2 [color="steelblue1",style="solid"];
  Node105 -> Node87 [color="steelblue1",style="solid"];
  Node105 -> Node32 [color="steelblue1",style="solid"];
  Node1 -> Node106 [color="steelblue1",style="solid"];
  Node106 [label="../loops/exhaustive\l_loop.hh",height=0.2,width=0.4,color="grey40", fillcolor="white", style="filled",URL="$exhaustive__loop_8hh.html",tooltip=" "];
  Node106 -> Node4 [color="steelblue1",style="solid"];
  Node106 -> Node107 [color="steelblue1",style="solid"];
  Node107 [label="graph_python_interface.hh",height=0.2,width=0.4,color="grey40", fillcolor="white", style="filled",URL="$graph__python__interface_8hh.html",tooltip=" "];
  Node107 -> Node65 [color="steelblue1",style="solid"];
  Node107 -> Node15 [color="steelblue1",style="solid"];
  Node107 -> Node108 [color="steelblue1",style="solid"];
  Node108 [label="boost/property_map\l/dynamic_property_map.hpp",height=0.2,width=0.4,color="grey60", fillcolor="#E0E0E0", style="filled",tooltip=" "];
  Node107 -> Node3 [color="steelblue1",style="solid"];
  Node107 -> Node38 [color="steelblue1",style="solid"];
  Node107 -> Node57 [color="steelblue1",style="solid"];
  Node107 -> Node102 [color="steelblue1",style="solid"];
  Node107 -> Node98 [color="steelblue1",style="solid"];
  Node107 -> Node109 [color="steelblue1",style="solid"];
  Node109 [label="coroutine.hh",height=0.2,width=0.4,color="grey40", fillcolor="white", style="filled",URL="$coroutine_8hh.html",tooltip=" "];
  Node109 -> Node4 [color="steelblue1",style="solid"];
  Node109 -> Node39 [color="steelblue1",style="solid"];
  Node1 -> Node98 [color="steelblue1",style="solid"];
  Node1 -> Node109 [color="steelblue1",style="solid"];
  Node1 -> Node107 [color="steelblue1",style="solid"];
}
