digraph "export_python_interface"
{
 // LATEX_PDF_SIZE
  bgcolor="transparent";
  edge [fontname=Helvetica,fontsize=10,labelfontname=Helvetica,labelfontsize=10];
  node [fontname=Helvetica,fontsize=10,shape=box,height=0.2,width=0.4];
  rankdir="LR";
  Node1 [label="export_python_interface",height=0.2,width=0.4,color="gray40", fillcolor="grey60", style="filled", fontcolor="black",tooltip=" "];
  Node1 -> Node2 [color="steelblue1",style="solid"];
  Node2 [label="boost::add_edge",height=0.2,width=0.4,color="grey40", fillcolor="white", style="filled",URL="$namespaceboost.html#a2ca660300636fcb45d338069833665ae",tooltip=" "];
  Node2 -> Node2 [color="steelblue1",style="solid"];
  Node2 -> Node3 [color="steelblue1",style="solid"];
  Node3 [label="boost::undirected_adaptor\l::original_graph",height=0.2,width=0.4,color="grey40", fillcolor="white", style="filled",URL="$classboost_1_1undirected__adaptor.html#a11e557bb4f3d7c15354f98390f1d3644",tooltip=" "];
  Node1 -> Node4 [color="steelblue1",style="solid"];
  Node4 [label="boost::add_vertex",height=0.2,width=0.4,color="grey40", fillcolor="white", style="filled",URL="$namespaceboost.html#a9440b0ee2e6a885ba5cd53babca04ae8",tooltip=" "];
  Node4 -> Node4 [color="steelblue1",style="solid"];
  Node4 -> Node3 [color="steelblue1",style="solid"];
  Node1 -> Node5 [color="steelblue1",style="solid"];
  Node5 [label="boost::clear_vertex",height=0.2,width=0.4,color="grey40", fillcolor="white", style="filled",URL="$namespaceboost.html#af1c68aedc289f8d52a292a4692defd23",tooltip=" "];
  Node5 -> Node5 [color="steelblue1",style="solid"];
  Node5 -> Node3 [color="steelblue1",style="solid"];
  Node1 -> Node6 [color="steelblue1",style="solid"];
  Node6 [label="graph_tool::do_add\l_edge_list",height=0.2,width=0.4,color="grey40", fillcolor="white", style="filled",URL="$namespacegraph__tool.html#a1ab081e8d4ebf661cf3dca841f69322c",tooltip=" "];
  Node1 -> Node7 [color="steelblue1",style="solid"];
  Node7 [label="graph_tool::do_add\l_edge_list_hashed",height=0.2,width=0.4,color="grey40", fillcolor="white", style="filled",URL="$namespacegraph__tool.html#a36eb6d9ae61b0370229d05a08ca3f73c",tooltip=" "];
  Node1 -> Node8 [color="steelblue1",style="solid"];
  Node8 [label="graph_tool::do_add\l_edge_list_iter",height=0.2,width=0.4,color="grey40", fillcolor="white", style="filled",URL="$namespacegraph__tool.html#ae77613d369e0706014b91f2b858b6414",tooltip=" "];
  Node1 -> Node9 [color="steelblue1",style="solid"];
  Node9 [label="graph_tool::do_get\l_edge_index",height=0.2,width=0.4,color="grey40", fillcolor="white", style="filled",URL="$namespacegraph__tool.html#a49fa01aec36dcfd60c3eff8ea25fdf65",tooltip=" "];
  Node9 -> Node10 [color="steelblue1",style="solid"];
  Node10 [label="graph_tool::GraphInterface\l::get_edge_index",height=0.2,width=0.4,color="grey40", fillcolor="white", style="filled",URL="$classgraph__tool_1_1GraphInterface.html#a4633c17e1595078d2f0e1a7047e8af04",tooltip=" "];
  Node1 -> Node11 [color="steelblue1",style="solid"];
  Node11 [label="export_python_properties",height=0.2,width=0.4,color="grey40", fillcolor="white", style="filled",URL="$graph__python__interface__export_8cc.html#a63555539a0114a9d54db923071e1b66c",tooltip=" "];
  Node1 -> Node12 [color="steelblue1",style="solid"];
  Node12 [label="graph_tool::get_degree_list",height=0.2,width=0.4,color="grey40", fillcolor="white", style="filled",URL="$namespacegraph__tool.html#accf9ac850ea9139ba3870a2e07e8ffee",tooltip=" "];
  Node12 -> Node13 [color="steelblue1",style="solid"];
  Node13 [label="boost::is_valid_vertex",height=0.2,width=0.4,color="grey40", fillcolor="white", style="filled",URL="$namespaceboost.html#a11c20bb91523ed21d4bd1a71b102fef7",tooltip=" "];
  Node12 -> Node14 [color="steelblue1",style="solid"];
  Node14 [label="wrap_vector_owned",height=0.2,width=0.4,color="grey40", fillcolor="white", style="filled",URL="$numpy__bind_8hh.html#a990020f9c0e4e735d00ae28350d4397b",tooltip=" "];
  Node1 -> Node15 [color="steelblue1",style="solid"];
  Node15 [label="graph_tool::get_edge",height=0.2,width=0.4,color="grey40", fillcolor="white", style="filled",URL="$namespacegraph__tool.html#a1d6cdf661a81dfde637574251b2eccbb",tooltip=" "];
  Node15 -> Node16 [color="steelblue1",style="solid"];
  Node16 [label="boost::all_edges",height=0.2,width=0.4,color="grey40", fillcolor="white", style="filled",URL="$namespaceboost.html#a870aee7abe85c59822b8ee84bceee0df",tooltip=" "];
  Node16 -> Node17 [color="steelblue1",style="solid"];
  Node17 [label="boost::out_edges",height=0.2,width=0.4,color="grey40", fillcolor="white", style="filled",URL="$namespaceboost.html#a865d9831fadf13b38d34016ef9e530ee",tooltip=" "];
  Node17 -> Node18 [color="steelblue1",style="solid"];
  Node18 [label="boost::_all_edges_out",height=0.2,width=0.4,color="grey40", fillcolor="white", style="filled",URL="$namespaceboost.html#aa82530169e5a3d0bcbbf44d0a41173ba",tooltip=" "];
  Node18 -> Node17 [color="steelblue1",style="solid"];
  Node17 -> Node3 [color="steelblue1",style="solid"];
  Node1 -> Node19 [color="steelblue1",style="solid"];
  Node19 [label="graph_tool::get_edges",height=0.2,width=0.4,color="grey40", fillcolor="white", style="filled",URL="$namespacegraph__tool.html#adb7570e922a7361624dcfe881b403cd2",tooltip=" "];
  Node1 -> Node20 [color="steelblue1",style="solid"];
  Node20 [label="get_elist",height=0.2,width=0.4,color="grey40", fillcolor="white", style="filled",URL="$graph__python__interface_8cc.html#a75d155a0dd81693f921f269426a56cc9",tooltip=" "];
  Node20 -> Node21 [color="steelblue1",style="solid"];
  Node21 [label="_elist",height=0.2,width=0.4,color="grey40", fillcolor="white", style="filled",URL="$graph__python__interface_8cc.html#aab26deddc391e912497142b39462fe26",tooltip=" "];
  Node1 -> Node22 [color="steelblue1",style="solid"];
  Node22 [label="graph_tool::get_vertex",height=0.2,width=0.4,color="grey40", fillcolor="white", style="filled",URL="$namespacegraph__tool.html#a7d4685164b226af44266e02db34cb84a",tooltip=" "];
  Node1 -> Node23 [color="steelblue1",style="solid"];
  Node23 [label="graph_tool::get_vertex\l_index",height=0.2,width=0.4,color="grey40", fillcolor="white", style="filled",URL="$namespacegraph__tool.html#a0c25da26f4152ce82f6e4329ddfefff6",tooltip=" "];
  Node23 -> Node24 [color="steelblue1",style="solid"];
  Node24 [label="graph_tool::GraphInterface\l::get_vertex_index",height=0.2,width=0.4,color="grey40", fillcolor="white", style="filled",URL="$classgraph__tool_1_1GraphInterface.html#a4a8b2130874eb17e73e578e39b851b64",tooltip=" "];
  Node1 -> Node25 [color="steelblue1",style="solid"];
  Node25 [label="graph_tool::get_vertices",height=0.2,width=0.4,color="grey40", fillcolor="white", style="filled",URL="$namespacegraph__tool.html#aefa75da761665d6af82812d60520e395",tooltip=" "];
  Node1 -> Node26 [color="steelblue1",style="solid"];
  Node26 [label="get_vlist",height=0.2,width=0.4,color="grey40", fillcolor="white", style="filled",URL="$graph__python__interface_8cc.html#a992de6997a792f53728b31bec09cccb2",tooltip=" "];
  Node26 -> Node27 [color="steelblue1",style="solid"];
  Node27 [label="_vlist",height=0.2,width=0.4,color="grey40", fillcolor="white", style="filled",URL="$graph__python__interface_8cc.html#a9a02f3b307b5fbae48f840beedc614e3",tooltip=" "];
  Node1 -> Node28 [color="steelblue1",style="solid"];
  Node28 [label="graph_tool::new_property",height=0.2,width=0.4,color="grey40", fillcolor="white", style="filled",URL="$namespacegraph__tool.html#aeae05a4be0c1005ff2108a385479979d",tooltip=" "];
  Node1 -> Node29 [color="steelblue1",style="solid"];
  Node29 [label="boost::remove_edge",height=0.2,width=0.4,color="grey40", fillcolor="white", style="filled",URL="$namespaceboost.html#a45af224fa845fa533ba00155abf50467",tooltip=" "];
  Node29 -> Node30 [color="steelblue1",style="solid"];
  Node30 [label="boost::edge",height=0.2,width=0.4,color="grey40", fillcolor="white", style="filled",URL="$namespaceboost.html#a598b4480c610319f1d97be25667c6e56",tooltip=" "];
  Node30 -> Node30 [color="steelblue1",style="solid"];
  Node30 -> Node3 [color="steelblue1",style="solid"];
  Node29 -> Node29 [color="steelblue1",style="solid"];
  Node1 -> Node31 [color="steelblue1",style="solid"];
  Node31 [label="boost::remove_vertex",height=0.2,width=0.4,color="grey40", fillcolor="white", style="filled",URL="$namespaceboost.html#a75f3c7859ed55189a76281eabae684fa",tooltip=" "];
  Node31 -> Node3 [color="steelblue1",style="solid"];
  Node31 -> Node31 [color="steelblue1",style="solid"];
  Node1 -> Node32 [color="steelblue1",style="solid"];
  Node32 [label="graph_tool::remove\l_vertex_array",height=0.2,width=0.4,color="grey40", fillcolor="white", style="filled",URL="$namespacegraph__tool.html#abcd9a7404393816856c20841ee0026d6",tooltip=" "];
  Node32 -> Node33 [color="steelblue1",style="solid"];
  Node33 [label="graph_tool::GraphInterface\l::get_graph",height=0.2,width=0.4,color="grey40", fillcolor="white", style="filled",URL="$classgraph__tool_1_1GraphInterface.html#a732ab352eadc8f67ac80c07b7dcf9bdd",tooltip=" "];
  Node32 -> Node31 [color="steelblue1",style="solid"];
  Node32 -> Node34 [color="steelblue1",style="solid"];
  Node34 [label="boost::remove_vertex_fast",height=0.2,width=0.4,color="grey40", fillcolor="white", style="filled",URL="$namespaceboost.html#a2aee0f299c53ed119b544cfb1949a4d8",tooltip=" "];
  Node34 -> Node3 [color="steelblue1",style="solid"];
  Node34 -> Node34 [color="steelblue1",style="solid"];
  Node32 -> Node35 [color="steelblue1",style="solid"];
  Node35 [label="boost::vertex",height=0.2,width=0.4,color="grey40", fillcolor="white", style="filled",URL="$namespaceboost.html#acf010cb431c640031d53bfe55c84ef46",tooltip=" "];
  Node35 -> Node3 [color="steelblue1",style="solid"];
  Node35 -> Node35 [color="steelblue1",style="solid"];
}
