digraph "export_parallel"
{
 // LATEX_PDF_SIZE
  bgcolor="transparent";
  edge [fontname=Helvetica,fontsize=10,labelfontname=Helvetica,labelfontsize=10];
  node [fontname=Helvetica,fontsize=10,shape=box,height=0.2,width=0.4];
  rankdir="LR";
  Node1 [label="export_parallel",height=0.2,width=0.4,color="gray40", fillcolor="grey60", style="filled", fontcolor="black",tooltip=" "];
  Node1 -> Node2 [color="steelblue1",style="solid"];
  Node2 [label="do_label_parallel_edges",height=0.2,width=0.4,color="grey40", fillcolor="white", style="filled",URL="$graph__parallel_8cc.html#a5f37f6d3f4381ba16479795f65556452",tooltip=" "];
  Node2 -> Node3 [color="steelblue1",style="solid"];
  Node3 [label="graph_tool::label_parallel\l_edges",height=0.2,width=0.4,color="grey40", fillcolor="white", style="filled",URL="$namespacegraph__tool.html#aed64ef1eafee152791df8b47bd1bfff8",tooltip=" "];
  Node3 -> Node4 [color="steelblue1",style="solid"];
  Node4 [label="boost::get",height=0.2,width=0.4,color="grey40", fillcolor="white", style="filled",URL="$namespaceboost.html#a16c10260e678081f48c16db5bdd0f5ea",tooltip=" "];
  Node4 -> Node4 [color="steelblue1",style="solid"];
  Node4 -> Node5 [color="steelblue1",style="solid"];
  Node5 [label="boost::undirected_adaptor\l::original_graph",height=0.2,width=0.4,color="grey40", fillcolor="white", style="filled",URL="$classboost_1_1undirected__adaptor.html#a11e557bb4f3d7c15354f98390f1d3644",tooltip=" "];
  Node3 -> Node6 [color="steelblue1",style="solid"];
  Node6 [label="graph_tool::is_directed",height=0.2,width=0.4,color="grey40", fillcolor="white", style="filled",URL="$namespacegraph__tool.html#a815c22620d9f5756b899dc94e405e2f3",tooltip=" "];
  Node3 -> Node7 [color="steelblue1",style="solid"];
  Node7 [label="graph_tool::out_edges\l_range",height=0.2,width=0.4,color="grey40", fillcolor="white", style="filled",URL="$namespacegraph__tool.html#a347f8a3e503c35e8a4d54184d8d90a6f",tooltip=" "];
  Node7 -> Node8 [color="steelblue1",style="solid"];
  Node8 [label="graph_tool::mk_range",height=0.2,width=0.4,color="grey40", fillcolor="white", style="filled",URL="$namespacegraph__tool.html#a6ecc1e46efb4f620acabfe5728f7a2a6",tooltip=" "];
  Node3 -> Node9 [color="steelblue1",style="solid"];
  Node9 [label="graph_tool::parallel\l_vertex_loop_no_spawn",height=0.2,width=0.4,color="grey40", fillcolor="white", style="filled",URL="$namespacegraph__tool.html#a2725c01831f0c0950bad4a18a97f0e8c",tooltip=" "];
  Node9 -> Node10 [color="steelblue1",style="solid"];
  Node10 [label="boost::is_valid_vertex",height=0.2,width=0.4,color="grey40", fillcolor="white", style="filled",URL="$namespaceboost.html#a11c20bb91523ed21d4bd1a71b102fef7",tooltip=" "];
  Node9 -> Node11 [color="steelblue1",style="solid"];
  Node11 [label="boost::num_vertices",height=0.2,width=0.4,color="grey40", fillcolor="white", style="filled",URL="$namespaceboost.html#ac848f876a7fa2caa8fb1879b7c522ebc",tooltip=" "];
  Node11 -> Node11 [color="steelblue1",style="solid"];
  Node11 -> Node5 [color="steelblue1",style="solid"];
  Node9 -> Node12 [color="steelblue1",style="solid"];
  Node12 [label="boost::vertex",height=0.2,width=0.4,color="grey40", fillcolor="white", style="filled",URL="$namespaceboost.html#acf010cb431c640031d53bfe55c84ef46",tooltip=" "];
  Node12 -> Node5 [color="steelblue1",style="solid"];
  Node12 -> Node12 [color="steelblue1",style="solid"];
  Node3 -> Node13 [color="steelblue1",style="solid"];
  Node13 [label="graph_tool::target",height=0.2,width=0.4,color="grey40", fillcolor="white", style="filled",URL="$namespacegraph__tool.html#aff9f07ca294560a9de57ab80deffa0cc",tooltip=" "];
  Node13 -> Node14 [color="steelblue1",style="solid"];
  Node14 [label="boost::edges",height=0.2,width=0.4,color="grey40", fillcolor="white", style="filled",URL="$namespaceboost.html#a3ac91f028a5f50644ba12e9e803bb2f8",tooltip=" "];
  Node14 -> Node14 [color="steelblue1",style="solid"];
  Node14 -> Node5 [color="steelblue1",style="solid"];
  Node13 -> Node15 [color="steelblue1",style="solid"];
  Node15 [label="graph_tool::source",height=0.2,width=0.4,color="grey40", fillcolor="white", style="filled",URL="$namespacegraph__tool.html#a0b44c0af404cec1513acb7b9602557f8",tooltip=" "];
  Node15 -> Node14 [color="steelblue1",style="solid"];
  Node15 -> Node15 [color="steelblue1",style="solid"];
  Node15 -> Node13 [color="steelblue1",style="solid"];
  Node13 -> Node13 [color="steelblue1",style="solid"];
  Node1 -> Node16 [color="steelblue1",style="solid"];
  Node16 [label="do_label_self_loops",height=0.2,width=0.4,color="grey40", fillcolor="white", style="filled",URL="$graph__parallel_8cc.html#ab32a87eb862aaf796679e570c2f79b5d",tooltip=" "];
  Node16 -> Node17 [color="steelblue1",style="solid"];
  Node17 [label="graph_tool::label_self\l_loops",height=0.2,width=0.4,color="grey40", fillcolor="white", style="filled",URL="$namespacegraph__tool.html#a1ee921e1cda197b3d531023f97d00c1e",tooltip=" "];
  Node17 -> Node7 [color="steelblue1",style="solid"];
  Node17 -> Node18 [color="steelblue1",style="solid"];
  Node18 [label="graph_tool::parallel\l_vertex_loop",height=0.2,width=0.4,color="grey40", fillcolor="white", style="filled",URL="$namespacegraph__tool.html#ab935ff202da78b1e2356069ec687b630",tooltip=" "];
  Node17 -> Node19 [color="steelblue1",style="solid"];
  Node19 [label="boost::put",height=0.2,width=0.4,color="grey40", fillcolor="white", style="filled",URL="$namespaceboost.html#a25c28d0fe87c5bdfa42dfb48f872a33e",tooltip=" "];
  Node19 -> Node5 [color="steelblue1",style="solid"];
  Node19 -> Node19 [color="steelblue1",style="solid"];
  Node17 -> Node13 [color="steelblue1",style="solid"];
  Node1 -> Node20 [color="steelblue1",style="solid"];
  Node20 [label="do_remove_labeled_edges",height=0.2,width=0.4,color="grey40", fillcolor="white", style="filled",URL="$graph__parallel_8cc.html#a3127bc97ac6314573aa1324e513ec2b9",tooltip=" "];
  Node20 -> Node21 [color="steelblue1",style="solid"];
  Node21 [label="graph_tool::remove\l_labeled_edges",height=0.2,width=0.4,color="grey40", fillcolor="white", style="filled",URL="$namespacegraph__tool.html#a43c0f193bb377ba9d2fc889aa8a6f0c3",tooltip=" "];
  Node21 -> Node7 [color="steelblue1",style="solid"];
  Node21 -> Node22 [color="steelblue1",style="solid"];
  Node22 [label="boost::remove_edge",height=0.2,width=0.4,color="grey40", fillcolor="white", style="filled",URL="$namespaceboost.html#a45af224fa845fa533ba00155abf50467",tooltip=" "];
  Node22 -> Node23 [color="steelblue1",style="solid"];
  Node23 [label="boost::edge",height=0.2,width=0.4,color="grey40", fillcolor="white", style="filled",URL="$namespaceboost.html#a598b4480c610319f1d97be25667c6e56",tooltip=" "];
  Node23 -> Node23 [color="steelblue1",style="solid"];
  Node23 -> Node5 [color="steelblue1",style="solid"];
  Node22 -> Node22 [color="steelblue1",style="solid"];
  Node21 -> Node24 [color="steelblue1",style="solid"];
  Node24 [label="graph_tool::vertices\l_range",height=0.2,width=0.4,color="grey40", fillcolor="white", style="filled",URL="$namespacegraph__tool.html#a92ab479b81d8c9a030d42854fefabf1a",tooltip=" "];
  Node24 -> Node8 [color="steelblue1",style="solid"];
  Node24 -> Node25 [color="steelblue1",style="solid"];
  Node25 [label="boost::vertices",height=0.2,width=0.4,color="grey40", fillcolor="white", style="filled",URL="$namespaceboost.html#a0bc22071c353fa26cd0d16cc817ddde2",tooltip=" "];
  Node25 -> Node5 [color="steelblue1",style="solid"];
  Node25 -> Node25 [color="steelblue1",style="solid"];
}
