digraph "latent_multigraph"
{
 // LATEX_PDF_SIZE
  bgcolor="transparent";
  edge [fontname=Helvetica,fontsize=10,labelfontname=Helvetica,labelfontsize=10];
  node [fontname=Helvetica,fontsize=10,shape=box,height=0.2,width=0.4];
  rankdir="LR";
  Node1 [label="latent_multigraph",height=0.2,width=0.4,color="gray40", fillcolor="grey60", style="filled", fontcolor="black",tooltip=" "];
  Node1 -> Node2 [color="steelblue1",style="solid"];
  Node2 [label="graph_tool::get_latent\l_multigraph",height=0.2,width=0.4,color="grey40", fillcolor="white", style="filled",URL="$namespacegraph__tool.html#ad1b0c8e3d7515e70e9db49e187674c4d",tooltip=" "];
  Node2 -> Node3 [color="steelblue1",style="solid"];
  Node3 [label="boost::add_edge",height=0.2,width=0.4,color="grey40", fillcolor="white", style="filled",URL="$namespaceboost.html#a2ca660300636fcb45d338069833665ae",tooltip=" "];
  Node3 -> Node3 [color="steelblue1",style="solid"];
  Node3 -> Node4 [color="steelblue1",style="solid"];
  Node4 [label="boost::undirected_adaptor\l::original_graph",height=0.2,width=0.4,color="grey40", fillcolor="white", style="filled",URL="$classboost_1_1undirected__adaptor.html#a11e557bb4f3d7c15354f98390f1d3644",tooltip=" "];
  Node2 -> Node5 [color="steelblue1",style="solid"];
  Node5 [label="graph_tool::is_directed",height=0.2,width=0.4,color="grey40", fillcolor="white", style="filled",URL="$namespacegraph__tool.html#a815c22620d9f5756b899dc94e405e2f3",tooltip=" "];
  Node2 -> Node6 [color="steelblue1",style="solid"];
  Node6 [label="graph_tool::parallel\l_edge_loop_no_spawn",height=0.2,width=0.4,color="grey40", fillcolor="white", style="filled",URL="$namespacegraph__tool.html#a5316ea5aa26277bd7139fa04f2f7849e",tooltip=" "];
  Node6 -> Node7 [color="steelblue1",style="solid"];
  Node7 [label="graph_tool::get_dir",height=0.2,width=0.4,color="grey40", fillcolor="white", style="filled",URL="$namespacegraph__tool.html#acd8a2f0bd92c049bc8d44b9b7c385046",tooltip=" "];
  Node6 -> Node8 [color="steelblue1",style="solid"];
  Node8 [label="graph_tool::out_edges\l_range",height=0.2,width=0.4,color="grey40", fillcolor="white", style="filled",URL="$namespacegraph__tool.html#a347f8a3e503c35e8a4d54184d8d90a6f",tooltip=" "];
  Node8 -> Node9 [color="steelblue1",style="solid"];
  Node9 [label="graph_tool::mk_range",height=0.2,width=0.4,color="grey40", fillcolor="white", style="filled",URL="$namespacegraph__tool.html#a6ecc1e46efb4f620acabfe5728f7a2a6",tooltip=" "];
  Node2 -> Node10 [color="steelblue1",style="solid"];
  Node10 [label="graph_tool::parallel\l_vertex_loop_no_spawn",height=0.2,width=0.4,color="grey40", fillcolor="white", style="filled",URL="$namespacegraph__tool.html#a2725c01831f0c0950bad4a18a97f0e8c",tooltip=" "];
  Node10 -> Node11 [color="steelblue1",style="solid"];
  Node11 [label="boost::is_valid_vertex",height=0.2,width=0.4,color="grey40", fillcolor="white", style="filled",URL="$namespaceboost.html#a11c20bb91523ed21d4bd1a71b102fef7",tooltip=" "];
  Node10 -> Node12 [color="steelblue1",style="solid"];
  Node12 [label="boost::num_vertices",height=0.2,width=0.4,color="grey40", fillcolor="white", style="filled",URL="$namespaceboost.html#ac848f876a7fa2caa8fb1879b7c522ebc",tooltip=" "];
  Node12 -> Node12 [color="steelblue1",style="solid"];
  Node12 -> Node4 [color="steelblue1",style="solid"];
  Node10 -> Node13 [color="steelblue1",style="solid"];
  Node13 [label="boost::vertex",height=0.2,width=0.4,color="grey40", fillcolor="white", style="filled",URL="$namespaceboost.html#acf010cb431c640031d53bfe55c84ef46",tooltip=" "];
  Node13 -> Node4 [color="steelblue1",style="solid"];
  Node13 -> Node13 [color="steelblue1",style="solid"];
  Node2 -> Node14 [color="steelblue1",style="solid"];
  Node14 [label="graph_tool::source",height=0.2,width=0.4,color="grey40", fillcolor="white", style="filled",URL="$namespacegraph__tool.html#a0b44c0af404cec1513acb7b9602557f8",tooltip=" "];
  Node14 -> Node15 [color="steelblue1",style="solid"];
  Node15 [label="boost::edges",height=0.2,width=0.4,color="grey40", fillcolor="white", style="filled",URL="$namespaceboost.html#a3ac91f028a5f50644ba12e9e803bb2f8",tooltip=" "];
  Node15 -> Node15 [color="steelblue1",style="solid"];
  Node15 -> Node4 [color="steelblue1",style="solid"];
  Node14 -> Node14 [color="steelblue1",style="solid"];
  Node14 -> Node16 [color="steelblue1",style="solid"];
  Node16 [label="graph_tool::target",height=0.2,width=0.4,color="grey40", fillcolor="white", style="filled",URL="$namespacegraph__tool.html#aff9f07ca294560a9de57ab80deffa0cc",tooltip=" "];
  Node16 -> Node15 [color="steelblue1",style="solid"];
  Node16 -> Node14 [color="steelblue1",style="solid"];
  Node16 -> Node16 [color="steelblue1",style="solid"];
  Node2 -> Node16 [color="steelblue1",style="solid"];
  Node2 -> Node17 [color="steelblue1",style="solid"];
  Node17 [label="graph_tool::vertices\l_range",height=0.2,width=0.4,color="grey40", fillcolor="white", style="filled",URL="$namespacegraph__tool.html#a92ab479b81d8c9a030d42854fefabf1a",tooltip=" "];
  Node17 -> Node9 [color="steelblue1",style="solid"];
  Node17 -> Node18 [color="steelblue1",style="solid"];
  Node18 [label="boost::vertices",height=0.2,width=0.4,color="grey40", fillcolor="white", style="filled",URL="$namespaceboost.html#a0bc22071c353fa26cd0d16cc817ddde2",tooltip=" "];
  Node18 -> Node4 [color="steelblue1",style="solid"];
  Node18 -> Node18 [color="steelblue1",style="solid"];
}
