digraph "export_pagerank"
{
 // LATEX_PDF_SIZE
  bgcolor="transparent";
  edge [fontname=Helvetica,fontsize=10,labelfontname=Helvetica,labelfontsize=10];
  node [fontname=Helvetica,fontsize=10,shape=box,height=0.2,width=0.4];
  rankdir="LR";
  Node1 [label="export_pagerank",height=0.2,width=0.4,color="gray40", fillcolor="grey60", style="filled", fontcolor="black",tooltip=" "];
  Node1 -> Node2 [color="steelblue1",style="solid"];
  Node2 [label="pagerank",height=0.2,width=0.4,color="grey40", fillcolor="white", style="filled",URL="$graph__pagerank_8cc.html#ad08c0e88f5f18216b13d91cfe725c7fb",tooltip=" "];
  Node2 -> Node3 [color="steelblue1",style="solid"];
  Node3 [label="graph_tool::GraphInterface\l::get_num_vertices",height=0.2,width=0.4,color="grey40", fillcolor="white", style="filled",URL="$classgraph__tool_1_1GraphInterface.html#aaff45ea249ef08cef78bd439aea2ffba",tooltip=" "];
  Node3 -> Node4 [color="steelblue1",style="solid"];
  Node4 [label="graph_tool::GraphInterface\l::is_vertex_filter_active",height=0.2,width=0.4,color="grey40", fillcolor="white", style="filled",URL="$classgraph__tool_1_1GraphInterface.html#a548debf97b1fd6f9a316abae36d0cdea",tooltip=" "];
  Node3 -> Node5 [color="steelblue1",style="solid"];
  Node5 [label="boost::num_vertices",height=0.2,width=0.4,color="grey40", fillcolor="white", style="filled",URL="$namespaceboost.html#ac848f876a7fa2caa8fb1879b7c522ebc",tooltip=" "];
  Node5 -> Node5 [color="steelblue1",style="solid"];
  Node5 -> Node6 [color="steelblue1",style="solid"];
  Node6 [label="boost::undirected_adaptor\l::original_graph",height=0.2,width=0.4,color="grey40", fillcolor="white", style="filled",URL="$classboost_1_1undirected__adaptor.html#a11e557bb4f3d7c15354f98390f1d3644",tooltip=" "];
  Node2 -> Node7 [color="steelblue1",style="solid"];
  Node7 [label="graph_tool::GraphInterface\l::get_vertex_index",height=0.2,width=0.4,color="grey40", fillcolor="white", style="filled",URL="$classgraph__tool_1_1GraphInterface.html#a4a8b2130874eb17e73e578e39b851b64",tooltip=" "];
}
