digraph "export_hist_state"
{
 // LATEX_PDF_SIZE
  bgcolor="transparent";
  edge [fontname=Helvetica,fontsize=10,labelfontname=Helvetica,labelfontsize=10];
  node [fontname=Helvetica,fontsize=10,shape=box,height=0.2,width=0.4];
  rankdir="LR";
  Node1 [label="export_hist_state",height=0.2,width=0.4,color="gray40", fillcolor="grey60", style="filled", fontcolor="black",tooltip=" "];
  Node1 -> Node2 [color="steelblue1",style="solid"];
  Node2 [label="dispatch_state_def",height=0.2,width=0.4,color="grey40", fillcolor="white", style="filled",URL="$graph__histogram_8cc.html#a1659c58909ccf08cfb0b3dce666f8497",tooltip=" "];
  Node2 -> Node3 [color="steelblue1",style="solid"];
  Node3 [label="name_demangle",height=0.2,width=0.4,color="grey40", fillcolor="white", style="filled",URL="$demangle_8cc.html#a1ae3cdbca103f0ab9f6fe6a9cd40b3e0",tooltip=" "];
  Node2 -> Node4 [color="steelblue1",style="solid"];
  Node4 [label="wrap_multi_array_owned",height=0.2,width=0.4,color="grey40", fillcolor="white", style="filled",URL="$numpy__bind_8hh.html#a7ead64baa7f352189a33902314114527",tooltip=" "];
  Node1 -> Node5 [color="steelblue1",style="solid"];
  Node5 [label="make_hist_state",height=0.2,width=0.4,color="grey40", fillcolor="white", style="filled",URL="$graph__histogram_8cc.html#a9ce9755f56c60cd574c1226dc308f5b6",tooltip=" "];
}
