digraph "/home/man/Documents/graph-tool-cmake/src/graph/centrality/graph_closeness.hh"
{
 // LATEX_PDF_SIZE
  bgcolor="transparent";
  edge [fontname=Helvetica,fontsize=10,labelfontname=Helvetica,labelfontsize=10];
  node [fontname=Helvetica,fontsize=10,shape=box,height=0.2,width=0.4];
  Node1 [label="/home/man/Documents\l/graph-tool-cmake/src\l/graph/centrality/graph\l_closeness.hh",height=0.2,width=0.4,color="gray40", fillcolor="grey60", style="filled", fontcolor="black",tooltip=" "];
  Node1 -> Node2 [color="steelblue1",style="solid"];
  Node2 [label="boost/graph/breadth\l_first_search.hpp",height=0.2,width=0.4,color="grey60", fillcolor="#E0E0E0", style="filled",tooltip=" "];
  Node1 -> Node3 [color="steelblue1",style="solid"];
  Node3 [label="boost/graph/dijkstra\l_shortest_paths.hpp",height=0.2,width=0.4,color="grey60", fillcolor="#E0E0E0", style="filled",tooltip=" "];
  Node1 -> Node4 [color="steelblue1",style="solid"];
  Node4 [label="histogram.hh",height=0.2,width=0.4,color="grey40", fillcolor="white", style="filled",URL="$histogram_8hh.html",tooltip=" "];
  Node4 -> Node5 [color="steelblue1",style="solid"];
  Node5 [label="vector",height=0.2,width=0.4,color="grey60", fillcolor="#E0E0E0", style="filled",tooltip=" "];
  Node4 -> Node6 [color="steelblue1",style="solid"];
  Node6 [label="utility",height=0.2,width=0.4,color="grey60", fillcolor="#E0E0E0", style="filled",tooltip=" "];
  Node4 -> Node7 [color="steelblue1",style="solid"];
  Node7 [label="algorithm",height=0.2,width=0.4,color="grey60", fillcolor="#E0E0E0", style="filled",tooltip=" "];
  Node4 -> Node8 [color="steelblue1",style="solid"];
  Node8 [label="array",height=0.2,width=0.4,color="grey60", fillcolor="#E0E0E0", style="filled",tooltip=" "];
  Node4 -> Node9 [color="steelblue1",style="solid"];
  Node9 [label="boost/multi_array.hpp",height=0.2,width=0.4,color="grey60", fillcolor="#E0E0E0", style="filled",tooltip=" "];
  Node4 -> Node10 [color="steelblue1",style="solid"];
  Node10 [label="boost/mpl/if.hpp",height=0.2,width=0.4,color="grey60", fillcolor="#E0E0E0", style="filled",tooltip=" "];
  Node4 -> Node11 [color="steelblue1",style="solid"];
  Node11 [label="boost/mpl/int.hpp",height=0.2,width=0.4,color="grey60", fillcolor="#E0E0E0", style="filled",tooltip=" "];
  Node1 -> Node12 [color="steelblue1",style="solid"];
  Node12 [label="hash_map_wrap.hh",height=0.2,width=0.4,color="grey40", fillcolor="white", style="filled",URL="$hash__map__wrap_8hh.html",tooltip=" "];
  Node12 -> Node13 [color="steelblue1",style="solid"];
  Node13 [label="config.h",height=0.2,width=0.4,color="grey60", fillcolor="#E0E0E0", style="filled",tooltip=" "];
  Node12 -> Node14 [color="steelblue1",style="solid"];
  Node14 [label="unordered_set",height=0.2,width=0.4,color="grey60", fillcolor="#E0E0E0", style="filled",tooltip=" "];
  Node12 -> Node15 [color="steelblue1",style="solid"];
  Node15 [label="unordered_map",height=0.2,width=0.4,color="grey60", fillcolor="#E0E0E0", style="filled",tooltip=" "];
  Node12 -> Node16 [color="steelblue1",style="solid"];
  Node16 [label="tuple",height=0.2,width=0.4,color="grey60", fillcolor="#E0E0E0", style="filled",tooltip=" "];
  Node12 -> Node5 [color="steelblue1",style="solid"];
  Node12 -> Node6 [color="steelblue1",style="solid"];
  Node12 -> Node17 [color="steelblue1",style="solid"];
  Node17 [label="limits",height=0.2,width=0.4,color="grey60", fillcolor="#E0E0E0", style="filled",tooltip=" "];
  Node12 -> Node18 [color="steelblue1",style="solid"];
  Node18 [label="graph_adjacency.hh",height=0.2,width=0.4,color="grey40", fillcolor="white", style="filled",URL="$graph__adjacency_8hh.html",tooltip=" "];
  Node18 -> Node5 [color="steelblue1",style="solid"];
  Node18 -> Node19 [color="steelblue1",style="solid"];
  Node19 [label="deque",height=0.2,width=0.4,color="grey60", fillcolor="#E0E0E0", style="filled",tooltip=" "];
  Node18 -> Node6 [color="steelblue1",style="solid"];
  Node18 -> Node20 [color="steelblue1",style="solid"];
  Node20 [label="boost/iterator.hpp",height=0.2,width=0.4,color="grey60", fillcolor="#E0E0E0", style="filled",tooltip=" "];
  Node18 -> Node21 [color="steelblue1",style="solid"];
  Node21 [label="boost/graph/graph_traits.hpp",height=0.2,width=0.4,color="grey60", fillcolor="#E0E0E0", style="filled",tooltip=" "];
  Node18 -> Node22 [color="steelblue1",style="solid"];
  Node22 [label="boost/range/irange.hpp",height=0.2,width=0.4,color="grey60", fillcolor="#E0E0E0", style="filled",tooltip=" "];
  Node18 -> Node23 [color="steelblue1",style="solid"];
  Node23 [label="boost/property_map\l/property_map.hpp",height=0.2,width=0.4,color="grey60", fillcolor="#E0E0E0", style="filled",tooltip=" "];
  Node18 -> Node24 [color="steelblue1",style="solid"];
  Node24 [label="boost/graph/properties.hpp",height=0.2,width=0.4,color="grey60", fillcolor="#E0E0E0", style="filled",tooltip=" "];
  Node18 -> Node25 [color="steelblue1",style="solid"];
  Node25 [label="boost/iterator/iterator\l_facade.hpp",height=0.2,width=0.4,color="grey60", fillcolor="#E0E0E0", style="filled",tooltip=" "];
  Node18 -> Node26 [color="steelblue1",style="solid"];
  Node26 [label="transform_iterator.hh",height=0.2,width=0.4,color="grey40", fillcolor="white", style="filled",URL="$transform__iterator_8hh.html",tooltip=" "];
  Node26 -> Node27 [color="steelblue1",style="solid"];
  Node27 [label="iterator",height=0.2,width=0.4,color="grey60", fillcolor="#E0E0E0", style="filled",tooltip=" "];
  Node26 -> Node28 [color="steelblue1",style="solid"];
  Node28 [label="boost/iterator/transform\l_iterator.hpp",height=0.2,width=0.4,color="grey60", fillcolor="#E0E0E0", style="filled",tooltip=" "];
}
