digraph "/home/man/Documents/graph-tool-cmake/src/graph/inference/partition_modes/graph_partition_mode.hh"
{
 // LATEX_PDF_SIZE
  bgcolor="transparent";
  edge [fontname=Helvetica,fontsize=10,labelfontname=Helvetica,labelfontsize=10];
  node [fontname=Helvetica,fontsize=10,shape=box,height=0.2,width=0.4];
  Node1 [label="/home/man/Documents\l/graph-tool-cmake/src\l/graph/inference/partition\l_modes/graph_partition_mode.hh",height=0.2,width=0.4,color="gray40", fillcolor="grey60", style="filled", fontcolor="black",tooltip=" "];
  Node1 -> Node2 [color="steelblue1",style="solid"];
  Node2 [label="config.h",height=0.2,width=0.4,color="grey60", fillcolor="#E0E0E0", style="filled",tooltip=" "];
  Node1 -> Node3 [color="steelblue1",style="solid"];
  Node3 [label="vector",height=0.2,width=0.4,color="grey60", fillcolor="#E0E0E0", style="filled",tooltip=" "];
  Node1 -> Node4 [color="steelblue1",style="solid"];
  Node4 [label="boost/graph/maximum\l_weighted_matching.hpp",height=0.2,width=0.4,color="grey60", fillcolor="#E0E0E0", style="filled",tooltip=" "];
  Node1 -> Node5 [color="steelblue1",style="solid"];
  Node5 [label="../blockmodel/graph\l_blockmodel_util.hh",height=0.2,width=0.4,color="grey40", fillcolor="white", style="filled",URL="$graph__blockmodel__util_8hh.html",tooltip=" "];
  Node5 -> Node2 [color="steelblue1",style="solid"];
  Node5 -> Node6 [color="steelblue1",style="solid"];
  Node6 [label="graph_blockmodel_entropy.hh",height=0.2,width=0.4,color="grey40", fillcolor="white", style="filled",URL="$graph__blockmodel__entropy_8hh.html",tooltip=" "];
  Node6 -> Node7 [color="steelblue1",style="solid"];
  Node7 [label="../support/util.hh",height=0.2,width=0.4,color="grey40", fillcolor="white", style="filled",URL="$util_8hh.html",tooltip=" "];
  Node7 -> Node2 [color="steelblue1",style="solid"];
  Node7 -> Node8 [color="steelblue1",style="solid"];
  Node8 [label="cmath",height=0.2,width=0.4,color="grey60", fillcolor="#E0E0E0", style="filled",tooltip=" "];
  Node7 -> Node9 [color="steelblue1",style="solid"];
  Node9 [label="cache.hh",height=0.2,width=0.4,color="grey40", fillcolor="white", style="filled",URL="$cache_8hh.html",tooltip=" "];
  Node9 -> Node2 [color="steelblue1",style="solid"];
  Node9 -> Node3 [color="steelblue1",style="solid"];
  Node9 -> Node8 [color="steelblue1",style="solid"];
  Node5 -> Node10 [color="steelblue1",style="solid"];
  Node10 [label="graph_blockmodel_partition.hh",height=0.2,width=0.4,color="grey40", fillcolor="white", style="filled",URL="$graph__blockmodel__partition_8hh.html",tooltip=" "];
  Node10 -> Node7 [color="steelblue1",style="solid"];
  Node10 -> Node11 [color="steelblue1",style="solid"];
  Node11 [label="../support/int_part.hh",height=0.2,width=0.4,color="grey40", fillcolor="white", style="filled",URL="$int__part_8hh.html",tooltip=" "];
  Node11 -> Node2 [color="steelblue1",style="solid"];
  Node11 -> Node12 [color="steelblue1",style="solid"];
  Node12 [label="boost/multi_array.hpp",height=0.2,width=0.4,color="grey60", fillcolor="#E0E0E0", style="filled",tooltip=" "];
  Node10 -> Node13 [color="steelblue1",style="solid"];
  Node13 [label="hash_map_wrap.hh",height=0.2,width=0.4,color="grey40", fillcolor="white", style="filled",URL="$hash__map__wrap_8hh.html",tooltip=" "];
  Node13 -> Node2 [color="steelblue1",style="solid"];
  Node13 -> Node14 [color="steelblue1",style="solid"];
  Node14 [label="unordered_set",height=0.2,width=0.4,color="grey60", fillcolor="#E0E0E0", style="filled",tooltip=" "];
  Node13 -> Node15 [color="steelblue1",style="solid"];
  Node15 [label="unordered_map",height=0.2,width=0.4,color="grey60", fillcolor="#E0E0E0", style="filled",tooltip=" "];
  Node13 -> Node16 [color="steelblue1",style="solid"];
  Node16 [label="tuple",height=0.2,width=0.4,color="grey60", fillcolor="#E0E0E0", style="filled",tooltip=" "];
  Node13 -> Node3 [color="steelblue1",style="solid"];
  Node13 -> Node17 [color="steelblue1",style="solid"];
  Node17 [label="utility",height=0.2,width=0.4,color="grey60", fillcolor="#E0E0E0", style="filled",tooltip=" "];
  Node13 -> Node18 [color="steelblue1",style="solid"];
  Node18 [label="limits",height=0.2,width=0.4,color="grey60", fillcolor="#E0E0E0", style="filled",tooltip=" "];
  Node13 -> Node19 [color="steelblue1",style="solid"];
  Node19 [label="graph_adjacency.hh",height=0.2,width=0.4,color="grey40", fillcolor="white", style="filled",URL="$graph__adjacency_8hh.html",tooltip=" "];
  Node19 -> Node3 [color="steelblue1",style="solid"];
  Node19 -> Node20 [color="steelblue1",style="solid"];
  Node20 [label="deque",height=0.2,width=0.4,color="grey60", fillcolor="#E0E0E0", style="filled",tooltip=" "];
  Node19 -> Node17 [color="steelblue1",style="solid"];
  Node19 -> Node21 [color="steelblue1",style="solid"];
  Node21 [label="boost/iterator.hpp",height=0.2,width=0.4,color="grey60", fillcolor="#E0E0E0", style="filled",tooltip=" "];
  Node19 -> Node22 [color="steelblue1",style="solid"];
  Node22 [label="boost/graph/graph_traits.hpp",height=0.2,width=0.4,color="grey60", fillcolor="#E0E0E0", style="filled",tooltip=" "];
  Node19 -> Node23 [color="steelblue1",style="solid"];
  Node23 [label="boost/range/irange.hpp",height=0.2,width=0.4,color="grey60", fillcolor="#E0E0E0", style="filled",tooltip=" "];
  Node19 -> Node24 [color="steelblue1",style="solid"];
  Node24 [label="boost/property_map\l/property_map.hpp",height=0.2,width=0.4,color="grey60", fillcolor="#E0E0E0", style="filled",tooltip=" "];
  Node19 -> Node25 [color="steelblue1",style="solid"];
  Node25 [label="boost/graph/properties.hpp",height=0.2,width=0.4,color="grey60", fillcolor="#E0E0E0", style="filled",tooltip=" "];
  Node19 -> Node26 [color="steelblue1",style="solid"];
  Node26 [label="boost/iterator/iterator\l_facade.hpp",height=0.2,width=0.4,color="grey60", fillcolor="#E0E0E0", style="filled",tooltip=" "];
  Node19 -> Node27 [color="steelblue1",style="solid"];
  Node27 [label="transform_iterator.hh",height=0.2,width=0.4,color="grey40", fillcolor="white", style="filled",URL="$transform__iterator_8hh.html",tooltip=" "];
  Node27 -> Node28 [color="steelblue1",style="solid"];
  Node28 [label="iterator",height=0.2,width=0.4,color="grey60", fillcolor="#E0E0E0", style="filled",tooltip=" "];
  Node27 -> Node29 [color="steelblue1",style="solid"];
  Node29 [label="boost/iterator/transform\l_iterator.hpp",height=0.2,width=0.4,color="grey60", fillcolor="#E0E0E0", style="filled",tooltip=" "];
  Node10 -> Node30 [color="steelblue1",style="solid"];
  Node30 [label="boost/range/counting\l_range.hpp",height=0.2,width=0.4,color="grey60", fillcolor="#E0E0E0", style="filled",tooltip=" "];
  Node5 -> Node31 [color="steelblue1",style="solid"];
  Node31 [label="graph_blockmodel_entries.hh",height=0.2,width=0.4,color="grey40", fillcolor="white", style="filled",URL="$graph__blockmodel__entries_8hh.html",tooltip=" "];
  Node31 -> Node32 [color="steelblue1",style="solid"];
  Node32 [label="graph_blockmodel_weights.hh",height=0.2,width=0.4,color="grey40", fillcolor="white", style="filled",URL="$graph__blockmodel__weights_8hh.html",tooltip=" "];
  Node5 -> Node33 [color="steelblue1",style="solid"];
  Node33 [label="graph_blockmodel_emat.hh",height=0.2,width=0.4,color="grey40", fillcolor="white", style="filled",URL="$graph__blockmodel__emat_8hh.html",tooltip=" "];
  Node33 -> Node12 [color="steelblue1",style="solid"];
  Node33 -> Node13 [color="steelblue1",style="solid"];
  Node5 -> Node34 [color="steelblue1",style="solid"];
  Node34 [label="graph_blockmodel_elist.hh",height=0.2,width=0.4,color="grey40", fillcolor="white", style="filled",URL="$graph__blockmodel__elist_8hh.html",tooltip=" "];
  Node34 -> Node35 [color="steelblue1",style="solid"];
  Node35 [label="../../generation/sampler.hh",height=0.2,width=0.4,color="grey40", fillcolor="white", style="filled",URL="$sampler_8hh.html",tooltip=" "];
  Node35 -> Node36 [color="steelblue1",style="solid"];
  Node36 [label="random.hh",height=0.2,width=0.4,color="grey40", fillcolor="white", style="filled",URL="$random_8hh.html",tooltip=" "];
  Node36 -> Node37 [color="steelblue1",style="solid"];
  Node37 [label="pcg_random.hpp",height=0.2,width=0.4,color="grey60", fillcolor="#E0E0E0", style="filled",tooltip=" "];
  Node35 -> Node38 [color="steelblue1",style="solid"];
  Node38 [label="boost/mpl/if.hpp",height=0.2,width=0.4,color="grey60", fillcolor="#E0E0E0", style="filled",tooltip=" "];
  Node34 -> Node39 [color="steelblue1",style="solid"];
  Node39 [label="../../generation/dynamic\l_sampler.hh",height=0.2,width=0.4,color="grey40", fillcolor="white", style="filled",URL="$dynamic__sampler_8hh.html",tooltip=" "];
  Node39 -> Node36 [color="steelblue1",style="solid"];
  Node39 -> Node38 [color="steelblue1",style="solid"];
  Node5 -> Node32 [color="steelblue1",style="solid"];
  Node1 -> Node40 [color="steelblue1",style="solid"];
  Node40 [label="../../topology/graph\l_bipartite_weighted_matching.hh",height=0.2,width=0.4,color="grey40", fillcolor="white", style="filled",URL="$graph__bipartite__weighted__matching_8hh.html",tooltip=" "];
  Node40 -> Node41 [color="steelblue1",style="solid"];
  Node41 [label="stack",height=0.2,width=0.4,color="grey60", fillcolor="#E0E0E0", style="filled",tooltip=" "];
  Node40 -> Node42 [color="steelblue1",style="solid"];
  Node42 [label="boost/graph/breadth\l_first_search.hpp",height=0.2,width=0.4,color="grey60", fillcolor="#E0E0E0", style="filled",tooltip=" "];
  Node40 -> Node43 [color="steelblue1",style="solid"];
  Node43 [label="idx_map.hh",height=0.2,width=0.4,color="grey40", fillcolor="white", style="filled",URL="$idx__map_8hh.html",tooltip=" "];
  Node43 -> Node3 [color="steelblue1",style="solid"];
  Node43 -> Node17 [color="steelblue1",style="solid"];
  Node43 -> Node18 [color="steelblue1",style="solid"];
  Node1 -> Node44 [color="steelblue1",style="solid"];
  Node44 [label="../support/contingency.hh",height=0.2,width=0.4,color="grey40", fillcolor="white", style="filled",URL="$contingency_8hh.html",tooltip=" "];
  Node44 -> Node2 [color="steelblue1",style="solid"];
  Node44 -> Node3 [color="steelblue1",style="solid"];
  Node44 -> Node43 [color="steelblue1",style="solid"];
}
