digraph "/home/man/Documents/graph-tool-cmake/src/graph/generation/graph_triadic_closure.hh"
{
 // LATEX_PDF_SIZE
  bgcolor="transparent";
  edge [fontname=Helvetica,fontsize=10,labelfontname=Helvetica,labelfontsize=10];
  node [fontname=Helvetica,fontsize=10,shape=box,height=0.2,width=0.4];
  Node1 [label="/home/man/Documents\l/graph-tool-cmake/src\l/graph/generation/graph\l_triadic_closure.hh",height=0.2,width=0.4,color="gray40", fillcolor="grey60", style="filled", fontcolor="black",tooltip=" "];
  Node1 -> Node2 [color="steelblue1",style="solid"];
  Node2 [label="tuple",height=0.2,width=0.4,color="grey60", fillcolor="#E0E0E0", style="filled",tooltip=" "];
  Node1 -> Node3 [color="steelblue1",style="solid"];
  Node3 [label="graph.hh",height=0.2,width=0.4,color="grey40", fillcolor="white", style="filled",URL="$graph_8hh.html",tooltip=" "];
  Node3 -> Node4 [color="steelblue1",style="solid"];
  Node4 [label="config.h",height=0.2,width=0.4,color="grey60", fillcolor="#E0E0E0", style="filled",tooltip=" "];
  Node3 -> Node5 [color="steelblue1",style="solid"];
  Node5 [label="iterator",height=0.2,width=0.4,color="grey60", fillcolor="#E0E0E0", style="filled",tooltip=" "];
  Node3 -> Node6 [color="steelblue1",style="solid"];
  Node6 [label="boost/python/object.hpp",height=0.2,width=0.4,color="grey60", fillcolor="#E0E0E0", style="filled",tooltip=" "];
  Node3 -> Node7 [color="steelblue1",style="solid"];
  Node7 [label="boost/python/list.hpp",height=0.2,width=0.4,color="grey60", fillcolor="#E0E0E0", style="filled",tooltip=" "];
  Node3 -> Node8 [color="steelblue1",style="solid"];
  Node8 [label="boost/python/tuple.hpp",height=0.2,width=0.4,color="grey60", fillcolor="#E0E0E0", style="filled",tooltip=" "];
  Node3 -> Node9 [color="steelblue1",style="solid"];
  Node9 [label="boost/any.hpp",height=0.2,width=0.4,color="grey60", fillcolor="#E0E0E0", style="filled",tooltip=" "];
  Node3 -> Node10 [color="steelblue1",style="solid"];
  Node10 [label="graph_adjacency.hh",height=0.2,width=0.4,color="red", fillcolor="#FFF0F0", style="filled",URL="$graph__adjacency_8hh.html",tooltip=" "];
  Node10 -> Node11 [color="steelblue1",style="solid"];
  Node11 [label="vector",height=0.2,width=0.4,color="grey60", fillcolor="#E0E0E0", style="filled",tooltip=" "];
  Node10 -> Node12 [color="steelblue1",style="solid"];
  Node12 [label="deque",height=0.2,width=0.4,color="grey60", fillcolor="#E0E0E0", style="filled",tooltip=" "];
  Node10 -> Node13 [color="steelblue1",style="solid"];
  Node13 [label="utility",height=0.2,width=0.4,color="grey60", fillcolor="#E0E0E0", style="filled",tooltip=" "];
  Node10 -> Node14 [color="steelblue1",style="solid"];
  Node14 [label="boost/iterator.hpp",height=0.2,width=0.4,color="grey60", fillcolor="#E0E0E0", style="filled",tooltip=" "];
  Node10 -> Node15 [color="steelblue1",style="solid"];
  Node15 [label="boost/graph/graph_traits.hpp",height=0.2,width=0.4,color="grey60", fillcolor="#E0E0E0", style="filled",tooltip=" "];
  Node10 -> Node16 [color="steelblue1",style="solid"];
  Node16 [label="boost/range/irange.hpp",height=0.2,width=0.4,color="grey60", fillcolor="#E0E0E0", style="filled",tooltip=" "];
  Node10 -> Node17 [color="steelblue1",style="solid"];
  Node17 [label="boost/property_map\l/property_map.hpp",height=0.2,width=0.4,color="grey60", fillcolor="#E0E0E0", style="filled",tooltip=" "];
  Node10 -> Node18 [color="steelblue1",style="solid"];
  Node18 [label="boost/graph/properties.hpp",height=0.2,width=0.4,color="grey60", fillcolor="#E0E0E0", style="filled",tooltip=" "];
  Node10 -> Node19 [color="steelblue1",style="solid"];
  Node19 [label="boost/iterator/iterator\l_facade.hpp",height=0.2,width=0.4,color="grey60", fillcolor="#E0E0E0", style="filled",tooltip=" "];
  Node3 -> Node15 [color="steelblue1",style="solid"];
  Node3 -> Node22 [color="steelblue1",style="solid"];
  Node22 [label="fast_vector_property\l_map.hh",height=0.2,width=0.4,color="red", fillcolor="#FFF0F0", style="filled",URL="$fast__vector__property__map_8hh.html",tooltip=" "];
  Node22 -> Node17 [color="steelblue1",style="solid"];
  Node22 -> Node11 [color="steelblue1",style="solid"];
  Node3 -> Node24 [color="steelblue1",style="solid"];
  Node24 [label="boost/variant.hpp",height=0.2,width=0.4,color="grey60", fillcolor="#E0E0E0", style="filled",tooltip=" "];
  Node3 -> Node25 [color="steelblue1",style="solid"];
  Node25 [label="boost/mpl/bool_fwd.hpp",height=0.2,width=0.4,color="grey60", fillcolor="#E0E0E0", style="filled",tooltip=" "];
  Node3 -> Node26 [color="steelblue1",style="solid"];
  Node26 [label="graph_properties.hh",height=0.2,width=0.4,color="red", fillcolor="#FFF0F0", style="filled",URL="$graph__properties_8hh.html",tooltip=" "];
  Node26 -> Node27 [color="steelblue1",style="solid"];
  Node27 [label="string",height=0.2,width=0.4,color="grey60", fillcolor="#E0E0E0", style="filled",tooltip=" "];
  Node26 -> Node11 [color="steelblue1",style="solid"];
  Node26 -> Node28 [color="steelblue1",style="solid"];
  Node28 [label="unordered_map",height=0.2,width=0.4,color="grey60", fillcolor="#E0E0E0", style="filled",tooltip=" "];
  Node26 -> Node29 [color="steelblue1",style="solid"];
  Node29 [label="boost/functional/hash.hpp",height=0.2,width=0.4,color="grey60", fillcolor="#E0E0E0", style="filled",tooltip=" "];
  Node26 -> Node6 [color="steelblue1",style="solid"];
  Node26 -> Node31 [color="steelblue1",style="solid"];
  Node31 [label="boost/lexical_cast.hpp",height=0.2,width=0.4,color="grey60", fillcolor="#E0E0E0", style="filled",tooltip=" "];
  Node26 -> Node17 [color="steelblue1",style="solid"];
  Node26 -> Node22 [color="steelblue1",style="solid"];
  Node26 -> Node32 [color="steelblue1",style="solid"];
  Node32 [label="boost/mpl/vector.hpp",height=0.2,width=0.4,color="grey60", fillcolor="#E0E0E0", style="filled",tooltip=" "];
  Node1 -> Node38 [color="steelblue1",style="solid"];
  Node38 [label="graph_filtering.hh",height=0.2,width=0.4,color="grey40", fillcolor="white", style="filled",URL="$graph__filtering_8hh.html",tooltip=" "];
  Node38 -> Node3 [color="steelblue1",style="solid"];
  Node38 -> Node39 [color="steelblue1",style="solid"];
  Node39 [label="boost/version.hpp",height=0.2,width=0.4,color="grey60", fillcolor="#E0E0E0", style="filled",tooltip=" "];
  Node38 -> Node15 [color="steelblue1",style="solid"];
  Node38 -> Node32 [color="steelblue1",style="solid"];
  Node38 -> Node40 [color="steelblue1",style="solid"];
  Node40 [label="boost/mpl/if.hpp",height=0.2,width=0.4,color="grey60", fillcolor="#E0E0E0", style="filled",tooltip=" "];
  Node38 -> Node41 [color="steelblue1",style="solid"];
  Node41 [label="boost/mpl/logical.hpp",height=0.2,width=0.4,color="grey60", fillcolor="#E0E0E0", style="filled",tooltip=" "];
  Node38 -> Node42 [color="steelblue1",style="solid"];
  Node42 [label="boost/mpl/back_inserter.hpp",height=0.2,width=0.4,color="grey60", fillcolor="#E0E0E0", style="filled",tooltip=" "];
  Node38 -> Node43 [color="steelblue1",style="solid"];
  Node43 [label="boost/mpl/assert.hpp",height=0.2,width=0.4,color="grey60", fillcolor="#E0E0E0", style="filled",tooltip=" "];
  Node38 -> Node44 [color="steelblue1",style="solid"];
  Node44 [label="graph_adaptor.hh",height=0.2,width=0.4,color="red", fillcolor="#FFF0F0", style="filled",URL="$graph__adaptor_8hh.html",tooltip=" "];
  Node44 -> Node15 [color="steelblue1",style="solid"];
  Node38 -> Node47 [color="steelblue1",style="solid"];
  Node47 [label="graph_filtered.hh",height=0.2,width=0.4,color="red", fillcolor="#FFF0F0", style="filled",URL="$graph__filtered_8hh.html",tooltip=" "];
  Node47 -> Node15 [color="steelblue1",style="solid"];
  Node47 -> Node18 [color="steelblue1",style="solid"];
  Node38 -> Node51 [color="steelblue1",style="solid"];
  Node51 [label="graph_reverse.hh",height=0.2,width=0.4,color="red", fillcolor="#FFF0F0", style="filled",URL="$graph__reverse_8hh.html",tooltip=" "];
  Node51 -> Node13 [color="steelblue1",style="solid"];
  Node38 -> Node52 [color="steelblue1",style="solid"];
  Node52 [label="graph_util.hh",height=0.2,width=0.4,color="grey40", fillcolor="white", style="filled",URL="$graph__util_8hh.html",tooltip=" "];
  Node52 -> Node32 [color="steelblue1",style="solid"];
  Node52 -> Node15 [color="steelblue1",style="solid"];
  Node52 -> Node53 [color="steelblue1",style="solid"];
  Node53 [label="boost/algorithm/string\l/split.hpp",height=0.2,width=0.4,color="grey60", fillcolor="#E0E0E0", style="filled",tooltip=" "];
  Node52 -> Node54 [color="steelblue1",style="solid"];
  Node54 [label="boost/algorithm/string\l/trim.hpp",height=0.2,width=0.4,color="grey60", fillcolor="#E0E0E0", style="filled",tooltip=" "];
  Node52 -> Node31 [color="steelblue1",style="solid"];
  Node52 -> Node55 [color="steelblue1",style="solid"];
  Node55 [label="boost/range/iterator\l_range.hpp",height=0.2,width=0.4,color="grey60", fillcolor="#E0E0E0", style="filled",tooltip=" "];
  Node52 -> Node27 [color="steelblue1",style="solid"];
  Node52 -> Node29 [color="steelblue1",style="solid"];
  Node52 -> Node56 [color="steelblue1",style="solid"];
  Node56 [label="random",height=0.2,width=0.4,color="grey60", fillcolor="#E0E0E0", style="filled",tooltip=" "];
  Node52 -> Node57 [color="steelblue1",style="solid"];
  Node57 [label="graph_selectors.hh",height=0.2,width=0.4,color="red", fillcolor="#FFF0F0", style="filled",URL="$graph__selectors_8hh.html",tooltip=" "];
  Node57 -> Node13 [color="steelblue1",style="solid"];
  Node57 -> Node58 [color="steelblue1",style="solid"];
  Node58 [label="type_traits",height=0.2,width=0.4,color="grey60", fillcolor="#E0E0E0", style="filled",tooltip=" "];
  Node57 -> Node32 [color="steelblue1",style="solid"];
  Node57 -> Node43 [color="steelblue1",style="solid"];
  Node57 -> Node42 [color="steelblue1",style="solid"];
  Node57 -> Node9 [color="steelblue1",style="solid"];
  Node57 -> Node15 [color="steelblue1",style="solid"];
  Node57 -> Node26 [color="steelblue1",style="solid"];
  Node57 -> Node3 [color="steelblue1",style="solid"];
  Node52 -> Node47 [color="steelblue1",style="solid"];
  Node38 -> Node62 [color="steelblue1",style="solid"];
  Node62 [label="mpl_nested_loop.hh",height=0.2,width=0.4,color="grey40", fillcolor="white", style="filled",URL="$mpl__nested__loop_8hh.html",tooltip=" "];
  Node38 -> Node58 [color="steelblue1",style="solid"];
  Node1 -> Node52 [color="steelblue1",style="solid"];
  Node1 -> Node63 [color="steelblue1",style="solid"];
  Node63 [label="hash_map_wrap.hh",height=0.2,width=0.4,color="grey40", fillcolor="white", style="filled",URL="$hash__map__wrap_8hh.html",tooltip=" "];
  Node63 -> Node4 [color="steelblue1",style="solid"];
  Node63 -> Node64 [color="steelblue1",style="solid"];
  Node64 [label="unordered_set",height=0.2,width=0.4,color="grey60", fillcolor="#E0E0E0", style="filled",tooltip=" "];
  Node63 -> Node28 [color="steelblue1",style="solid"];
  Node63 -> Node2 [color="steelblue1",style="solid"];
  Node63 -> Node11 [color="steelblue1",style="solid"];
  Node63 -> Node13 [color="steelblue1",style="solid"];
  Node63 -> Node65 [color="steelblue1",style="solid"];
  Node65 [label="limits",height=0.2,width=0.4,color="grey60", fillcolor="#E0E0E0", style="filled",tooltip=" "];
  Node63 -> Node10 [color="steelblue1",style="solid"];
  Node1 -> Node66 [color="steelblue1",style="solid"];
  Node66 [label="sampler.hh",height=0.2,width=0.4,color="grey40", fillcolor="white", style="filled",URL="$sampler_8hh.html",tooltip=" "];
  Node66 -> Node67 [color="steelblue1",style="solid"];
  Node67 [label="random.hh",height=0.2,width=0.4,color="red", fillcolor="#FFF0F0", style="filled",URL="$random_8hh.html",tooltip=" "];
  Node66 -> Node40 [color="steelblue1",style="solid"];
}
