digraph "BOOST_PYTHON_MODULE"
{
 // LATEX_PDF_SIZE
  bgcolor="transparent";
  edge [fontname=Helvetica,fontsize=10,labelfontname=Helvetica,labelfontsize=10];
  node [fontname=Helvetica,fontsize=10,shape=box,height=0.2,width=0.4];
  rankdir="LR";
  Node1 [label="BOOST_PYTHON_MODULE",height=0.2,width=0.4,color="gray40", fillcolor="grey60", style="filled", fontcolor="black",tooltip=" "];
  Node1 -> Node2 [color="steelblue1",style="solid"];
  Node2 [label="check_isomorphism",height=0.2,width=0.4,color="grey40", fillcolor="white", style="filled",URL="$graph__isomorphism_8cc.html#aa3ab3d880655d6ebc49d80be7619cfbb",tooltip=" "];
  Node2 -> Node3 [color="steelblue1",style="solid"];
  Node3 [label="graph_tool::GraphInterface\l::get_directed",height=0.2,width=0.4,color="grey40", fillcolor="white", style="filled",URL="$classgraph__tool_1_1GraphInterface.html#a34a54ce80df48807d633ad72cbf79d7f",tooltip=" "];
  Node2 -> Node4 [color="steelblue1",style="solid"];
  Node4 [label="graph_tool::GraphInterface\l::get_graph_view",height=0.2,width=0.4,color="red", fillcolor="#FFF0F0", style="filled",URL="$classgraph__tool_1_1GraphInterface.html#a0ad81bb24c6df7fda2eaf1c3ac204631",tooltip=" "];
  Node2 -> Node10 [color="steelblue1",style="solid"];
  Node10 [label="graph_tool::GraphInterface\l::get_vertex_index",height=0.2,width=0.4,color="grey40", fillcolor="white", style="filled",URL="$classgraph__tool_1_1GraphInterface.html#a4a8b2130874eb17e73e578e39b851b64",tooltip=" "];
  Node1 -> Node11 [color="steelblue1",style="solid"];
  Node11 [label="dominator_tree",height=0.2,width=0.4,color="grey40", fillcolor="white", style="filled",URL="$graph__dominator__tree_8cc.html#ab1faaf33627bd0af25dcfce13e454e4d",tooltip=" "];
  Node1 -> Node12 [color="steelblue1",style="solid"];
  Node12 [label="export_all_circuits",height=0.2,width=0.4,color="grey40", fillcolor="white", style="filled",URL="$graph__all__circuits_8cc.html#aac6156d638e6fc8b9c3e3138ca6da471",tooltip=" "];
  Node12 -> Node13 [color="steelblue1",style="solid"];
  Node13 [label="get_all_circuits",height=0.2,width=0.4,color="grey40", fillcolor="white", style="filled",URL="$graph__all__circuits_8cc.html#ab709a9cd79b4e8468b61f695577a8216",tooltip=" "];
  Node1 -> Node14 [color="steelblue1",style="solid"];
  Node14 [label="export_all_dists",height=0.2,width=0.4,color="grey40", fillcolor="white", style="filled",URL="$graph__all__distances_8cc.html#a89ce4a3782d0c0189ebc800b70658490",tooltip=" "];
  Node14 -> Node15 [color="steelblue1",style="solid"];
  Node15 [label="get_all_dists",height=0.2,width=0.4,color="grey40", fillcolor="white", style="filled",URL="$graph__all__distances_8cc.html#a6c1561b8e94a971442cd0af9d333e526",tooltip=" "];
  Node15 -> Node10 [color="steelblue1",style="solid"];
  Node1 -> Node16 [color="steelblue1",style="solid"];
  Node16 [label="export_components",height=0.2,width=0.4,color="grey40", fillcolor="white", style="filled",URL="$graph__components_8cc.html#a21c5230bd90cdfcddeefe86a355a552d",tooltip=" "];
  Node16 -> Node17 [color="steelblue1",style="solid"];
  Node17 [label="do_label_attractors",height=0.2,width=0.4,color="grey40", fillcolor="white", style="filled",URL="$graph__components_8cc.html#a924a1b9db3658004d19d084852ce2db0",tooltip=" "];
  Node16 -> Node18 [color="steelblue1",style="solid"];
  Node18 [label="do_label_biconnected\l_components",height=0.2,width=0.4,color="red", fillcolor="#FFF0F0", style="filled",URL="$graph__components_8cc.html#a30f9bdd90a026163123236cbe44018a6",tooltip=" "];
  Node16 -> Node20 [color="steelblue1",style="solid"];
  Node20 [label="do_label_components",height=0.2,width=0.4,color="red", fillcolor="#FFF0F0", style="filled",URL="$graph__components_8cc.html#acb7981950559331266138735dd83d8a7",tooltip=" "];
  Node16 -> Node21 [color="steelblue1",style="solid"];
  Node21 [label="do_label_out_component",height=0.2,width=0.4,color="grey40", fillcolor="white", style="filled",URL="$graph__components_8cc.html#a787ceeae9d087c080e0007c0fa859225",tooltip=" "];
  Node1 -> Node22 [color="steelblue1",style="solid"];
  Node22 [label="export_diam",height=0.2,width=0.4,color="grey40", fillcolor="white", style="filled",URL="$graph__diameter_8cc.html#a420ccbe9c13707da6b0efde47b71674b",tooltip=" "];
  Node22 -> Node23 [color="steelblue1",style="solid"];
  Node23 [label="get_diam",height=0.2,width=0.4,color="red", fillcolor="#FFF0F0", style="filled",URL="$graph__diameter_8cc.html#a97bb21e7dc330024b33fb9034a2a729d",tooltip=" "];
  Node23 -> Node10 [color="steelblue1",style="solid"];
  Node1 -> Node27 [color="steelblue1",style="solid"];
  Node27 [label="export_dists",height=0.2,width=0.4,color="grey40", fillcolor="white", style="filled",URL="$topology_2graph__distance_8cc.html#a6af46f972497db6060b09a3666da2ca0",tooltip=" "];
  Node27 -> Node28 [color="steelblue1",style="solid"];
  Node28 [label="do_get_all_paths",height=0.2,width=0.4,color="red", fillcolor="#FFF0F0", style="filled",URL="$topology_2graph__distance_8cc.html#a130800f27329e29c99131506765eca14",tooltip=" "];
  Node27 -> Node29 [color="steelblue1",style="solid"];
  Node29 [label="do_get_all_preds",height=0.2,width=0.4,color="red", fillcolor="#FFF0F0", style="filled",URL="$topology_2graph__distance_8cc.html#a2a211c9026158765ad154df0c68b8c9a",tooltip=" "];
  Node27 -> Node35 [color="steelblue1",style="solid"];
  Node35 [label="do_get_all_shortest\l_paths",height=0.2,width=0.4,color="red", fillcolor="#FFF0F0", style="filled",URL="$topology_2graph__distance_8cc.html#ae94c872c04935209b5dfd62089108d5c",tooltip=" "];
  Node27 -> Node38 [color="steelblue1",style="solid"];
  Node38 [label="get_dists",height=0.2,width=0.4,color="red", fillcolor="#FFF0F0", style="filled",URL="$topology_2graph__distance_8cc.html#aa7f3c376c0fa9c7af937e9c182b7e0f2",tooltip=" "];
  Node38 -> Node10 [color="steelblue1",style="solid"];
  Node27 -> Node40 [color="steelblue1",style="solid"];
  Node40 [label="get_random_shortest_path",height=0.2,width=0.4,color="red", fillcolor="#FFF0F0", style="filled",URL="$topology_2graph__distance_8cc.html#a46d5e3e52b35635cf13bf781920517f7",tooltip=" "];
  Node27 -> Node42 [color="steelblue1",style="solid"];
  Node42 [label="get_weighted_succs",height=0.2,width=0.4,color="grey40", fillcolor="white", style="filled",URL="$topology_2graph__distance_8cc.html#a91186a76c1df1ce8f6f352f09a2b6324",tooltip=" "];
  Node1 -> Node43 [color="steelblue1",style="solid"];
  Node43 [label="export_kcore",height=0.2,width=0.4,color="grey40", fillcolor="white", style="filled",URL="$graph__kcore_8cc.html#ac5c8d7e51d4bee0b78f86b5388163e98",tooltip=" "];
  Node43 -> Node44 [color="steelblue1",style="solid"];
  Node44 [label="do_kcore_decomposition",height=0.2,width=0.4,color="red", fillcolor="#FFF0F0", style="filled",URL="$graph__kcore_8cc.html#aa5a964cfbf5ac57b0b66d558dad36d4b",tooltip=" "];
  Node44 -> Node4 [color="steelblue1",style="solid"];
  Node1 -> Node53 [color="steelblue1",style="solid"];
  Node53 [label="export_matching",height=0.2,width=0.4,color="grey40", fillcolor="white", style="filled",URL="$graph__matching_8cc.html#a2e2a5590c4db61727ff8b14fedf27f5a",tooltip=" "];
  Node53 -> Node54 [color="steelblue1",style="solid"];
  Node54 [label="get_max_bip_weighted\l_matching",height=0.2,width=0.4,color="red", fillcolor="#FFF0F0", style="filled",URL="$graph__matching_8cc.html#aac3d6e99fcd196c42365ced9337ab997",tooltip=" "];
  Node53 -> Node68 [color="steelblue1",style="solid"];
  Node68 [label="get_max_matching",height=0.2,width=0.4,color="red", fillcolor="#FFF0F0", style="filled",URL="$graph__matching_8cc.html#aabc598297129ccf76490b5253fd559d4",tooltip=" "];
  Node53 -> Node69 [color="steelblue1",style="solid"];
  Node69 [label="get_max_weighted_matching",height=0.2,width=0.4,color="red", fillcolor="#FFF0F0", style="filled",URL="$graph__matching_8cc.html#a3990dfa644ac1b4f78e499ff5d7432d4",tooltip=" "];
  Node53 -> Node70 [color="steelblue1",style="solid"];
  Node70 [label="match_edges",height=0.2,width=0.4,color="red", fillcolor="#FFF0F0", style="filled",URL="$graph__matching_8cc.html#a7f5cbbe2776eb83a8a70da2d955833a3",tooltip=" "];
  Node1 -> Node71 [color="steelblue1",style="solid"];
  Node71 [label="export_max_cliques",height=0.2,width=0.4,color="grey40", fillcolor="white", style="filled",URL="$graph__maximal__cliques_8cc.html#a6baf4fafabbeffd824e76492179533e4",tooltip=" "];
  Node71 -> Node72 [color="steelblue1",style="solid"];
  Node72 [label="get_max_cliques",height=0.2,width=0.4,color="red", fillcolor="#FFF0F0", style="filled",URL="$graph__maximal__cliques_8cc.html#a57276f3c5f45afbd6e8fce53b8dd8277",tooltip=" "];
  Node1 -> Node74 [color="steelblue1",style="solid"];
  Node74 [label="export_maximal_vertex_set",height=0.2,width=0.4,color="red", fillcolor="#FFF0F0", style="filled",URL="$graph__maximal__vertex__set_8cc.html#a5efdbf5f8f81de67bd7bc6b4d732cdb5",tooltip=" "];
  Node1 -> Node76 [color="steelblue1",style="solid"];
  Node76 [label="export_percolation",height=0.2,width=0.4,color="red", fillcolor="#FFF0F0", style="filled",URL="$graph__percolation_8cc.html#a338090c9c481e874bc70c06dd71ea61b",tooltip=" "];
  Node1 -> Node86 [color="steelblue1",style="solid"];
  Node86 [label="export_random_matching",height=0.2,width=0.4,color="red", fillcolor="#FFF0F0", style="filled",URL="$graph__random__matching_8cc.html#aaea3c099249465143e578153021f9cc8",tooltip=" "];
  Node1 -> Node88 [color="steelblue1",style="solid"];
  Node88 [label="export_similarity",height=0.2,width=0.4,color="red", fillcolor="#FFF0F0", style="filled",URL="$graph__similarity_8cc.html#a24c52b4fb062fd30a5af1a3e0b214086",tooltip=" "];
  Node1 -> Node102 [color="steelblue1",style="solid"];
  Node102 [label="export_vertex_similarity",height=0.2,width=0.4,color="red", fillcolor="#FFF0F0", style="filled",URL="$graph__vertex__similarity_8cc.html#a5e751f814852d735e1880957e98356d4",tooltip=" "];
  Node1 -> Node133 [color="steelblue1",style="solid"];
  Node133 [label="get_kruskal_spanning_tree",height=0.2,width=0.4,color="grey40", fillcolor="white", style="filled",URL="$graph__minimum__spanning__tree_8cc.html#aa085d1ae8cf31b6c9666761531d67401",tooltip=" "];
  Node133 -> Node10 [color="steelblue1",style="solid"];
  Node1 -> Node134 [color="steelblue1",style="solid"];
  Node134 [label="get_prim_spanning_tree",height=0.2,width=0.4,color="grey40", fillcolor="white", style="filled",URL="$graph__minimum__spanning__tree_8cc.html#a225790683e70db897cfdbf191dc8799f",tooltip=" "];
  Node134 -> Node10 [color="steelblue1",style="solid"];
  Node1 -> Node135 [color="steelblue1",style="solid"];
  Node135 [label="get_random_spanning_tree",height=0.2,width=0.4,color="grey40", fillcolor="white", style="filled",URL="$graph__random__spanning__tree_8cc.html#a9065c084d206f12c84bbe5d377ed8448",tooltip=" "];
  Node135 -> Node10 [color="steelblue1",style="solid"];
  Node1 -> Node136 [color="steelblue1",style="solid"];
  Node136 [label="get_tsp",height=0.2,width=0.4,color="grey40", fillcolor="white", style="filled",URL="$graph__tsp_8cc.html#af2ab851e9078a4cc3ede67af1f4233f0",tooltip=" "];
  Node1 -> Node137 [color="steelblue1",style="solid"];
  Node137 [label="is_bipartite",height=0.2,width=0.4,color="grey40", fillcolor="white", style="filled",URL="$graph__bipartite_8cc.html#a35a95125b556475f916a5fa83872f655",tooltip=" "];
  Node137 -> Node10 [color="steelblue1",style="solid"];
  Node1 -> Node138 [color="steelblue1",style="solid"];
  Node138 [label="is_planar",height=0.2,width=0.4,color="grey40", fillcolor="white", style="filled",URL="$graph__planar_8cc.html#ad976592c866118cea7af4a9209109b4e",tooltip=" "];
  Node138 -> Node138 [color="steelblue1",style="solid"];
  Node1 -> Node139 [color="steelblue1",style="solid"];
  Node139 [label="maximal_planar",height=0.2,width=0.4,color="grey40", fillcolor="white", style="filled",URL="$graph__maximal__planar_8cc.html#a26feee2e34e53bb400a01d3fe1a2c9d7",tooltip=" "];
  Node1 -> Node140 [color="steelblue1",style="solid"];
  Node140 [label="reciprocity",height=0.2,width=0.4,color="grey40", fillcolor="white", style="filled",URL="$graph__reciprocity_8cc.html#a67f908bca72a1463ce97968330adb1c6",tooltip=" "];
  Node140 -> Node140 [color="steelblue1",style="solid"];
  Node1 -> Node141 [color="steelblue1",style="solid"];
  Node141 [label="sequential_coloring",height=0.2,width=0.4,color="grey40", fillcolor="white", style="filled",URL="$graph__sequential__color_8cc.html#a6357e5b836fcb70e7a410ff777a5fd09",tooltip=" "];
  Node1 -> Node142 [color="steelblue1",style="solid"];
  Node142 [label="subgraph_isomorphism",height=0.2,width=0.4,color="red", fillcolor="#FFF0F0", style="filled",URL="$graph__subgraph__isomorphism_8cc.html#a1e5978517349fc2c741bba27f0fd71ae",tooltip=" "];
  Node142 -> Node3 [color="steelblue1",style="solid"];
  Node142 -> Node4 [color="steelblue1",style="solid"];
  Node1 -> Node144 [color="steelblue1",style="solid"];
  Node144 [label="topological_sort",height=0.2,width=0.4,color="grey40", fillcolor="white", style="filled",URL="$graph__topological__sort_8cc.html#a37682127633f5366082cf57f07dc1480",tooltip=" "];
  Node1 -> Node145 [color="steelblue1",style="solid"];
  Node145 [label="transitive_closure",height=0.2,width=0.4,color="red", fillcolor="#FFF0F0", style="filled",URL="$graph__transitive__closure_8cc.html#a3fc55f471d0de07cfa9d28be2ef562fd",tooltip=" "];
}
