digraph "dijkstra_search_generator"
{
 // LATEX_PDF_SIZE
  bgcolor="transparent";
  edge [fontname=Helvetica,fontsize=10,labelfontname=Helvetica,labelfontsize=10];
  node [fontname=Helvetica,fontsize=10,shape=box,height=0.2,width=0.4];
  rankdir="RL";
  Node1 [label="dijkstra_search_generator",height=0.2,width=0.4,color="gray40", fillcolor="grey60", style="filled", fontcolor="black",tooltip=" "];
  Node1 -> Node2 [dir="back",color="steelblue1",style="solid"];
  Node2 [label="export_dijkstra",height=0.2,width=0.4,color="grey40", fillcolor="white", style="filled",URL="$graph__dijkstra_8cc.html#a672ad14ca32b0110a2c1bb0904d98ea4",tooltip=" "];
  Node2 -> Node3 [dir="back",color="steelblue1",style="solid"];
  Node3 [label="BOOST_PYTHON_MODULE",height=0.2,width=0.4,color="grey40", fillcolor="white", style="filled",URL="$graph__search__bind_8cc.html#adde3008ba3d872d5c4d807813f0d6a83",tooltip=" "];
}
