digraph "compact_nonbacktracking"
{
 // LATEX_PDF_SIZE
  bgcolor="transparent";
  edge [fontname=Helvetica,fontsize=10,labelfontname=Helvetica,labelfontsize=10];
  node [fontname=Helvetica,fontsize=10,shape=box,height=0.2,width=0.4];
  rankdir="LR";
  Node1 [label="compact_nonbacktracking",height=0.2,width=0.4,color="gray40", fillcolor="grey60", style="filled", fontcolor="black",tooltip=" "];
  Node1 -> Node2 [color="steelblue1",style="solid"];
  Node2 [label="graph_tool::get_compact\l_nonbacktracking",height=0.2,width=0.4,color="grey40", fillcolor="white", style="filled",URL="$namespacegraph__tool.html#a5d65bba5597923cfedcae5407f628076",tooltip=" "];
  Node2 -> Node3 [color="steelblue1",style="solid"];
  Node3 [label="graph_tool::edges_range",height=0.2,width=0.4,color="grey40", fillcolor="white", style="filled",URL="$namespacegraph__tool.html#a84f027f8994c1005336b0a12eb0c9dc4",tooltip=" "];
  Node3 -> Node4 [color="steelblue1",style="solid"];
  Node4 [label="boost::edges",height=0.2,width=0.4,color="grey40", fillcolor="white", style="filled",URL="$namespaceboost.html#a3ac91f028a5f50644ba12e9e803bb2f8",tooltip=" "];
  Node4 -> Node4 [color="steelblue1",style="solid"];
  Node4 -> Node5 [color="steelblue1",style="solid"];
  Node5 [label="boost::undirected_adaptor\l::original_graph",height=0.2,width=0.4,color="grey40", fillcolor="white", style="filled",URL="$classboost_1_1undirected__adaptor.html#a11e557bb4f3d7c15354f98390f1d3644",tooltip=" "];
  Node3 -> Node6 [color="steelblue1",style="solid"];
  Node6 [label="graph_tool::mk_range",height=0.2,width=0.4,color="grey40", fillcolor="white", style="filled",URL="$namespacegraph__tool.html#a6ecc1e46efb4f620acabfe5728f7a2a6",tooltip=" "];
  Node2 -> Node7 [color="steelblue1",style="solid"];
  Node7 [label="boost::num_vertices",height=0.2,width=0.4,color="grey40", fillcolor="white", style="filled",URL="$namespaceboost.html#ac848f876a7fa2caa8fb1879b7c522ebc",tooltip=" "];
  Node7 -> Node7 [color="steelblue1",style="solid"];
  Node7 -> Node5 [color="steelblue1",style="solid"];
  Node2 -> Node8 [color="steelblue1",style="solid"];
  Node8 [label="boost::out_degree",height=0.2,width=0.4,color="grey40", fillcolor="white", style="filled",URL="$namespaceboost.html#ac2aab26c4c5fb471f6eef10ae4496089",tooltip=" "];
  Node8 -> Node9 [color="steelblue1",style="solid"];
  Node9 [label="boost::degree",height=0.2,width=0.4,color="grey40", fillcolor="white", style="filled",URL="$namespaceboost.html#ac08426adc887cd2f50850eb97baaae7d",tooltip=" "];
  Node9 -> Node8 [color="steelblue1",style="solid"];
  Node8 -> Node5 [color="steelblue1",style="solid"];
  Node2 -> Node10 [color="steelblue1",style="solid"];
  Node10 [label="graph_tool::source",height=0.2,width=0.4,color="grey40", fillcolor="white", style="filled",URL="$namespacegraph__tool.html#a0b44c0af404cec1513acb7b9602557f8",tooltip=" "];
  Node10 -> Node4 [color="steelblue1",style="solid"];
  Node10 -> Node10 [color="steelblue1",style="solid"];
  Node10 -> Node11 [color="steelblue1",style="solid"];
  Node11 [label="graph_tool::target",height=0.2,width=0.4,color="grey40", fillcolor="white", style="filled",URL="$namespacegraph__tool.html#aff9f07ca294560a9de57ab80deffa0cc",tooltip=" "];
  Node11 -> Node4 [color="steelblue1",style="solid"];
  Node11 -> Node10 [color="steelblue1",style="solid"];
  Node11 -> Node11 [color="steelblue1",style="solid"];
  Node2 -> Node11 [color="steelblue1",style="solid"];
  Node2 -> Node12 [color="steelblue1",style="solid"];
  Node12 [label="graph_tool::vertices\l_range",height=0.2,width=0.4,color="grey40", fillcolor="white", style="filled",URL="$namespacegraph__tool.html#a92ab479b81d8c9a030d42854fefabf1a",tooltip=" "];
  Node12 -> Node6 [color="steelblue1",style="solid"];
  Node12 -> Node13 [color="steelblue1",style="solid"];
  Node13 [label="boost::vertices",height=0.2,width=0.4,color="grey40", fillcolor="white", style="filled",URL="$namespaceboost.html#a0bc22071c353fa26cd0d16cc817ddde2",tooltip=" "];
  Node13 -> Node5 [color="steelblue1",style="solid"];
  Node13 -> Node13 [color="steelblue1",style="solid"];
}
