digraph "export_pp_state"
{
 // LATEX_PDF_SIZE
  bgcolor="transparent";
  edge [fontname=Helvetica,fontsize=10,labelfontname=Helvetica,labelfontsize=10];
  node [fontname=Helvetica,fontsize=10,shape=box,height=0.2,width=0.4];
  rankdir="LR";
  Node1 [label="export_pp_state",height=0.2,width=0.4,color="gray40", fillcolor="grey60", style="filled", fontcolor="black",tooltip=" "];
  Node1 -> Node2 [color="steelblue1",style="solid"];
  Node2 [label="make_pp_state",height=0.2,width=0.4,color="grey40", fillcolor="white", style="filled",URL="$graph__planted__partition_8cc.html#ae4c70080d297206587fc1003c3942551",tooltip=" "];
  Node1 -> Node3 [color="steelblue1",style="solid"];
  Node3 [label="name_demangle",height=0.2,width=0.4,color="grey40", fillcolor="white", style="filled",URL="$demangle_8cc.html#a1ae3cdbca103f0ab9f6fe6a9cd40b3e0",tooltip=" "];
}
