digraph "/home/man/Documents/graph-tool-cmake/src/graph/inference/layers/graph_blockmodel_layers_multicanonical.cc"
{
 // LATEX_PDF_SIZE
  bgcolor="transparent";
  edge [fontname=Helvetica,fontsize=10,labelfontname=Helvetica,labelfontsize=10];
  node [fontname=Helvetica,fontsize=10,shape=box,height=0.2,width=0.4];
  Node1 [label="/home/man/Documents\l/graph-tool-cmake/src\l/graph/inference/layers\l/graph_blockmodel_layers\l_multicanonical.cc",height=0.2,width=0.4,color="gray40", fillcolor="grey60", style="filled", fontcolor="black",tooltip=" "];
  Node1 -> Node2 [color="steelblue1",style="solid"];
  Node2 [label="graph_tool.hh",height=0.2,width=0.4,color="grey40", fillcolor="white", style="filled",URL="$graph__tool_8hh.html",tooltip=" "];
  Node2 -> Node3 [color="steelblue1",style="solid"];
  Node3 [label="graph.hh",height=0.2,width=0.4,color="grey40", fillcolor="white", style="filled",URL="$graph_8hh.html",tooltip=" "];
  Node3 -> Node4 [color="steelblue1",style="solid"];
  Node4 [label="config.h",height=0.2,width=0.4,color="grey60", fillcolor="#E0E0E0", style="filled",tooltip=" "];
  Node3 -> Node5 [color="steelblue1",style="solid"];
  Node5 [label="iterator",height=0.2,width=0.4,color="grey60", fillcolor="#E0E0E0", style="filled",tooltip=" "];
  Node3 -> Node6 [color="steelblue1",style="solid"];
  Node6 [label="boost/python/object.hpp",height=0.2,width=0.4,color="grey60", fillcolor="#E0E0E0", style="filled",tooltip=" "];
  Node3 -> Node7 [color="steelblue1",style="solid"];
  Node7 [label="boost/python/list.hpp",height=0.2,width=0.4,color="grey60", fillcolor="#E0E0E0", style="filled",tooltip=" "];
  Node3 -> Node8 [color="steelblue1",style="solid"];
  Node8 [label="boost/python/tuple.hpp",height=0.2,width=0.4,color="grey60", fillcolor="#E0E0E0", style="filled",tooltip=" "];
  Node3 -> Node9 [color="steelblue1",style="solid"];
  Node9 [label="boost/any.hpp",height=0.2,width=0.4,color="grey60", fillcolor="#E0E0E0", style="filled",tooltip=" "];
  Node3 -> Node10 [color="steelblue1",style="solid"];
  Node10 [label="graph_adjacency.hh",height=0.2,width=0.4,color="red", fillcolor="#FFF0F0", style="filled",URL="$graph__adjacency_8hh.html",tooltip=" "];
  Node10 -> Node11 [color="steelblue1",style="solid"];
  Node11 [label="vector",height=0.2,width=0.4,color="grey60", fillcolor="#E0E0E0", style="filled",tooltip=" "];
  Node10 -> Node15 [color="steelblue1",style="solid"];
  Node15 [label="boost/graph/graph_traits.hpp",height=0.2,width=0.4,color="grey60", fillcolor="#E0E0E0", style="filled",tooltip=" "];
  Node3 -> Node15 [color="steelblue1",style="solid"];
  Node3 -> Node22 [color="steelblue1",style="solid"];
  Node22 [label="fast_vector_property\l_map.hh",height=0.2,width=0.4,color="red", fillcolor="#FFF0F0", style="filled",URL="$fast__vector__property__map_8hh.html",tooltip=" "];
  Node22 -> Node11 [color="steelblue1",style="solid"];
  Node3 -> Node24 [color="steelblue1",style="solid"];
  Node24 [label="boost/variant.hpp",height=0.2,width=0.4,color="grey60", fillcolor="#E0E0E0", style="filled",tooltip=" "];
  Node3 -> Node25 [color="steelblue1",style="solid"];
  Node25 [label="boost/mpl/bool_fwd.hpp",height=0.2,width=0.4,color="grey60", fillcolor="#E0E0E0", style="filled",tooltip=" "];
  Node3 -> Node26 [color="steelblue1",style="solid"];
  Node26 [label="graph_properties.hh",height=0.2,width=0.4,color="red", fillcolor="#FFF0F0", style="filled",URL="$graph__properties_8hh.html",tooltip=" "];
  Node26 -> Node11 [color="steelblue1",style="solid"];
  Node26 -> Node6 [color="steelblue1",style="solid"];
  Node26 -> Node22 [color="steelblue1",style="solid"];
  Node26 -> Node32 [color="steelblue1",style="solid"];
  Node32 [label="boost/mpl/vector.hpp",height=0.2,width=0.4,color="grey60", fillcolor="#E0E0E0", style="filled",tooltip=" "];
  Node2 -> Node38 [color="steelblue1",style="solid"];
  Node38 [label="graph_filtering.hh",height=0.2,width=0.4,color="red", fillcolor="#FFF0F0", style="filled",URL="$graph__filtering_8hh.html",tooltip=" "];
  Node38 -> Node3 [color="steelblue1",style="solid"];
  Node38 -> Node39 [color="steelblue1",style="solid"];
  Node39 [label="boost/version.hpp",height=0.2,width=0.4,color="grey60", fillcolor="#E0E0E0", style="filled",tooltip=" "];
  Node38 -> Node15 [color="steelblue1",style="solid"];
  Node38 -> Node32 [color="steelblue1",style="solid"];
  Node38 -> Node40 [color="steelblue1",style="solid"];
  Node40 [label="boost/mpl/if.hpp",height=0.2,width=0.4,color="grey60", fillcolor="#E0E0E0", style="filled",tooltip=" "];
  Node38 -> Node41 [color="steelblue1",style="solid"];
  Node41 [label="boost/mpl/logical.hpp",height=0.2,width=0.4,color="grey60", fillcolor="#E0E0E0", style="filled",tooltip=" "];
  Node38 -> Node42 [color="steelblue1",style="solid"];
  Node42 [label="boost/mpl/back_inserter.hpp",height=0.2,width=0.4,color="grey60", fillcolor="#E0E0E0", style="filled",tooltip=" "];
  Node38 -> Node43 [color="steelblue1",style="solid"];
  Node43 [label="boost/mpl/assert.hpp",height=0.2,width=0.4,color="grey60", fillcolor="#E0E0E0", style="filled",tooltip=" "];
  Node38 -> Node44 [color="steelblue1",style="solid"];
  Node44 [label="graph_adaptor.hh",height=0.2,width=0.4,color="red", fillcolor="#FFF0F0", style="filled",URL="$graph__adaptor_8hh.html",tooltip=" "];
  Node44 -> Node15 [color="steelblue1",style="solid"];
  Node38 -> Node47 [color="steelblue1",style="solid"];
  Node47 [label="graph_filtered.hh",height=0.2,width=0.4,color="red", fillcolor="#FFF0F0", style="filled",URL="$graph__filtered_8hh.html",tooltip=" "];
  Node47 -> Node15 [color="steelblue1",style="solid"];
  Node38 -> Node51 [color="steelblue1",style="solid"];
  Node51 [label="graph_reverse.hh",height=0.2,width=0.4,color="red", fillcolor="#FFF0F0", style="filled",URL="$graph__reverse_8hh.html",tooltip=" "];
  Node2 -> Node26 [color="steelblue1",style="solid"];
  Node2 -> Node57 [color="steelblue1",style="solid"];
  Node57 [label="graph_selectors.hh",height=0.2,width=0.4,color="red", fillcolor="#FFF0F0", style="filled",URL="$graph__selectors_8hh.html",tooltip=" "];
  Node57 -> Node32 [color="steelblue1",style="solid"];
  Node57 -> Node43 [color="steelblue1",style="solid"];
  Node57 -> Node42 [color="steelblue1",style="solid"];
  Node57 -> Node9 [color="steelblue1",style="solid"];
  Node57 -> Node15 [color="steelblue1",style="solid"];
  Node57 -> Node26 [color="steelblue1",style="solid"];
  Node57 -> Node3 [color="steelblue1",style="solid"];
  Node1 -> Node63 [color="steelblue1",style="solid"];
  Node63 [label="random.hh",height=0.2,width=0.4,color="grey40", fillcolor="white", style="filled",URL="$random_8hh.html",tooltip=" "];
  Node63 -> Node64 [color="steelblue1",style="solid"];
  Node64 [label="pcg_random.hpp",height=0.2,width=0.4,color="grey60", fillcolor="#E0E0E0", style="filled",tooltip=" "];
  Node1 -> Node65 [color="steelblue1",style="solid"];
  Node65 [label="boost/python.hpp",height=0.2,width=0.4,color="grey60", fillcolor="#E0E0E0", style="filled",tooltip=" "];
  Node1 -> Node66 [color="steelblue1",style="solid"];
  Node66 [label="../blockmodel/graph\l_blockmodel_util.hh",height=0.2,width=0.4,color="grey40", fillcolor="white", style="filled",URL="$graph__blockmodel__util_8hh.html",tooltip=" "];
  Node66 -> Node4 [color="steelblue1",style="solid"];
  Node66 -> Node67 [color="steelblue1",style="solid"];
  Node67 [label="graph_blockmodel_entropy.hh",height=0.2,width=0.4,color="red", fillcolor="#FFF0F0", style="filled",URL="$graph__blockmodel__entropy_8hh.html",tooltip=" "];
  Node66 -> Node71 [color="steelblue1",style="solid"];
  Node71 [label="graph_blockmodel_partition.hh",height=0.2,width=0.4,color="red", fillcolor="#FFF0F0", style="filled",URL="$graph__blockmodel__partition_8hh.html",tooltip=" "];
  Node71 -> Node74 [color="steelblue1",style="solid"];
  Node74 [label="hash_map_wrap.hh",height=0.2,width=0.4,color="red", fillcolor="#FFF0F0", style="filled",URL="$hash__map__wrap_8hh.html",tooltip=" "];
  Node74 -> Node4 [color="steelblue1",style="solid"];
  Node74 -> Node76 [color="steelblue1",style="solid"];
  Node76 [label="tuple",height=0.2,width=0.4,color="grey60", fillcolor="#E0E0E0", style="filled",tooltip=" "];
  Node74 -> Node11 [color="steelblue1",style="solid"];
  Node74 -> Node10 [color="steelblue1",style="solid"];
  Node66 -> Node79 [color="steelblue1",style="solid"];
  Node79 [label="graph_blockmodel_entries.hh",height=0.2,width=0.4,color="grey40", fillcolor="white", style="filled",URL="$graph__blockmodel__entries_8hh.html",tooltip=" "];
  Node79 -> Node80 [color="steelblue1",style="solid"];
  Node80 [label="graph_blockmodel_weights.hh",height=0.2,width=0.4,color="grey40", fillcolor="white", style="filled",URL="$graph__blockmodel__weights_8hh.html",tooltip=" "];
  Node66 -> Node81 [color="steelblue1",style="solid"];
  Node81 [label="graph_blockmodel_emat.hh",height=0.2,width=0.4,color="red", fillcolor="#FFF0F0", style="filled",URL="$graph__blockmodel__emat_8hh.html",tooltip=" "];
  Node81 -> Node74 [color="steelblue1",style="solid"];
  Node66 -> Node82 [color="steelblue1",style="solid"];
  Node82 [label="graph_blockmodel_elist.hh",height=0.2,width=0.4,color="red", fillcolor="#FFF0F0", style="filled",URL="$graph__blockmodel__elist_8hh.html",tooltip=" "];
  Node66 -> Node80 [color="steelblue1",style="solid"];
  Node1 -> Node85 [color="steelblue1",style="solid"];
  Node85 [label="../blockmodel/graph\l_blockmodel.hh",height=0.2,width=0.4,color="grey40", fillcolor="white", style="filled",URL="$graph__blockmodel_8hh.html",tooltip=" "];
  Node85 -> Node4 [color="steelblue1",style="solid"];
  Node85 -> Node11 [color="steelblue1",style="solid"];
  Node85 -> Node86 [color="steelblue1",style="solid"];
  Node86 [label="idx_map.hh",height=0.2,width=0.4,color="red", fillcolor="#FFF0F0", style="filled",URL="$idx__map_8hh.html",tooltip=" "];
  Node86 -> Node11 [color="steelblue1",style="solid"];
  Node85 -> Node87 [color="steelblue1",style="solid"];
  Node87 [label="../support/graph_state.hh",height=0.2,width=0.4,color="red", fillcolor="#FFF0F0", style="filled",URL="$graph__state_8hh.html",tooltip=" "];
  Node87 -> Node65 [color="steelblue1",style="solid"];
  Node87 -> Node3 [color="steelblue1",style="solid"];
  Node87 -> Node57 [color="steelblue1",style="solid"];
  Node87 -> Node26 [color="steelblue1",style="solid"];
  Node87 -> Node38 [color="steelblue1",style="solid"];
  Node87 -> Node4 [color="steelblue1",style="solid"];
  Node85 -> Node66 [color="steelblue1",style="solid"];
  Node1 -> Node103 [color="steelblue1",style="solid"];
  Node103 [label="graph_blockmodel_layers.hh",height=0.2,width=0.4,color="grey40", fillcolor="white", style="filled",URL="$graph__blockmodel__layers_8hh.html",tooltip=" "];
  Node103 -> Node4 [color="steelblue1",style="solid"];
  Node103 -> Node11 [color="steelblue1",style="solid"];
  Node103 -> Node87 [color="steelblue1",style="solid"];
  Node103 -> Node66 [color="steelblue1",style="solid"];
  Node103 -> Node104 [color="steelblue1",style="solid"];
  Node104 [label="graph_blockmodel_layers\l_util.hh",height=0.2,width=0.4,color="grey40", fillcolor="white", style="filled",URL="$graph__blockmodel__layers__util_8hh.html",tooltip=" "];
  Node104 -> Node4 [color="steelblue1",style="solid"];
  Node1 -> Node105 [color="steelblue1",style="solid"];
  Node105 [label="../blockmodel/graph\l_blockmodel_mcmc.hh",height=0.2,width=0.4,color="grey40", fillcolor="white", style="filled",URL="$graph__blockmodel__mcmc_8hh.html",tooltip=" "];
  Node105 -> Node4 [color="steelblue1",style="solid"];
  Node105 -> Node11 [color="steelblue1",style="solid"];
  Node105 -> Node2 [color="steelblue1",style="solid"];
  Node105 -> Node87 [color="steelblue1",style="solid"];
  Node105 -> Node32 [color="steelblue1",style="solid"];
  Node1 -> Node106 [color="steelblue1",style="solid"];
  Node106 [label="../blockmodel/graph\l_blockmodel_multicanonical.hh",height=0.2,width=0.4,color="grey40", fillcolor="white", style="filled",URL="$graph__blockmodel__multicanonical_8hh.html",tooltip=" "];
  Node106 -> Node4 [color="steelblue1",style="solid"];
  Node106 -> Node11 [color="steelblue1",style="solid"];
  Node106 -> Node2 [color="steelblue1",style="solid"];
  Node106 -> Node87 [color="steelblue1",style="solid"];
  Node106 -> Node32 [color="steelblue1",style="solid"];
  Node1 -> Node107 [color="steelblue1",style="solid"];
  Node107 [label="../loops/mcmc_loop.hh",height=0.2,width=0.4,color="grey40", fillcolor="white", style="filled",URL="$mcmc__loop_8hh.html",tooltip=" "];
  Node107 -> Node4 [color="steelblue1",style="solid"];
  Node107 -> Node108 [color="steelblue1",style="solid"];
  Node108 [label="iostream",height=0.2,width=0.4,color="grey60", fillcolor="#E0E0E0", style="filled",tooltip=" "];
  Node107 -> Node76 [color="steelblue1",style="solid"];
  Node107 -> Node74 [color="steelblue1",style="solid"];
  Node107 -> Node109 [color="steelblue1",style="solid"];
  Node109 [label="parallel_rng.hh",height=0.2,width=0.4,color="grey40", fillcolor="white", style="filled",URL="$parallel__rng_8hh.html",tooltip=" "];
  Node109 -> Node4 [color="steelblue1",style="solid"];
  Node109 -> Node11 [color="steelblue1",style="solid"];
  Node107 -> Node110 [color="steelblue1",style="solid"];
  Node110 [label="graph_python_interface.hh",height=0.2,width=0.4,color="red", fillcolor="#FFF0F0", style="filled",URL="$graph__python__interface_8hh.html",tooltip=" "];
  Node110 -> Node65 [color="steelblue1",style="solid"];
  Node110 -> Node15 [color="steelblue1",style="solid"];
  Node110 -> Node3 [color="steelblue1",style="solid"];
  Node110 -> Node38 [color="steelblue1",style="solid"];
  Node110 -> Node57 [color="steelblue1",style="solid"];
}
