digraph "/home/man/Documents/graph-tool-cmake/src/graph/inference/blockmodel/graph_blockmodel_multiflip_mcmc.hh"
{
 // LATEX_PDF_SIZE
  bgcolor="transparent";
  edge [fontname=Helvetica,fontsize=10,labelfontname=Helvetica,labelfontsize=10];
  node [fontname=Helvetica,fontsize=10,shape=box,height=0.2,width=0.4];
  Node1 [label="/home/man/Documents\l/graph-tool-cmake/src\l/graph/inference/blockmodel\l/graph_blockmodel_multiflip_mcmc.hh",height=0.2,width=0.4,color="gray40", fillcolor="grey60", style="filled", fontcolor="black",tooltip=" "];
  Node1 -> Node2 [dir="back",color="steelblue1",style="solid"];
  Node2 [label="/home/man/Documents\l/graph-tool-cmake/src\l/graph/inference/blockmodel\l/graph_blockmodel_multicanonical\l_multiflip.cc",height=0.2,width=0.4,color="grey40", fillcolor="white", style="filled",URL="$graph__blockmodel__multicanonical__multiflip_8cc.html",tooltip=" "];
  Node1 -> Node3 [dir="back",color="steelblue1",style="solid"];
  Node3 [label="/home/man/Documents\l/graph-tool-cmake/src\l/graph/inference/blockmodel\l/graph_blockmodel_multiflip_mcmc.cc",height=0.2,width=0.4,color="grey40", fillcolor="white", style="filled",URL="$graph__blockmodel__multiflip__mcmc_8cc.html",tooltip=" "];
  Node1 -> Node4 [dir="back",color="steelblue1",style="solid"];
  Node4 [label="/home/man/Documents\l/graph-tool-cmake/src\l/graph/inference/layers\l/graph_blockmodel_layers\l_multicanonical_multiflip.cc",height=0.2,width=0.4,color="grey40", fillcolor="white", style="filled",URL="$graph__blockmodel__layers__multicanonical__multiflip_8cc.html",tooltip=" "];
  Node1 -> Node5 [dir="back",color="steelblue1",style="solid"];
  Node5 [label="/home/man/Documents\l/graph-tool-cmake/src\l/graph/inference/layers\l/graph_blockmodel_layers\l_multiflip_mcmc.cc",height=0.2,width=0.4,color="grey40", fillcolor="white", style="filled",URL="$graph__blockmodel__layers__multiflip__mcmc_8cc.html",tooltip=" "];
  Node1 -> Node6 [dir="back",color="steelblue1",style="solid"];
  Node6 [label="/home/man/Documents\l/graph-tool-cmake/src\l/graph/inference/layers\l/graph_blockmodel_layers\l_overlap_multicanonical_multiflip.cc",height=0.2,width=0.4,color="grey40", fillcolor="white", style="filled",URL="$graph__blockmodel__layers__overlap__multicanonical__multiflip_8cc.html",tooltip=" "];
  Node1 -> Node7 [dir="back",color="steelblue1",style="solid"];
  Node7 [label="/home/man/Documents\l/graph-tool-cmake/src\l/graph/inference/layers\l/graph_blockmodel_layers\l_overlap_multiflip_mcmc.cc",height=0.2,width=0.4,color="grey40", fillcolor="white", style="filled",URL="$graph__blockmodel__layers__overlap__multiflip__mcmc_8cc.html",tooltip=" "];
  Node1 -> Node8 [dir="back",color="steelblue1",style="solid"];
  Node8 [label="/home/man/Documents\l/graph-tool-cmake/src\l/graph/inference/modularity\l/graph_modularity_multiflip_mcmc.cc",height=0.2,width=0.4,color="grey40", fillcolor="white", style="filled",URL="$graph__modularity__multiflip__mcmc_8cc.html",tooltip=" "];
  Node1 -> Node9 [dir="back",color="steelblue1",style="solid"];
  Node9 [label="/home/man/Documents\l/graph-tool-cmake/src\l/graph/inference/norm\l_cut/graph_norm_cut_multiflip\l_mcmc.cc",height=0.2,width=0.4,color="grey40", fillcolor="white", style="filled",URL="$graph__norm__cut__multiflip__mcmc_8cc.html",tooltip=" "];
  Node1 -> Node10 [dir="back",color="steelblue1",style="solid"];
  Node10 [label="/home/man/Documents\l/graph-tool-cmake/src\l/graph/inference/overlap\l/graph_blockmodel_overlap\l_multicanonical_multiflip.cc",height=0.2,width=0.4,color="grey40", fillcolor="white", style="filled",URL="$graph__blockmodel__overlap__multicanonical__multiflip_8cc.html",tooltip=" "];
  Node1 -> Node11 [dir="back",color="steelblue1",style="solid"];
  Node11 [label="/home/man/Documents\l/graph-tool-cmake/src\l/graph/inference/overlap\l/graph_blockmodel_overlap\l_multiflip_mcmc.cc",height=0.2,width=0.4,color="grey40", fillcolor="white", style="filled",URL="$graph__blockmodel__overlap__multiflip__mcmc_8cc.html",tooltip=" "];
  Node1 -> Node12 [dir="back",color="steelblue1",style="solid"];
  Node12 [label="/home/man/Documents\l/graph-tool-cmake/src\l/graph/inference/partition\l_centroid/graph_partition\l_centroid_multiflip_mcmc.cc",height=0.2,width=0.4,color="grey40", fillcolor="white", style="filled",URL="$graph__partition__centroid__multiflip__mcmc_8cc.html",tooltip=" "];
  Node1 -> Node13 [dir="back",color="steelblue1",style="solid"];
  Node13 [label="/home/man/Documents\l/graph-tool-cmake/src\l/graph/inference/partition\l_centroid/graph_partition\l_centroid_rmi_multiflip_mcmc.cc",height=0.2,width=0.4,color="grey40", fillcolor="white", style="filled",URL="$graph__partition__centroid__rmi__multiflip__mcmc_8cc.html",tooltip=" "];
  Node1 -> Node14 [dir="back",color="steelblue1",style="solid"];
  Node14 [label="/home/man/Documents\l/graph-tool-cmake/src\l/graph/inference/partition\l_modes/graph_partition_mode\l_clustering_multiflip_mcmc.cc",height=0.2,width=0.4,color="grey40", fillcolor="white", style="filled",URL="$graph__partition__mode__clustering__multiflip__mcmc_8cc.html",tooltip=" "];
  Node1 -> Node15 [dir="back",color="steelblue1",style="solid"];
  Node15 [label="/home/man/Documents\l/graph-tool-cmake/src\l/graph/inference/planted\l_partition/graph_planted\l_partition_multiflip_mcmc.cc",height=0.2,width=0.4,color="grey40", fillcolor="white", style="filled",URL="$graph__planted__partition__multiflip__mcmc_8cc.html",tooltip=" "];
}
