digraph "/home/man/Documents/graph-tool-cmake/src/graph/inference/uncertain/graph_blockmodel_uncertain.hh"
{
 // LATEX_PDF_SIZE
  bgcolor="transparent";
  edge [fontname=Helvetica,fontsize=10,labelfontname=Helvetica,labelfontsize=10];
  node [fontname=Helvetica,fontsize=10,shape=box,height=0.2,width=0.4];
  Node1 [label="/home/man/Documents\l/graph-tool-cmake/src\l/graph/inference/uncertain\l/graph_blockmodel_uncertain.hh",height=0.2,width=0.4,color="gray40", fillcolor="grey60", style="filled", fontcolor="black",tooltip=" "];
  Node1 -> Node2 [color="steelblue1",style="solid"];
  Node2 [label="config.h",height=0.2,width=0.4,color="grey60", fillcolor="#E0E0E0", style="filled",tooltip=" "];
  Node1 -> Node3 [color="steelblue1",style="solid"];
  Node3 [label="vector",height=0.2,width=0.4,color="grey60", fillcolor="#E0E0E0", style="filled",tooltip=" "];
  Node1 -> Node4 [color="steelblue1",style="solid"];
  Node4 [label="../support/graph_state.hh",height=0.2,width=0.4,color="grey40", fillcolor="white", style="filled",URL="$graph__state_8hh.html",tooltip=" "];
  Node4 -> Node5 [color="steelblue1",style="solid"];
  Node5 [label="boost/python.hpp",height=0.2,width=0.4,color="grey60", fillcolor="#E0E0E0", style="filled",tooltip=" "];
  Node4 -> Node6 [color="steelblue1",style="solid"];
  Node6 [label="boost/preprocessor\l/comparison/equal.hpp",height=0.2,width=0.4,color="grey60", fillcolor="#E0E0E0", style="filled",tooltip=" "];
  Node4 -> Node7 [color="steelblue1",style="solid"];
  Node7 [label="boost/preprocessor\l/cat.hpp",height=0.2,width=0.4,color="grey60", fillcolor="#E0E0E0", style="filled",tooltip=" "];
  Node4 -> Node8 [color="steelblue1",style="solid"];
  Node8 [label="boost/preprocessor\l/seq/size.hpp",height=0.2,width=0.4,color="grey60", fillcolor="#E0E0E0", style="filled",tooltip=" "];
  Node4 -> Node9 [color="steelblue1",style="solid"];
  Node9 [label="boost/preprocessor\l/seq/for_each_i.hpp",height=0.2,width=0.4,color="grey60", fillcolor="#E0E0E0", style="filled",tooltip=" "];
  Node4 -> Node10 [color="steelblue1",style="solid"];
  Node10 [label="boost/preprocessor\l/stringize.hpp",height=0.2,width=0.4,color="grey60", fillcolor="#E0E0E0", style="filled",tooltip=" "];
  Node4 -> Node11 [color="steelblue1",style="solid"];
  Node11 [label="boost/preprocessor\l/tuple/elem.hpp",height=0.2,width=0.4,color="grey60", fillcolor="#E0E0E0", style="filled",tooltip=" "];
  Node4 -> Node12 [color="steelblue1",style="solid"];
  Node12 [label="boost/preprocessor\l/arithmetic/dec.hpp",height=0.2,width=0.4,color="grey60", fillcolor="#E0E0E0", style="filled",tooltip=" "];
  Node4 -> Node13 [color="steelblue1",style="solid"];
  Node13 [label="boost/preprocessor\l/seq/transform.hpp",height=0.2,width=0.4,color="grey60", fillcolor="#E0E0E0", style="filled",tooltip=" "];
  Node4 -> Node14 [color="steelblue1",style="solid"];
  Node14 [label="boost/preprocessor\l/seq/filter.hpp",height=0.2,width=0.4,color="grey60", fillcolor="#E0E0E0", style="filled",tooltip=" "];
  Node4 -> Node15 [color="steelblue1",style="solid"];
  Node15 [label="boost/preprocessor\l/seq/first_n.hpp",height=0.2,width=0.4,color="grey60", fillcolor="#E0E0E0", style="filled",tooltip=" "];
  Node4 -> Node16 [color="steelblue1",style="solid"];
  Node16 [label="graph.hh",height=0.2,width=0.4,color="grey40", fillcolor="white", style="filled",URL="$graph_8hh.html",tooltip=" "];
  Node16 -> Node2 [color="steelblue1",style="solid"];
  Node16 -> Node17 [color="steelblue1",style="solid"];
  Node17 [label="iterator",height=0.2,width=0.4,color="grey60", fillcolor="#E0E0E0", style="filled",tooltip=" "];
  Node16 -> Node18 [color="steelblue1",style="solid"];
  Node18 [label="boost/python/object.hpp",height=0.2,width=0.4,color="grey60", fillcolor="#E0E0E0", style="filled",tooltip=" "];
  Node16 -> Node19 [color="steelblue1",style="solid"];
  Node19 [label="boost/python/list.hpp",height=0.2,width=0.4,color="grey60", fillcolor="#E0E0E0", style="filled",tooltip=" "];
  Node16 -> Node20 [color="steelblue1",style="solid"];
  Node20 [label="boost/python/tuple.hpp",height=0.2,width=0.4,color="grey60", fillcolor="#E0E0E0", style="filled",tooltip=" "];
  Node16 -> Node21 [color="steelblue1",style="solid"];
  Node21 [label="boost/any.hpp",height=0.2,width=0.4,color="grey60", fillcolor="#E0E0E0", style="filled",tooltip=" "];
  Node16 -> Node22 [color="steelblue1",style="solid"];
  Node22 [label="graph_adjacency.hh",height=0.2,width=0.4,color="red", fillcolor="#FFF0F0", style="filled",URL="$graph__adjacency_8hh.html",tooltip=" "];
  Node22 -> Node3 [color="steelblue1",style="solid"];
  Node22 -> Node24 [color="steelblue1",style="solid"];
  Node24 [label="utility",height=0.2,width=0.4,color="grey60", fillcolor="#E0E0E0", style="filled",tooltip=" "];
  Node22 -> Node26 [color="steelblue1",style="solid"];
  Node26 [label="boost/graph/graph_traits.hpp",height=0.2,width=0.4,color="grey60", fillcolor="#E0E0E0", style="filled",tooltip=" "];
  Node22 -> Node28 [color="steelblue1",style="solid"];
  Node28 [label="boost/property_map\l/property_map.hpp",height=0.2,width=0.4,color="grey60", fillcolor="#E0E0E0", style="filled",tooltip=" "];
  Node16 -> Node26 [color="steelblue1",style="solid"];
  Node16 -> Node33 [color="steelblue1",style="solid"];
  Node33 [label="fast_vector_property\l_map.hh",height=0.2,width=0.4,color="grey40", fillcolor="white", style="filled",URL="$fast__vector__property__map_8hh.html",tooltip=" "];
  Node33 -> Node28 [color="steelblue1",style="solid"];
  Node33 -> Node34 [color="steelblue1",style="solid"];
  Node34 [label="memory",height=0.2,width=0.4,color="grey60", fillcolor="#E0E0E0", style="filled",tooltip=" "];
  Node33 -> Node3 [color="steelblue1",style="solid"];
  Node16 -> Node35 [color="steelblue1",style="solid"];
  Node35 [label="boost/variant.hpp",height=0.2,width=0.4,color="grey60", fillcolor="#E0E0E0", style="filled",tooltip=" "];
  Node16 -> Node36 [color="steelblue1",style="solid"];
  Node36 [label="boost/mpl/bool_fwd.hpp",height=0.2,width=0.4,color="grey60", fillcolor="#E0E0E0", style="filled",tooltip=" "];
  Node16 -> Node37 [color="steelblue1",style="solid"];
  Node37 [label="graph_properties.hh",height=0.2,width=0.4,color="red", fillcolor="#FFF0F0", style="filled",URL="$graph__properties_8hh.html",tooltip=" "];
  Node37 -> Node38 [color="steelblue1",style="solid"];
  Node38 [label="string",height=0.2,width=0.4,color="grey60", fillcolor="#E0E0E0", style="filled",tooltip=" "];
  Node37 -> Node3 [color="steelblue1",style="solid"];
  Node37 -> Node39 [color="steelblue1",style="solid"];
  Node39 [label="unordered_map",height=0.2,width=0.4,color="grey60", fillcolor="#E0E0E0", style="filled",tooltip=" "];
  Node37 -> Node40 [color="steelblue1",style="solid"];
  Node40 [label="boost/functional/hash.hpp",height=0.2,width=0.4,color="grey60", fillcolor="#E0E0E0", style="filled",tooltip=" "];
  Node37 -> Node18 [color="steelblue1",style="solid"];
  Node37 -> Node41 [color="steelblue1",style="solid"];
  Node41 [label="boost/python/extract.hpp",height=0.2,width=0.4,color="grey60", fillcolor="#E0E0E0", style="filled",tooltip=" "];
  Node37 -> Node42 [color="steelblue1",style="solid"];
  Node42 [label="boost/lexical_cast.hpp",height=0.2,width=0.4,color="grey60", fillcolor="#E0E0E0", style="filled",tooltip=" "];
  Node37 -> Node28 [color="steelblue1",style="solid"];
  Node37 -> Node33 [color="steelblue1",style="solid"];
  Node37 -> Node43 [color="steelblue1",style="solid"];
  Node43 [label="boost/mpl/vector.hpp",height=0.2,width=0.4,color="grey60", fillcolor="#E0E0E0", style="filled",tooltip=" "];
  Node37 -> Node44 [color="steelblue1",style="solid"];
  Node44 [label="boost/mpl/for_each.hpp",height=0.2,width=0.4,color="grey60", fillcolor="#E0E0E0", style="filled",tooltip=" "];
  Node37 -> Node45 [color="steelblue1",style="solid"];
  Node45 [label="boost/mpl/transform.hpp",height=0.2,width=0.4,color="grey60", fillcolor="#E0E0E0", style="filled",tooltip=" "];
  Node4 -> Node49 [color="steelblue1",style="solid"];
  Node49 [label="graph_selectors.hh",height=0.2,width=0.4,color="grey40", fillcolor="white", style="filled",URL="$graph__selectors_8hh.html",tooltip=" "];
  Node49 -> Node24 [color="steelblue1",style="solid"];
  Node49 -> Node50 [color="steelblue1",style="solid"];
  Node50 [label="type_traits",height=0.2,width=0.4,color="grey60", fillcolor="#E0E0E0", style="filled",tooltip=" "];
  Node49 -> Node51 [color="steelblue1",style="solid"];
  Node51 [label="boost/mpl/pair.hpp",height=0.2,width=0.4,color="grey60", fillcolor="#E0E0E0", style="filled",tooltip=" "];
  Node49 -> Node52 [color="steelblue1",style="solid"];
  Node52 [label="boost/mpl/map.hpp",height=0.2,width=0.4,color="grey60", fillcolor="#E0E0E0", style="filled",tooltip=" "];
  Node49 -> Node53 [color="steelblue1",style="solid"];
  Node53 [label="boost/mpl/at.hpp",height=0.2,width=0.4,color="grey60", fillcolor="#E0E0E0", style="filled",tooltip=" "];
  Node49 -> Node43 [color="steelblue1",style="solid"];
  Node49 -> Node45 [color="steelblue1",style="solid"];
  Node49 -> Node54 [color="steelblue1",style="solid"];
  Node54 [label="boost/mpl/assert.hpp",height=0.2,width=0.4,color="grey60", fillcolor="#E0E0E0", style="filled",tooltip=" "];
  Node49 -> Node55 [color="steelblue1",style="solid"];
  Node55 [label="boost/mpl/back_inserter.hpp",height=0.2,width=0.4,color="grey60", fillcolor="#E0E0E0", style="filled",tooltip=" "];
  Node49 -> Node21 [color="steelblue1",style="solid"];
  Node49 -> Node26 [color="steelblue1",style="solid"];
  Node49 -> Node37 [color="steelblue1",style="solid"];
  Node49 -> Node16 [color="steelblue1",style="solid"];
  Node4 -> Node37 [color="steelblue1",style="solid"];
  Node4 -> Node56 [color="steelblue1",style="solid"];
  Node56 [label="graph_filtering.hh",height=0.2,width=0.4,color="red", fillcolor="#FFF0F0", style="filled",URL="$graph__filtering_8hh.html",tooltip=" "];
  Node56 -> Node16 [color="steelblue1",style="solid"];
  Node56 -> Node26 [color="steelblue1",style="solid"];
  Node56 -> Node43 [color="steelblue1",style="solid"];
  Node56 -> Node55 [color="steelblue1",style="solid"];
  Node56 -> Node54 [color="steelblue1",style="solid"];
  Node56 -> Node68 [color="steelblue1",style="solid"];
  Node68 [label="graph_util.hh",height=0.2,width=0.4,color="red", fillcolor="#FFF0F0", style="filled",URL="$graph__util_8hh.html",tooltip=" "];
  Node68 -> Node43 [color="steelblue1",style="solid"];
  Node68 -> Node26 [color="steelblue1",style="solid"];
  Node68 -> Node42 [color="steelblue1",style="solid"];
  Node68 -> Node38 [color="steelblue1",style="solid"];
  Node68 -> Node40 [color="steelblue1",style="solid"];
  Node68 -> Node49 [color="steelblue1",style="solid"];
  Node56 -> Node50 [color="steelblue1",style="solid"];
  Node4 -> Node68 [color="steelblue1",style="solid"];
  Node4 -> Node74 [color="steelblue1",style="solid"];
  Node74 [label="numpy_bind.hh",height=0.2,width=0.4,color="red", fillcolor="#FFF0F0", style="filled",URL="$numpy__bind_8hh.html",tooltip=" "];
  Node74 -> Node3 [color="steelblue1",style="solid"];
  Node74 -> Node5 [color="steelblue1",style="solid"];
  Node74 -> Node52 [color="steelblue1",style="solid"];
  Node74 -> Node51 [color="steelblue1",style="solid"];
  Node4 -> Node2 [color="steelblue1",style="solid"];
  Node4 -> Node34 [color="steelblue1",style="solid"];
  Node1 -> Node80 [color="steelblue1",style="solid"];
  Node80 [label="graph_blockmodel_uncertain\l_util.hh",height=0.2,width=0.4,color="grey40", fillcolor="white", style="filled",URL="$graph__blockmodel__uncertain__util_8hh.html",tooltip=" "];
  Node80 -> Node2 [color="steelblue1",style="solid"];
  Node80 -> Node81 [color="steelblue1",style="solid"];
  Node81 [label="../support/util.hh",height=0.2,width=0.4,color="red", fillcolor="#FFF0F0", style="filled",URL="$util_8hh.html",tooltip=" "];
  Node81 -> Node2 [color="steelblue1",style="solid"];
}
