digraph "export_layered_blockmodel_state"
{
 // LATEX_PDF_SIZE
  bgcolor="transparent";
  edge [fontname=Helvetica,fontsize=10,labelfontname=Helvetica,labelfontsize=10];
  node [fontname=Helvetica,fontsize=10,shape=box,height=0.2,width=0.4];
  rankdir="LR";
  Node1 [label="export_layered_blockmodel\l_state",height=0.2,width=0.4,color="gray40", fillcolor="grey60", style="filled", fontcolor="black",tooltip=" "];
  Node1 -> Node2 [color="steelblue1",style="solid"];
  Node2 [label="bmap_copy",height=0.2,width=0.4,color="grey40", fillcolor="white", style="filled",URL="$graph__blockmodel__layers_8cc.html#abf323635e3c4cebb67da2f972996aa43",tooltip=" "];
  Node1 -> Node3 [color="steelblue1",style="solid"];
  Node3 [label="bmap_del_c",height=0.2,width=0.4,color="grey40", fillcolor="white", style="filled",URL="$graph__blockmodel__layers_8cc.html#acbbe943f8a5145d8ca6dae6ce997bdbd",tooltip=" "];
  Node1 -> Node4 [color="steelblue1",style="solid"];
  Node4 [label="bmap_get",height=0.2,width=0.4,color="grey40", fillcolor="white", style="filled",URL="$graph__blockmodel__layers_8cc.html#a525e0641444f7de585f5363f2613167b",tooltip=" "];
  Node1 -> Node5 [color="steelblue1",style="solid"];
  Node5 [label="bmap_has",height=0.2,width=0.4,color="grey40", fillcolor="white", style="filled",URL="$graph__blockmodel__layers_8cc.html#aca279f463ddfabe501e897f0af5c367c",tooltip=" "];
  Node1 -> Node6 [color="steelblue1",style="solid"];
  Node6 [label="bmap_set",height=0.2,width=0.4,color="grey40", fillcolor="white", style="filled",URL="$graph__blockmodel__layers_8cc.html#adddbb72eade9efa63416f4a61e7c5676",tooltip=" "];
  Node1 -> Node7 [color="steelblue1",style="solid"];
  Node7 [label="bmap_size",height=0.2,width=0.4,color="grey40", fillcolor="white", style="filled",URL="$graph__blockmodel__layers_8cc.html#a75ed4414ba9d99241d75ee1837e7d669",tooltip=" "];
  Node1 -> Node8 [color="steelblue1",style="solid"];
  Node8 [label="export_lsbm",height=0.2,width=0.4,color="grey40", fillcolor="white", style="filled",URL="$graph__blockmodel__layers_8cc.html#aa0a3bd0dc0375545e2154d2b31d17013",tooltip=" "];
  Node1 -> Node9 [color="steelblue1",style="solid"];
  Node9 [label="get_blweights",height=0.2,width=0.4,color="grey40", fillcolor="white", style="filled",URL="$graph__blockmodel__layers_8cc.html#a11dbfc9fd03e07156bc4bbf1df62add6",tooltip=" "];
  Node9 -> Node10 [color="steelblue1",style="solid"];
  Node10 [label="graph_tool::vertices\l_range",height=0.2,width=0.4,color="grey40", fillcolor="white", style="filled",URL="$namespacegraph__tool.html#a92ab479b81d8c9a030d42854fefabf1a",tooltip=" "];
  Node10 -> Node11 [color="steelblue1",style="solid"];
  Node11 [label="graph_tool::mk_range",height=0.2,width=0.4,color="grey40", fillcolor="white", style="filled",URL="$namespacegraph__tool.html#a6ecc1e46efb4f620acabfe5728f7a2a6",tooltip=" "];
  Node10 -> Node12 [color="steelblue1",style="solid"];
  Node12 [label="boost::vertices",height=0.2,width=0.4,color="grey40", fillcolor="white", style="filled",URL="$namespaceboost.html#a0bc22071c353fa26cd0d16cc817ddde2",tooltip=" "];
  Node12 -> Node13 [color="steelblue1",style="solid"];
  Node13 [label="boost::undirected_adaptor\l::original_graph",height=0.2,width=0.4,color="grey40", fillcolor="white", style="filled",URL="$classboost_1_1undirected__adaptor.html#a11e557bb4f3d7c15354f98390f1d3644",tooltip=" "];
  Node12 -> Node12 [color="steelblue1",style="solid"];
  Node1 -> Node14 [color="steelblue1",style="solid"];
  Node14 [label="get_ldegs",height=0.2,width=0.4,color="grey40", fillcolor="white", style="filled",URL="$graph__blockmodel__layers_8cc.html#a3d5f986414cfacfc79895607fae27794",tooltip=" "];
  Node14 -> Node10 [color="steelblue1",style="solid"];
  Node1 -> Node15 [color="steelblue1",style="solid"];
  Node15 [label="get_lweights",height=0.2,width=0.4,color="grey40", fillcolor="white", style="filled",URL="$graph__blockmodel__layers_8cc.html#a3115a2fbbf7c13543e0343b1cdcf190a",tooltip=" "];
  Node15 -> Node10 [color="steelblue1",style="solid"];
  Node1 -> Node16 [color="steelblue1",style="solid"];
  Node16 [label="get_rvmap",height=0.2,width=0.4,color="grey40", fillcolor="white", style="filled",URL="$graph__blockmodel__layers_8cc.html#a6424fcfa54b47a324324bf083109cf7c",tooltip=" "];
  Node16 -> Node10 [color="steelblue1",style="solid"];
  Node1 -> Node17 [color="steelblue1",style="solid"];
  Node17 [label="ldegs_map_copy",height=0.2,width=0.4,color="grey40", fillcolor="white", style="filled",URL="$graph__blockmodel__layers_8cc.html#aaed98bfa16957d768c33bde86880ce55",tooltip=" "];
  Node1 -> Node18 [color="steelblue1",style="solid"];
  Node18 [label="split_groups",height=0.2,width=0.4,color="grey40", fillcolor="white", style="filled",URL="$graph__blockmodel__layers_8cc.html#a5bb96a7dc2c63e18e14737a243fa8126",tooltip=" "];
  Node18 -> Node10 [color="steelblue1",style="solid"];
  Node1 -> Node19 [color="steelblue1",style="solid"];
  Node19 [label="split_layers",height=0.2,width=0.4,color="grey40", fillcolor="white", style="filled",URL="$graph__blockmodel__layers_8cc.html#ab94276cc6176a16ce16d46989d90af28",tooltip=" "];
  Node19 -> Node20 [color="steelblue1",style="solid"];
  Node20 [label="boost::add_edge",height=0.2,width=0.4,color="grey40", fillcolor="white", style="filled",URL="$namespaceboost.html#a2ca660300636fcb45d338069833665ae",tooltip=" "];
  Node20 -> Node20 [color="steelblue1",style="solid"];
  Node20 -> Node13 [color="steelblue1",style="solid"];
  Node19 -> Node21 [color="steelblue1",style="solid"];
  Node21 [label="boost::add_vertex",height=0.2,width=0.4,color="grey40", fillcolor="white", style="filled",URL="$namespaceboost.html#a9440b0ee2e6a885ba5cd53babca04ae8",tooltip=" "];
  Node21 -> Node21 [color="steelblue1",style="solid"];
  Node21 -> Node13 [color="steelblue1",style="solid"];
  Node19 -> Node22 [color="steelblue1",style="solid"];
  Node22 [label="graph_tool::edges_range",height=0.2,width=0.4,color="grey40", fillcolor="white", style="filled",URL="$namespacegraph__tool.html#a84f027f8994c1005336b0a12eb0c9dc4",tooltip=" "];
  Node22 -> Node23 [color="steelblue1",style="solid"];
  Node23 [label="boost::edges",height=0.2,width=0.4,color="grey40", fillcolor="white", style="filled",URL="$namespaceboost.html#a3ac91f028a5f50644ba12e9e803bb2f8",tooltip=" "];
  Node23 -> Node23 [color="steelblue1",style="solid"];
  Node23 -> Node13 [color="steelblue1",style="solid"];
  Node22 -> Node11 [color="steelblue1",style="solid"];
  Node19 -> Node24 [color="steelblue1",style="solid"];
  Node24 [label="boost::get",height=0.2,width=0.4,color="grey40", fillcolor="white", style="filled",URL="$namespaceboost.html#a16c10260e678081f48c16db5bdd0f5ea",tooltip=" "];
  Node24 -> Node24 [color="steelblue1",style="solid"];
  Node24 -> Node13 [color="steelblue1",style="solid"];
  Node19 -> Node25 [color="steelblue1",style="solid"];
  Node25 [label="graph_tool::get_v",height=0.2,width=0.4,color="grey40", fillcolor="white", style="filled",URL="$namespacegraph__tool.html#ab20f0f9adaa38f050d8fbb5ab1990603",tooltip=" "];
  Node25 -> Node26 [color="steelblue1",style="solid"];
  Node26 [label="spence",height=0.2,width=0.4,color="grey40", fillcolor="white", style="filled",URL="$spence_8cc.html#a58e4dbbddc449c0fb78441a58d0b0976",tooltip=" "];
  Node26 -> Node27 [color="steelblue1",style="solid"];
  Node27 [label="polevl",height=0.2,width=0.4,color="grey40", fillcolor="white", style="filled",URL="$spence_8cc.html#ac9906d546ede7b7744019f302128fdc5",tooltip=" "];
  Node19 -> Node28 [color="steelblue1",style="solid"];
  Node28 [label="boost::num_vertices",height=0.2,width=0.4,color="grey40", fillcolor="white", style="filled",URL="$namespaceboost.html#ac848f876a7fa2caa8fb1879b7c522ebc",tooltip=" "];
  Node28 -> Node28 [color="steelblue1",style="solid"];
  Node28 -> Node13 [color="steelblue1",style="solid"];
  Node19 -> Node29 [color="steelblue1",style="solid"];
  Node29 [label="graph_tool::source",height=0.2,width=0.4,color="grey40", fillcolor="white", style="filled",URL="$namespacegraph__tool.html#a0b44c0af404cec1513acb7b9602557f8",tooltip=" "];
  Node29 -> Node23 [color="steelblue1",style="solid"];
  Node29 -> Node29 [color="steelblue1",style="solid"];
  Node29 -> Node30 [color="steelblue1",style="solid"];
  Node30 [label="graph_tool::target",height=0.2,width=0.4,color="grey40", fillcolor="white", style="filled",URL="$namespacegraph__tool.html#aff9f07ca294560a9de57ab80deffa0cc",tooltip=" "];
  Node30 -> Node23 [color="steelblue1",style="solid"];
  Node30 -> Node29 [color="steelblue1",style="solid"];
  Node30 -> Node30 [color="steelblue1",style="solid"];
  Node19 -> Node30 [color="steelblue1",style="solid"];
  Node19 -> Node10 [color="steelblue1",style="solid"];
}
