digraph "/home/man/Documents/graph-tool-cmake/src/graph/inference/partition_centroid/graph_partition_centroid.hh"
{
 // LATEX_PDF_SIZE
  bgcolor="transparent";
  edge [fontname=Helvetica,fontsize=10,labelfontname=Helvetica,labelfontsize=10];
  node [fontname=Helvetica,fontsize=10,shape=box,height=0.2,width=0.4];
  Node1 [label="/home/man/Documents\l/graph-tool-cmake/src\l/graph/inference/partition\l_centroid/graph_partition\l_centroid.hh",height=0.2,width=0.4,color="gray40", fillcolor="grey60", style="filled", fontcolor="black",tooltip=" "];
  Node1 -> Node2 [dir="back",color="steelblue1",style="solid"];
  Node2 [label="/home/man/Documents\l/graph-tool-cmake/src\l/graph/inference/partition\l_centroid/graph_partition\l_centroid.cc",height=0.2,width=0.4,color="grey40", fillcolor="white", style="filled",URL="$graph__partition__centroid_8cc.html",tooltip=" "];
  Node1 -> Node3 [dir="back",color="steelblue1",style="solid"];
  Node3 [label="/home/man/Documents\l/graph-tool-cmake/src\l/graph/inference/partition\l_centroid/graph_partition\l_centroid_mcmc.cc",height=0.2,width=0.4,color="grey40", fillcolor="white", style="filled",URL="$graph__partition__centroid__mcmc_8cc.html",tooltip=" "];
  Node1 -> Node4 [dir="back",color="steelblue1",style="solid"];
  Node4 [label="/home/man/Documents\l/graph-tool-cmake/src\l/graph/inference/partition\l_centroid/graph_partition\l_centroid_multiflip_mcmc.cc",height=0.2,width=0.4,color="grey40", fillcolor="white", style="filled",URL="$graph__partition__centroid__multiflip__mcmc_8cc.html",tooltip=" "];
  Node1 -> Node5 [dir="back",color="steelblue1",style="solid"];
  Node5 [label="/home/man/Documents\l/graph-tool-cmake/src\l/graph/inference/partition\l_centroid/graph_partition\l_centroid_multilevel_mcmc.cc",height=0.2,width=0.4,color="grey40", fillcolor="white", style="filled",URL="$graph__partition__centroid__multilevel__mcmc_8cc.html",tooltip=" "];
}
