digraph "BOOST_PYTHON_MODULE"
{
 // LATEX_PDF_SIZE
  bgcolor="transparent";
  edge [fontname=Helvetica,fontsize=10,labelfontname=Helvetica,labelfontsize=10];
  node [fontname=Helvetica,fontsize=10,shape=box,height=0.2,width=0.4];
  rankdir="LR";
  Node1 [label="BOOST_PYTHON_MODULE",height=0.2,width=0.4,color="gray40", fillcolor="grey60", style="filled", fontcolor="black",tooltip=" "];
  Node1 -> Node2 [color="steelblue1",style="solid"];
  Node2 [label="adjacency",height=0.2,width=0.4,color="grey40", fillcolor="white", style="filled",URL="$graph__adjacency_8cc.html#a1b002860c7297e3c12cb7e0834ebcfd4",tooltip=" "];
  Node1 -> Node3 [color="steelblue1",style="solid"];
  Node3 [label="adjacency_matmat",height=0.2,width=0.4,color="grey40", fillcolor="white", style="filled",URL="$graph__adjacency_8cc.html#a83a8a7f4cf4498d16e7360f4cdd16065",tooltip=" "];
  Node3 -> Node4 [color="steelblue1",style="solid"];
  Node4 [label="graph_tool::adj_matmat",height=0.2,width=0.4,color="grey40", fillcolor="white", style="filled",URL="$namespacegraph__tool.html#aec8838e243c14eef2995ac7b814c9494",tooltip=" "];
  Node4 -> Node5 [color="steelblue1",style="solid"];
  Node5 [label="boost::get",height=0.2,width=0.4,color="grey40", fillcolor="white", style="filled",URL="$namespaceboost.html#a16c10260e678081f48c16db5bdd0f5ea",tooltip=" "];
  Node5 -> Node5 [color="steelblue1",style="solid"];
  Node5 -> Node6 [color="steelblue1",style="solid"];
  Node6 [label="boost::undirected_adaptor\l::original_graph",height=0.2,width=0.4,color="grey40", fillcolor="white", style="filled",URL="$classboost_1_1undirected__adaptor.html#a11e557bb4f3d7c15354f98390f1d3644",tooltip=" "];
  Node4 -> Node7 [color="steelblue1",style="solid"];
  Node7 [label="graph_tool::in_or_out\l_edges_range",height=0.2,width=0.4,color="grey40", fillcolor="white", style="filled",URL="$namespacegraph__tool.html#a655821049f44eb75c433c9f5ec85e9cf",tooltip=" "];
  Node7 -> Node8 [color="steelblue1",style="solid"];
  Node8 [label="graph_tool::mk_range",height=0.2,width=0.4,color="grey40", fillcolor="white", style="filled",URL="$namespacegraph__tool.html#a6ecc1e46efb4f620acabfe5728f7a2a6",tooltip=" "];
  Node4 -> Node9 [color="steelblue1",style="solid"];
  Node9 [label="graph_tool::in_or_out\l_neighbors_range",height=0.2,width=0.4,color="grey40", fillcolor="white", style="filled",URL="$namespacegraph__tool.html#a9e0146b335aeb9ee8250e066457318bf",tooltip=" "];
  Node9 -> Node8 [color="steelblue1",style="solid"];
  Node4 -> Node10 [color="steelblue1",style="solid"];
  Node10 [label="graph_tool::parallel\l_vertex_loop",height=0.2,width=0.4,color="grey40", fillcolor="white", style="filled",URL="$namespacegraph__tool.html#ab935ff202da78b1e2356069ec687b630",tooltip=" "];
  Node4 -> Node11 [color="steelblue1",style="solid"];
  Node11 [label="graph_tool::target",height=0.2,width=0.4,color="grey40", fillcolor="white", style="filled",URL="$namespacegraph__tool.html#aff9f07ca294560a9de57ab80deffa0cc",tooltip=" "];
  Node11 -> Node12 [color="steelblue1",style="solid"];
  Node12 [label="boost::edges",height=0.2,width=0.4,color="grey40", fillcolor="white", style="filled",URL="$namespaceboost.html#a3ac91f028a5f50644ba12e9e803bb2f8",tooltip=" "];
  Node12 -> Node12 [color="steelblue1",style="solid"];
  Node12 -> Node6 [color="steelblue1",style="solid"];
  Node11 -> Node13 [color="steelblue1",style="solid"];
  Node13 [label="graph_tool::source",height=0.2,width=0.4,color="grey40", fillcolor="white", style="filled",URL="$namespacegraph__tool.html#a0b44c0af404cec1513acb7b9602557f8",tooltip=" "];
  Node13 -> Node12 [color="steelblue1",style="solid"];
  Node13 -> Node13 [color="steelblue1",style="solid"];
  Node13 -> Node11 [color="steelblue1",style="solid"];
  Node11 -> Node11 [color="steelblue1",style="solid"];
  Node1 -> Node14 [color="steelblue1",style="solid"];
  Node14 [label="adjacency_matvec",height=0.2,width=0.4,color="grey40", fillcolor="white", style="filled",URL="$graph__adjacency_8cc.html#a562dfe8f6ae1ea3c8c49bd4cd87cdb1d",tooltip=" "];
  Node14 -> Node15 [color="steelblue1",style="solid"];
  Node15 [label="graph_tool::adj_matvec",height=0.2,width=0.4,color="grey40", fillcolor="white", style="filled",URL="$namespacegraph__tool.html#ab128114cadcb9bd8b322b55e91877c7c",tooltip=" "];
  Node15 -> Node5 [color="steelblue1",style="solid"];
  Node15 -> Node7 [color="steelblue1",style="solid"];
  Node15 -> Node9 [color="steelblue1",style="solid"];
  Node15 -> Node10 [color="steelblue1",style="solid"];
  Node15 -> Node11 [color="steelblue1",style="solid"];
  Node1 -> Node16 [color="steelblue1",style="solid"];
  Node16 [label="compact_nonbacktracking",height=0.2,width=0.4,color="grey40", fillcolor="white", style="filled",URL="$graph__nonbacktracking_8cc.html#a67869d4a3bf9ab3351f190e62ba69e9d",tooltip=" "];
  Node16 -> Node17 [color="steelblue1",style="solid"];
  Node17 [label="graph_tool::get_compact\l_nonbacktracking",height=0.2,width=0.4,color="grey40", fillcolor="white", style="filled",URL="$namespacegraph__tool.html#a5d65bba5597923cfedcae5407f628076",tooltip=" "];
  Node17 -> Node18 [color="steelblue1",style="solid"];
  Node18 [label="graph_tool::edges_range",height=0.2,width=0.4,color="grey40", fillcolor="white", style="filled",URL="$namespacegraph__tool.html#a84f027f8994c1005336b0a12eb0c9dc4",tooltip=" "];
  Node18 -> Node12 [color="steelblue1",style="solid"];
  Node18 -> Node8 [color="steelblue1",style="solid"];
  Node17 -> Node19 [color="steelblue1",style="solid"];
  Node19 [label="boost::num_vertices",height=0.2,width=0.4,color="grey40", fillcolor="white", style="filled",URL="$namespaceboost.html#ac848f876a7fa2caa8fb1879b7c522ebc",tooltip=" "];
  Node19 -> Node19 [color="steelblue1",style="solid"];
  Node19 -> Node6 [color="steelblue1",style="solid"];
  Node17 -> Node20 [color="steelblue1",style="solid"];
  Node20 [label="boost::out_degree",height=0.2,width=0.4,color="grey40", fillcolor="white", style="filled",URL="$namespaceboost.html#ac2aab26c4c5fb471f6eef10ae4496089",tooltip=" "];
  Node20 -> Node21 [color="steelblue1",style="solid"];
  Node21 [label="boost::degree",height=0.2,width=0.4,color="grey40", fillcolor="white", style="filled",URL="$namespaceboost.html#ac08426adc887cd2f50850eb97baaae7d",tooltip=" "];
  Node21 -> Node20 [color="steelblue1",style="solid"];
  Node20 -> Node6 [color="steelblue1",style="solid"];
  Node17 -> Node13 [color="steelblue1",style="solid"];
  Node17 -> Node11 [color="steelblue1",style="solid"];
  Node17 -> Node22 [color="steelblue1",style="solid"];
  Node22 [label="graph_tool::vertices\l_range",height=0.2,width=0.4,color="red", fillcolor="#FFF0F0", style="filled",URL="$namespacegraph__tool.html#a92ab479b81d8c9a030d42854fefabf1a",tooltip=" "];
  Node22 -> Node8 [color="steelblue1",style="solid"];
  Node1 -> Node24 [color="steelblue1",style="solid"];
  Node24 [label="compact_nonbacktracking\l_matmat",height=0.2,width=0.4,color="grey40", fillcolor="white", style="filled",URL="$graph__nonbacktracking_8cc.html#ae717966190c36c56650cdf54b138b74b",tooltip=" "];
  Node1 -> Node25 [color="steelblue1",style="solid"];
  Node25 [label="compact_nonbacktracking\l_matvec",height=0.2,width=0.4,color="grey40", fillcolor="white", style="filled",URL="$graph__nonbacktracking_8cc.html#a787e5792afa89ee47770f8b9d0b15d9f",tooltip=" "];
  Node1 -> Node26 [color="steelblue1",style="solid"];
  Node26 [label="incidence",height=0.2,width=0.4,color="grey40", fillcolor="white", style="filled",URL="$graph__incidence_8cc.html#a6a42d35e3ed4c5a7711281a33a989cc8",tooltip=" "];
  Node1 -> Node27 [color="steelblue1",style="solid"];
  Node27 [label="incidence_matmat",height=0.2,width=0.4,color="grey40", fillcolor="white", style="filled",URL="$graph__incidence_8cc.html#a7d6dea796cf06d9e10157e73ebc77873",tooltip=" "];
  Node27 -> Node28 [color="steelblue1",style="solid"];
  Node28 [label="graph_tool::inc_matmat",height=0.2,width=0.4,color="grey40", fillcolor="white", style="filled",URL="$namespacegraph__tool.html#a8590d8b89dd188f7b3eab59d8556be7e",tooltip=" "];
  Node28 -> Node5 [color="steelblue1",style="solid"];
  Node28 -> Node29 [color="steelblue1",style="solid"];
  Node29 [label="graph_tool::in_edges\l_range",height=0.2,width=0.4,color="grey40", fillcolor="white", style="filled",URL="$namespacegraph__tool.html#ae2bbfd4979b94ff2417605533d84aec9",tooltip=" "];
  Node29 -> Node8 [color="steelblue1",style="solid"];
  Node28 -> Node30 [color="steelblue1",style="solid"];
  Node30 [label="graph_tool::out_edges\l_range",height=0.2,width=0.4,color="grey40", fillcolor="white", style="filled",URL="$namespacegraph__tool.html#a347f8a3e503c35e8a4d54184d8d90a6f",tooltip=" "];
  Node30 -> Node8 [color="steelblue1",style="solid"];
  Node28 -> Node31 [color="steelblue1",style="solid"];
  Node31 [label="graph_tool::parallel\l_edge_loop",height=0.2,width=0.4,color="grey40", fillcolor="white", style="filled",URL="$namespacegraph__tool.html#ad32afef89dd41b6181a29713a37e658a",tooltip=" "];
  Node28 -> Node10 [color="steelblue1",style="solid"];
  Node28 -> Node13 [color="steelblue1",style="solid"];
  Node28 -> Node11 [color="steelblue1",style="solid"];
  Node1 -> Node32 [color="steelblue1",style="solid"];
  Node32 [label="incidence_matvec",height=0.2,width=0.4,color="grey40", fillcolor="white", style="filled",URL="$graph__incidence_8cc.html#a4eea1057ed976767e0f23540472f2b2a",tooltip=" "];
  Node32 -> Node33 [color="steelblue1",style="solid"];
  Node33 [label="graph_tool::inc_matvec",height=0.2,width=0.4,color="grey40", fillcolor="white", style="filled",URL="$namespacegraph__tool.html#aad094bc202128aba5518a39dda4bfe63",tooltip=" "];
  Node33 -> Node5 [color="steelblue1",style="solid"];
  Node33 -> Node29 [color="steelblue1",style="solid"];
  Node33 -> Node30 [color="steelblue1",style="solid"];
  Node33 -> Node31 [color="steelblue1",style="solid"];
  Node33 -> Node10 [color="steelblue1",style="solid"];
  Node33 -> Node13 [color="steelblue1",style="solid"];
  Node33 -> Node11 [color="steelblue1",style="solid"];
  Node1 -> Node34 [color="steelblue1",style="solid"];
  Node34 [label="laplacian",height=0.2,width=0.4,color="grey40", fillcolor="white", style="filled",URL="$graph__laplacian_8cc.html#ad67e35d7001ac7e96432d4b302297fc9",tooltip=" "];
  Node1 -> Node35 [color="steelblue1",style="solid"];
  Node35 [label="laplacian_matmat",height=0.2,width=0.4,color="grey40", fillcolor="white", style="filled",URL="$graph__laplacian_8cc.html#a99c2830f1473094c256d2e89206d457d",tooltip=" "];
  Node35 -> Node36 [color="steelblue1",style="solid"];
  Node36 [label="graph_tool::lap_matmat",height=0.2,width=0.4,color="grey40", fillcolor="white", style="filled",URL="$namespacegraph__tool.html#a07d316bda3fc9bc926a506985b0bf39c",tooltip=" "];
  Node36 -> Node5 [color="steelblue1",style="solid"];
  Node36 -> Node7 [color="steelblue1",style="solid"];
  Node36 -> Node9 [color="steelblue1",style="solid"];
  Node36 -> Node10 [color="steelblue1",style="solid"];
  Node36 -> Node11 [color="steelblue1",style="solid"];
  Node1 -> Node37 [color="steelblue1",style="solid"];
  Node37 [label="laplacian_matvec",height=0.2,width=0.4,color="grey40", fillcolor="white", style="filled",URL="$graph__laplacian_8cc.html#a1fd793c5b7345fdaa4c71d09dfced5e5",tooltip=" "];
  Node37 -> Node38 [color="steelblue1",style="solid"];
  Node38 [label="graph_tool::lap_matvec",height=0.2,width=0.4,color="grey40", fillcolor="white", style="filled",URL="$namespacegraph__tool.html#a6d7cc91db1e9701cc7f50680159cfca7",tooltip=" "];
  Node38 -> Node5 [color="steelblue1",style="solid"];
  Node38 -> Node7 [color="steelblue1",style="solid"];
  Node38 -> Node9 [color="steelblue1",style="solid"];
  Node38 -> Node10 [color="steelblue1",style="solid"];
  Node38 -> Node11 [color="steelblue1",style="solid"];
  Node1 -> Node39 [color="steelblue1",style="solid"];
  Node39 [label="nonbacktracking",height=0.2,width=0.4,color="grey40", fillcolor="white", style="filled",URL="$graph__nonbacktracking_8cc.html#a9bbd171a4ab46a672c4f2e7aafa82b69",tooltip=" "];
  Node39 -> Node40 [color="steelblue1",style="solid"];
  Node40 [label="graph_tool::get_nonbacktracking",height=0.2,width=0.4,color="grey40", fillcolor="white", style="filled",URL="$namespacegraph__tool.html#a4c3bb99b800097e9a817799ec42c94ab",tooltip=" "];
  Node40 -> Node41 [color="steelblue1",style="solid"];
  Node41 [label="graph_tool::is_directed",height=0.2,width=0.4,color="grey40", fillcolor="white", style="filled",URL="$namespacegraph__tool.html#a815c22620d9f5756b899dc94e405e2f3",tooltip=" "];
  Node40 -> Node30 [color="steelblue1",style="solid"];
  Node40 -> Node11 [color="steelblue1",style="solid"];
  Node40 -> Node22 [color="steelblue1",style="solid"];
  Node1 -> Node42 [color="steelblue1",style="solid"];
  Node42 [label="nonbacktracking_matmat",height=0.2,width=0.4,color="grey40", fillcolor="white", style="filled",URL="$graph__nonbacktracking_8cc.html#af595a5a11bb2903c98760eb227e00916",tooltip=" "];
  Node1 -> Node43 [color="steelblue1",style="solid"];
  Node43 [label="nonbacktracking_matvec",height=0.2,width=0.4,color="grey40", fillcolor="white", style="filled",URL="$graph__nonbacktracking_8cc.html#a6afce7ff785aed1d39992fbd58d1932a",tooltip=" "];
  Node1 -> Node44 [color="steelblue1",style="solid"];
  Node44 [label="norm_laplacian",height=0.2,width=0.4,color="grey40", fillcolor="white", style="filled",URL="$graph__norm__laplacian_8cc.html#a6b0bd9f1c06821d4a93963eafb8d7a8b",tooltip=" "];
  Node1 -> Node45 [color="steelblue1",style="solid"];
  Node45 [label="norm_laplacian_matmat",height=0.2,width=0.4,color="grey40", fillcolor="white", style="filled",URL="$graph__norm__laplacian_8cc.html#ab55398e90901368766d5c49a7fa6f399",tooltip=" "];
  Node45 -> Node46 [color="steelblue1",style="solid"];
  Node46 [label="graph_tool::nlap_matmat",height=0.2,width=0.4,color="grey40", fillcolor="white", style="filled",URL="$namespacegraph__tool.html#ad0277bff2838453a4757c1cbc5cbede0",tooltip=" "];
  Node46 -> Node5 [color="steelblue1",style="solid"];
  Node46 -> Node7 [color="steelblue1",style="solid"];
  Node46 -> Node9 [color="steelblue1",style="solid"];
  Node46 -> Node10 [color="steelblue1",style="solid"];
  Node46 -> Node11 [color="steelblue1",style="solid"];
  Node1 -> Node47 [color="steelblue1",style="solid"];
  Node47 [label="norm_laplacian_matvec",height=0.2,width=0.4,color="grey40", fillcolor="white", style="filled",URL="$graph__norm__laplacian_8cc.html#a49e3e2c77c4fe556582878af42f22c82",tooltip=" "];
  Node47 -> Node48 [color="steelblue1",style="solid"];
  Node48 [label="graph_tool::nlap_matvec",height=0.2,width=0.4,color="grey40", fillcolor="white", style="filled",URL="$namespacegraph__tool.html#ac386da6c81d5cf2c90fa4638d2fa8252",tooltip=" "];
  Node48 -> Node5 [color="steelblue1",style="solid"];
  Node48 -> Node7 [color="steelblue1",style="solid"];
  Node48 -> Node9 [color="steelblue1",style="solid"];
  Node48 -> Node10 [color="steelblue1",style="solid"];
  Node48 -> Node11 [color="steelblue1",style="solid"];
  Node1 -> Node49 [color="steelblue1",style="solid"];
  Node49 [label="transition",height=0.2,width=0.4,color="grey40", fillcolor="white", style="filled",URL="$graph__transition_8cc.html#a788662990059285e716c34cb987a9ecd",tooltip=" "];
  Node1 -> Node50 [color="steelblue1",style="solid"];
  Node50 [label="transition_matmat",height=0.2,width=0.4,color="grey40", fillcolor="white", style="filled",URL="$graph__transition_8cc.html#a4c4364974a8ce1ea1d4539fb7bcc7d2b",tooltip=" "];
  Node1 -> Node51 [color="steelblue1",style="solid"];
  Node51 [label="transition_matvec",height=0.2,width=0.4,color="grey40", fillcolor="white", style="filled",URL="$graph__transition_8cc.html#a3abfb7e5398e61e622f841ad7b0a3d21",tooltip=" "];
}
