digraph "/home/man/Documents/graph-tool-cmake/src/graph/graph_exceptions.hh"
{
 // LATEX_PDF_SIZE
  bgcolor="transparent";
  edge [fontname=Helvetica,fontsize=10,labelfontname=Helvetica,labelfontsize=10];
  node [fontname=Helvetica,fontsize=10,shape=box,height=0.2,width=0.4];
  Node1 [label="/home/man/Documents\l/graph-tool-cmake/src\l/graph/graph_exceptions.hh",height=0.2,width=0.4,color="gray40", fillcolor="grey60", style="filled", fontcolor="black",tooltip=" "];
  Node1 -> Node2 [dir="back",color="steelblue1",style="solid"];
  Node2 [label="/home/man/Documents\l/graph-tool-cmake/src\l/graph/graph_exceptions.cc",height=0.2,width=0.4,color="grey40", fillcolor="white", style="filled",URL="$graph__exceptions_8cc.html",tooltip=" "];
  Node1 -> Node3 [dir="back",color="steelblue1",style="solid"];
  Node3 [label="/home/man/Documents\l/graph-tool-cmake/src\l/graph/graph_properties.hh",height=0.2,width=0.4,color="red", fillcolor="#FFF0F0", style="filled",URL="$graph__properties_8hh.html",tooltip=" "];
  Node3 -> Node4 [dir="back",color="steelblue1",style="solid"];
  Node4 [label="/home/man/Documents\l/graph-tool-cmake/src\l/graph/centrality/graph\l_closeness.cc",height=0.2,width=0.4,color="grey40", fillcolor="white", style="filled",URL="$graph__closeness_8cc.html",tooltip=" "];
  Node3 -> Node5 [dir="back",color="steelblue1",style="solid"];
  Node5 [label="/home/man/Documents\l/graph-tool-cmake/src\l/graph/clustering/graph\l_clustering.cc",height=0.2,width=0.4,color="grey40", fillcolor="white", style="filled",URL="$graph__clustering_8cc.html",tooltip=" "];
  Node3 -> Node6 [dir="back",color="steelblue1",style="solid"];
  Node6 [label="/home/man/Documents\l/graph-tool-cmake/src\l/graph/clustering/graph\l_extended_clustering.cc",height=0.2,width=0.4,color="grey40", fillcolor="white", style="filled",URL="$graph__extended__clustering_8cc.html",tooltip=" "];
  Node3 -> Node7 [dir="back",color="steelblue1",style="solid"];
  Node7 [label="/home/man/Documents\l/graph-tool-cmake/src\l/graph/clustering/graph\l_motifs.cc",height=0.2,width=0.4,color="grey40", fillcolor="white", style="filled",URL="$graph__motifs_8cc.html",tooltip=" "];
  Node3 -> Node8 [dir="back",color="steelblue1",style="solid"];
  Node8 [label="/home/man/Documents\l/graph-tool-cmake/src\l/graph/correlations/graph\l_assortativity.cc",height=0.2,width=0.4,color="grey40", fillcolor="white", style="filled",URL="$graph__assortativity_8cc.html",tooltip=" "];
  Node3 -> Node9 [dir="back",color="steelblue1",style="solid"];
  Node9 [label="/home/man/Documents\l/graph-tool-cmake/src\l/graph/correlations/graph\l_avg_correlations.cc",height=0.2,width=0.4,color="grey40", fillcolor="white", style="filled",URL="$graph__avg__correlations_8cc.html",tooltip=" "];
  Node3 -> Node10 [dir="back",color="steelblue1",style="solid"];
  Node10 [label="/home/man/Documents\l/graph-tool-cmake/src\l/graph/correlations/graph\l_avg_correlations_combined.cc",height=0.2,width=0.4,color="grey40", fillcolor="white", style="filled",URL="$graph__avg__correlations__combined_8cc.html",tooltip=" "];
  Node3 -> Node11 [dir="back",color="steelblue1",style="solid"];
  Node11 [label="/home/man/Documents\l/graph-tool-cmake/src\l/graph/correlations/graph\l_avg_correlations_imp1.cc",height=0.2,width=0.4,color="grey40", fillcolor="white", style="filled",URL="$graph__avg__correlations__imp1_8cc.html",tooltip=" "];
  Node3 -> Node12 [dir="back",color="steelblue1",style="solid"];
  Node12 [label="/home/man/Documents\l/graph-tool-cmake/src\l/graph/correlations/graph\l_correlations.cc",height=0.2,width=0.4,color="grey40", fillcolor="white", style="filled",URL="$graph__correlations_8cc.html",tooltip=" "];
  Node3 -> Node13 [dir="back",color="steelblue1",style="solid"];
  Node13 [label="/home/man/Documents\l/graph-tool-cmake/src\l/graph/correlations/graph\l_correlations_combined.cc",height=0.2,width=0.4,color="grey40", fillcolor="white", style="filled",URL="$graph__correlations__combined_8cc.html",tooltip=" "];
  Node3 -> Node14 [dir="back",color="steelblue1",style="solid"];
  Node14 [label="/home/man/Documents\l/graph-tool-cmake/src\l/graph/correlations/graph\l_correlations_imp1.cc",height=0.2,width=0.4,color="grey40", fillcolor="white", style="filled",URL="$graph__correlations__imp1_8cc.html",tooltip=" "];
  Node3 -> Node15 [dir="back",color="steelblue1",style="solid"];
  Node15 [label="/home/man/Documents\l/graph-tool-cmake/src\l/graph/draw/graph_tree\l_cts.cc",height=0.2,width=0.4,color="grey40", fillcolor="white", style="filled",URL="$graph__tree__cts_8cc.html",tooltip=" "];
  Node3 -> Node16 [dir="back",color="steelblue1",style="solid"];
  Node16 [label="/home/man/Documents\l/graph-tool-cmake/src\l/graph/dynamics/graph\l_continuous.cc",height=0.2,width=0.4,color="grey40", fillcolor="white", style="filled",URL="$graph__continuous_8cc.html",tooltip=" "];
  Node3 -> Node17 [dir="back",color="steelblue1",style="solid"];
  Node17 [label="/home/man/Documents\l/graph-tool-cmake/src\l/graph/dynamics/graph\l_discrete.cc",height=0.2,width=0.4,color="grey40", fillcolor="white", style="filled",URL="$graph__discrete_8cc.html",tooltip=" "];
  Node3 -> Node18 [dir="back",color="steelblue1",style="solid"];
  Node18 [label="/home/man/Documents\l/graph-tool-cmake/src\l/graph/flow/graph_edmonds\l_karp.cc",height=0.2,width=0.4,color="grey40", fillcolor="white", style="filled",URL="$graph__edmonds__karp_8cc.html",tooltip=" "];
  Node3 -> Node19 [dir="back",color="steelblue1",style="solid"];
  Node19 [label="/home/man/Documents\l/graph-tool-cmake/src\l/graph/flow/graph_kolmogorov.cc",height=0.2,width=0.4,color="grey40", fillcolor="white", style="filled",URL="$graph__kolmogorov_8cc.html",tooltip=" "];
  Node3 -> Node20 [dir="back",color="steelblue1",style="solid"];
  Node20 [label="/home/man/Documents\l/graph-tool-cmake/src\l/graph/flow/graph_minimum\l_cut.cc",height=0.2,width=0.4,color="grey40", fillcolor="white", style="filled",URL="$graph__minimum__cut_8cc.html",tooltip=" "];
  Node3 -> Node21 [dir="back",color="steelblue1",style="solid"];
  Node21 [label="/home/man/Documents\l/graph-tool-cmake/src\l/graph/flow/graph_push\l_relabel.cc",height=0.2,width=0.4,color="grey40", fillcolor="white", style="filled",URL="$graph__push__relabel_8cc.html",tooltip=" "];
  Node3 -> Node22 [dir="back",color="steelblue1",style="solid"];
  Node22 [label="/home/man/Documents\l/graph-tool-cmake/src\l/graph/generation/graph\l_community_network.cc",height=0.2,width=0.4,color="grey40", fillcolor="white", style="filled",URL="$graph__community__network_8cc.html",tooltip=" "];
  Node3 -> Node23 [dir="back",color="steelblue1",style="solid"];
  Node23 [label="/home/man/Documents\l/graph-tool-cmake/src\l/graph/generation/graph\l_community_network_eavg.cc",height=0.2,width=0.4,color="grey40", fillcolor="white", style="filled",URL="$graph__community__network__eavg_8cc.html",tooltip=" "];
  Node3 -> Node24 [dir="back",color="steelblue1",style="solid"];
  Node24 [label="/home/man/Documents\l/graph-tool-cmake/src\l/graph/generation/graph\l_community_network_eavg\l_imp1.cc",height=0.2,width=0.4,color="grey40", fillcolor="white", style="filled",URL="$graph__community__network__eavg__imp1_8cc.html",tooltip=" "];
  Node3 -> Node25 [dir="back",color="steelblue1",style="solid"];
  Node25 [label="/home/man/Documents\l/graph-tool-cmake/src\l/graph/generation/graph\l_community_network_edges.cc",height=0.2,width=0.4,color="grey40", fillcolor="white", style="filled",URL="$graph__community__network__edges_8cc.html",tooltip=" "];
  Node3 -> Node26 [dir="back",color="steelblue1",style="solid"];
  Node26 [label="/home/man/Documents\l/graph-tool-cmake/src\l/graph/generation/graph\l_community_network_vavg.cc",height=0.2,width=0.4,color="grey40", fillcolor="white", style="filled",URL="$graph__community__network__vavg_8cc.html",tooltip=" "];
  Node3 -> Node27 [dir="back",color="steelblue1",style="solid"];
  Node27 [label="/home/man/Documents\l/graph-tool-cmake/src\l/graph/generation/graph\l_line_graph.cc",height=0.2,width=0.4,color="grey40", fillcolor="white", style="filled",URL="$graph__line__graph_8cc.html",tooltip=" "];
  Node3 -> Node28 [dir="back",color="steelblue1",style="solid"];
  Node28 [label="/home/man/Documents\l/graph-tool-cmake/src\l/graph/graph.cc",height=0.2,width=0.4,color="grey40", fillcolor="white", style="filled",URL="$graph_8cc.html",tooltip=" "];
  Node3 -> Node29 [dir="back",color="steelblue1",style="solid"];
  Node29 [label="/home/man/Documents\l/graph-tool-cmake/src\l/graph/graph.hh",height=0.2,width=0.4,color="red", fillcolor="#FFF0F0", style="filled",URL="$graph_8hh.html",tooltip=" "];
  Node29 -> Node4 [dir="back",color="steelblue1",style="solid"];
  Node29 -> Node5 [dir="back",color="steelblue1",style="solid"];
  Node29 -> Node7 [dir="back",color="steelblue1",style="solid"];
  Node29 -> Node8 [dir="back",color="steelblue1",style="solid"];
  Node29 -> Node9 [dir="back",color="steelblue1",style="solid"];
  Node29 -> Node10 [dir="back",color="steelblue1",style="solid"];
  Node29 -> Node11 [dir="back",color="steelblue1",style="solid"];
  Node29 -> Node12 [dir="back",color="steelblue1",style="solid"];
  Node29 -> Node13 [dir="back",color="steelblue1",style="solid"];
  Node29 -> Node14 [dir="back",color="steelblue1",style="solid"];
  Node29 -> Node15 [dir="back",color="steelblue1",style="solid"];
  Node29 -> Node16 [dir="back",color="steelblue1",style="solid"];
  Node29 -> Node17 [dir="back",color="steelblue1",style="solid"];
  Node29 -> Node18 [dir="back",color="steelblue1",style="solid"];
  Node29 -> Node19 [dir="back",color="steelblue1",style="solid"];
  Node29 -> Node20 [dir="back",color="steelblue1",style="solid"];
  Node29 -> Node21 [dir="back",color="steelblue1",style="solid"];
  Node29 -> Node22 [dir="back",color="steelblue1",style="solid"];
  Node29 -> Node23 [dir="back",color="steelblue1",style="solid"];
  Node29 -> Node24 [dir="back",color="steelblue1",style="solid"];
  Node29 -> Node25 [dir="back",color="steelblue1",style="solid"];
  Node29 -> Node26 [dir="back",color="steelblue1",style="solid"];
  Node29 -> Node27 [dir="back",color="steelblue1",style="solid"];
  Node29 -> Node28 [dir="back",color="steelblue1",style="solid"];
  Node29 -> Node73 [dir="back",color="steelblue1",style="solid"];
  Node73 [label="/home/man/Documents\l/graph-tool-cmake/src\l/graph/graph_copy.cc",height=0.2,width=0.4,color="grey40", fillcolor="white", style="filled",URL="$graph__copy_8cc.html",tooltip=" "];
  Node29 -> Node76 [dir="back",color="steelblue1",style="solid"];
  Node76 [label="/home/man/Documents\l/graph-tool-cmake/src\l/graph/graph_io.cc",height=0.2,width=0.4,color="grey40", fillcolor="white", style="filled",URL="$graph__io_8cc.html",tooltip=" "];
  Node29 -> Node302 [dir="back",color="steelblue1",style="solid"];
  Node302 [label="/home/man/Documents\l/graph-tool-cmake/src\l/graph/graph_io_binary.hh",height=0.2,width=0.4,color="grey40", fillcolor="white", style="filled",URL="$graph__io__binary_8hh.html",tooltip=" "];
  Node302 -> Node76 [dir="back",color="steelblue1",style="solid"];
  Node29 -> Node77 [dir="back",color="steelblue1",style="solid"];
  Node77 [label="/home/man/Documents\l/graph-tool-cmake/src\l/graph/graph_properties.cc",height=0.2,width=0.4,color="grey40", fillcolor="white", style="filled",URL="$graph__properties_8cc.html",tooltip=" "];
  Node29 -> Node78 [dir="back",color="steelblue1",style="solid"];
  Node78 [label="/home/man/Documents\l/graph-tool-cmake/src\l/graph/graph_properties\l_copy.cc",height=0.2,width=0.4,color="grey40", fillcolor="white", style="filled",URL="$graph__properties__copy_8cc.html",tooltip=" "];
  Node29 -> Node79 [dir="back",color="steelblue1",style="solid"];
  Node79 [label="/home/man/Documents\l/graph-tool-cmake/src\l/graph/graph_properties\l_copy_imp1.cc",height=0.2,width=0.4,color="grey40", fillcolor="white", style="filled",URL="$graph__properties__copy__imp1_8cc.html",tooltip=" "];
  Node29 -> Node80 [dir="back",color="steelblue1",style="solid"];
  Node80 [label="/home/man/Documents\l/graph-tool-cmake/src\l/graph/graph_properties\l_group.cc",height=0.2,width=0.4,color="grey40", fillcolor="white", style="filled",URL="$graph__properties__group_8cc.html",tooltip=" "];
  Node29 -> Node81 [dir="back",color="steelblue1",style="solid"];
  Node81 [label="/home/man/Documents\l/graph-tool-cmake/src\l/graph/graph_properties\l_imp1.cc",height=0.2,width=0.4,color="grey40", fillcolor="white", style="filled",URL="$graph__properties__imp1_8cc.html",tooltip=" "];
  Node29 -> Node82 [dir="back",color="steelblue1",style="solid"];
  Node82 [label="/home/man/Documents\l/graph-tool-cmake/src\l/graph/graph_properties\l_imp2.cc",height=0.2,width=0.4,color="grey40", fillcolor="white", style="filled",URL="$graph__properties__imp2_8cc.html",tooltip=" "];
  Node29 -> Node83 [dir="back",color="steelblue1",style="solid"];
  Node83 [label="/home/man/Documents\l/graph-tool-cmake/src\l/graph/graph_properties\l_imp3.cc",height=0.2,width=0.4,color="grey40", fillcolor="white", style="filled",URL="$graph__properties__imp3_8cc.html",tooltip=" "];
  Node29 -> Node84 [dir="back",color="steelblue1",style="solid"];
  Node84 [label="/home/man/Documents\l/graph-tool-cmake/src\l/graph/graph_properties\l_imp4.cc",height=0.2,width=0.4,color="grey40", fillcolor="white", style="filled",URL="$graph__properties__imp4_8cc.html",tooltip=" "];
  Node29 -> Node85 [dir="back",color="steelblue1",style="solid"];
  Node85 [label="/home/man/Documents\l/graph-tool-cmake/src\l/graph/graph_properties\l_map_values.cc",height=0.2,width=0.4,color="grey40", fillcolor="white", style="filled",URL="$graph__properties__map__values_8cc.html",tooltip=" "];
  Node29 -> Node86 [dir="back",color="steelblue1",style="solid"];
  Node86 [label="/home/man/Documents\l/graph-tool-cmake/src\l/graph/graph_properties\l_map_values_imp1.cc",height=0.2,width=0.4,color="grey40", fillcolor="white", style="filled",URL="$graph__properties__map__values__imp1_8cc.html",tooltip=" "];
  Node29 -> Node87 [dir="back",color="steelblue1",style="solid"];
  Node87 [label="/home/man/Documents\l/graph-tool-cmake/src\l/graph/graph_properties\l_ungroup.cc",height=0.2,width=0.4,color="grey40", fillcolor="white", style="filled",URL="$graph__properties__ungroup_8cc.html",tooltip=" "];
  Node29 -> Node304 [dir="back",color="steelblue1",style="solid"];
  Node304 [label="/home/man/Documents\l/graph-tool-cmake/src\l/graph/graph_selectors.hh",height=0.2,width=0.4,color="red", fillcolor="#FFF0F0", style="filled",URL="$graph__selectors_8hh.html",tooltip=" "];
  Node304 -> Node4 [dir="back",color="steelblue1",style="solid"];
  Node304 -> Node5 [dir="back",color="steelblue1",style="solid"];
  Node304 -> Node6 [dir="back",color="steelblue1",style="solid"];
  Node304 -> Node7 [dir="back",color="steelblue1",style="solid"];
  Node304 -> Node8 [dir="back",color="steelblue1",style="solid"];
  Node304 -> Node9 [dir="back",color="steelblue1",style="solid"];
  Node304 -> Node10 [dir="back",color="steelblue1",style="solid"];
  Node304 -> Node11 [dir="back",color="steelblue1",style="solid"];
  Node304 -> Node12 [dir="back",color="steelblue1",style="solid"];
  Node304 -> Node13 [dir="back",color="steelblue1",style="solid"];
  Node304 -> Node14 [dir="back",color="steelblue1",style="solid"];
  Node304 -> Node15 [dir="back",color="steelblue1",style="solid"];
  Node304 -> Node16 [dir="back",color="steelblue1",style="solid"];
  Node304 -> Node17 [dir="back",color="steelblue1",style="solid"];
  Node304 -> Node18 [dir="back",color="steelblue1",style="solid"];
  Node304 -> Node19 [dir="back",color="steelblue1",style="solid"];
  Node304 -> Node21 [dir="back",color="steelblue1",style="solid"];
  Node304 -> Node22 [dir="back",color="steelblue1",style="solid"];
  Node304 -> Node23 [dir="back",color="steelblue1",style="solid"];
  Node304 -> Node24 [dir="back",color="steelblue1",style="solid"];
  Node304 -> Node25 [dir="back",color="steelblue1",style="solid"];
  Node304 -> Node26 [dir="back",color="steelblue1",style="solid"];
  Node304 -> Node73 [dir="back",color="steelblue1",style="solid"];
  Node304 -> Node302 [dir="back",color="steelblue1",style="solid"];
  Node304 -> Node77 [dir="back",color="steelblue1",style="solid"];
  Node304 -> Node80 [dir="back",color="steelblue1",style="solid"];
  Node304 -> Node81 [dir="back",color="steelblue1",style="solid"];
  Node304 -> Node82 [dir="back",color="steelblue1",style="solid"];
  Node304 -> Node83 [dir="back",color="steelblue1",style="solid"];
  Node304 -> Node84 [dir="back",color="steelblue1",style="solid"];
  Node304 -> Node85 [dir="back",color="steelblue1",style="solid"];
  Node304 -> Node86 [dir="back",color="steelblue1",style="solid"];
  Node304 -> Node87 [dir="back",color="steelblue1",style="solid"];
  Node304 -> Node188 [dir="back",color="steelblue1",style="solid"];
  Node188 [label="/home/man/Documents\l/graph-tool-cmake/src\l/graph/graph_tool.hh",height=0.2,width=0.4,color="red", fillcolor="#FFF0F0", style="filled",URL="$graph__tool_8hh.html",tooltip=" "];
  Node304 -> Node240 [dir="back",color="steelblue1",style="solid"];
  Node240 [label="/home/man/Documents\l/graph-tool-cmake/src\l/graph/inference/support\l/graph_state.hh",height=0.2,width=0.4,color="red", fillcolor="#FFF0F0", style="filled",URL="$graph__state_8hh.html",tooltip=" "];
  Node29 -> Node188 [dir="back",color="steelblue1",style="solid"];
  Node29 -> Node240 [dir="back",color="steelblue1",style="solid"];
  Node29 -> Node262 [dir="back",color="steelblue1",style="solid"];
  Node262 [label="/home/man/Documents\l/graph-tool-cmake/src\l/graph/layout/graph_arf.cc",height=0.2,width=0.4,color="grey40", fillcolor="white", style="filled",URL="$graph__arf_8cc.html",tooltip=" "];
  Node29 -> Node263 [dir="back",color="steelblue1",style="solid"];
  Node263 [label="/home/man/Documents\l/graph-tool-cmake/src\l/graph/layout/graph_fruchterman\l_reingold.cc",height=0.2,width=0.4,color="grey40", fillcolor="white", style="filled",URL="$graph__fruchterman__reingold_8cc.html",tooltip=" "];
  Node29 -> Node266 [dir="back",color="steelblue1",style="solid"];
  Node266 [label="/home/man/Documents\l/graph-tool-cmake/src\l/graph/layout/graph_sfdp.cc",height=0.2,width=0.4,color="grey40", fillcolor="white", style="filled",URL="$graph__sfdp_8cc.html",tooltip=" "];
  Node3 -> Node73 [dir="back",color="steelblue1",style="solid"];
  Node3 -> Node76 [dir="back",color="steelblue1",style="solid"];
  Node3 -> Node302 [dir="back",color="steelblue1",style="solid"];
  Node3 -> Node77 [dir="back",color="steelblue1",style="solid"];
  Node3 -> Node78 [dir="back",color="steelblue1",style="solid"];
  Node3 -> Node313 [dir="back",color="steelblue1",style="solid"];
  Node313 [label="/home/man/Documents\l/graph-tool-cmake/src\l/graph/graph_properties\l_copy.hh",height=0.2,width=0.4,color="grey40", fillcolor="white", style="filled",URL="$graph__properties__copy_8hh.html",tooltip=" "];
  Node313 -> Node78 [dir="back",color="steelblue1",style="solid"];
  Node313 -> Node79 [dir="back",color="steelblue1",style="solid"];
  Node3 -> Node79 [dir="back",color="steelblue1",style="solid"];
  Node3 -> Node80 [dir="back",color="steelblue1",style="solid"];
  Node3 -> Node81 [dir="back",color="steelblue1",style="solid"];
  Node3 -> Node82 [dir="back",color="steelblue1",style="solid"];
  Node3 -> Node83 [dir="back",color="steelblue1",style="solid"];
  Node3 -> Node84 [dir="back",color="steelblue1",style="solid"];
  Node3 -> Node85 [dir="back",color="steelblue1",style="solid"];
  Node3 -> Node86 [dir="back",color="steelblue1",style="solid"];
  Node3 -> Node87 [dir="back",color="steelblue1",style="solid"];
  Node3 -> Node304 [dir="back",color="steelblue1",style="solid"];
  Node3 -> Node188 [dir="back",color="steelblue1",style="solid"];
  Node3 -> Node240 [dir="back",color="steelblue1",style="solid"];
  Node3 -> Node262 [dir="back",color="steelblue1",style="solid"];
  Node3 -> Node263 [dir="back",color="steelblue1",style="solid"];
  Node3 -> Node266 [dir="back",color="steelblue1",style="solid"];
  Node1 -> Node266 [dir="back",color="steelblue1",style="solid"];
}
