digraph "export_sfdp"
{
 // LATEX_PDF_SIZE
  bgcolor="transparent";
  edge [fontname=Helvetica,fontsize=10,labelfontname=Helvetica,labelfontsize=10];
  node [fontname=Helvetica,fontsize=10,shape=box,height=0.2,width=0.4];
  rankdir="LR";
  Node1 [label="export_sfdp",height=0.2,width=0.4,color="gray40", fillcolor="grey60", style="filled", fontcolor="black",tooltip=" "];
  Node1 -> Node2 [color="steelblue1",style="solid"];
  Node2 [label="avg_dist",height=0.2,width=0.4,color="grey40", fillcolor="white", style="filled",URL="$graph__sfdp_8cc.html#a99fa305f0046fb353fa3c1ca6fefa312",tooltip=" "];
  Node1 -> Node3 [color="steelblue1",style="solid"];
  Node3 [label="propagate_pos",height=0.2,width=0.4,color="grey40", fillcolor="white", style="filled",URL="$graph__sfdp_8cc.html#ac30a098783204f1a4417998ff98ec4ce",tooltip=" "];
  Node3 -> Node4 [color="steelblue1",style="solid"];
  Node4 [label="graph_tool::GraphInterface\l::get_graph_view",height=0.2,width=0.4,color="grey40", fillcolor="white", style="filled",URL="$classgraph__tool_1_1GraphInterface.html#a0ad81bb24c6df7fda2eaf1c3ac204631",tooltip=" "];
  Node4 -> Node5 [color="steelblue1",style="solid"];
  Node5 [label="check_filtered",height=0.2,width=0.4,color="grey40", fillcolor="white", style="filled",URL="$graph__filtering_8cc.html#ad37c324f3f9b7af208ce7d47bf897459",tooltip=" "];
  Node5 -> Node6 [color="steelblue1",style="solid"];
  Node6 [label="boost::num_vertices",height=0.2,width=0.4,color="grey40", fillcolor="white", style="filled",URL="$namespaceboost.html#ac848f876a7fa2caa8fb1879b7c522ebc",tooltip=" "];
  Node6 -> Node6 [color="steelblue1",style="solid"];
  Node6 -> Node7 [color="steelblue1",style="solid"];
  Node7 [label="boost::undirected_adaptor\l::original_graph",height=0.2,width=0.4,color="grey40", fillcolor="white", style="filled",URL="$classboost_1_1undirected__adaptor.html#a11e557bb4f3d7c15354f98390f1d3644",tooltip=" "];
  Node5 -> Node8 [color="steelblue1",style="solid"];
  Node8 [label="graph_tool::retrieve\l_graph_view",height=0.2,width=0.4,color="grey40", fillcolor="white", style="filled",URL="$namespacegraph__tool.html#a9a28e11d0e1410dc1f5a791c7d0302d4",tooltip=" "];
  Node8 -> Node9 [color="steelblue1",style="solid"];
  Node9 [label="graph_tool::GraphInterface\l::get_graph_views",height=0.2,width=0.4,color="grey40", fillcolor="white", style="filled",URL="$classgraph__tool_1_1GraphInterface.html#a30334fa1e71cef4af4236b17d98fbc28",tooltip=" "];
  Node1 -> Node10 [color="steelblue1",style="solid"];
  Node10 [label="propagate_pos_mivs",height=0.2,width=0.4,color="grey40", fillcolor="white", style="filled",URL="$graph__sfdp_8cc.html#ac614f6b0eeac2ffef927200e2f9a2732",tooltip=" "];
  Node1 -> Node11 [color="steelblue1",style="solid"];
  Node11 [label="sanitize_pos",height=0.2,width=0.4,color="grey40", fillcolor="white", style="filled",URL="$graph__sfdp_8cc.html#a87732a832752490b792ddbae7366bade",tooltip=" "];
  Node1 -> Node12 [color="steelblue1",style="solid"];
  Node12 [label="sfdp_layout",height=0.2,width=0.4,color="grey40", fillcolor="white", style="filled",URL="$graph__sfdp_8cc.html#a12709d4a5399118d6fbb3f562167ff9c",tooltip=" "];
  Node12 -> Node13 [color="steelblue1",style="solid"];
  Node13 [label="graph_tool::GraphInterface\l::get_graph",height=0.2,width=0.4,color="grey40", fillcolor="white", style="filled",URL="$classgraph__tool_1_1GraphInterface.html#a732ab352eadc8f67ac80c07b7dcf9bdd",tooltip=" "];
  Node12 -> Node14 [color="steelblue1",style="solid"];
  Node14 [label="graph_tool::get_sfdp\l_layout",height=0.2,width=0.4,color="grey40", fillcolor="white", style="filled",URL="$namespacegraph__tool.html#a5dd47589d108282023fd0c0b53f6e0c5",tooltip=" "];
  Node14 -> Node15 [color="steelblue1",style="solid"];
  Node15 [label="boost::get",height=0.2,width=0.4,color="grey40", fillcolor="white", style="filled",URL="$namespaceboost.html#a16c10260e678081f48c16db5bdd0f5ea",tooltip=" "];
  Node15 -> Node15 [color="steelblue1",style="solid"];
  Node15 -> Node7 [color="steelblue1",style="solid"];
  Node14 -> Node16 [color="steelblue1",style="solid"];
  Node16 [label="graph_tool::get_count",height=0.2,width=0.4,color="grey40", fillcolor="white", style="filled",URL="$namespacegraph__tool.html#a1a63bc2d5462a4bfca221603eac26342",tooltip=" "];
  Node16 -> Node17 [color="steelblue1",style="solid"];
  Node17 [label="graph_tool::is_directed",height=0.2,width=0.4,color="grey40", fillcolor="white", style="filled",URL="$namespacegraph__tool.html#a815c22620d9f5756b899dc94e405e2f3",tooltip=" "];
  Node14 -> Node18 [color="steelblue1",style="solid"];
  Node18 [label="graph_tool::QuadTree\l::get_dense_leafs",height=0.2,width=0.4,color="grey40", fillcolor="white", style="filled",URL="$classgraph__tool_1_1QuadTree.html#a534426a5ed367693880898f902e84b1a",tooltip=" "];
  Node14 -> Node19 [color="steelblue1",style="solid"];
  Node19 [label="graph_tool::QuadTree\l::get_leafs",height=0.2,width=0.4,color="grey40", fillcolor="white", style="filled",URL="$classgraph__tool_1_1QuadTree.html#a8ee5f4ff44514d0ea4c1dbbaca15728e",tooltip=" "];
  Node14 -> Node6 [color="steelblue1",style="solid"];
  Node14 -> Node20 [color="steelblue1",style="solid"];
  Node20 [label="graph_tool::out_edges\l_range",height=0.2,width=0.4,color="grey40", fillcolor="white", style="filled",URL="$namespacegraph__tool.html#a347f8a3e503c35e8a4d54184d8d90a6f",tooltip=" "];
  Node20 -> Node21 [color="steelblue1",style="solid"];
  Node21 [label="graph_tool::mk_range",height=0.2,width=0.4,color="grey40", fillcolor="white", style="filled",URL="$namespacegraph__tool.html#a6ecc1e46efb4f620acabfe5728f7a2a6",tooltip=" "];
  Node14 -> Node22 [color="steelblue1",style="solid"];
  Node22 [label="graph_tool::parallel\l_loop_no_spawn",height=0.2,width=0.4,color="grey40", fillcolor="white", style="filled",URL="$namespacegraph__tool.html#aa2cf75c26b66de2d41606e25837d87b6",tooltip=" "];
  Node14 -> Node23 [color="steelblue1",style="solid"];
  Node23 [label="graph_tool::pow2",height=0.2,width=0.4,color="grey40", fillcolor="white", style="filled",URL="$namespacegraph__tool.html#ade86f48d435bc9a3ef34bb629d2e5500",tooltip=" "];
  Node14 -> Node24 [color="steelblue1",style="solid"];
  Node24 [label="graph_tool::QuadTree\l::put_pos",height=0.2,width=0.4,color="grey40", fillcolor="white", style="filled",URL="$classgraph__tool_1_1QuadTree.html#ae61b2a9c3329040488d2aa5a4db907e4",tooltip=" "];
  Node24 -> Node25 [color="steelblue1",style="solid"];
  Node25 [label="graph_tool::QuadTree\l::get_branch",height=0.2,width=0.4,color="grey40", fillcolor="white", style="filled",URL="$classgraph__tool_1_1QuadTree.html#ac9ee4694498df3ea9e4716468c2497e8",tooltip=" "];
  Node24 -> Node19 [color="steelblue1",style="solid"];
  Node24 -> Node24 [color="steelblue1",style="solid"];
  Node14 -> Node26 [color="steelblue1",style="solid"];
  Node26 [label="graph_tool::target",height=0.2,width=0.4,color="grey40", fillcolor="white", style="filled",URL="$namespacegraph__tool.html#aff9f07ca294560a9de57ab80deffa0cc",tooltip=" "];
  Node26 -> Node27 [color="steelblue1",style="solid"];
  Node27 [label="boost::edges",height=0.2,width=0.4,color="grey40", fillcolor="white", style="filled",URL="$namespaceboost.html#a3ac91f028a5f50644ba12e9e803bb2f8",tooltip=" "];
  Node27 -> Node27 [color="steelblue1",style="solid"];
  Node27 -> Node7 [color="steelblue1",style="solid"];
  Node26 -> Node28 [color="steelblue1",style="solid"];
  Node28 [label="graph_tool::source",height=0.2,width=0.4,color="grey40", fillcolor="white", style="filled",URL="$namespacegraph__tool.html#a0b44c0af404cec1513acb7b9602557f8",tooltip=" "];
  Node28 -> Node27 [color="steelblue1",style="solid"];
  Node28 -> Node28 [color="steelblue1",style="solid"];
  Node28 -> Node26 [color="steelblue1",style="solid"];
  Node26 -> Node26 [color="steelblue1",style="solid"];
  Node14 -> Node29 [color="steelblue1",style="solid"];
  Node29 [label="boost::vertices",height=0.2,width=0.4,color="grey40", fillcolor="white", style="filled",URL="$namespaceboost.html#a0bc22071c353fa26cd0d16cc817ddde2",tooltip=" "];
  Node29 -> Node7 [color="steelblue1",style="solid"];
  Node29 -> Node29 [color="steelblue1",style="solid"];
  Node14 -> Node30 [color="steelblue1",style="solid"];
  Node30 [label="graph_tool::vertices\l_range",height=0.2,width=0.4,color="grey40", fillcolor="white", style="filled",URL="$namespacegraph__tool.html#a92ab479b81d8c9a030d42854fefabf1a",tooltip=" "];
  Node30 -> Node21 [color="steelblue1",style="solid"];
  Node30 -> Node29 [color="steelblue1",style="solid"];
  Node12 -> Node6 [color="steelblue1",style="solid"];
}
