digraph "export_search"
{
 // LATEX_PDF_SIZE
  bgcolor="transparent";
  edge [fontname=Helvetica,fontsize=10,labelfontname=Helvetica,labelfontsize=10];
  node [fontname=Helvetica,fontsize=10,shape=box,height=0.2,width=0.4];
  rankdir="LR";
  Node1 [label="export_search",height=0.2,width=0.4,color="gray40", fillcolor="grey60", style="filled", fontcolor="black",tooltip=" "];
  Node1 -> Node2 [color="steelblue1",style="solid"];
  Node2 [label="find_edge_range",height=0.2,width=0.4,color="grey40", fillcolor="white", style="filled",URL="$graph__search_8cc.html#a7d75c47b9ca5241c295a238a4df20870",tooltip=" "];
  Node2 -> Node3 [color="steelblue1",style="solid"];
  Node3 [label="graph_tool::GraphInterface\l::get_edge_index",height=0.2,width=0.4,color="grey40", fillcolor="white", style="filled",URL="$classgraph__tool_1_1GraphInterface.html#a4633c17e1595078d2f0e1a7047e8af04",tooltip=" "];
  Node1 -> Node4 [color="steelblue1",style="solid"];
  Node4 [label="find_vertex_range",height=0.2,width=0.4,color="grey40", fillcolor="white", style="filled",URL="$graph__search_8cc.html#aabf8edf7b74dedc0af9e03ea0d723386",tooltip=" "];
  Node4 -> Node5 [color="steelblue1",style="solid"];
  Node5 [label="graph_tool::degree\l_selector",height=0.2,width=0.4,color="grey40", fillcolor="white", style="filled",URL="$namespacegraph__tool.html#a24741a5c50643973ba228ffb318f43c5",tooltip=" "];
}
