digraph "/home/man/Documents/graph-tool-cmake/src/graph/inference/blockmodel/graph_blockmodel_entries.hh"
{
 // LATEX_PDF_SIZE
  bgcolor="transparent";
  edge [fontname=Helvetica,fontsize=10,labelfontname=Helvetica,labelfontsize=10];
  node [fontname=Helvetica,fontsize=10,shape=box,height=0.2,width=0.4];
  Node1 [label="/home/man/Documents\l/graph-tool-cmake/src\l/graph/inference/blockmodel\l/graph_blockmodel_entries.hh",height=0.2,width=0.4,color="gray40", fillcolor="grey60", style="filled", fontcolor="black",tooltip=" "];
  Node1 -> Node2 [dir="back",color="steelblue1",style="solid"];
  Node2 [label="/home/man/Documents\l/graph-tool-cmake/src\l/graph/inference/blockmodel\l/graph_blockmodel_util.hh",height=0.2,width=0.4,color="grey40", fillcolor="white", style="filled",URL="$graph__blockmodel__util_8hh.html",tooltip=" "];
  Node2 -> Node3 [dir="back",color="steelblue1",style="solid"];
  Node3 [label="/home/man/Documents\l/graph-tool-cmake/src\l/graph/inference/blockmodel\l/graph_blockmodel.cc",height=0.2,width=0.4,color="grey40", fillcolor="white", style="filled",URL="$graph__blockmodel_8cc.html",tooltip=" "];
  Node2 -> Node4 [dir="back",color="steelblue1",style="solid"];
  Node4 [label="/home/man/Documents\l/graph-tool-cmake/src\l/graph/inference/blockmodel\l/graph_blockmodel.hh",height=0.2,width=0.4,color="red", fillcolor="#FFF0F0", style="filled",URL="$graph__blockmodel_8hh.html",tooltip=" "];
  Node4 -> Node3 [dir="back",color="steelblue1",style="solid"];
  Node4 -> Node5 [dir="back",color="steelblue1",style="solid"];
  Node5 [label="/home/man/Documents\l/graph-tool-cmake/src\l/graph/inference/blockmodel\l/graph_blockmodel_exhaustive.cc",height=0.2,width=0.4,color="grey40", fillcolor="white", style="filled",URL="$graph__blockmodel__exhaustive_8cc.html",tooltip=" "];
  Node4 -> Node6 [dir="back",color="steelblue1",style="solid"];
  Node6 [label="/home/man/Documents\l/graph-tool-cmake/src\l/graph/inference/blockmodel\l/graph_blockmodel_gibbs.cc",height=0.2,width=0.4,color="grey40", fillcolor="white", style="filled",URL="$graph__blockmodel__gibbs_8cc.html",tooltip=" "];
  Node4 -> Node7 [dir="back",color="steelblue1",style="solid"];
  Node7 [label="/home/man/Documents\l/graph-tool-cmake/src\l/graph/inference/blockmodel\l/graph_blockmodel_imp.cc",height=0.2,width=0.4,color="grey40", fillcolor="white", style="filled",URL="$graph__blockmodel__imp_8cc.html",tooltip=" "];
  Node4 -> Node8 [dir="back",color="steelblue1",style="solid"];
  Node8 [label="/home/man/Documents\l/graph-tool-cmake/src\l/graph/inference/blockmodel\l/graph_blockmodel_imp2.cc",height=0.2,width=0.4,color="grey40", fillcolor="white", style="filled",URL="$graph__blockmodel__imp2_8cc.html",tooltip=" "];
  Node4 -> Node9 [dir="back",color="steelblue1",style="solid"];
  Node9 [label="/home/man/Documents\l/graph-tool-cmake/src\l/graph/inference/blockmodel\l/graph_blockmodel_imp3.cc",height=0.2,width=0.4,color="grey40", fillcolor="white", style="filled",URL="$graph__blockmodel__imp3_8cc.html",tooltip=" "];
  Node4 -> Node10 [dir="back",color="steelblue1",style="solid"];
  Node10 [label="/home/man/Documents\l/graph-tool-cmake/src\l/graph/inference/blockmodel\l/graph_blockmodel_mcmc.cc",height=0.2,width=0.4,color="grey40", fillcolor="white", style="filled",URL="$graph__blockmodel__mcmc_8cc.html",tooltip=" "];
  Node4 -> Node11 [dir="back",color="steelblue1",style="solid"];
  Node11 [label="/home/man/Documents\l/graph-tool-cmake/src\l/graph/inference/blockmodel\l/graph_blockmodel_multicanonical.cc",height=0.2,width=0.4,color="grey40", fillcolor="white", style="filled",URL="$graph__blockmodel__multicanonical_8cc.html",tooltip=" "];
  Node4 -> Node12 [dir="back",color="steelblue1",style="solid"];
  Node12 [label="/home/man/Documents\l/graph-tool-cmake/src\l/graph/inference/blockmodel\l/graph_blockmodel_multicanonical\l_multiflip.cc",height=0.2,width=0.4,color="grey40", fillcolor="white", style="filled",URL="$graph__blockmodel__multicanonical__multiflip_8cc.html",tooltip=" "];
  Node4 -> Node13 [dir="back",color="steelblue1",style="solid"];
  Node13 [label="/home/man/Documents\l/graph-tool-cmake/src\l/graph/inference/blockmodel\l/graph_blockmodel_multiflip_mcmc.cc",height=0.2,width=0.4,color="grey40", fillcolor="white", style="filled",URL="$graph__blockmodel__multiflip__mcmc_8cc.html",tooltip=" "];
  Node4 -> Node14 [dir="back",color="steelblue1",style="solid"];
  Node14 [label="/home/man/Documents\l/graph-tool-cmake/src\l/graph/inference/blockmodel\l/graph_blockmodel_multilevel_mcmc.cc",height=0.2,width=0.4,color="grey40", fillcolor="white", style="filled",URL="$graph__blockmodel__multilevel__mcmc_8cc.html",tooltip=" "];
  Node4 -> Node15 [dir="back",color="steelblue1",style="solid"];
  Node15 [label="/home/man/Documents\l/graph-tool-cmake/src\l/graph/inference/layers\l/graph_blockmodel_layers.cc",height=0.2,width=0.4,color="grey40", fillcolor="white", style="filled",URL="$graph__blockmodel__layers_8cc.html",tooltip=" "];
  Node4 -> Node16 [dir="back",color="steelblue1",style="solid"];
  Node16 [label="/home/man/Documents\l/graph-tool-cmake/src\l/graph/inference/layers\l/graph_blockmodel_layers\l_exhaustive.cc",height=0.2,width=0.4,color="grey40", fillcolor="white", style="filled",URL="$graph__blockmodel__layers__exhaustive_8cc.html",tooltip=" "];
  Node4 -> Node17 [dir="back",color="steelblue1",style="solid"];
  Node17 [label="/home/man/Documents\l/graph-tool-cmake/src\l/graph/inference/layers\l/graph_blockmodel_layers\l_gibbs.cc",height=0.2,width=0.4,color="grey40", fillcolor="white", style="filled",URL="$graph__blockmodel__layers__gibbs_8cc.html",tooltip=" "];
  Node4 -> Node18 [dir="back",color="steelblue1",style="solid"];
  Node18 [label="/home/man/Documents\l/graph-tool-cmake/src\l/graph/inference/layers\l/graph_blockmodel_layers_imp.cc",height=0.2,width=0.4,color="grey40", fillcolor="white", style="filled",URL="$graph__blockmodel__layers__imp_8cc.html",tooltip=" "];
  Node4 -> Node19 [dir="back",color="steelblue1",style="solid"];
  Node19 [label="/home/man/Documents\l/graph-tool-cmake/src\l/graph/inference/layers\l/graph_blockmodel_layers\l_mcmc.cc",height=0.2,width=0.4,color="grey40", fillcolor="white", style="filled",URL="$graph__blockmodel__layers__mcmc_8cc.html",tooltip=" "];
  Node4 -> Node20 [dir="back",color="steelblue1",style="solid"];
  Node20 [label="/home/man/Documents\l/graph-tool-cmake/src\l/graph/inference/layers\l/graph_blockmodel_layers\l_multicanonical.cc",height=0.2,width=0.4,color="grey40", fillcolor="white", style="filled",URL="$graph__blockmodel__layers__multicanonical_8cc.html",tooltip=" "];
  Node4 -> Node21 [dir="back",color="steelblue1",style="solid"];
  Node21 [label="/home/man/Documents\l/graph-tool-cmake/src\l/graph/inference/layers\l/graph_blockmodel_layers\l_multicanonical_multiflip.cc",height=0.2,width=0.4,color="grey40", fillcolor="white", style="filled",URL="$graph__blockmodel__layers__multicanonical__multiflip_8cc.html",tooltip=" "];
  Node4 -> Node22 [dir="back",color="steelblue1",style="solid"];
  Node22 [label="/home/man/Documents\l/graph-tool-cmake/src\l/graph/inference/layers\l/graph_blockmodel_layers\l_multiflip_mcmc.cc",height=0.2,width=0.4,color="grey40", fillcolor="white", style="filled",URL="$graph__blockmodel__layers__multiflip__mcmc_8cc.html",tooltip=" "];
  Node4 -> Node23 [dir="back",color="steelblue1",style="solid"];
  Node23 [label="/home/man/Documents\l/graph-tool-cmake/src\l/graph/inference/layers\l/graph_blockmodel_layers\l_multilevel_mcmc.cc",height=0.2,width=0.4,color="grey40", fillcolor="white", style="filled",URL="$graph__blockmodel__layers__multilevel__mcmc_8cc.html",tooltip=" "];
  Node4 -> Node24 [dir="back",color="steelblue1",style="solid"];
  Node24 [label="/home/man/Documents\l/graph-tool-cmake/src\l/graph/inference/overlap\l/graph_blockmodel_overlap\l_util.hh",height=0.2,width=0.4,color="red", fillcolor="#FFF0F0", style="filled",URL="$graph__blockmodel__overlap__util_8hh.html",tooltip=" "];
  Node24 -> Node36 [dir="back",color="steelblue1",style="solid"];
  Node36 [label="/home/man/Documents\l/graph-tool-cmake/src\l/graph/inference/overlap\l/graph_blockmodel_overlap.hh",height=0.2,width=0.4,color="red", fillcolor="#FFF0F0", style="filled",URL="$graph__blockmodel__overlap_8hh.html",tooltip=" "];
  Node4 -> Node47 [dir="back",color="steelblue1",style="solid"];
  Node47 [label="/home/man/Documents\l/graph-tool-cmake/src\l/graph/inference/ranked\l/graph_ranked.cc",height=0.2,width=0.4,color="grey40", fillcolor="white", style="filled",URL="$graph__ranked_8cc.html",tooltip=" "];
  Node4 -> Node48 [dir="back",color="steelblue1",style="solid"];
  Node48 [label="/home/man/Documents\l/graph-tool-cmake/src\l/graph/inference/ranked\l/graph_ranked_gibbs.cc",height=0.2,width=0.4,color="grey40", fillcolor="white", style="filled",URL="$graph__ranked__gibbs_8cc.html",tooltip=" "];
  Node4 -> Node49 [dir="back",color="steelblue1",style="solid"];
  Node49 [label="/home/man/Documents\l/graph-tool-cmake/src\l/graph/inference/ranked\l/graph_ranked_mcmc.cc",height=0.2,width=0.4,color="grey40", fillcolor="white", style="filled",URL="$graph__ranked__mcmc_8cc.html",tooltip=" "];
  Node4 -> Node50 [dir="back",color="steelblue1",style="solid"];
  Node50 [label="/home/man/Documents\l/graph-tool-cmake/src\l/graph/inference/ranked\l/graph_ranked_multiflip\l_mcmc.cc",height=0.2,width=0.4,color="grey40", fillcolor="white", style="filled",URL="$graph__ranked__multiflip__mcmc_8cc.html",tooltip=" "];
  Node4 -> Node51 [dir="back",color="steelblue1",style="solid"];
  Node51 [label="/home/man/Documents\l/graph-tool-cmake/src\l/graph/inference/ranked\l/graph_ranked_multilevel\l_mcmc.cc",height=0.2,width=0.4,color="grey40", fillcolor="white", style="filled",URL="$graph__ranked__multilevel__mcmc_8cc.html",tooltip=" "];
  Node4 -> Node52 [dir="back",color="steelblue1",style="solid"];
  Node52 [label="/home/man/Documents\l/graph-tool-cmake/src\l/graph/inference/uncertain\l/graph_blockmodel_dynamics\l_cising_glauber.cc",height=0.2,width=0.4,color="grey40", fillcolor="white", style="filled",URL="$graph__blockmodel__dynamics__cising__glauber_8cc.html",tooltip=" "];
  Node4 -> Node53 [dir="back",color="steelblue1",style="solid"];
  Node53 [label="/home/man/Documents\l/graph-tool-cmake/src\l/graph/inference/uncertain\l/graph_blockmodel_dynamics\l_cising_glauber_mcmc.cc",height=0.2,width=0.4,color="grey40", fillcolor="white", style="filled",URL="$graph__blockmodel__dynamics__cising__glauber__mcmc_8cc.html",tooltip=" "];
  Node4 -> Node54 [dir="back",color="steelblue1",style="solid"];
  Node54 [label="/home/man/Documents\l/graph-tool-cmake/src\l/graph/inference/uncertain\l/graph_blockmodel_dynamics\l_epidemics.cc",height=0.2,width=0.4,color="grey40", fillcolor="white", style="filled",URL="$graph__blockmodel__dynamics__epidemics_8cc.html",tooltip=" "];
  Node4 -> Node55 [dir="back",color="steelblue1",style="solid"];
  Node55 [label="/home/man/Documents\l/graph-tool-cmake/src\l/graph/inference/uncertain\l/graph_blockmodel_dynamics\l_epidemics_mcmc.cc",height=0.2,width=0.4,color="grey40", fillcolor="white", style="filled",URL="$graph__blockmodel__dynamics__epidemics__mcmc_8cc.html",tooltip=" "];
  Node2 -> Node5 [dir="back",color="steelblue1",style="solid"];
  Node2 -> Node6 [dir="back",color="steelblue1",style="solid"];
  Node2 -> Node7 [dir="back",color="steelblue1",style="solid"];
  Node2 -> Node8 [dir="back",color="steelblue1",style="solid"];
  Node2 -> Node9 [dir="back",color="steelblue1",style="solid"];
  Node2 -> Node10 [dir="back",color="steelblue1",style="solid"];
  Node2 -> Node11 [dir="back",color="steelblue1",style="solid"];
  Node2 -> Node12 [dir="back",color="steelblue1",style="solid"];
  Node2 -> Node13 [dir="back",color="steelblue1",style="solid"];
  Node2 -> Node71 [dir="back",color="steelblue1",style="solid"];
  Node71 [label="/home/man/Documents\l/graph-tool-cmake/src\l/graph/inference/blockmodel\l/graph_blockmodel_multiflip_mcmc.hh",height=0.2,width=0.4,color="red", fillcolor="#FFF0F0", style="filled",URL="$graph__blockmodel__multiflip__mcmc_8hh.html",tooltip=" "];
  Node71 -> Node12 [dir="back",color="steelblue1",style="solid"];
  Node71 -> Node13 [dir="back",color="steelblue1",style="solid"];
  Node71 -> Node21 [dir="back",color="steelblue1",style="solid"];
  Node71 -> Node22 [dir="back",color="steelblue1",style="solid"];
  Node2 -> Node14 [dir="back",color="steelblue1",style="solid"];
  Node2 -> Node78 [dir="back",color="steelblue1",style="solid"];
  Node78 [label="/home/man/Documents\l/graph-tool-cmake/src\l/graph/inference/blockmodel\l/graph_blockmodel_multilevel_mcmc.hh",height=0.2,width=0.4,color="red", fillcolor="#FFF0F0", style="filled",URL="$graph__blockmodel__multilevel__mcmc_8hh.html",tooltip=" "];
  Node78 -> Node14 [dir="back",color="steelblue1",style="solid"];
  Node78 -> Node23 [dir="back",color="steelblue1",style="solid"];
  Node2 -> Node85 [dir="back",color="steelblue1",style="solid"];
  Node85 [label="/home/man/Documents\l/graph-tool-cmake/src\l/graph/inference/histogram\l/graph_histogram.hh",height=0.2,width=0.4,color="red", fillcolor="#FFF0F0", style="filled",URL="$graph__histogram_8hh.html",tooltip=" "];
  Node2 -> Node88 [dir="back",color="steelblue1",style="solid"];
  Node88 [label="/home/man/Documents\l/graph-tool-cmake/src\l/graph/inference/layers\l/graph_blockmodel_layers.hh",height=0.2,width=0.4,color="red", fillcolor="#FFF0F0", style="filled",URL="$graph__blockmodel__layers_8hh.html",tooltip=" "];
  Node88 -> Node15 [dir="back",color="steelblue1",style="solid"];
  Node88 -> Node16 [dir="back",color="steelblue1",style="solid"];
  Node88 -> Node17 [dir="back",color="steelblue1",style="solid"];
  Node88 -> Node18 [dir="back",color="steelblue1",style="solid"];
  Node88 -> Node19 [dir="back",color="steelblue1",style="solid"];
  Node88 -> Node20 [dir="back",color="steelblue1",style="solid"];
  Node88 -> Node21 [dir="back",color="steelblue1",style="solid"];
  Node88 -> Node22 [dir="back",color="steelblue1",style="solid"];
  Node88 -> Node23 [dir="back",color="steelblue1",style="solid"];
  Node2 -> Node16 [dir="back",color="steelblue1",style="solid"];
  Node2 -> Node17 [dir="back",color="steelblue1",style="solid"];
  Node2 -> Node18 [dir="back",color="steelblue1",style="solid"];
  Node2 -> Node19 [dir="back",color="steelblue1",style="solid"];
  Node2 -> Node20 [dir="back",color="steelblue1",style="solid"];
  Node2 -> Node21 [dir="back",color="steelblue1",style="solid"];
  Node2 -> Node22 [dir="back",color="steelblue1",style="solid"];
  Node2 -> Node23 [dir="back",color="steelblue1",style="solid"];
  Node2 -> Node89 [dir="back",color="steelblue1",style="solid"];
  Node89 [label="/home/man/Documents\l/graph-tool-cmake/src\l/graph/inference/modularity\l/graph_modularity.hh",height=0.2,width=0.4,color="red", fillcolor="#FFF0F0", style="filled",URL="$modularity_2graph__modularity_8hh.html",tooltip=" "];
  Node2 -> Node93 [dir="back",color="steelblue1",style="solid"];
  Node93 [label="/home/man/Documents\l/graph-tool-cmake/src\l/graph/inference/norm\l_cut/graph_norm_cut.hh",height=0.2,width=0.4,color="red", fillcolor="#FFF0F0", style="filled",URL="$graph__norm__cut_8hh.html",tooltip=" "];
  Node2 -> Node36 [dir="back",color="steelblue1",style="solid"];
  Node2 -> Node24 [dir="back",color="steelblue1",style="solid"];
  Node2 -> Node97 [dir="back",color="steelblue1",style="solid"];
  Node97 [label="/home/man/Documents\l/graph-tool-cmake/src\l/graph/inference/partition\l_centroid/graph_partition\l_centroid.hh",height=0.2,width=0.4,color="red", fillcolor="#FFF0F0", style="filled",URL="$graph__partition__centroid_8hh.html",tooltip=" "];
  Node2 -> Node100 [dir="back",color="steelblue1",style="solid"];
  Node100 [label="/home/man/Documents\l/graph-tool-cmake/src\l/graph/inference/partition\l_centroid/graph_partition\l_centroid_rmi.hh",height=0.2,width=0.4,color="red", fillcolor="#FFF0F0", style="filled",URL="$graph__partition__centroid__rmi_8hh.html",tooltip=" "];
  Node2 -> Node103 [dir="back",color="steelblue1",style="solid"];
  Node103 [label="/home/man/Documents\l/graph-tool-cmake/src\l/graph/inference/partition\l_modes/graph_partition_mode.hh",height=0.2,width=0.4,color="red", fillcolor="#FFF0F0", style="filled",URL="$graph__partition__mode_8hh.html",tooltip=" "];
  Node103 -> Node105 [dir="back",color="steelblue1",style="solid"];
  Node105 [label="/home/man/Documents\l/graph-tool-cmake/src\l/graph/inference/partition\l_modes/graph_partition_mode\l_clustering.hh",height=0.2,width=0.4,color="red", fillcolor="#FFF0F0", style="filled",URL="$graph__partition__mode__clustering_8hh.html",tooltip=" "];
  Node2 -> Node105 [dir="back",color="steelblue1",style="solid"];
  Node2 -> Node108 [dir="back",color="steelblue1",style="solid"];
  Node108 [label="/home/man/Documents\l/graph-tool-cmake/src\l/graph/inference/planted\l_partition/graph_planted\l_partition.hh",height=0.2,width=0.4,color="red", fillcolor="#FFF0F0", style="filled",URL="$graph__planted__partition_8hh.html",tooltip=" "];
  Node2 -> Node112 [dir="back",color="steelblue1",style="solid"];
  Node112 [label="/home/man/Documents\l/graph-tool-cmake/src\l/graph/inference/ranked\l/graph_ranked.hh",height=0.2,width=0.4,color="grey40", fillcolor="white", style="filled",URL="$graph__ranked_8hh.html",tooltip=" "];
  Node112 -> Node47 [dir="back",color="steelblue1",style="solid"];
  Node112 -> Node48 [dir="back",color="steelblue1",style="solid"];
  Node112 -> Node49 [dir="back",color="steelblue1",style="solid"];
  Node112 -> Node50 [dir="back",color="steelblue1",style="solid"];
  Node112 -> Node51 [dir="back",color="steelblue1",style="solid"];
  Node2 -> Node113 [dir="back",color="steelblue1",style="solid"];
  Node113 [label="/home/man/Documents\l/graph-tool-cmake/src\l/graph/inference/ranked\l/graph_ranked_multiflip\l_mcmc.hh",height=0.2,width=0.4,color="grey40", fillcolor="white", style="filled",URL="$graph__ranked__multiflip__mcmc_8hh.html",tooltip=" "];
  Node113 -> Node50 [dir="back",color="steelblue1",style="solid"];
  Node2 -> Node114 [dir="back",color="steelblue1",style="solid"];
  Node114 [label="/home/man/Documents\l/graph-tool-cmake/src\l/graph/inference/ranked\l/graph_ranked_multilevel\l_mcmc.hh",height=0.2,width=0.4,color="grey40", fillcolor="white", style="filled",URL="$graph__ranked__multilevel__mcmc_8hh.html",tooltip=" "];
  Node114 -> Node51 [dir="back",color="steelblue1",style="solid"];
  Node2 -> Node115 [dir="back",color="steelblue1",style="solid"];
  Node115 [label="/home/man/Documents\l/graph-tool-cmake/src\l/graph/inference/uncertain\l/graph_blockmodel_measured.hh",height=0.2,width=0.4,color="red", fillcolor="#FFF0F0", style="filled",URL="$graph__blockmodel__measured_8hh.html",tooltip=" "];
  Node2 -> Node117 [dir="back",color="steelblue1",style="solid"];
  Node117 [label="/home/man/Documents\l/graph-tool-cmake/src\l/graph/inference/uncertain\l/graph_blockmodel_uncertain\l_marginal.hh",height=0.2,width=0.4,color="red", fillcolor="#FFF0F0", style="filled",URL="$graph__blockmodel__uncertain__marginal_8hh.html",tooltip=" "];
}
