digraph "export_arf"
{
 // LATEX_PDF_SIZE
  bgcolor="transparent";
  edge [fontname=Helvetica,fontsize=10,labelfontname=Helvetica,labelfontsize=10];
  node [fontname=Helvetica,fontsize=10,shape=box,height=0.2,width=0.4];
  rankdir="LR";
  Node1 [label="export_arf",height=0.2,width=0.4,color="gray40", fillcolor="grey60", style="filled", fontcolor="black",tooltip=" "];
  Node1 -> Node2 [color="steelblue1",style="solid"];
  Node2 [label="arf_layout",height=0.2,width=0.4,color="grey40", fillcolor="white", style="filled",URL="$graph__arf_8cc.html#a059cdd68269d0c145f16748a2f4d3a71",tooltip=" "];
}
