digraph "export_vertex_correlations"
{
 // LATEX_PDF_SIZE
  bgcolor="transparent";
  edge [fontname=Helvetica,fontsize=10,labelfontname=Helvetica,labelfontsize=10];
  node [fontname=Helvetica,fontsize=10,shape=box,height=0.2,width=0.4];
  rankdir="LR";
  Node1 [label="export_vertex_correlations",height=0.2,width=0.4,color="gray40", fillcolor="grey60", style="filled", fontcolor="black",tooltip=" "];
  Node1 -> Node2 [color="steelblue1",style="solid"];
  Node2 [label="get_vertex_correlation\l_histogram",height=0.2,width=0.4,color="grey40", fillcolor="white", style="filled",URL="$graph__correlations_8cc.html#a0b098a68934bc65a52bd51fd164f7419",tooltip=" "];
  Node2 -> Node3 [color="steelblue1",style="solid"];
  Node3 [label="graph_tool::degree\l_selector",height=0.2,width=0.4,color="grey40", fillcolor="white", style="filled",URL="$namespacegraph__tool.html#a24741a5c50643973ba228ffb318f43c5",tooltip=" "];
  Node2 -> Node4 [color="steelblue1",style="solid"];
  Node4 [label="graph_correlations_imp1",height=0.2,width=0.4,color="grey40", fillcolor="white", style="filled",URL="$graph__correlations__imp1_8cc.html#aeacfc554d0d616e8c3fdf8acc3f10ead",tooltip=" "];
}
