digraph "BOOST_PYTHON_MODULE"
{
 // LATEX_PDF_SIZE
  bgcolor="transparent";
  edge [fontname=Helvetica,fontsize=10,labelfontname=Helvetica,labelfontsize=10];
  node [fontname=Helvetica,fontsize=10,shape=box,height=0.2,width=0.4];
  rankdir="LR";
  Node1 [label="BOOST_PYTHON_MODULE",height=0.2,width=0.4,color="gray40", fillcolor="grey60", style="filled", fontcolor="black",tooltip=" "];
  Node1 -> Node2 [color="steelblue1",style="solid"];
  Node2 [label="extended_clustering",height=0.2,width=0.4,color="grey40", fillcolor="white", style="filled",URL="$graph__extended__clustering_8cc.html#a97160fa2325e61cf30951a8df6e1d085",tooltip=" "];
  Node2 -> Node3 [color="steelblue1",style="solid"];
  Node3 [label="graph_tool::GraphInterface\l::get_graph",height=0.2,width=0.4,color="grey40", fillcolor="white", style="filled",URL="$classgraph__tool_1_1GraphInterface.html#a732ab352eadc8f67ac80c07b7dcf9bdd",tooltip=" "];
  Node2 -> Node4 [color="steelblue1",style="solid"];
  Node4 [label="graph_tool::GraphInterface\l::get_vertex_index",height=0.2,width=0.4,color="grey40", fillcolor="white", style="filled",URL="$classgraph__tool_1_1GraphInterface.html#a4a8b2130874eb17e73e578e39b851b64",tooltip=" "];
  Node2 -> Node5 [color="steelblue1",style="solid"];
  Node5 [label="boost::num_vertices",height=0.2,width=0.4,color="grey40", fillcolor="white", style="filled",URL="$namespaceboost.html#ac848f876a7fa2caa8fb1879b7c522ebc",tooltip=" "];
  Node5 -> Node5 [color="steelblue1",style="solid"];
  Node5 -> Node6 [color="steelblue1",style="solid"];
  Node6 [label="boost::undirected_adaptor\l::original_graph",height=0.2,width=0.4,color="grey40", fillcolor="white", style="filled",URL="$classboost_1_1undirected__adaptor.html#a11e557bb4f3d7c15354f98390f1d3644",tooltip=" "];
  Node1 -> Node7 [color="steelblue1",style="solid"];
  Node7 [label="get_motifs",height=0.2,width=0.4,color="grey40", fillcolor="white", style="filled",URL="$graph__motifs_8cc.html#af4c5f7dd139a865afc4e08b210a48a82",tooltip=" "];
  Node7 -> Node8 [color="steelblue1",style="solid"];
  Node8 [label="graph_tool::GraphInterface\l::get_directed",height=0.2,width=0.4,color="grey40", fillcolor="white", style="filled",URL="$classgraph__tool_1_1GraphInterface.html#a34a54ce80df48807d633ad72cbf79d7f",tooltip=" "];
  Node7 -> Node9 [color="steelblue1",style="solid"];
  Node9 [label="graph_tool::GraphInterface\l::set_directed",height=0.2,width=0.4,color="grey40", fillcolor="white", style="filled",URL="$classgraph__tool_1_1GraphInterface.html#a1debd70459971e4bd3ee0ac4cec5d2a3",tooltip=" "];
  Node1 -> Node10 [color="steelblue1",style="solid"];
  Node10 [label="global_clustering",height=0.2,width=0.4,color="grey40", fillcolor="white", style="filled",URL="$graph__clustering_8cc.html#a5cf5cd0de433f761cbda2d91200a6cd0",tooltip=" "];
  Node10 -> Node11 [color="steelblue1",style="solid"];
  Node11 [label="graph_tool::get_global\l_clustering",height=0.2,width=0.4,color="grey40", fillcolor="white", style="filled",URL="$namespacegraph__tool.html#ab3fb786dad98f486e45604f15109c5ba",tooltip=" "];
  Node11 -> Node12 [color="steelblue1",style="solid"];
  Node12 [label="graph_tool::get_triangles",height=0.2,width=0.4,color="grey40", fillcolor="white", style="filled",URL="$namespacegraph__tool.html#a6f11addf165c6be7fb3caa5dbec28608",tooltip=" "];
  Node12 -> Node13 [color="steelblue1",style="solid"];
  Node13 [label="graph_tool::adjacent\l_vertices_range",height=0.2,width=0.4,color="grey40", fillcolor="white", style="filled",URL="$namespacegraph__tool.html#a834411325b3ac833b07a43e28d4c27be",tooltip=" "];
  Node13 -> Node14 [color="steelblue1",style="solid"];
  Node14 [label="boost::adjacent_vertices",height=0.2,width=0.4,color="grey40", fillcolor="white", style="filled",URL="$namespaceboost.html#a757a9023aa2aa9fa7276a93dd39a1f39",tooltip=" "];
  Node14 -> Node15 [color="steelblue1",style="solid"];
  Node15 [label="boost::out_neighbors",height=0.2,width=0.4,color="grey40", fillcolor="white", style="filled",URL="$namespaceboost.html#a57f92469ea1bdd1e62a67f2bbd781fea",tooltip=" "];
  Node15 -> Node16 [color="steelblue1",style="solid"];
  Node16 [label="boost::all_neighbors",height=0.2,width=0.4,color="grey40", fillcolor="white", style="filled",URL="$namespaceboost.html#aa79739d31ce142279771d2b585c3dc8a",tooltip=" "];
  Node16 -> Node15 [color="steelblue1",style="solid"];
  Node15 -> Node6 [color="steelblue1",style="solid"];
  Node13 -> Node17 [color="steelblue1",style="solid"];
  Node17 [label="graph_tool::mk_range",height=0.2,width=0.4,color="grey40", fillcolor="white", style="filled",URL="$namespacegraph__tool.html#a6ecc1e46efb4f620acabfe5728f7a2a6",tooltip=" "];
  Node12 -> Node18 [color="steelblue1",style="solid"];
  Node18 [label="graph_tool::is_directed",height=0.2,width=0.4,color="grey40", fillcolor="white", style="filled",URL="$namespacegraph__tool.html#a815c22620d9f5756b899dc94e405e2f3",tooltip=" "];
  Node12 -> Node19 [color="steelblue1",style="solid"];
  Node19 [label="graph_tool::out_edges\l_range",height=0.2,width=0.4,color="grey40", fillcolor="white", style="filled",URL="$namespacegraph__tool.html#a347f8a3e503c35e8a4d54184d8d90a6f",tooltip=" "];
  Node19 -> Node17 [color="steelblue1",style="solid"];
  Node12 -> Node20 [color="steelblue1",style="solid"];
  Node20 [label="graph_tool::target",height=0.2,width=0.4,color="grey40", fillcolor="white", style="filled",URL="$namespacegraph__tool.html#aff9f07ca294560a9de57ab80deffa0cc",tooltip=" "];
  Node20 -> Node21 [color="steelblue1",style="solid"];
  Node21 [label="boost::edges",height=0.2,width=0.4,color="grey40", fillcolor="white", style="filled",URL="$namespaceboost.html#a3ac91f028a5f50644ba12e9e803bb2f8",tooltip=" "];
  Node21 -> Node21 [color="steelblue1",style="solid"];
  Node21 -> Node6 [color="steelblue1",style="solid"];
  Node20 -> Node22 [color="steelblue1",style="solid"];
  Node22 [label="graph_tool::source",height=0.2,width=0.4,color="grey40", fillcolor="white", style="filled",URL="$namespacegraph__tool.html#a0b44c0af404cec1513acb7b9602557f8",tooltip=" "];
  Node22 -> Node21 [color="steelblue1",style="solid"];
  Node22 -> Node22 [color="steelblue1",style="solid"];
  Node22 -> Node20 [color="steelblue1",style="solid"];
  Node20 -> Node20 [color="steelblue1",style="solid"];
  Node11 -> Node5 [color="steelblue1",style="solid"];
  Node11 -> Node23 [color="steelblue1",style="solid"];
  Node23 [label="graph_tool::parallel\l_vertex_loop_no_spawn",height=0.2,width=0.4,color="grey40", fillcolor="white", style="filled",URL="$namespacegraph__tool.html#a2725c01831f0c0950bad4a18a97f0e8c",tooltip=" "];
  Node23 -> Node24 [color="steelblue1",style="solid"];
  Node24 [label="boost::is_valid_vertex",height=0.2,width=0.4,color="grey40", fillcolor="white", style="filled",URL="$namespaceboost.html#a11c20bb91523ed21d4bd1a71b102fef7",tooltip=" "];
  Node23 -> Node5 [color="steelblue1",style="solid"];
  Node23 -> Node25 [color="steelblue1",style="solid"];
  Node25 [label="boost::vertex",height=0.2,width=0.4,color="grey40", fillcolor="white", style="filled",URL="$namespaceboost.html#acf010cb431c640031d53bfe55c84ef46",tooltip=" "];
  Node25 -> Node6 [color="steelblue1",style="solid"];
  Node25 -> Node25 [color="steelblue1",style="solid"];
  Node1 -> Node26 [color="steelblue1",style="solid"];
  Node26 [label="local_clustering",height=0.2,width=0.4,color="grey40", fillcolor="white", style="filled",URL="$graph__clustering_8cc.html#a97ed05ee2d20249f042061dee49d50ae",tooltip=" "];
  Node26 -> Node27 [color="steelblue1",style="solid"];
  Node27 [label="graph_tool::set_clustering\l_to_property",height=0.2,width=0.4,color="grey40", fillcolor="white", style="filled",URL="$namespacegraph__tool.html#acd9367dc37e93d861b06c451613f12be",tooltip=" "];
  Node27 -> Node12 [color="steelblue1",style="solid"];
  Node27 -> Node5 [color="steelblue1",style="solid"];
  Node27 -> Node23 [color="steelblue1",style="solid"];
}
