digraph "export_all_circuits"
{
 // LATEX_PDF_SIZE
  bgcolor="transparent";
  edge [fontname=Helvetica,fontsize=10,labelfontname=Helvetica,labelfontsize=10];
  node [fontname=Helvetica,fontsize=10,shape=box,height=0.2,width=0.4];
  rankdir="LR";
  Node1 [label="export_all_circuits",height=0.2,width=0.4,color="gray40", fillcolor="grey60", style="filled", fontcolor="black",tooltip=" "];
  Node1 -> Node2 [color="steelblue1",style="solid"];
  Node2 [label="get_all_circuits",height=0.2,width=0.4,color="grey40", fillcolor="white", style="filled",URL="$graph__all__circuits_8cc.html#ab709a9cd79b4e8468b61f695577a8216",tooltip=" "];
}
