digraph "/home/man/Documents/graph-tool-cmake/src/graph/graph_filtering.hh"
{
 // LATEX_PDF_SIZE
  bgcolor="transparent";
  edge [fontname=Helvetica,fontsize=10,labelfontname=Helvetica,labelfontsize=10];
  node [fontname=Helvetica,fontsize=10,shape=box,height=0.2,width=0.4];
  Node1 [label="/home/man/Documents\l/graph-tool-cmake/src\l/graph/graph_filtering.hh",height=0.2,width=0.4,color="gray40", fillcolor="grey60", style="filled", fontcolor="black",tooltip=" "];
  Node1 -> Node2 [color="steelblue1",style="solid"];
  Node2 [label="graph.hh",height=0.2,width=0.4,color="grey40", fillcolor="white", style="filled",URL="$graph_8hh.html",tooltip=" "];
  Node2 -> Node3 [color="steelblue1",style="solid"];
  Node3 [label="config.h",height=0.2,width=0.4,color="grey60", fillcolor="#E0E0E0", style="filled",tooltip=" "];
  Node2 -> Node4 [color="steelblue1",style="solid"];
  Node4 [label="iterator",height=0.2,width=0.4,color="grey60", fillcolor="#E0E0E0", style="filled",tooltip=" "];
  Node2 -> Node5 [color="steelblue1",style="solid"];
  Node5 [label="boost/python/object.hpp",height=0.2,width=0.4,color="grey60", fillcolor="#E0E0E0", style="filled",tooltip=" "];
  Node2 -> Node6 [color="steelblue1",style="solid"];
  Node6 [label="boost/python/list.hpp",height=0.2,width=0.4,color="grey60", fillcolor="#E0E0E0", style="filled",tooltip=" "];
  Node2 -> Node7 [color="steelblue1",style="solid"];
  Node7 [label="boost/python/tuple.hpp",height=0.2,width=0.4,color="grey60", fillcolor="#E0E0E0", style="filled",tooltip=" "];
  Node2 -> Node8 [color="steelblue1",style="solid"];
  Node8 [label="boost/any.hpp",height=0.2,width=0.4,color="grey60", fillcolor="#E0E0E0", style="filled",tooltip=" "];
  Node2 -> Node9 [color="steelblue1",style="solid"];
  Node9 [label="graph_adjacency.hh",height=0.2,width=0.4,color="grey40", fillcolor="white", style="filled",URL="$graph__adjacency_8hh.html",tooltip=" "];
  Node9 -> Node10 [color="steelblue1",style="solid"];
  Node10 [label="vector",height=0.2,width=0.4,color="grey60", fillcolor="#E0E0E0", style="filled",tooltip=" "];
  Node9 -> Node11 [color="steelblue1",style="solid"];
  Node11 [label="deque",height=0.2,width=0.4,color="grey60", fillcolor="#E0E0E0", style="filled",tooltip=" "];
  Node9 -> Node12 [color="steelblue1",style="solid"];
  Node12 [label="utility",height=0.2,width=0.4,color="grey60", fillcolor="#E0E0E0", style="filled",tooltip=" "];
  Node9 -> Node13 [color="steelblue1",style="solid"];
  Node13 [label="boost/iterator.hpp",height=0.2,width=0.4,color="grey60", fillcolor="#E0E0E0", style="filled",tooltip=" "];
  Node9 -> Node14 [color="steelblue1",style="solid"];
  Node14 [label="boost/graph/graph_traits.hpp",height=0.2,width=0.4,color="grey60", fillcolor="#E0E0E0", style="filled",tooltip=" "];
  Node9 -> Node15 [color="steelblue1",style="solid"];
  Node15 [label="boost/range/irange.hpp",height=0.2,width=0.4,color="grey60", fillcolor="#E0E0E0", style="filled",tooltip=" "];
  Node9 -> Node16 [color="steelblue1",style="solid"];
  Node16 [label="boost/property_map\l/property_map.hpp",height=0.2,width=0.4,color="grey60", fillcolor="#E0E0E0", style="filled",tooltip=" "];
  Node9 -> Node17 [color="steelblue1",style="solid"];
  Node17 [label="boost/graph/properties.hpp",height=0.2,width=0.4,color="grey60", fillcolor="#E0E0E0", style="filled",tooltip=" "];
  Node9 -> Node18 [color="steelblue1",style="solid"];
  Node18 [label="boost/iterator/iterator\l_facade.hpp",height=0.2,width=0.4,color="grey60", fillcolor="#E0E0E0", style="filled",tooltip=" "];
  Node9 -> Node19 [color="steelblue1",style="solid"];
  Node19 [label="transform_iterator.hh",height=0.2,width=0.4,color="red", fillcolor="#FFF0F0", style="filled",URL="$transform__iterator_8hh.html",tooltip=" "];
  Node19 -> Node4 [color="steelblue1",style="solid"];
  Node2 -> Node14 [color="steelblue1",style="solid"];
  Node2 -> Node21 [color="steelblue1",style="solid"];
  Node21 [label="fast_vector_property\l_map.hh",height=0.2,width=0.4,color="grey40", fillcolor="white", style="filled",URL="$fast__vector__property__map_8hh.html",tooltip=" "];
  Node21 -> Node16 [color="steelblue1",style="solid"];
  Node21 -> Node22 [color="steelblue1",style="solid"];
  Node22 [label="memory",height=0.2,width=0.4,color="grey60", fillcolor="#E0E0E0", style="filled",tooltip=" "];
  Node21 -> Node10 [color="steelblue1",style="solid"];
  Node2 -> Node23 [color="steelblue1",style="solid"];
  Node23 [label="boost/variant.hpp",height=0.2,width=0.4,color="grey60", fillcolor="#E0E0E0", style="filled",tooltip=" "];
  Node2 -> Node24 [color="steelblue1",style="solid"];
  Node24 [label="boost/mpl/bool_fwd.hpp",height=0.2,width=0.4,color="grey60", fillcolor="#E0E0E0", style="filled",tooltip=" "];
  Node2 -> Node25 [color="steelblue1",style="solid"];
  Node25 [label="graph_properties.hh",height=0.2,width=0.4,color="red", fillcolor="#FFF0F0", style="filled",URL="$graph__properties_8hh.html",tooltip=" "];
  Node25 -> Node26 [color="steelblue1",style="solid"];
  Node26 [label="string",height=0.2,width=0.4,color="grey60", fillcolor="#E0E0E0", style="filled",tooltip=" "];
  Node25 -> Node10 [color="steelblue1",style="solid"];
  Node25 -> Node27 [color="steelblue1",style="solid"];
  Node27 [label="unordered_map",height=0.2,width=0.4,color="grey60", fillcolor="#E0E0E0", style="filled",tooltip=" "];
  Node25 -> Node28 [color="steelblue1",style="solid"];
  Node28 [label="boost/functional/hash.hpp",height=0.2,width=0.4,color="grey60", fillcolor="#E0E0E0", style="filled",tooltip=" "];
  Node25 -> Node5 [color="steelblue1",style="solid"];
  Node25 -> Node30 [color="steelblue1",style="solid"];
  Node30 [label="boost/lexical_cast.hpp",height=0.2,width=0.4,color="grey60", fillcolor="#E0E0E0", style="filled",tooltip=" "];
  Node25 -> Node16 [color="steelblue1",style="solid"];
  Node25 -> Node21 [color="steelblue1",style="solid"];
  Node25 -> Node31 [color="steelblue1",style="solid"];
  Node31 [label="boost/mpl/vector.hpp",height=0.2,width=0.4,color="grey60", fillcolor="#E0E0E0", style="filled",tooltip=" "];
  Node1 -> Node37 [color="steelblue1",style="solid"];
  Node37 [label="boost/version.hpp",height=0.2,width=0.4,color="grey60", fillcolor="#E0E0E0", style="filled",tooltip=" "];
  Node1 -> Node14 [color="steelblue1",style="solid"];
  Node1 -> Node31 [color="steelblue1",style="solid"];
  Node1 -> Node38 [color="steelblue1",style="solid"];
  Node38 [label="boost/mpl/if.hpp",height=0.2,width=0.4,color="grey60", fillcolor="#E0E0E0", style="filled",tooltip=" "];
  Node1 -> Node39 [color="steelblue1",style="solid"];
  Node39 [label="boost/mpl/logical.hpp",height=0.2,width=0.4,color="grey60", fillcolor="#E0E0E0", style="filled",tooltip=" "];
  Node1 -> Node40 [color="steelblue1",style="solid"];
  Node40 [label="boost/mpl/back_inserter.hpp",height=0.2,width=0.4,color="grey60", fillcolor="#E0E0E0", style="filled",tooltip=" "];
  Node1 -> Node41 [color="steelblue1",style="solid"];
  Node41 [label="boost/mpl/assert.hpp",height=0.2,width=0.4,color="grey60", fillcolor="#E0E0E0", style="filled",tooltip=" "];
  Node1 -> Node42 [color="steelblue1",style="solid"];
  Node42 [label="graph_adaptor.hh",height=0.2,width=0.4,color="grey40", fillcolor="white", style="filled",URL="$graph__adaptor_8hh.html",tooltip=" "];
  Node42 -> Node43 [color="steelblue1",style="solid"];
  Node43 [label="boost/config.hpp",height=0.2,width=0.4,color="grey60", fillcolor="#E0E0E0", style="filled",tooltip=" "];
  Node42 -> Node44 [color="steelblue1",style="solid"];
  Node44 [label="boost/iterator_adaptors.hpp",height=0.2,width=0.4,color="grey60", fillcolor="#E0E0E0", style="filled",tooltip=" "];
  Node42 -> Node14 [color="steelblue1",style="solid"];
  Node42 -> Node19 [color="steelblue1",style="solid"];
  Node1 -> Node45 [color="steelblue1",style="solid"];
  Node45 [label="graph_filtered.hh",height=0.2,width=0.4,color="grey40", fillcolor="white", style="filled",URL="$graph__filtered_8hh.html",tooltip=" "];
  Node45 -> Node14 [color="steelblue1",style="solid"];
  Node45 -> Node17 [color="steelblue1",style="solid"];
  Node45 -> Node46 [color="steelblue1",style="solid"];
  Node46 [label="boost/graph/adjacency\l_iterator.hpp",height=0.2,width=0.4,color="grey60", fillcolor="#E0E0E0", style="filled",tooltip=" "];
  Node45 -> Node47 [color="steelblue1",style="solid"];
  Node47 [label="boost/iterator/filter\l_iterator.hpp",height=0.2,width=0.4,color="grey60", fillcolor="#E0E0E0", style="filled",tooltip=" "];
  Node45 -> Node48 [color="steelblue1",style="solid"];
  Node48 [label="boost/graph/filtered\l_graph.hpp",height=0.2,width=0.4,color="grey60", fillcolor="#E0E0E0", style="filled",tooltip=" "];
  Node1 -> Node49 [color="steelblue1",style="solid"];
  Node49 [label="graph_reverse.hh",height=0.2,width=0.4,color="grey40", fillcolor="white", style="filled",URL="$graph__reverse_8hh.html",tooltip=" "];
  Node49 -> Node46 [color="steelblue1",style="solid"];
  Node49 -> Node12 [color="steelblue1",style="solid"];
  Node1 -> Node50 [color="steelblue1",style="solid"];
  Node50 [label="graph_util.hh",height=0.2,width=0.4,color="grey40", fillcolor="white", style="filled",URL="$graph__util_8hh.html",tooltip=" "];
  Node50 -> Node31 [color="steelblue1",style="solid"];
  Node50 -> Node14 [color="steelblue1",style="solid"];
  Node50 -> Node51 [color="steelblue1",style="solid"];
  Node51 [label="boost/algorithm/string\l/split.hpp",height=0.2,width=0.4,color="grey60", fillcolor="#E0E0E0", style="filled",tooltip=" "];
  Node50 -> Node52 [color="steelblue1",style="solid"];
  Node52 [label="boost/algorithm/string\l/trim.hpp",height=0.2,width=0.4,color="grey60", fillcolor="#E0E0E0", style="filled",tooltip=" "];
  Node50 -> Node30 [color="steelblue1",style="solid"];
  Node50 -> Node53 [color="steelblue1",style="solid"];
  Node53 [label="boost/range/iterator\l_range.hpp",height=0.2,width=0.4,color="grey60", fillcolor="#E0E0E0", style="filled",tooltip=" "];
  Node50 -> Node26 [color="steelblue1",style="solid"];
  Node50 -> Node28 [color="steelblue1",style="solid"];
  Node50 -> Node54 [color="steelblue1",style="solid"];
  Node54 [label="random",height=0.2,width=0.4,color="grey60", fillcolor="#E0E0E0", style="filled",tooltip=" "];
  Node50 -> Node55 [color="steelblue1",style="solid"];
  Node55 [label="graph_selectors.hh",height=0.2,width=0.4,color="red", fillcolor="#FFF0F0", style="filled",URL="$graph__selectors_8hh.html",tooltip=" "];
  Node55 -> Node12 [color="steelblue1",style="solid"];
  Node55 -> Node56 [color="steelblue1",style="solid"];
  Node56 [label="type_traits",height=0.2,width=0.4,color="grey60", fillcolor="#E0E0E0", style="filled",tooltip=" "];
  Node55 -> Node31 [color="steelblue1",style="solid"];
  Node55 -> Node41 [color="steelblue1",style="solid"];
  Node55 -> Node40 [color="steelblue1",style="solid"];
  Node55 -> Node8 [color="steelblue1",style="solid"];
  Node55 -> Node14 [color="steelblue1",style="solid"];
  Node55 -> Node25 [color="steelblue1",style="solid"];
  Node55 -> Node2 [color="steelblue1",style="solid"];
  Node50 -> Node45 [color="steelblue1",style="solid"];
  Node1 -> Node60 [color="steelblue1",style="solid"];
  Node60 [label="mpl_nested_loop.hh",height=0.2,width=0.4,color="grey40", fillcolor="white", style="filled",URL="$mpl__nested__loop_8hh.html",tooltip=" "];
  Node1 -> Node56 [color="steelblue1",style="solid"];
}
