digraph "astar_search_array_fast"
{
 // LATEX_PDF_SIZE
  bgcolor="transparent";
  edge [fontname=Helvetica,fontsize=10,labelfontname=Helvetica,labelfontsize=10];
  node [fontname=Helvetica,fontsize=10,shape=box,height=0.2,width=0.4];
  rankdir="RL";
  Node1 [label="astar_search_array_fast",height=0.2,width=0.4,color="gray40", fillcolor="grey60", style="filled", fontcolor="black",tooltip=" "];
  Node1 -> Node2 [dir="back",color="steelblue1",style="solid"];
  Node2 [label="export_astar",height=0.2,width=0.4,color="grey40", fillcolor="white", style="filled",URL="$graph__astar_8cc.html#a734d8a787d4fcd47d8a7100af0294ad1",tooltip=" "];
  Node2 -> Node3 [dir="back",color="steelblue1",style="solid"];
  Node3 [label="BOOST_PYTHON_MODULE",height=0.2,width=0.4,color="grey40", fillcolor="white", style="filled",URL="$graph__search__bind_8cc.html#adde3008ba3d872d5c4d807813f0d6a83",tooltip=" "];
}
