digraph "/home/man/Documents/graph-tool-cmake/src/graph/histogram.hh"
{
 // LATEX_PDF_SIZE
  bgcolor="transparent";
  edge [fontname=Helvetica,fontsize=10,labelfontname=Helvetica,labelfontsize=10];
  node [fontname=Helvetica,fontsize=10,shape=box,height=0.2,width=0.4];
  Node1 [label="/home/man/Documents\l/graph-tool-cmake/src\l/graph/histogram.hh",height=0.2,width=0.4,color="gray40", fillcolor="grey60", style="filled", fontcolor="black",tooltip=" "];
  Node1 -> Node2 [dir="back",color="steelblue1",style="solid"];
  Node2 [label="/home/man/Documents\l/graph-tool-cmake/src\l/graph/centrality/graph\l_closeness.hh",height=0.2,width=0.4,color="grey40", fillcolor="white", style="filled",URL="$graph__closeness_8hh.html",tooltip=" "];
  Node2 -> Node3 [dir="back",color="steelblue1",style="solid"];
  Node3 [label="/home/man/Documents\l/graph-tool-cmake/src\l/graph/centrality/graph\l_closeness.cc",height=0.2,width=0.4,color="grey40", fillcolor="white", style="filled",URL="$graph__closeness_8cc.html",tooltip=" "];
  Node1 -> Node4 [dir="back",color="steelblue1",style="solid"];
  Node4 [label="/home/man/Documents\l/graph-tool-cmake/src\l/graph/correlations/graph\l_avg_correlations_imp1.cc",height=0.2,width=0.4,color="grey40", fillcolor="white", style="filled",URL="$graph__avg__correlations__imp1_8cc.html",tooltip=" "];
  Node1 -> Node5 [dir="back",color="steelblue1",style="solid"];
  Node5 [label="/home/man/Documents\l/graph-tool-cmake/src\l/graph/correlations/graph\l_correlations.cc",height=0.2,width=0.4,color="grey40", fillcolor="white", style="filled",URL="$graph__correlations_8cc.html",tooltip=" "];
  Node1 -> Node6 [dir="back",color="steelblue1",style="solid"];
  Node6 [label="/home/man/Documents\l/graph-tool-cmake/src\l/graph/correlations/graph\l_correlations.hh",height=0.2,width=0.4,color="grey40", fillcolor="white", style="filled",URL="$graph__correlations_8hh.html",tooltip=" "];
  Node6 -> Node7 [dir="back",color="steelblue1",style="solid"];
  Node7 [label="/home/man/Documents\l/graph-tool-cmake/src\l/graph/correlations/graph\l_avg_correlations.hh",height=0.2,width=0.4,color="grey40", fillcolor="white", style="filled",URL="$graph__avg__correlations_8hh.html",tooltip=" "];
  Node7 -> Node8 [dir="back",color="steelblue1",style="solid"];
  Node8 [label="/home/man/Documents\l/graph-tool-cmake/src\l/graph/correlations/graph\l_avg_correlations.cc",height=0.2,width=0.4,color="grey40", fillcolor="white", style="filled",URL="$graph__avg__correlations_8cc.html",tooltip=" "];
  Node7 -> Node9 [dir="back",color="steelblue1",style="solid"];
  Node9 [label="/home/man/Documents\l/graph-tool-cmake/src\l/graph/correlations/graph\l_avg_correlations_combined.cc",height=0.2,width=0.4,color="grey40", fillcolor="white", style="filled",URL="$graph__avg__correlations__combined_8cc.html",tooltip=" "];
  Node7 -> Node4 [dir="back",color="steelblue1",style="solid"];
  Node6 -> Node10 [dir="back",color="steelblue1",style="solid"];
  Node10 [label="/home/man/Documents\l/graph-tool-cmake/src\l/graph/correlations/graph\l_corr_hist.hh",height=0.2,width=0.4,color="grey40", fillcolor="white", style="filled",URL="$graph__corr__hist_8hh.html",tooltip=" "];
  Node10 -> Node5 [dir="back",color="steelblue1",style="solid"];
  Node10 -> Node11 [dir="back",color="steelblue1",style="solid"];
  Node11 [label="/home/man/Documents\l/graph-tool-cmake/src\l/graph/correlations/graph\l_correlations_combined.cc",height=0.2,width=0.4,color="grey40", fillcolor="white", style="filled",URL="$graph__correlations__combined_8cc.html",tooltip=" "];
  Node10 -> Node12 [dir="back",color="steelblue1",style="solid"];
  Node12 [label="/home/man/Documents\l/graph-tool-cmake/src\l/graph/correlations/graph\l_correlations_imp1.cc",height=0.2,width=0.4,color="grey40", fillcolor="white", style="filled",URL="$graph__correlations__imp1_8cc.html",tooltip=" "];
  Node1 -> Node11 [dir="back",color="steelblue1",style="solid"];
  Node1 -> Node12 [dir="back",color="steelblue1",style="solid"];
  Node1 -> Node13 [dir="back",color="steelblue1",style="solid"];
  Node13 [label="/home/man/Documents\l/graph-tool-cmake/src\l/graph/stats/graph_distance.hh",height=0.2,width=0.4,color="grey40", fillcolor="white", style="filled",URL="$graph__distance_8hh.html",tooltip=" "];
  Node13 -> Node14 [dir="back",color="steelblue1",style="solid"];
  Node14 [label="/home/man/Documents\l/graph-tool-cmake/src\l/graph/stats/graph_distance.cc",height=0.2,width=0.4,color="grey40", fillcolor="white", style="filled",URL="$stats_2graph__distance_8cc.html",tooltip=" "];
  Node1 -> Node15 [dir="back",color="steelblue1",style="solid"];
  Node15 [label="/home/man/Documents\l/graph-tool-cmake/src\l/graph/stats/graph_distance\l_sampled.hh",height=0.2,width=0.4,color="grey40", fillcolor="white", style="filled",URL="$graph__distance__sampled_8hh.html",tooltip=" "];
  Node15 -> Node16 [dir="back",color="steelblue1",style="solid"];
  Node16 [label="/home/man/Documents\l/graph-tool-cmake/src\l/graph/stats/graph_distance\l_sampled.cc",height=0.2,width=0.4,color="grey40", fillcolor="white", style="filled",URL="$graph__distance__sampled_8cc.html",tooltip=" "];
  Node1 -> Node17 [dir="back",color="steelblue1",style="solid"];
  Node17 [label="/home/man/Documents\l/graph-tool-cmake/src\l/graph/stats/graph_histograms.hh",height=0.2,width=0.4,color="grey40", fillcolor="white", style="filled",URL="$graph__histograms_8hh.html",tooltip=" "];
  Node17 -> Node18 [dir="back",color="steelblue1",style="solid"];
  Node18 [label="/home/man/Documents\l/graph-tool-cmake/src\l/graph/stats/graph_histograms.cc",height=0.2,width=0.4,color="grey40", fillcolor="white", style="filled",URL="$graph__histograms_8cc.html",tooltip=" "];
}
