digraph "/home/man/Documents/graph-tool-cmake/src/graph/inference/loops/mcmc_loop.hh"
{
 // LATEX_PDF_SIZE
  bgcolor="transparent";
  edge [fontname=Helvetica,fontsize=10,labelfontname=Helvetica,labelfontsize=10];
  node [fontname=Helvetica,fontsize=10,shape=box,height=0.2,width=0.4];
  Node1 [label="/home/man/Documents\l/graph-tool-cmake/src\l/graph/inference/loops\l/mcmc_loop.hh",height=0.2,width=0.4,color="gray40", fillcolor="grey60", style="filled", fontcolor="black",tooltip=" "];
  Node1 -> Node2 [color="steelblue1",style="solid"];
  Node2 [label="config.h",height=0.2,width=0.4,color="grey60", fillcolor="#E0E0E0", style="filled",tooltip=" "];
  Node1 -> Node3 [color="steelblue1",style="solid"];
  Node3 [label="iostream",height=0.2,width=0.4,color="grey60", fillcolor="#E0E0E0", style="filled",tooltip=" "];
  Node1 -> Node4 [color="steelblue1",style="solid"];
  Node4 [label="tuple",height=0.2,width=0.4,color="grey60", fillcolor="#E0E0E0", style="filled",tooltip=" "];
  Node1 -> Node5 [color="steelblue1",style="solid"];
  Node5 [label="hash_map_wrap.hh",height=0.2,width=0.4,color="grey40", fillcolor="white", style="filled",URL="$hash__map__wrap_8hh.html",tooltip=" "];
  Node5 -> Node2 [color="steelblue1",style="solid"];
  Node5 -> Node6 [color="steelblue1",style="solid"];
  Node6 [label="unordered_set",height=0.2,width=0.4,color="grey60", fillcolor="#E0E0E0", style="filled",tooltip=" "];
  Node5 -> Node7 [color="steelblue1",style="solid"];
  Node7 [label="unordered_map",height=0.2,width=0.4,color="grey60", fillcolor="#E0E0E0", style="filled",tooltip=" "];
  Node5 -> Node4 [color="steelblue1",style="solid"];
  Node5 -> Node8 [color="steelblue1",style="solid"];
  Node8 [label="vector",height=0.2,width=0.4,color="grey60", fillcolor="#E0E0E0", style="filled",tooltip=" "];
  Node5 -> Node9 [color="steelblue1",style="solid"];
  Node9 [label="utility",height=0.2,width=0.4,color="grey60", fillcolor="#E0E0E0", style="filled",tooltip=" "];
  Node5 -> Node10 [color="steelblue1",style="solid"];
  Node10 [label="limits",height=0.2,width=0.4,color="grey60", fillcolor="#E0E0E0", style="filled",tooltip=" "];
  Node5 -> Node11 [color="steelblue1",style="solid"];
  Node11 [label="graph_adjacency.hh",height=0.2,width=0.4,color="grey40", fillcolor="white", style="filled",URL="$graph__adjacency_8hh.html",tooltip=" "];
  Node11 -> Node8 [color="steelblue1",style="solid"];
  Node11 -> Node12 [color="steelblue1",style="solid"];
  Node12 [label="deque",height=0.2,width=0.4,color="grey60", fillcolor="#E0E0E0", style="filled",tooltip=" "];
  Node11 -> Node9 [color="steelblue1",style="solid"];
  Node11 -> Node13 [color="steelblue1",style="solid"];
  Node13 [label="boost/iterator.hpp",height=0.2,width=0.4,color="grey60", fillcolor="#E0E0E0", style="filled",tooltip=" "];
  Node11 -> Node14 [color="steelblue1",style="solid"];
  Node14 [label="boost/graph/graph_traits.hpp",height=0.2,width=0.4,color="grey60", fillcolor="#E0E0E0", style="filled",tooltip=" "];
  Node11 -> Node15 [color="steelblue1",style="solid"];
  Node15 [label="boost/range/irange.hpp",height=0.2,width=0.4,color="grey60", fillcolor="#E0E0E0", style="filled",tooltip=" "];
  Node11 -> Node16 [color="steelblue1",style="solid"];
  Node16 [label="boost/property_map\l/property_map.hpp",height=0.2,width=0.4,color="grey60", fillcolor="#E0E0E0", style="filled",tooltip=" "];
  Node11 -> Node17 [color="steelblue1",style="solid"];
  Node17 [label="boost/graph/properties.hpp",height=0.2,width=0.4,color="grey60", fillcolor="#E0E0E0", style="filled",tooltip=" "];
  Node11 -> Node18 [color="steelblue1",style="solid"];
  Node18 [label="boost/iterator/iterator\l_facade.hpp",height=0.2,width=0.4,color="grey60", fillcolor="#E0E0E0", style="filled",tooltip=" "];
  Node11 -> Node19 [color="steelblue1",style="solid"];
  Node19 [label="transform_iterator.hh",height=0.2,width=0.4,color="red", fillcolor="#FFF0F0", style="filled",URL="$transform__iterator_8hh.html",tooltip=" "];
  Node19 -> Node20 [color="steelblue1",style="solid"];
  Node20 [label="iterator",height=0.2,width=0.4,color="grey60", fillcolor="#E0E0E0", style="filled",tooltip=" "];
  Node1 -> Node22 [color="steelblue1",style="solid"];
  Node22 [label="parallel_rng.hh",height=0.2,width=0.4,color="grey40", fillcolor="white", style="filled",URL="$parallel__rng_8hh.html",tooltip=" "];
  Node22 -> Node2 [color="steelblue1",style="solid"];
  Node22 -> Node8 [color="steelblue1",style="solid"];
  Node1 -> Node23 [color="steelblue1",style="solid"];
  Node23 [label="graph_python_interface.hh",height=0.2,width=0.4,color="grey40", fillcolor="white", style="filled",URL="$graph__python__interface_8hh.html",tooltip=" "];
  Node23 -> Node24 [color="steelblue1",style="solid"];
  Node24 [label="boost/python.hpp",height=0.2,width=0.4,color="grey60", fillcolor="#E0E0E0", style="filled",tooltip=" "];
  Node23 -> Node14 [color="steelblue1",style="solid"];
  Node23 -> Node25 [color="steelblue1",style="solid"];
  Node25 [label="boost/property_map\l/dynamic_property_map.hpp",height=0.2,width=0.4,color="grey60", fillcolor="#E0E0E0", style="filled",tooltip=" "];
  Node23 -> Node26 [color="steelblue1",style="solid"];
  Node26 [label="graph.hh",height=0.2,width=0.4,color="grey40", fillcolor="white", style="filled",URL="$graph_8hh.html",tooltip=" "];
  Node26 -> Node2 [color="steelblue1",style="solid"];
  Node26 -> Node20 [color="steelblue1",style="solid"];
  Node26 -> Node27 [color="steelblue1",style="solid"];
  Node27 [label="boost/python/object.hpp",height=0.2,width=0.4,color="grey60", fillcolor="#E0E0E0", style="filled",tooltip=" "];
  Node26 -> Node28 [color="steelblue1",style="solid"];
  Node28 [label="boost/python/list.hpp",height=0.2,width=0.4,color="grey60", fillcolor="#E0E0E0", style="filled",tooltip=" "];
  Node26 -> Node29 [color="steelblue1",style="solid"];
  Node29 [label="boost/python/tuple.hpp",height=0.2,width=0.4,color="grey60", fillcolor="#E0E0E0", style="filled",tooltip=" "];
  Node26 -> Node30 [color="steelblue1",style="solid"];
  Node30 [label="boost/any.hpp",height=0.2,width=0.4,color="grey60", fillcolor="#E0E0E0", style="filled",tooltip=" "];
  Node26 -> Node11 [color="steelblue1",style="solid"];
  Node26 -> Node14 [color="steelblue1",style="solid"];
  Node26 -> Node31 [color="steelblue1",style="solid"];
  Node31 [label="fast_vector_property\l_map.hh",height=0.2,width=0.4,color="red", fillcolor="#FFF0F0", style="filled",URL="$fast__vector__property__map_8hh.html",tooltip=" "];
  Node31 -> Node16 [color="steelblue1",style="solid"];
  Node31 -> Node8 [color="steelblue1",style="solid"];
  Node26 -> Node33 [color="steelblue1",style="solid"];
  Node33 [label="boost/variant.hpp",height=0.2,width=0.4,color="grey60", fillcolor="#E0E0E0", style="filled",tooltip=" "];
  Node26 -> Node34 [color="steelblue1",style="solid"];
  Node34 [label="boost/mpl/bool_fwd.hpp",height=0.2,width=0.4,color="grey60", fillcolor="#E0E0E0", style="filled",tooltip=" "];
  Node26 -> Node35 [color="steelblue1",style="solid"];
  Node35 [label="graph_properties.hh",height=0.2,width=0.4,color="red", fillcolor="#FFF0F0", style="filled",URL="$graph__properties_8hh.html",tooltip=" "];
  Node35 -> Node8 [color="steelblue1",style="solid"];
  Node35 -> Node7 [color="steelblue1",style="solid"];
  Node35 -> Node27 [color="steelblue1",style="solid"];
  Node35 -> Node16 [color="steelblue1",style="solid"];
  Node35 -> Node31 [color="steelblue1",style="solid"];
  Node35 -> Node40 [color="steelblue1",style="solid"];
  Node40 [label="boost/mpl/vector.hpp",height=0.2,width=0.4,color="grey60", fillcolor="#E0E0E0", style="filled",tooltip=" "];
  Node23 -> Node46 [color="steelblue1",style="solid"];
  Node46 [label="graph_filtering.hh",height=0.2,width=0.4,color="grey40", fillcolor="white", style="filled",URL="$graph__filtering_8hh.html",tooltip=" "];
  Node46 -> Node26 [color="steelblue1",style="solid"];
  Node46 -> Node47 [color="steelblue1",style="solid"];
  Node47 [label="boost/version.hpp",height=0.2,width=0.4,color="grey60", fillcolor="#E0E0E0", style="filled",tooltip=" "];
  Node46 -> Node14 [color="steelblue1",style="solid"];
  Node46 -> Node40 [color="steelblue1",style="solid"];
  Node46 -> Node48 [color="steelblue1",style="solid"];
  Node48 [label="boost/mpl/if.hpp",height=0.2,width=0.4,color="grey60", fillcolor="#E0E0E0", style="filled",tooltip=" "];
  Node46 -> Node49 [color="steelblue1",style="solid"];
  Node49 [label="boost/mpl/logical.hpp",height=0.2,width=0.4,color="grey60", fillcolor="#E0E0E0", style="filled",tooltip=" "];
  Node46 -> Node50 [color="steelblue1",style="solid"];
  Node50 [label="boost/mpl/back_inserter.hpp",height=0.2,width=0.4,color="grey60", fillcolor="#E0E0E0", style="filled",tooltip=" "];
  Node46 -> Node51 [color="steelblue1",style="solid"];
  Node51 [label="boost/mpl/assert.hpp",height=0.2,width=0.4,color="grey60", fillcolor="#E0E0E0", style="filled",tooltip=" "];
  Node46 -> Node52 [color="steelblue1",style="solid"];
  Node52 [label="graph_adaptor.hh",height=0.2,width=0.4,color="red", fillcolor="#FFF0F0", style="filled",URL="$graph__adaptor_8hh.html",tooltip=" "];
  Node52 -> Node14 [color="steelblue1",style="solid"];
  Node52 -> Node19 [color="steelblue1",style="solid"];
  Node46 -> Node55 [color="steelblue1",style="solid"];
  Node55 [label="graph_filtered.hh",height=0.2,width=0.4,color="red", fillcolor="#FFF0F0", style="filled",URL="$graph__filtered_8hh.html",tooltip=" "];
  Node55 -> Node14 [color="steelblue1",style="solid"];
  Node55 -> Node17 [color="steelblue1",style="solid"];
  Node46 -> Node59 [color="steelblue1",style="solid"];
  Node59 [label="graph_reverse.hh",height=0.2,width=0.4,color="red", fillcolor="#FFF0F0", style="filled",URL="$graph__reverse_8hh.html",tooltip=" "];
  Node59 -> Node9 [color="steelblue1",style="solid"];
  Node46 -> Node60 [color="steelblue1",style="solid"];
  Node60 [label="graph_util.hh",height=0.2,width=0.4,color="red", fillcolor="#FFF0F0", style="filled",URL="$graph__util_8hh.html",tooltip=" "];
  Node60 -> Node40 [color="steelblue1",style="solid"];
  Node60 -> Node14 [color="steelblue1",style="solid"];
  Node60 -> Node65 [color="steelblue1",style="solid"];
  Node65 [label="graph_selectors.hh",height=0.2,width=0.4,color="red", fillcolor="#FFF0F0", style="filled",URL="$graph__selectors_8hh.html",tooltip=" "];
  Node65 -> Node9 [color="steelblue1",style="solid"];
  Node65 -> Node66 [color="steelblue1",style="solid"];
  Node66 [label="type_traits",height=0.2,width=0.4,color="grey60", fillcolor="#E0E0E0", style="filled",tooltip=" "];
  Node65 -> Node40 [color="steelblue1",style="solid"];
  Node65 -> Node51 [color="steelblue1",style="solid"];
  Node65 -> Node50 [color="steelblue1",style="solid"];
  Node65 -> Node30 [color="steelblue1",style="solid"];
  Node65 -> Node14 [color="steelblue1",style="solid"];
  Node65 -> Node35 [color="steelblue1",style="solid"];
  Node65 -> Node26 [color="steelblue1",style="solid"];
  Node60 -> Node55 [color="steelblue1",style="solid"];
  Node46 -> Node70 [color="steelblue1",style="solid"];
  Node70 [label="mpl_nested_loop.hh",height=0.2,width=0.4,color="grey40", fillcolor="white", style="filled",URL="$mpl__nested__loop_8hh.html",tooltip=" "];
  Node46 -> Node66 [color="steelblue1",style="solid"];
  Node23 -> Node65 [color="steelblue1",style="solid"];
  Node23 -> Node71 [color="steelblue1",style="solid"];
  Node71 [label="demangle.hh",height=0.2,width=0.4,color="red", fillcolor="#FFF0F0", style="filled",URL="$demangle_8hh.html",tooltip=" "];
  Node23 -> Node72 [color="steelblue1",style="solid"];
  Node72 [label="numpy_bind.hh",height=0.2,width=0.4,color="red", fillcolor="#FFF0F0", style="filled",URL="$numpy__bind_8hh.html",tooltip=" "];
  Node72 -> Node8 [color="steelblue1",style="solid"];
  Node72 -> Node24 [color="steelblue1",style="solid"];
  Node72 -> Node71 [color="steelblue1",style="solid"];
  Node23 -> Node77 [color="steelblue1",style="solid"];
  Node77 [label="coroutine.hh",height=0.2,width=0.4,color="grey40", fillcolor="white", style="filled",URL="$coroutine_8hh.html",tooltip=" "];
  Node77 -> Node2 [color="steelblue1",style="solid"];
  Node77 -> Node47 [color="steelblue1",style="solid"];
}
