digraph "graph_tool::hasattr"
{
 // LATEX_PDF_SIZE
  bgcolor="transparent";
  edge [fontname=Helvetica,fontsize=10,labelfontname=Helvetica,labelfontsize=10];
  node [fontname=Helvetica,fontsize=10,shape=box,height=0.2,width=0.4];
  rankdir="RL";
  Node1 [label="graph_tool::hasattr",height=0.2,width=0.4,color="gray40", fillcolor="grey60", style="filled", fontcolor="black",tooltip=" "];
  Node1 -> Node2 [dir="back",color="steelblue1",style="solid"];
  Node2 [label="graph_tool::CIsingBaseState\l::set_params",height=0.2,width=0.4,color="grey40", fillcolor="white", style="filled",URL="$classgraph__tool_1_1CIsingBaseState.html#a936524ac5c13a809e2598c8e9a9571b2",tooltip=" "];
  Node1 -> Node3 [dir="back",color="steelblue1",style="solid"];
  Node3 [label="graph_tool::IsingBaseState\l::set_params",height=0.2,width=0.4,color="grey40", fillcolor="white", style="filled",URL="$classgraph__tool_1_1IsingBaseState.html#afb2da5e3cb1758a4820dee638f872ea9",tooltip=" "];
}
