digraph "graph_tool::get_diff_sync"
{
 // LATEX_PDF_SIZE
  bgcolor="transparent";
  edge [fontname=Helvetica,fontsize=10,labelfontname=Helvetica,labelfontsize=10];
  node [fontname=Helvetica,fontsize=10,shape=box,height=0.2,width=0.4];
  rankdir="LR";
  Node1 [label="graph_tool::get_diff_sync",height=0.2,width=0.4,color="gray40", fillcolor="grey60", style="filled", fontcolor="black",tooltip=" "];
  Node1 -> Node2 [color="steelblue1",style="solid"];
  Node2 [label="parallel_rng::get",height=0.2,width=0.4,color="grey40", fillcolor="white", style="filled",URL="$classparallel__rng.html#afd65996eec87d3e27d8146841fbf8201",tooltip=" "];
  Node1 -> Node3 [color="steelblue1",style="solid"];
  Node3 [label="parallel_rng::init",height=0.2,width=0.4,color="grey40", fillcolor="white", style="filled",URL="$classparallel__rng.html#a10056b36b2f7ef44e1238fb15e01e39d",tooltip=" "];
  Node1 -> Node4 [color="steelblue1",style="solid"];
  Node4 [label="graph_tool::parallel\l_vertex_loop",height=0.2,width=0.4,color="grey40", fillcolor="white", style="filled",URL="$namespacegraph__tool.html#ab935ff202da78b1e2356069ec687b630",tooltip=" "];
}
