digraph "graph_tool::adjacent_vertices_range"
{
 // LATEX_PDF_SIZE
  bgcolor="transparent";
  edge [fontname=Helvetica,fontsize=10,labelfontname=Helvetica,labelfontsize=10];
  node [fontname=Helvetica,fontsize=10,shape=box,height=0.2,width=0.4];
  rankdir="RL";
  Node1 [label="graph_tool::adjacent\l_vertices_range",height=0.2,width=0.4,color="gray40", fillcolor="grey60", style="filled", fontcolor="black",tooltip=" "];
  Node1 -> Node2 [dir="back",color="steelblue1",style="solid"];
  Node2 [label="graph_tool::common\l_neighbors",height=0.2,width=0.4,color="grey40", fillcolor="white", style="filled",URL="$namespacegraph__tool.html#a3237733653314f53b9f1f395ac471871",tooltip=" "];
  Node2 -> Node3 [dir="back",color="steelblue1",style="solid"];
  Node3 [label="graph_tool::dice",height=0.2,width=0.4,color="grey40", fillcolor="white", style="filled",URL="$namespacegraph__tool.html#a0c07383c155c8f88e33ada4c8b02211c",tooltip=" "];
  Node3 -> Node4 [dir="back",color="steelblue1",style="solid"];
  Node4 [label="get_dice_similarity",height=0.2,width=0.4,color="grey40", fillcolor="white", style="filled",URL="$graph__vertex__similarity_8cc.html#a8e9b10b3dc4070fe2de75812fd975c64",tooltip=" "];
  Node4 -> Node5 [dir="back",color="steelblue1",style="solid"];
  Node5 [label="export_vertex_similarity",height=0.2,width=0.4,color="grey40", fillcolor="white", style="filled",URL="$graph__vertex__similarity_8cc.html#a5e751f814852d735e1880957e98356d4",tooltip=" "];
  Node5 -> Node6 [dir="back",color="steelblue1",style="solid"];
  Node6 [label="BOOST_PYTHON_MODULE",height=0.2,width=0.4,color="grey40", fillcolor="white", style="filled",URL="$graph__topology_8cc.html#a1f8068349bfdbea49136a3447b5239ac",tooltip=" "];
  Node3 -> Node7 [dir="back",color="steelblue1",style="solid"];
  Node7 [label="get_dice_similarity\l_pairs",height=0.2,width=0.4,color="grey40", fillcolor="white", style="filled",URL="$graph__vertex__similarity_8cc.html#a55c947017379646939475e07b8639849",tooltip=" "];
  Node7 -> Node5 [dir="back",color="steelblue1",style="solid"];
  Node2 -> Node8 [dir="back",color="steelblue1",style="solid"];
  Node8 [label="graph_tool::hub_promoted",height=0.2,width=0.4,color="grey40", fillcolor="white", style="filled",URL="$namespacegraph__tool.html#a8beb8547328ec925e3baf25a5724179a",tooltip=" "];
  Node8 -> Node9 [dir="back",color="steelblue1",style="solid"];
  Node9 [label="get_hub_promoted_similarity",height=0.2,width=0.4,color="grey40", fillcolor="white", style="filled",URL="$graph__vertex__similarity_8cc.html#aa45f0d331a97ea2b36f65ec7884a7792",tooltip=" "];
  Node9 -> Node5 [dir="back",color="steelblue1",style="solid"];
  Node8 -> Node10 [dir="back",color="steelblue1",style="solid"];
  Node10 [label="get_hub_promoted_similarity\l_pairs",height=0.2,width=0.4,color="grey40", fillcolor="white", style="filled",URL="$graph__vertex__similarity_8cc.html#a619d92f77c6b65f60b936b7f8c6f00c3",tooltip=" "];
  Node10 -> Node5 [dir="back",color="steelblue1",style="solid"];
  Node2 -> Node11 [dir="back",color="steelblue1",style="solid"];
  Node11 [label="graph_tool::hub_suppressed",height=0.2,width=0.4,color="grey40", fillcolor="white", style="filled",URL="$namespacegraph__tool.html#a712b2d7553397ae5da787e2e9569c9ac",tooltip=" "];
  Node11 -> Node12 [dir="back",color="steelblue1",style="solid"];
  Node12 [label="get_hub_suppressed\l_similarity",height=0.2,width=0.4,color="grey40", fillcolor="white", style="filled",URL="$graph__vertex__similarity_8cc.html#a771f5a3334dd880ff7685b22e3f0a44b",tooltip=" "];
  Node12 -> Node5 [dir="back",color="steelblue1",style="solid"];
  Node11 -> Node13 [dir="back",color="steelblue1",style="solid"];
  Node13 [label="get_hub_suppressed\l_similarity_pairs",height=0.2,width=0.4,color="grey40", fillcolor="white", style="filled",URL="$graph__vertex__similarity_8cc.html#a58ce4b4b049c9a180fb0b8b9814eda6b",tooltip=" "];
  Node13 -> Node5 [dir="back",color="steelblue1",style="solid"];
  Node2 -> Node14 [dir="back",color="steelblue1",style="solid"];
  Node14 [label="graph_tool::leicht\l_holme_newman",height=0.2,width=0.4,color="grey40", fillcolor="white", style="filled",URL="$namespacegraph__tool.html#aed0b9e4ad99e69974c8d354e1b92618a",tooltip=" "];
  Node14 -> Node15 [dir="back",color="steelblue1",style="solid"];
  Node15 [label="get_leicht_holme_newman\l_similarity",height=0.2,width=0.4,color="grey40", fillcolor="white", style="filled",URL="$graph__vertex__similarity_8cc.html#a1e5d6e8d53ef60ddcd7ea10567cef68d",tooltip=" "];
  Node15 -> Node5 [dir="back",color="steelblue1",style="solid"];
  Node14 -> Node16 [dir="back",color="steelblue1",style="solid"];
  Node16 [label="get_leicht_holme_newman\l_similarity_pairs",height=0.2,width=0.4,color="grey40", fillcolor="white", style="filled",URL="$graph__vertex__similarity_8cc.html#affd9071bc77911c156ae57bfadefdd57",tooltip=" "];
  Node16 -> Node5 [dir="back",color="steelblue1",style="solid"];
  Node2 -> Node17 [dir="back",color="steelblue1",style="solid"];
  Node17 [label="graph_tool::salton",height=0.2,width=0.4,color="grey40", fillcolor="white", style="filled",URL="$namespacegraph__tool.html#ae685e366798c2a86864fefc3cd6f1fc6",tooltip=" "];
  Node17 -> Node18 [dir="back",color="steelblue1",style="solid"];
  Node18 [label="get_salton_similarity",height=0.2,width=0.4,color="grey40", fillcolor="white", style="filled",URL="$graph__vertex__similarity_8cc.html#a9150ce1ae5cf6000b92e9c95193f0fe0",tooltip=" "];
  Node18 -> Node5 [dir="back",color="steelblue1",style="solid"];
  Node17 -> Node19 [dir="back",color="steelblue1",style="solid"];
  Node19 [label="get_salton_similarity\l_pairs",height=0.2,width=0.4,color="grey40", fillcolor="white", style="filled",URL="$graph__vertex__similarity_8cc.html#a4cfecaac1b9d4a0fb510e3204fcbdf10",tooltip=" "];
  Node19 -> Node5 [dir="back",color="steelblue1",style="solid"];
  Node1 -> Node20 [dir="back",color="steelblue1",style="solid"];
  Node20 [label="graph_tool::get_triangles",height=0.2,width=0.4,color="grey40", fillcolor="white", style="filled",URL="$namespacegraph__tool.html#a6f11addf165c6be7fb3caa5dbec28608",tooltip=" "];
  Node20 -> Node21 [dir="back",color="steelblue1",style="solid"];
  Node21 [label="graph_tool::get_global\l_clustering",height=0.2,width=0.4,color="grey40", fillcolor="white", style="filled",URL="$namespacegraph__tool.html#ab3fb786dad98f486e45604f15109c5ba",tooltip=" "];
  Node21 -> Node22 [dir="back",color="steelblue1",style="solid"];
  Node22 [label="global_clustering",height=0.2,width=0.4,color="grey40", fillcolor="white", style="filled",URL="$graph__clustering_8cc.html#a5cf5cd0de433f761cbda2d91200a6cd0",tooltip=" "];
  Node22 -> Node23 [dir="back",color="steelblue1",style="solid"];
  Node23 [label="BOOST_PYTHON_MODULE",height=0.2,width=0.4,color="grey40", fillcolor="white", style="filled",URL="$graph__clustering_8cc.html#a1cf92c6cd92c580daf0e493b802a8beb",tooltip=" "];
  Node20 -> Node24 [dir="back",color="steelblue1",style="solid"];
  Node24 [label="graph_tool::set_clustering\l_to_property",height=0.2,width=0.4,color="grey40", fillcolor="white", style="filled",URL="$namespacegraph__tool.html#acd9367dc37e93d861b06c451613f12be",tooltip=" "];
  Node24 -> Node25 [dir="back",color="steelblue1",style="solid"];
  Node25 [label="local_clustering",height=0.2,width=0.4,color="grey40", fillcolor="white", style="filled",URL="$graph__clustering_8cc.html#a97ed05ee2d20249f042061dee49d50ae",tooltip=" "];
  Node25 -> Node23 [dir="back",color="steelblue1",style="solid"];
  Node1 -> Node26 [dir="back",color="steelblue1",style="solid"];
  Node26 [label="graph_tool::inv_log\l_weighted",height=0.2,width=0.4,color="grey40", fillcolor="white", style="filled",URL="$namespacegraph__tool.html#a1af3889fad37f3bbf277239181eeaad4",tooltip=" "];
  Node26 -> Node27 [dir="back",color="steelblue1",style="solid"];
  Node27 [label="get_inv_log_weight\l_similarity",height=0.2,width=0.4,color="grey40", fillcolor="white", style="filled",URL="$graph__vertex__similarity_8cc.html#ad1484796189c26eb493811dae5ac6b04",tooltip=" "];
  Node27 -> Node5 [dir="back",color="steelblue1",style="solid"];
  Node26 -> Node28 [dir="back",color="steelblue1",style="solid"];
  Node28 [label="get_inv_log_weight\l_similarity_pairs",height=0.2,width=0.4,color="grey40", fillcolor="white", style="filled",URL="$graph__vertex__similarity_8cc.html#aa10beccac4c2ef5a07c81e76c056f5e0",tooltip=" "];
  Node28 -> Node5 [dir="back",color="steelblue1",style="solid"];
  Node1 -> Node29 [dir="back",color="steelblue1",style="solid"];
  Node29 [label="graph_tool::jaccard",height=0.2,width=0.4,color="grey40", fillcolor="white", style="filled",URL="$namespacegraph__tool.html#a00673e87383309429b2a677378c053a9",tooltip=" "];
  Node29 -> Node30 [dir="back",color="steelblue1",style="solid"];
  Node30 [label="get_jaccard_similarity",height=0.2,width=0.4,color="grey40", fillcolor="white", style="filled",URL="$graph__vertex__similarity_8cc.html#aa4598ec9d4327d31ea8d548649c02a90",tooltip=" "];
  Node30 -> Node5 [dir="back",color="steelblue1",style="solid"];
  Node29 -> Node31 [dir="back",color="steelblue1",style="solid"];
  Node31 [label="get_jaccard_similarity\l_pairs",height=0.2,width=0.4,color="grey40", fillcolor="white", style="filled",URL="$graph__vertex__similarity_8cc.html#aa2dce63ea0d4ea17ba83012f1578856b",tooltip=" "];
  Node31 -> Node5 [dir="back",color="steelblue1",style="solid"];
  Node1 -> Node32 [dir="back",color="steelblue1",style="solid"];
  Node32 [label="graph_tool::get_extended\l_clustering::operator()",height=0.2,width=0.4,color="grey40", fillcolor="white", style="filled",URL="$structgraph__tool_1_1get__extended__clustering.html#a4426af48478ef99856279d58572191c0",tooltip=" "];
  Node1 -> Node33 [dir="back",color="steelblue1",style="solid"];
  Node33 [label="do_maximal_vertex_set\l::operator()",height=0.2,width=0.4,color="grey40", fillcolor="white", style="filled",URL="$structdo__maximal__vertex__set.html#ae20053fc3d5f6c54ab474890aa4ca76c",tooltip=" "];
  Node1 -> Node34 [dir="back",color="steelblue1",style="solid"];
  Node34 [label="graph_tool::label_attractors\l::operator()",height=0.2,width=0.4,color="grey40", fillcolor="white", style="filled",URL="$structgraph__tool_1_1label__attractors.html#ad65a02d29ae8286fa829a1ccceab7c2f",tooltip=" "];
  Node1 -> Node35 [dir="back",color="steelblue1",style="solid"];
  Node35 [label="do_infect_vertex_property\l::operator()",height=0.2,width=0.4,color="grey40", fillcolor="white", style="filled",URL="$structdo__infect__vertex__property.html#a47a51d921c55a17af1119af354892a4b",tooltip=" "];
  Node1 -> Node36 [dir="back",color="steelblue1",style="solid"];
  Node36 [label="do_propagate_pos_mivs\l::operator()",height=0.2,width=0.4,color="grey40", fillcolor="white", style="filled",URL="$structdo__propagate__pos__mivs.html#ac260d2a8f6dbcfe78b53953c9762d00c",tooltip=" "];
  Node1 -> Node37 [dir="back",color="steelblue1",style="solid"];
  Node37 [label="do_avg_dist::operator()",height=0.2,width=0.4,color="grey40", fillcolor="white", style="filled",URL="$structdo__avg__dist.html#a619070849278108e4a754e1569fa1d3c",tooltip=" "];
  Node1 -> Node38 [dir="back",color="steelblue1",style="solid"];
  Node38 [label="graph_tool::r_allocation",height=0.2,width=0.4,color="grey40", fillcolor="white", style="filled",URL="$namespacegraph__tool.html#a06f2e3d94d7cb544e07fd7c7fd4a7dc1",tooltip=" "];
  Node38 -> Node39 [dir="back",color="steelblue1",style="solid"];
  Node39 [label="get_r_allocation_similarity",height=0.2,width=0.4,color="grey40", fillcolor="white", style="filled",URL="$graph__vertex__similarity_8cc.html#a563e48638ded83fdb38a8ffd735a587c",tooltip=" "];
  Node39 -> Node5 [dir="back",color="steelblue1",style="solid"];
  Node38 -> Node40 [dir="back",color="steelblue1",style="solid"];
  Node40 [label="get_r_allocation_similarity\l_pairs",height=0.2,width=0.4,color="grey40", fillcolor="white", style="filled",URL="$graph__vertex__similarity_8cc.html#afcebfdb7ebb44a8d188ab0286c54438d",tooltip=" "];
  Node40 -> Node5 [dir="back",color="steelblue1",style="solid"];
  Node1 -> Node41 [dir="back",color="steelblue1",style="solid"];
  Node41 [label="graph_tool::vertex\l_percolate",height=0.2,width=0.4,color="grey40", fillcolor="white", style="filled",URL="$namespacegraph__tool.html#ae8ba27565e85ac3a8edaa05e3f143262",tooltip=" "];
  Node41 -> Node42 [dir="back",color="steelblue1",style="solid"];
  Node42 [label="percolate_vertex",height=0.2,width=0.4,color="grey40", fillcolor="white", style="filled",URL="$graph__percolation_8cc.html#a41d0444e427f931517f061c0e8406303",tooltip=" "];
  Node42 -> Node43 [dir="back",color="steelblue1",style="solid"];
  Node43 [label="export_percolation",height=0.2,width=0.4,color="grey40", fillcolor="white", style="filled",URL="$graph__percolation_8cc.html#a338090c9c481e874bc70c06dd71ea61b",tooltip=" "];
  Node43 -> Node6 [dir="back",color="steelblue1",style="solid"];
}
