digraph "graph_tool::parallel_edge_loop"
{
 // LATEX_PDF_SIZE
  bgcolor="transparent";
  edge [fontname=Helvetica,fontsize=10,labelfontname=Helvetica,labelfontsize=10];
  node [fontname=Helvetica,fontsize=10,shape=box,height=0.2,width=0.4];
  rankdir="RL";
  Node1 [label="graph_tool::parallel\l_edge_loop",height=0.2,width=0.4,color="gray40", fillcolor="grey60", style="filled", fontcolor="black",tooltip=" "];
  Node1 -> Node2 [dir="back",color="steelblue1",style="solid"];
  Node2 [label="collect_edge_marginals",height=0.2,width=0.4,color="grey40", fillcolor="white", style="filled",URL="$graph__blockmodel__marginals_8cc.html#ad07162efd885cabe062a5500cd669365",tooltip=" "];
  Node2 -> Node3 [dir="back",color="steelblue1",style="solid"];
  Node3 [label="export_marginals",height=0.2,width=0.4,color="grey40", fillcolor="white", style="filled",URL="$graph__blockmodel__marginals_8cc.html#a0fc9688e8e2a7f8ea68819c56650d93f",tooltip=" "];
  Node3 -> Node4 [dir="back",color="steelblue1",style="solid"];
  Node4 [label="BOOST_PYTHON_MODULE",height=0.2,width=0.4,color="grey40", fillcolor="white", style="filled",URL="$graph__inference_8cc.html#aa52d8fe13d2a62317b6e603933a10b92",tooltip=" "];
  Node1 -> Node5 [dir="back",color="steelblue1",style="solid"];
  Node5 [label="graph_tool::inc_matmat",height=0.2,width=0.4,color="grey40", fillcolor="white", style="filled",URL="$namespacegraph__tool.html#a8590d8b89dd188f7b3eab59d8556be7e",tooltip=" "];
  Node5 -> Node6 [dir="back",color="steelblue1",style="solid"];
  Node6 [label="incidence_matmat",height=0.2,width=0.4,color="grey40", fillcolor="white", style="filled",URL="$graph__incidence_8cc.html#a7d6dea796cf06d9e10157e73ebc77873",tooltip=" "];
  Node6 -> Node7 [dir="back",color="steelblue1",style="solid"];
  Node7 [label="BOOST_PYTHON_MODULE",height=0.2,width=0.4,color="grey40", fillcolor="white", style="filled",URL="$graph__matrix_8cc.html#abb6ea6e9f62ad318205ada4be5efd62b",tooltip=" "];
  Node1 -> Node8 [dir="back",color="steelblue1",style="solid"];
  Node8 [label="graph_tool::inc_matvec",height=0.2,width=0.4,color="grey40", fillcolor="white", style="filled",URL="$namespacegraph__tool.html#aad094bc202128aba5518a39dda4bfe63",tooltip=" "];
  Node8 -> Node9 [dir="back",color="steelblue1",style="solid"];
  Node9 [label="incidence_matvec",height=0.2,width=0.4,color="grey40", fillcolor="white", style="filled",URL="$graph__incidence_8cc.html#a4eea1057ed976767e0f23540472f2b2a",tooltip=" "];
  Node9 -> Node7 [dir="back",color="steelblue1",style="solid"];
  Node1 -> Node10 [dir="back",color="steelblue1",style="solid"];
  Node10 [label="marginal_count_entropy",height=0.2,width=0.4,color="grey40", fillcolor="white", style="filled",URL="$graph__blockmodel__uncertain__marginal_8cc.html#a94e5ade176fccf3d16242e4d92835d70",tooltip=" "];
  Node10 -> Node11 [dir="back",color="steelblue1",style="solid"];
  Node11 [label="export_uncertain_state",height=0.2,width=0.4,color="grey40", fillcolor="white", style="filled",URL="$graph__blockmodel__uncertain_8cc.html#acfa6c36830a0a904dcbf017f82a07c40",tooltip=" "];
  Node11 -> Node4 [dir="back",color="steelblue1",style="solid"];
  Node1 -> Node12 [dir="back",color="steelblue1",style="solid"];
  Node12 [label="marginal_graph_sample",height=0.2,width=0.4,color="grey40", fillcolor="white", style="filled",URL="$graph__blockmodel__uncertain__marginal_8cc.html#a31e057eba3aac1825aa23b7bd3f4cb7f",tooltip=" "];
  Node12 -> Node11 [dir="back",color="steelblue1",style="solid"];
  Node1 -> Node13 [dir="back",color="steelblue1",style="solid"];
  Node13 [label="marginal_multigraph\l_sample",height=0.2,width=0.4,color="grey40", fillcolor="white", style="filled",URL="$graph__blockmodel__uncertain__marginal_8cc.html#a58be5f88881fd68217a1582b4438495c",tooltip=" "];
  Node13 -> Node11 [dir="back",color="steelblue1",style="solid"];
  Node1 -> Node14 [dir="back",color="steelblue1",style="solid"];
  Node14 [label="graph_tool::nbt_matmat",height=0.2,width=0.4,color="grey40", fillcolor="white", style="filled",URL="$namespacegraph__tool.html#a7fb7613ca780ad9b868c7b6a90fc1af4",tooltip=" "];
  Node1 -> Node15 [dir="back",color="steelblue1",style="solid"];
  Node15 [label="graph_tool::nbt_matvec",height=0.2,width=0.4,color="grey40", fillcolor="white", style="filled",URL="$namespacegraph__tool.html#ae6a654f4e5e81b624441a7439df6241f",tooltip=" "];
  Node1 -> Node16 [dir="back",color="steelblue1",style="solid"];
  Node16 [label="do_mark_edges::operator()",height=0.2,width=0.4,color="grey40", fillcolor="white", style="filled",URL="$structdo__mark__edges.html#a3bbbda71852bb4a35fe1bed4c367ce8e",tooltip=" "];
}
