digraph "graph_tool::add_count"
{
 // LATEX_PDF_SIZE
  bgcolor="transparent";
  edge [fontname=Helvetica,fontsize=10,labelfontname=Helvetica,labelfontsize=10];
  node [fontname=Helvetica,fontsize=10,shape=box,height=0.2,width=0.4];
  rankdir="RL";
  Node1 [label="graph_tool::add_count",height=0.2,width=0.4,color="gray40", fillcolor="grey60", style="filled", fontcolor="black",tooltip=" "];
  Node1 -> Node2 [dir="back",color="steelblue1",style="solid"];
  Node2 [label="graph_tool::ErdosRewireStrategy\l::ErdosRewireStrategy",height=0.2,width=0.4,color="grey40", fillcolor="white", style="filled",URL="$classgraph__tool_1_1ErdosRewireStrategy.html#a4b0bbf19d72b7a41a4666e9faf89be44",tooltip=" "];
  Node1 -> Node3 [dir="back",color="steelblue1",style="solid"];
  Node3 [label="graph_tool::ErdosRewireStrategy\l::operator()",height=0.2,width=0.4,color="grey40", fillcolor="white", style="filled",URL="$classgraph__tool_1_1ErdosRewireStrategy.html#a2b0b9706ff5fa1d64f48cb1be9d737a6",tooltip=" "];
  Node1 -> Node4 [dir="back",color="steelblue1",style="solid"];
  Node4 [label="graph_tool::RewireStrategy\lBase::operator()",height=0.2,width=0.4,color="grey40", fillcolor="white", style="filled",URL="$classgraph__tool_1_1RewireStrategyBase.html#a00860e11ac1a80662e94ea81b27ea8a8",tooltip=" "];
  Node1 -> Node5 [dir="back",color="steelblue1",style="solid"];
  Node5 [label="graph_tool::TradBlockRewire\lStrategy::operator()",height=0.2,width=0.4,color="grey40", fillcolor="white", style="filled",URL="$classgraph__tool_1_1TradBlockRewireStrategy.html#af24a17fd3cc42d011d755c64c77635ae",tooltip=" "];
  Node1 -> Node6 [dir="back",color="steelblue1",style="solid"];
  Node6 [label="graph_tool::RewireStrategy\lBase::RewireStrategyBase",height=0.2,width=0.4,color="grey40", fillcolor="white", style="filled",URL="$classgraph__tool_1_1RewireStrategyBase.html#a3ea720cf7371c1e56591592a337ee080",tooltip=" "];
  Node1 -> Node7 [dir="back",color="steelblue1",style="solid"];
  Node7 [label="graph_tool::TradBlockRewire\lStrategy::TradBlockRewireStrategy",height=0.2,width=0.4,color="grey40", fillcolor="white", style="filled",URL="$classgraph__tool_1_1TradBlockRewireStrategy.html#a40da0efa75effdcbd9aa53187f59803c",tooltip=" "];
}
