digraph "graph_tool::periodic"
{
 // LATEX_PDF_SIZE
  bgcolor="transparent";
  edge [fontname=Helvetica,fontsize=10,labelfontname=Helvetica,labelfontsize=10];
  node [fontname=Helvetica,fontsize=10,shape=box,height=0.2,width=0.4];
  rankdir="RL";
  Node1 [label="graph_tool::periodic",height=0.2,width=0.4,color="gray40", fillcolor="grey60", style="filled", fontcolor="black",tooltip=" "];
  Node1 -> Node2 [dir="back",color="steelblue1",style="solid"];
  Node2 [label="geometric",height=0.2,width=0.4,color="grey40", fillcolor="white", style="filled",URL="$graph__geometric_8cc.html#a2643001f2c46fdb0d2cd2da778afee4c",tooltip=" "];
  Node1 -> Node3 [dir="back",color="steelblue1",style="solid"];
  Node3 [label="graph_tool::get_box",height=0.2,width=0.4,color="grey40", fillcolor="white", style="filled",URL="$namespacegraph__tool.html#a8f29a5cab0cfc52bca0727de83155ef5",tooltip=" "];
  Node3 -> Node4 [dir="back",color="steelblue1",style="solid"];
  Node4 [label="graph_tool::get_geometric\l::operator()",height=0.2,width=0.4,color="grey40", fillcolor="white", style="filled",URL="$structgraph__tool_1_1get__geometric.html#a783a9873c15a3c73c299392a2b5c821c",tooltip=" "];
  Node1 -> Node5 [dir="back",color="steelblue1",style="solid"];
  Node5 [label="graph_tool::get_dist",height=0.2,width=0.4,color="grey40", fillcolor="white", style="filled",URL="$namespacegraph__tool.html#ae86c260a2804c5cb83265d56cc3a092e",tooltip=" "];
  Node5 -> Node4 [dir="back",color="steelblue1",style="solid"];
  Node1 -> Node6 [dir="back",color="steelblue1",style="solid"];
  Node6 [label="lattice",height=0.2,width=0.4,color="grey40", fillcolor="white", style="filled",URL="$graph__lattice_8cc.html#ae4c933767a80260f99ee671661c7335e",tooltip=" "];
  Node6 -> Node7 [dir="back",color="steelblue1",style="solid"];
  Node7 [label="BOOST_PYTHON_MODULE",height=0.2,width=0.4,color="grey40", fillcolor="white", style="filled",URL="$graph__generation_8cc.html#ad7bbbb1fc2ba89024c959696bbe3788a",tooltip=" "];
  Node1 -> Node4 [dir="back",color="steelblue1",style="solid"];
  Node1 -> Node8 [dir="back",color="steelblue1",style="solid"];
  Node8 [label="graph_tool::get_lattice\l::operator()",height=0.2,width=0.4,color="grey40", fillcolor="white", style="filled",URL="$structgraph__tool_1_1get__lattice.html#ac28e82b53ad615410c7ad5e0389c49f5",tooltip=" "];
  Node1 -> Node9 [dir="back",color="steelblue1",style="solid"];
  Node9 [label="triangulation",height=0.2,width=0.4,color="grey40", fillcolor="white", style="filled",URL="$graph__triangulation_8cc.html#acf6cb74ef81a83e6307e2e9679c2f93d",tooltip=" "];
  Node9 -> Node7 [dir="back",color="steelblue1",style="solid"];
}
