digraph "graph_tool::get_diff_sync"
{
 // LATEX_PDF_SIZE
  bgcolor="transparent";
  edge [fontname=Helvetica,fontsize=10,labelfontname=Helvetica,labelfontsize=10];
  node [fontname=Helvetica,fontsize=10,shape=box,height=0.2,width=0.4];
  rankdir="RL";
  Node1 [label="graph_tool::get_diff_sync",height=0.2,width=0.4,color="gray40", fillcolor="grey60", style="filled", fontcolor="black",tooltip=" "];
  Node1 -> Node2 [dir="back",color="steelblue1",style="solid"];
  Node2 [label="WrappedCState::get\l_diff_sync",height=0.2,width=0.4,color="grey40", fillcolor="white", style="filled",URL="$classWrappedCState.html#a6045ee94a807814e8cc370859939bdfa",tooltip=" "];
}
