digraph "graph_tool::vterm"
{
 // LATEX_PDF_SIZE
  bgcolor="transparent";
  edge [fontname=Helvetica,fontsize=10,labelfontname=Helvetica,labelfontsize=10];
  node [fontname=Helvetica,fontsize=10,shape=box,height=0.2,width=0.4];
  rankdir="LR";
  Node1 [label="graph_tool::vterm",height=0.2,width=0.4,color="gray40", fillcolor="grey60", style="filled", fontcolor="black",tooltip=" "];
  Node1 -> Node2 [color="steelblue1",style="solid"];
  Node2 [label="graph_tool::safelog_fast",height=0.2,width=0.4,color="grey40", fillcolor="white", style="filled",URL="$namespacegraph__tool.html#a79fcd257f84cbb496bcc1de77c0047d7",tooltip=" "];
  Node2 -> Node3 [color="steelblue1",style="solid"];
  Node3 [label="graph_tool::init_safelog",height=0.2,width=0.4,color="grey40", fillcolor="white", style="filled",URL="$namespacegraph__tool.html#a963421460fa76f55c786dff3f225ca7a",tooltip=" "];
  Node3 -> Node4 [color="steelblue1",style="solid"];
  Node4 [label="graph_tool::safelog",height=0.2,width=0.4,color="grey40", fillcolor="white", style="filled",URL="$namespacegraph__tool.html#a2775c645bfb6f1026c90168f54315c51",tooltip=" "];
  Node2 -> Node4 [color="steelblue1",style="solid"];
  Node1 -> Node5 [color="steelblue1",style="solid"];
  Node5 [label="graph_tool::xlogx_fast",height=0.2,width=0.4,color="grey40", fillcolor="white", style="filled",URL="$namespacegraph__tool.html#acd0efc0f2e935aea4becc57408917365",tooltip=" "];
  Node5 -> Node6 [color="steelblue1",style="solid"];
  Node6 [label="graph_tool::init_xlogx",height=0.2,width=0.4,color="grey40", fillcolor="white", style="filled",URL="$namespacegraph__tool.html#a59a115ed7fe0b83bad2cae1b4cc6bcdd",tooltip=" "];
  Node6 -> Node7 [color="steelblue1",style="solid"];
  Node7 [label="graph_tool::xlogx",height=0.2,width=0.4,color="grey40", fillcolor="white", style="filled",URL="$namespacegraph__tool.html#a9ed75f0f7d682110f07788df5dc472da",tooltip=" "];
  Node7 -> Node4 [color="steelblue1",style="solid"];
  Node5 -> Node7 [color="steelblue1",style="solid"];
}
