digraph "boost::all_neighbors"
{
 // LATEX_PDF_SIZE
  bgcolor="transparent";
  edge [fontname=Helvetica,fontsize=10,labelfontname=Helvetica,labelfontsize=10];
  node [fontname=Helvetica,fontsize=10,shape=box,height=0.2,width=0.4];
  rankdir="RL";
  Node1 [label="boost::all_neighbors",height=0.2,width=0.4,color="gray40", fillcolor="grey60", style="filled", fontcolor="black",tooltip=" "];
  Node1 -> Node2 [dir="back",color="steelblue1",style="solid"];
  Node2 [label="boost::all_neighbors",height=0.2,width=0.4,color="grey40", fillcolor="white", style="filled",URL="$namespaceboost.html#a24ab0ee1dc817721bd7ee05fb8e524a9",tooltip=" "];
  Node1 -> Node3 [dir="back",color="steelblue1",style="solid"];
  Node3 [label="graph_tool::all_neighbors\l_range",height=0.2,width=0.4,color="grey40", fillcolor="white", style="filled",URL="$namespacegraph__tool.html#aa4d33bbb39aed751342c05abb26c16a3",tooltip=" "];
  Node3 -> Node4 [dir="back",color="steelblue1",style="solid"];
  Node4 [label="graph_tool::gen_knn",height=0.2,width=0.4,color="grey40", fillcolor="white", style="filled",URL="$namespacegraph__tool.html#aedecff9ccc775204c28a9c0594253fba",tooltip=" "];
  Node3 -> Node5 [dir="back",color="steelblue1",style="solid"];
  Node5 [label="graph_tool::get_vertex_iter",height=0.2,width=0.4,color="grey40", fillcolor="white", style="filled",URL="$namespacegraph__tool.html#ae8cbd1c07a0fca8a7b59f2e94b4b0c2f",tooltip=" "];
  Node3 -> Node6 [dir="back",color="steelblue1",style="solid"];
  Node6 [label="graph_tool::get_vertex_list",height=0.2,width=0.4,color="grey40", fillcolor="white", style="filled",URL="$namespacegraph__tool.html#af01755df43badf7ae08d0c86cf4c9579",tooltip=" "];
  Node3 -> Node7 [dir="back",color="steelblue1",style="solid"];
  Node7 [label="graph_tool::kcore_decomposition",height=0.2,width=0.4,color="grey40", fillcolor="white", style="filled",URL="$namespacegraph__tool.html#af28be9306288baeab769b1032dc36f5b",tooltip=" "];
  Node7 -> Node8 [dir="back",color="steelblue1",style="solid"];
  Node8 [label="do_kcore_decomposition",height=0.2,width=0.4,color="grey40", fillcolor="white", style="filled",URL="$graph__kcore_8cc.html#aa5a964cfbf5ac57b0b66d558dad36d4b",tooltip=" "];
  Node8 -> Node9 [dir="back",color="steelblue1",style="solid"];
  Node9 [label="export_kcore",height=0.2,width=0.4,color="red", fillcolor="#FFF0F0", style="filled",URL="$graph__kcore_8cc.html#ac5c8d7e51d4bee0b78f86b5388163e98",tooltip=" "];
  Node1 -> Node11 [dir="back",color="steelblue1",style="solid"];
  Node11 [label="graph_tool::all_neighbors\l_iteratorS::get_neighbors",height=0.2,width=0.4,color="grey40", fillcolor="white", style="filled",URL="$structgraph__tool_1_1all__neighbors__iteratorS.html#a339767c037598f987c871ab99d0350b3",tooltip=" "];
  Node1 -> Node12 [dir="back",color="steelblue1",style="solid"];
  Node12 [label="boost::out_neighbors",height=0.2,width=0.4,color="grey40", fillcolor="white", style="filled",URL="$namespaceboost.html#a57f92469ea1bdd1e62a67f2bbd781fea",tooltip=" "];
  Node12 -> Node13 [dir="back",color="steelblue1",style="solid"];
  Node13 [label="boost::adjacent_vertices",height=0.2,width=0.4,color="grey40", fillcolor="white", style="filled",URL="$namespaceboost.html#a757a9023aa2aa9fa7276a93dd39a1f39",tooltip=" "];
  Node13 -> Node14 [dir="back",color="steelblue1",style="solid"];
  Node14 [label="graph_tool::adjacent\l_vertices_range",height=0.2,width=0.4,color="red", fillcolor="#FFF0F0", style="filled",URL="$namespacegraph__tool.html#a834411325b3ac833b07a43e28d4c27be",tooltip=" "];
  Node14 -> Node15 [dir="back",color="steelblue1",style="solid"];
  Node15 [label="graph_tool::common\l_neighbors",height=0.2,width=0.4,color="red", fillcolor="#FFF0F0", style="filled",URL="$namespacegraph__tool.html#a3237733653314f53b9f1f395ac471871",tooltip=" "];
  Node13 -> Node56 [dir="back",color="steelblue1",style="solid"];
  Node56 [label="graph_tool::out_degree\l_no_loops",height=0.2,width=0.4,color="grey40", fillcolor="white", style="filled",URL="$namespacegraph__tool.html#a5e370e1894ccd3a4e7d634fba2d887db",tooltip=" "];
  Node12 -> Node1 [dir="back",color="steelblue1",style="solid"];
  Node12 -> Node57 [dir="back",color="steelblue1",style="solid"];
  Node57 [label="graph_tool::out_neighbor\l_iteratorS::get_neighbors",height=0.2,width=0.4,color="grey40", fillcolor="white", style="filled",URL="$structgraph__tool_1_1out__neighbor__iteratorS.html#aac83d86f04793b7f174b8ff929169244",tooltip=" "];
  Node12 -> Node58 [dir="back",color="steelblue1",style="solid"];
  Node58 [label="boost::in_neighbors",height=0.2,width=0.4,color="grey40", fillcolor="white", style="filled",URL="$namespaceboost.html#a600e1202e47f39f5595e69ff2e5f31eb",tooltip=" "];
  Node58 -> Node59 [dir="back",color="steelblue1",style="solid"];
  Node59 [label="graph_tool::get_in\l_neighbors::get_neighbors",height=0.2,width=0.4,color="red", fillcolor="#FFF0F0", style="filled",URL="$structgraph__tool_1_1get__in__neighbors.html#a35c8dea193d47daf1c64057259a44d55",tooltip=" "];
  Node58 -> Node61 [dir="back",color="steelblue1",style="solid"];
  Node61 [label="graph_tool::in_neighbors\l_range",height=0.2,width=0.4,color="red", fillcolor="#FFF0F0", style="filled",URL="$namespacegraph__tool.html#a5e62ad2b3b111af5bebb47d60770c4e5",tooltip=" "];
  Node61 -> Node63 [dir="back",color="steelblue1",style="solid"];
  Node63 [label="graph_tool::BlockState\l::get_move_prob",height=0.2,width=0.4,color="red", fillcolor="#FFF0F0", style="filled",URL="$classgraph__tool_1_1BlockState.html#a32e43e7305c76921a27ad8dfc1550319",tooltip=" "];
  Node61 -> Node5 [dir="back",color="steelblue1",style="solid"];
  Node61 -> Node6 [dir="back",color="steelblue1",style="solid"];
  Node61 -> Node65 [dir="back",color="steelblue1",style="solid"];
  Node65 [label="graph_tool::BlockState\l::propagate_entries_dS",height=0.2,width=0.4,color="grey40", fillcolor="white", style="filled",URL="$classgraph__tool_1_1BlockState.html#af5f64ae568007ab37b5b06f092a93c74",tooltip=" "];
  Node58 -> Node66 [dir="back",color="steelblue1",style="solid"];
  Node66 [label="boost::out_neighbors",height=0.2,width=0.4,color="grey40", fillcolor="white", style="filled",URL="$namespaceboost.html#a2f07161e98f27cc51d57a08bf83235a4",tooltip=" "];
  Node58 -> Node67 [dir="back",color="steelblue1",style="solid"];
  Node67 [label="graph_tool::random\l_in_neighbor",height=0.2,width=0.4,color="grey40", fillcolor="white", style="filled",URL="$namespacegraph__tool.html#a7355dc70317807ae7b25dc8cc9ff5f02",tooltip=" "];
  Node67 -> Node68 [dir="back",color="steelblue1",style="solid"];
  Node68 [label="graph_tool::voter_state\l::update_node",height=0.2,width=0.4,color="grey40", fillcolor="white", style="filled",URL="$classgraph__tool_1_1voter__state.html#a36805d3d2230d1ceee90573444576bf9",tooltip=" "];
  Node67 -> Node69 [dir="back",color="steelblue1",style="solid"];
  Node69 [label="graph_tool::axelrod\l_state::update_node",height=0.2,width=0.4,color="grey40", fillcolor="white", style="filled",URL="$classgraph__tool_1_1axelrod__state.html#a23036e7694979305d9be3564580d6434",tooltip=" "];
  Node12 -> Node70 [dir="back",color="steelblue1",style="solid"];
  Node70 [label="graph_tool::out_neighbors\l_range",height=0.2,width=0.4,color="grey40", fillcolor="white", style="filled",URL="$namespacegraph__tool.html#a839ad7b0e6f54ea9e6b0f1bb55a7b19c",tooltip=" "];
  Node70 -> Node71 [dir="back",color="steelblue1",style="solid"];
  Node71 [label="graph_tool::collect\l_targets",height=0.2,width=0.4,color="grey40", fillcolor="white", style="filled",URL="$namespacegraph__tool.html#aae265ec94035a153be5ac1f29e73e71a",tooltip=" "];
  Node70 -> Node72 [dir="back",color="steelblue1",style="solid"];
  Node72 [label="graph_tool::ModularityState\l::get_move_prob",height=0.2,width=0.4,color="red", fillcolor="#FFF0F0", style="filled",URL="$classgraph__tool_1_1ModularityState.html#a05ef26d46b951d91c4c41721e499e07f",tooltip=" "];
  Node70 -> Node74 [dir="back",color="steelblue1",style="solid"];
  Node74 [label="graph_tool::NormCutState\l::get_move_prob",height=0.2,width=0.4,color="red", fillcolor="#FFF0F0", style="filled",URL="$classgraph__tool_1_1NormCutState.html#a08c2e971baa1a4b6d1db9df4947db92e",tooltip=" "];
  Node70 -> Node76 [dir="back",color="steelblue1",style="solid"];
  Node76 [label="graph_tool::PPState\l::get_move_prob",height=0.2,width=0.4,color="red", fillcolor="#FFF0F0", style="filled",URL="$classgraph__tool_1_1PPState.html#a8fac8c7ba1dba0bfc9021997ed8f1fad",tooltip=" "];
  Node70 -> Node63 [dir="back",color="steelblue1",style="solid"];
  Node70 -> Node5 [dir="back",color="steelblue1",style="solid"];
  Node70 -> Node6 [dir="back",color="steelblue1",style="solid"];
  Node70 -> Node78 [dir="back",color="steelblue1",style="solid"];
  Node78 [label="graph_tool::SI_state\l::infect",height=0.2,width=0.4,color="grey40", fillcolor="white", style="filled",URL="$classgraph__tool_1_1SI__state.html#a7eb7200d89aec6afa5a40c90fa1d33fe",tooltip=" "];
  Node70 -> Node79 [dir="back",color="steelblue1",style="solid"];
  Node79 [label="iter_mh",height=0.2,width=0.4,color="red", fillcolor="#FFF0F0", style="filled",URL="$graph__clique__decomposition_8hh.html#adcaebfee7a9237faf258e03298261ac8",tooltip=" "];
  Node70 -> Node83 [dir="back",color="steelblue1",style="solid"];
  Node83 [label="graph_tool::iter_out\l_neighbors",height=0.2,width=0.4,color="red", fillcolor="#FFF0F0", style="filled",URL="$namespacegraph__tool.html#a0170bd4f1f079cd46fac04341b41efe3",tooltip=" "];
  Node70 -> Node92 [dir="back",color="steelblue1",style="solid"];
  Node92 [label="graph_tool::max_cliques",height=0.2,width=0.4,color="red", fillcolor="#FFF0F0", style="filled",URL="$namespacegraph__tool.html#ad6ce8c8dac0985a9c9cc0a7218b236b6",tooltip=" "];
  Node70 -> Node95 [dir="back",color="steelblue1",style="solid"];
  Node95 [label="graph_tool::maximum\l_bipartite_weighted\l_perfect_matching",height=0.2,width=0.4,color="red", fillcolor="#FFF0F0", style="filled",URL="$namespacegraph__tool.html#a35462bc5ea627d1ee91177535c680038",tooltip=" "];
  Node70 -> Node65 [dir="back",color="steelblue1",style="solid"];
  Node70 -> Node117 [dir="back",color="steelblue1",style="solid"];
  Node117 [label="graph_tool::SIS_state\l::recover",height=0.2,width=0.4,color="grey40", fillcolor="white", style="filled",URL="$classgraph__tool_1_1SIS__state.html#a5d1739cbf53ca7b824f453556e263b9e",tooltip=" "];
  Node12 -> Node118 [dir="back",color="steelblue1",style="solid"];
  Node118 [label="graph_tool::random\l_out_neighbor",height=0.2,width=0.4,color="grey40", fillcolor="white", style="filled",URL="$namespacegraph__tool.html#a80f077d656819cee71107c09a7e1e855",tooltip=" "];
  Node118 -> Node68 [dir="back",color="steelblue1",style="solid"];
  Node118 -> Node69 [dir="back",color="steelblue1",style="solid"];
  Node12 -> Node119 [dir="back",color="steelblue1",style="solid"];
  Node119 [label="graph_tool::ModularityState\l::sample_block",height=0.2,width=0.4,color="grey40", fillcolor="white", style="filled",URL="$classgraph__tool_1_1ModularityState.html#a068da3da44cd1c510a7c2eac32e85d40",tooltip=" "];
  Node119 -> Node120 [dir="back",color="steelblue1",style="solid"];
  Node120 [label="graph_tool::ModularityState\l::sample_block_local",height=0.2,width=0.4,color="grey40", fillcolor="white", style="filled",URL="$classgraph__tool_1_1ModularityState.html#a7a37c5309a60809239529933cdf6da82",tooltip=" "];
  Node12 -> Node121 [dir="back",color="steelblue1",style="solid"];
  Node121 [label="graph_tool::NormCutState\l::sample_block",height=0.2,width=0.4,color="grey40", fillcolor="white", style="filled",URL="$classgraph__tool_1_1NormCutState.html#a74780cc29d9073bccb9a5d5646733dfd",tooltip=" "];
  Node121 -> Node122 [dir="back",color="steelblue1",style="solid"];
  Node122 [label="graph_tool::NormCutState\l::sample_block_local",height=0.2,width=0.4,color="grey40", fillcolor="white", style="filled",URL="$classgraph__tool_1_1NormCutState.html#aab13c804f3c6136aaa32a4d806266bff",tooltip=" "];
  Node12 -> Node123 [dir="back",color="steelblue1",style="solid"];
  Node123 [label="graph_tool::PPState\l::sample_block",height=0.2,width=0.4,color="grey40", fillcolor="white", style="filled",URL="$classgraph__tool_1_1PPState.html#afac4e360b2c5ff6c475ff5113c808c9f",tooltip=" "];
  Node123 -> Node124 [dir="back",color="steelblue1",style="solid"];
  Node124 [label="graph_tool::PPState\l::sample_block_local",height=0.2,width=0.4,color="grey40", fillcolor="white", style="filled",URL="$classgraph__tool_1_1PPState.html#af0bc3f5207fe55b6dcbcd5ef0e1d4a7c",tooltip=" "];
  Node1 -> Node125 [dir="back",color="steelblue1",style="solid"];
  Node125 [label="graph_tool::random\l_neighbor",height=0.2,width=0.4,color="grey40", fillcolor="white", style="filled",URL="$namespacegraph__tool.html#a211580326cc5f6a3a01d147b4c3348d0",tooltip=" "];
  Node125 -> Node126 [dir="back",color="steelblue1",style="solid"];
  Node126 [label="export_sbm_state",height=0.2,width=0.4,color="grey40", fillcolor="white", style="filled",URL="$graph__blockmodel__imp2_8cc.html#adfb4d41828564c48243d74c0205a2ece",tooltip=" "];
  Node126 -> Node127 [dir="back",color="steelblue1",style="solid"];
  Node127 [label="export_blockmodel_state",height=0.2,width=0.4,color="red", fillcolor="#FFF0F0", style="filled",URL="$graph__blockmodel_8cc.html#a88b179d586d9690c11cb130f099aa21f",tooltip=" "];
  Node125 -> Node128 [dir="back",color="steelblue1",style="solid"];
  Node128 [label="graph_tool::BlockState\l::random_neighbor",height=0.2,width=0.4,color="grey40", fillcolor="white", style="filled",URL="$classgraph__tool_1_1BlockState.html#a76242294c31cf9617485233a760c310d",tooltip=" "];
  Node125 -> Node129 [dir="back",color="steelblue1",style="solid"];
  Node129 [label="graph_tool::BlockState\l::sample_block",height=0.2,width=0.4,color="grey40", fillcolor="white", style="filled",URL="$classgraph__tool_1_1BlockState.html#a1b246187f8f5e9fe2e456c78ebd2329b",tooltip=" "];
  Node125 -> Node130 [dir="back",color="steelblue1",style="solid"];
  Node130 [label="graph_tool::BlockState\l::sample_block_local",height=0.2,width=0.4,color="grey40", fillcolor="white", style="filled",URL="$classgraph__tool_1_1BlockState.html#aaf0fab1c6d7826b91b45a3ea79ea9478",tooltip=" "];
  Node125 -> Node131 [dir="back",color="steelblue1",style="solid"];
  Node131 [label="graph_tool::OverlapBlock\lState::sample_block_local",height=0.2,width=0.4,color="grey40", fillcolor="white", style="filled",URL="$classgraph__tool_1_1OverlapBlockState.html#aa41fc7650522adedf4774efbe572aa89",tooltip=" "];
}
