digraph "graph_tool::get_vertex"
{
 // LATEX_PDF_SIZE
  bgcolor="transparent";
  edge [fontname=Helvetica,fontsize=10,labelfontname=Helvetica,labelfontsize=10];
  node [fontname=Helvetica,fontsize=10,shape=box,height=0.2,width=0.4];
  rankdir="RL";
  Node1 [label="graph_tool::get_vertex",height=0.2,width=0.4,color="gray40", fillcolor="grey60", style="filled", fontcolor="black",tooltip=" "];
  Node1 -> Node2 [dir="back",color="steelblue1",style="solid"];
  Node2 [label="graph_tool::add_edge\l_list_hash::dispatch",height=0.2,width=0.4,color="grey40", fillcolor="white", style="filled",URL="$structgraph__tool_1_1add__edge__list__hash.html#aa63178cbfdc0b116200a749116746351",tooltip=" "];
  Node2 -> Node3 [dir="back",color="steelblue1",style="solid"];
  Node3 [label="graph_tool::add_edge\l_list_hash::operator()",height=0.2,width=0.4,color="grey40", fillcolor="white", style="filled",URL="$structgraph__tool_1_1add__edge__list__hash.html#a7eb32b483b452b31140732b164548b29",tooltip=" "];
  Node1 -> Node4 [dir="back",color="steelblue1",style="solid"];
  Node4 [label="export_python_interface",height=0.2,width=0.4,color="grey40", fillcolor="white", style="filled",URL="$graph__python__interface_8cc.html#a1498ae5369c94819aa210b0c3c4020ee",tooltip=" "];
  Node4 -> Node5 [dir="back",color="steelblue1",style="solid"];
  Node5 [label="BOOST_PYTHON_MODULE",height=0.2,width=0.4,color="grey40", fillcolor="white", style="filled",URL="$graph__bind_8cc.html#a1cfcb8b2d5d1515e7dd3ffd8e831dae6",tooltip=" "];
  Node1 -> Node6 [dir="back",color="steelblue1",style="solid"];
  Node6 [label="graph_tool::add_edge\l_list_hash::numpy_dispatch",height=0.2,width=0.4,color="grey40", fillcolor="white", style="filled",URL="$structgraph__tool_1_1add__edge__list__hash.html#a1657316e1d9a7835fc6e5ebc955d91ef",tooltip=" "];
  Node6 -> Node3 [dir="back",color="steelblue1",style="solid"];
}
