digraph "graph_tool::exhaustive_sweep"
{
 // LATEX_PDF_SIZE
  bgcolor="transparent";
  edge [fontname=Helvetica,fontsize=10,labelfontname=Helvetica,labelfontsize=10];
  node [fontname=Helvetica,fontsize=10,shape=box,height=0.2,width=0.4];
  rankdir="RL";
  Node1 [label="graph_tool::exhaustive\l_sweep",height=0.2,width=0.4,color="gray40", fillcolor="grey60", style="filled", fontcolor="black",tooltip=" "];
  Node1 -> Node2 [dir="back",color="steelblue1",style="solid"];
  Node2 [label="do_exhaustive_dens",height=0.2,width=0.4,color="grey40", fillcolor="white", style="filled",URL="$graph__blockmodel__exhaustive_8cc.html#a7ff6da0329401273d01a1d3a35918786",tooltip=" "];
  Node2 -> Node3 [dir="back",color="steelblue1",style="solid"];
  Node3 [label="export_blockmodel_exhaustive",height=0.2,width=0.4,color="grey40", fillcolor="white", style="filled",URL="$graph__blockmodel__exhaustive_8cc.html#acf9b5adafe8fbd28ff77586797739661",tooltip=" "];
  Node3 -> Node4 [dir="back",color="steelblue1",style="solid"];
  Node4 [label="BOOST_PYTHON_MODULE",height=0.2,width=0.4,color="grey40", fillcolor="white", style="filled",URL="$graph__inference_8cc.html#aa52d8fe13d2a62317b6e603933a10b92",tooltip=" "];
  Node1 -> Node5 [dir="back",color="steelblue1",style="solid"];
  Node5 [label="do_exhaustive_layered_dens",height=0.2,width=0.4,color="grey40", fillcolor="white", style="filled",URL="$graph__blockmodel__layers__exhaustive_8cc.html#ad6cd569d6da5cc527f2c530835e20019",tooltip=" "];
  Node5 -> Node6 [dir="back",color="steelblue1",style="solid"];
  Node6 [label="export_layered_blockmodel\l_exhaustive",height=0.2,width=0.4,color="grey40", fillcolor="white", style="filled",URL="$graph__blockmodel__layers__exhaustive_8cc.html#ad83c2af58723e233d28f1451bc827555",tooltip=" "];
  Node6 -> Node4 [dir="back",color="steelblue1",style="solid"];
  Node1 -> Node7 [dir="back",color="steelblue1",style="solid"];
  Node7 [label="do_exhaustive_layered\l_overlap_dens",height=0.2,width=0.4,color="grey40", fillcolor="white", style="filled",URL="$graph__blockmodel__layers__overlap__exhaustive_8cc.html#a02e08825ab1b7e5fb40e11719f5e301a",tooltip=" "];
  Node7 -> Node8 [dir="back",color="steelblue1",style="solid"];
  Node8 [label="export_layered_overlap\l_blockmodel_exhaustive",height=0.2,width=0.4,color="grey40", fillcolor="white", style="filled",URL="$graph__blockmodel__layers__overlap__exhaustive_8cc.html#a8833ebd33c7b9a86a2d6eea8ac1ae475",tooltip=" "];
  Node8 -> Node4 [dir="back",color="steelblue1",style="solid"];
  Node1 -> Node9 [dir="back",color="steelblue1",style="solid"];
  Node9 [label="do_exhaustive_layered\l_overlap_sweep_iter",height=0.2,width=0.4,color="grey40", fillcolor="white", style="filled",URL="$graph__blockmodel__layers__overlap__exhaustive_8cc.html#a5c4095e536687cee421078ef087dee8b",tooltip=" "];
  Node9 -> Node8 [dir="back",color="steelblue1",style="solid"];
  Node1 -> Node10 [dir="back",color="steelblue1",style="solid"];
  Node10 [label="do_exhaustive_layered\l_sweep_iter",height=0.2,width=0.4,color="grey40", fillcolor="white", style="filled",URL="$graph__blockmodel__layers__exhaustive_8cc.html#a2363037a0bdab38e34add431576e6597",tooltip=" "];
  Node10 -> Node6 [dir="back",color="steelblue1",style="solid"];
  Node1 -> Node11 [dir="back",color="steelblue1",style="solid"];
  Node11 [label="do_exhaustive_overlap_dens",height=0.2,width=0.4,color="grey40", fillcolor="white", style="filled",URL="$graph__blockmodel__overlap__exhaustive_8cc.html#ac151a1631c2934d35e0e8db36e28e066",tooltip=" "];
  Node11 -> Node12 [dir="back",color="steelblue1",style="solid"];
  Node12 [label="export_overlap_blockmodel\l_exhaustive",height=0.2,width=0.4,color="grey40", fillcolor="white", style="filled",URL="$graph__blockmodel__overlap__exhaustive_8cc.html#a7117fbe9e3ecdfcc20f06e1d3aa18397",tooltip=" "];
  Node12 -> Node4 [dir="back",color="steelblue1",style="solid"];
  Node1 -> Node13 [dir="back",color="steelblue1",style="solid"];
  Node13 [label="do_exhaustive_overlap\l_sweep_iter",height=0.2,width=0.4,color="grey40", fillcolor="white", style="filled",URL="$graph__blockmodel__overlap__exhaustive_8cc.html#a15cce5191731eec7154a67dd26eeb9dd",tooltip=" "];
  Node13 -> Node12 [dir="back",color="steelblue1",style="solid"];
  Node1 -> Node14 [dir="back",color="steelblue1",style="solid"];
  Node14 [label="do_exhaustive_sweep_iter",height=0.2,width=0.4,color="grey40", fillcolor="white", style="filled",URL="$graph__blockmodel__exhaustive_8cc.html#a5602cc636468d66e9f2c8133aece94d0",tooltip=" "];
  Node14 -> Node3 [dir="back",color="steelblue1",style="solid"];
  Node1 -> Node15 [dir="back",color="steelblue1",style="solid"];
  Node15 [label="GEN_DISPATCH",height=0.2,width=0.4,color="grey40", fillcolor="white", style="filled",URL="$graph__blockmodel__exhaustive_8cc.html#aa74210d9562ff910f48c7969765b64b4",tooltip=" "];
}
