digraph "graph_tool::out_neighbors_range"
{
 // LATEX_PDF_SIZE
  bgcolor="transparent";
  edge [fontname=Helvetica,fontsize=10,labelfontname=Helvetica,labelfontsize=10];
  node [fontname=Helvetica,fontsize=10,shape=box,height=0.2,width=0.4];
  rankdir="RL";
  Node1 [label="graph_tool::out_neighbors\l_range",height=0.2,width=0.4,color="gray40", fillcolor="grey60", style="filled", fontcolor="black",tooltip=" "];
  Node1 -> Node2 [dir="back",color="steelblue1",style="solid"];
  Node2 [label="graph_tool::collect\l_targets",height=0.2,width=0.4,color="grey40", fillcolor="white", style="filled",URL="$namespacegraph__tool.html#aae265ec94035a153be5ac1f29e73e71a",tooltip=" "];
  Node1 -> Node3 [dir="back",color="steelblue1",style="solid"];
  Node3 [label="graph_tool::ModularityState\l::get_move_prob",height=0.2,width=0.4,color="grey40", fillcolor="white", style="filled",URL="$classgraph__tool_1_1ModularityState.html#a05ef26d46b951d91c4c41721e499e07f",tooltip=" "];
  Node3 -> Node4 [dir="back",color="steelblue1",style="solid"];
  Node4 [label="graph_tool::ModularityState\l::get_move_prob",height=0.2,width=0.4,color="grey40", fillcolor="white", style="filled",URL="$classgraph__tool_1_1ModularityState.html#a6d9f053ec3a7f69c563f10a240dd359a",tooltip=" "];
  Node1 -> Node5 [dir="back",color="steelblue1",style="solid"];
  Node5 [label="graph_tool::NormCutState\l::get_move_prob",height=0.2,width=0.4,color="grey40", fillcolor="white", style="filled",URL="$classgraph__tool_1_1NormCutState.html#a08c2e971baa1a4b6d1db9df4947db92e",tooltip=" "];
  Node5 -> Node6 [dir="back",color="steelblue1",style="solid"];
  Node6 [label="graph_tool::NormCutState\l::get_move_prob",height=0.2,width=0.4,color="grey40", fillcolor="white", style="filled",URL="$classgraph__tool_1_1NormCutState.html#aff79029d5542153b37ab80f86277db99",tooltip=" "];
  Node1 -> Node7 [dir="back",color="steelblue1",style="solid"];
  Node7 [label="graph_tool::PPState\l::get_move_prob",height=0.2,width=0.4,color="grey40", fillcolor="white", style="filled",URL="$classgraph__tool_1_1PPState.html#a8fac8c7ba1dba0bfc9021997ed8f1fad",tooltip=" "];
  Node7 -> Node8 [dir="back",color="steelblue1",style="solid"];
  Node8 [label="graph_tool::PPState\l::get_move_prob",height=0.2,width=0.4,color="grey40", fillcolor="white", style="filled",URL="$classgraph__tool_1_1PPState.html#a6c79e18b379abde6443192e14a2ee000",tooltip=" "];
  Node1 -> Node9 [dir="back",color="steelblue1",style="solid"];
  Node9 [label="graph_tool::BlockState\l::get_move_prob",height=0.2,width=0.4,color="grey40", fillcolor="white", style="filled",URL="$classgraph__tool_1_1BlockState.html#a32e43e7305c76921a27ad8dfc1550319",tooltip=" "];
  Node9 -> Node10 [dir="back",color="steelblue1",style="solid"];
  Node10 [label="graph_tool::BlockState\l::get_move_prob",height=0.2,width=0.4,color="grey40", fillcolor="white", style="filled",URL="$classgraph__tool_1_1BlockState.html#a3b362fab0c64d7510c4c7a47dced8a96",tooltip=" "];
  Node1 -> Node11 [dir="back",color="steelblue1",style="solid"];
  Node11 [label="graph_tool::get_vertex_iter",height=0.2,width=0.4,color="grey40", fillcolor="white", style="filled",URL="$namespacegraph__tool.html#ae8cbd1c07a0fca8a7b59f2e94b4b0c2f",tooltip=" "];
  Node1 -> Node12 [dir="back",color="steelblue1",style="solid"];
  Node12 [label="graph_tool::get_vertex_list",height=0.2,width=0.4,color="grey40", fillcolor="white", style="filled",URL="$namespacegraph__tool.html#af01755df43badf7ae08d0c86cf4c9579",tooltip=" "];
  Node1 -> Node13 [dir="back",color="steelblue1",style="solid"];
  Node13 [label="graph_tool::SI_state\l::infect",height=0.2,width=0.4,color="grey40", fillcolor="white", style="filled",URL="$classgraph__tool_1_1SI__state.html#a7eb7200d89aec6afa5a40c90fa1d33fe",tooltip=" "];
  Node1 -> Node14 [dir="back",color="steelblue1",style="solid"];
  Node14 [label="iter_mh",height=0.2,width=0.4,color="grey40", fillcolor="white", style="filled",URL="$graph__clique__decomposition_8hh.html#adcaebfee7a9237faf258e03298261ac8",tooltip=" "];
  Node14 -> Node15 [dir="back",color="steelblue1",style="solid"];
  Node15 [label="clique_iter_mh",height=0.2,width=0.4,color="grey40", fillcolor="white", style="filled",URL="$graph__clique__decomposition_8cc.html#a1af4a63328857a7ee6801f259bcd2d91",tooltip=" "];
  Node15 -> Node16 [dir="back",color="steelblue1",style="solid"];
  Node16 [label="export_clique_decomposition",height=0.2,width=0.4,color="grey40", fillcolor="white", style="filled",URL="$graph__clique__decomposition_8cc.html#acfb849ce4892b1aac3fee5b1cc7577b4",tooltip=" "];
  Node16 -> Node17 [dir="back",color="steelblue1",style="solid"];
  Node17 [label="BOOST_PYTHON_MODULE",height=0.2,width=0.4,color="grey40", fillcolor="white", style="filled",URL="$graph__inference_8cc.html#aa52d8fe13d2a62317b6e603933a10b92",tooltip=" "];
  Node1 -> Node18 [dir="back",color="steelblue1",style="solid"];
  Node18 [label="graph_tool::iter_out\l_neighbors",height=0.2,width=0.4,color="grey40", fillcolor="white", style="filled",URL="$namespacegraph__tool.html#a0170bd4f1f079cd46fac04341b41efe3",tooltip=" "];
  Node18 -> Node19 [dir="back",color="steelblue1",style="solid"];
  Node19 [label="graph_tool::LatentClosure\l::LatentClosureState::check",height=0.2,width=0.4,color="grey40", fillcolor="white", style="filled",URL="$classgraph__tool_1_1LatentClosure_1_1LatentClosureState.html#ad843e4fcf12eb55d82259bdfb556224a",tooltip=" "];
  Node18 -> Node20 [dir="back",color="steelblue1",style="solid"];
  Node20 [label="graph_tool::LatentClosure\l::LatentClosureState::get_m",height=0.2,width=0.4,color="grey40", fillcolor="white", style="filled",URL="$classgraph__tool_1_1LatentClosure_1_1LatentClosureState.html#a88cf28e88e6054c6ac4b681f57a0a51b",tooltip=" "];
  Node20 -> Node19 [dir="back",color="steelblue1",style="solid"];
  Node20 -> Node21 [dir="back",color="steelblue1",style="solid"];
  Node21 [label="graph_tool::LatentClosure\l::LatentClosureState::internal\l_move_proposal",height=0.2,width=0.4,color="grey40", fillcolor="white", style="filled",URL="$classgraph__tool_1_1LatentClosure_1_1LatentClosureState.html#ac3676a2cf60df1c2ab748074cfadbd9b",tooltip=" "];
  Node20 -> Node22 [dir="back",color="steelblue1",style="solid"];
  Node22 [label="graph_tool::LatentClosure\l::LatentClosureState::LatentClosureState",height=0.2,width=0.4,color="grey40", fillcolor="white", style="filled",URL="$classgraph__tool_1_1LatentClosure_1_1LatentClosureState.html#a00890a66ca68621d1d579f923e4f45c9",tooltip=" "];
  Node20 -> Node23 [dir="back",color="steelblue1",style="solid"];
  Node23 [label="graph_tool::LatentClosure\l::LatentClosureState::modify_edge_a",height=0.2,width=0.4,color="grey40", fillcolor="white", style="filled",URL="$classgraph__tool_1_1LatentClosure_1_1LatentClosureState.html#a1a02df3b96f485f6aea807afd7f5b30f",tooltip=" "];
  Node20 -> Node24 [dir="back",color="steelblue1",style="solid"];
  Node24 [label="graph_tool::LatentClosure\l::LatentClosureState::modify\l_edge_a_dS",height=0.2,width=0.4,color="grey40", fillcolor="white", style="filled",URL="$classgraph__tool_1_1LatentClosure_1_1LatentClosureState.html#aa9d80adb18cd30751b1a04ecfa33eb64",tooltip=" "];
  Node20 -> Node25 [dir="back",color="steelblue1",style="solid"];
  Node25 [label="graph_tool::LatentClosure\l::LatentClosureState::modify_edge_g",height=0.2,width=0.4,color="grey40", fillcolor="white", style="filled",URL="$classgraph__tool_1_1LatentClosure_1_1LatentClosureState.html#a9faa5aeb149c088a31dc3395c3b066d0",tooltip=" "];
  Node20 -> Node26 [dir="back",color="steelblue1",style="solid"];
  Node26 [label="graph_tool::LatentClosure\l::LatentClosureState::modify\l_edge_g_dS",height=0.2,width=0.4,color="grey40", fillcolor="white", style="filled",URL="$classgraph__tool_1_1LatentClosure_1_1LatentClosureState.html#a9eceee6157c91bcce5829014172d25b2",tooltip=" "];
  Node18 -> Node22 [dir="back",color="steelblue1",style="solid"];
  Node18 -> Node23 [dir="back",color="steelblue1",style="solid"];
  Node18 -> Node24 [dir="back",color="steelblue1",style="solid"];
  Node1 -> Node27 [dir="back",color="steelblue1",style="solid"];
  Node27 [label="graph_tool::max_cliques",height=0.2,width=0.4,color="grey40", fillcolor="white", style="filled",URL="$namespacegraph__tool.html#ad6ce8c8dac0985a9c9cc0a7218b236b6",tooltip=" "];
  Node27 -> Node28 [dir="back",color="steelblue1",style="solid"];
  Node28 [label="get_max_cliques",height=0.2,width=0.4,color="grey40", fillcolor="white", style="filled",URL="$graph__maximal__cliques_8cc.html#a57276f3c5f45afbd6e8fce53b8dd8277",tooltip=" "];
  Node28 -> Node29 [dir="back",color="steelblue1",style="solid"];
  Node29 [label="export_max_cliques",height=0.2,width=0.4,color="grey40", fillcolor="white", style="filled",URL="$graph__maximal__cliques_8cc.html#a6baf4fafabbeffd824e76492179533e4",tooltip=" "];
  Node29 -> Node30 [dir="back",color="steelblue1",style="solid"];
  Node30 [label="BOOST_PYTHON_MODULE",height=0.2,width=0.4,color="grey40", fillcolor="white", style="filled",URL="$graph__topology_8cc.html#a1f8068349bfdbea49136a3447b5239ac",tooltip=" "];
  Node1 -> Node31 [dir="back",color="steelblue1",style="solid"];
  Node31 [label="graph_tool::maximum\l_bipartite_weighted\l_perfect_matching",height=0.2,width=0.4,color="grey40", fillcolor="white", style="filled",URL="$namespacegraph__tool.html#a35462bc5ea627d1ee91177535c680038",tooltip=" "];
  Node31 -> Node32 [dir="back",color="steelblue1",style="solid"];
  Node32 [label="graph_tool::maximum\l_bipartite_weighted\l_imperfect_matching",height=0.2,width=0.4,color="grey40", fillcolor="white", style="filled",URL="$namespacegraph__tool.html#a0c7a350aa83d4a65efed62a2db888884",tooltip=" "];
  Node32 -> Node33 [dir="back",color="steelblue1",style="solid"];
  Node33 [label="graph_tool::maximum\l_bipartite_weighted\l_matching",height=0.2,width=0.4,color="grey40", fillcolor="white", style="filled",URL="$namespacegraph__tool.html#adecc3b94387297164c5746bfbb1ff4ca",tooltip=" "];
  Node33 -> Node34 [dir="back",color="steelblue1",style="solid"];
  Node34 [label="graph_tool::PartitionMode\lState::align_mode",height=0.2,width=0.4,color="grey40", fillcolor="white", style="filled",URL="$classgraph__tool_1_1PartitionModeState.html#ab2c18cdd114f17fb2453246ca1153f55",tooltip=" "];
  Node34 -> Node35 [dir="back",color="steelblue1",style="solid"];
  Node35 [label="export_partition_mode",height=0.2,width=0.4,color="grey40", fillcolor="white", style="filled",URL="$graph__partition__mode_8cc.html#a5d5ff6a7a64cf2a1c328796ed057c478",tooltip=" "];
  Node35 -> Node17 [dir="back",color="steelblue1",style="solid"];
  Node33 -> Node36 [dir="back",color="steelblue1",style="solid"];
  Node36 [label="get_max_bip_weighted\l_matching",height=0.2,width=0.4,color="grey40", fillcolor="white", style="filled",URL="$graph__matching_8cc.html#aac3d6e99fcd196c42365ced9337ab997",tooltip=" "];
  Node36 -> Node37 [dir="back",color="steelblue1",style="solid"];
  Node37 [label="export_matching",height=0.2,width=0.4,color="grey40", fillcolor="white", style="filled",URL="$graph__matching_8cc.html#a2e2a5590c4db61727ff8b14fedf27f5a",tooltip=" "];
  Node37 -> Node30 [dir="back",color="steelblue1",style="solid"];
  Node33 -> Node38 [dir="back",color="steelblue1",style="solid"];
  Node38 [label="graph_tool::partition\l_align_labels",height=0.2,width=0.4,color="grey40", fillcolor="white", style="filled",URL="$namespacegraph__tool.html#af77d906003ccb5ae226b3a5cce40486a",tooltip=" "];
  Node38 -> Node35 [dir="back",color="steelblue1",style="solid"];
  Node38 -> Node39 [dir="back",color="steelblue1",style="solid"];
  Node39 [label="graph_tool::nested\l_partition_align_labels",height=0.2,width=0.4,color="red", fillcolor="#FFF0F0", style="filled",URL="$namespacegraph__tool.html#a04c3cbf7fbb0902c501b1cda62e185bf",tooltip=" "];
  Node39 -> Node35 [dir="back",color="steelblue1",style="solid"];
  Node38 -> Node41 [dir="back",color="steelblue1",style="solid"];
  Node41 [label="graph_tool::partition\l_overlap_center",height=0.2,width=0.4,color="grey40", fillcolor="white", style="filled",URL="$namespacegraph__tool.html#a8be77613ee98975fa50682ad57b26ec5",tooltip=" "];
  Node41 -> Node35 [dir="back",color="steelblue1",style="solid"];
  Node33 -> Node42 [dir="back",color="steelblue1",style="solid"];
  Node42 [label="graph_tool::partition\l_overlap",height=0.2,width=0.4,color="grey40", fillcolor="white", style="filled",URL="$namespacegraph__tool.html#aec361e4f422207e564910d58891ec693",tooltip=" "];
  Node42 -> Node35 [dir="back",color="steelblue1",style="solid"];
  Node33 -> Node43 [dir="back",color="steelblue1",style="solid"];
  Node43 [label="graph_tool::ModeClusterState\l::relabel_mode",height=0.2,width=0.4,color="grey40", fillcolor="white", style="filled",URL="$classgraph__tool_1_1ModeClusterState.html#a437a09b4faf9a0d2def6883affee9244",tooltip=" "];
  Node43 -> Node43 [dir="back",color="steelblue1",style="solid"];
  Node43 -> Node44 [dir="back",color="steelblue1",style="solid"];
  Node44 [label="graph_tool::ModeClusterState\l::relabel_modes",height=0.2,width=0.4,color="grey40", fillcolor="white", style="filled",URL="$classgraph__tool_1_1ModeClusterState.html#a06176f21320005a4d0dca279999ab81c",tooltip=" "];
  Node33 -> Node45 [dir="back",color="steelblue1",style="solid"];
  Node45 [label="graph_tool::PartitionMode\lState::relabel_partition",height=0.2,width=0.4,color="grey40", fillcolor="white", style="filled",URL="$classgraph__tool_1_1PartitionModeState.html#a1c10cee70c308acb670d04e275c9db6d",tooltip=" "];
  Node45 -> Node46 [dir="back",color="steelblue1",style="solid"];
  Node46 [label="graph_tool::PartitionMode\lState::add_partition",height=0.2,width=0.4,color="grey40", fillcolor="white", style="filled",URL="$classgraph__tool_1_1PartitionModeState.html#afe42ac0a084a1f2fb9293b5962107d49",tooltip=" "];
  Node45 -> Node35 [dir="back",color="steelblue1",style="solid"];
  Node45 -> Node47 [dir="back",color="steelblue1",style="solid"];
  Node47 [label="graph_tool::PartitionMode\lState::virtual_change_partition",height=0.2,width=0.4,color="grey40", fillcolor="white", style="filled",URL="$classgraph__tool_1_1PartitionModeState.html#a9a176ace6f2ac1fce21a0b6adbf83f8f",tooltip=" "];
  Node33 -> Node48 [dir="back",color="steelblue1",style="solid"];
  Node48 [label="graph_tool::Multilevel\l::relabel_rs",height=0.2,width=0.4,color="red", fillcolor="#FFF0F0", style="filled",URL="$structgraph__tool_1_1Multilevel.html#a7967251ea77bb868c18e680633016018",tooltip=" "];
  Node48 -> Node49 [dir="back",color="steelblue1",style="solid"];
  Node49 [label="graph_tool::Multilevel\l::gibbs_sweep",height=0.2,width=0.4,color="grey40", fillcolor="white", style="filled",URL="$structgraph__tool_1_1Multilevel.html#ac15abbb6e44eb62fd06e44b609e0112e",tooltip=" "];
  Node1 -> Node53 [dir="back",color="steelblue1",style="solid"];
  Node53 [label="graph_tool::BlockState\l::propagate_entries_dS",height=0.2,width=0.4,color="grey40", fillcolor="white", style="filled",URL="$classgraph__tool_1_1BlockState.html#af5f64ae568007ab37b5b06f092a93c74",tooltip=" "];
  Node1 -> Node54 [dir="back",color="steelblue1",style="solid"];
  Node54 [label="graph_tool::SIS_state\l::recover",height=0.2,width=0.4,color="grey40", fillcolor="white", style="filled",URL="$classgraph__tool_1_1SIS__state.html#a5d1739cbf53ca7b824f453556e263b9e",tooltip=" "];
}
