digraph "graph_tool::move_entries"
{
 // LATEX_PDF_SIZE
  bgcolor="transparent";
  edge [fontname=Helvetica,fontsize=10,labelfontname=Helvetica,labelfontsize=10];
  node [fontname=Helvetica,fontsize=10,shape=box,height=0.2,width=0.4];
  rankdir="RL";
  Node1 [label="graph_tool::move_entries",height=0.2,width=0.4,color="gray40", fillcolor="grey60", style="filled", fontcolor="black",tooltip=" "];
  Node1 -> Node2 [dir="back",color="steelblue1",style="solid"];
  Node2 [label="graph_tool::OverlapBlock\lState::get_move_entries",height=0.2,width=0.4,color="grey40", fillcolor="white", style="filled",URL="$classgraph__tool_1_1OverlapBlockState.html#af086cb914cf6c759c4b1758cbb192e9c",tooltip=" "];
  Node2 -> Node3 [dir="back",color="steelblue1",style="solid"];
  Node3 [label="graph_tool::OverlapBlock\lState::modify_vertex",height=0.2,width=0.4,color="grey40", fillcolor="white", style="filled",URL="$classgraph__tool_1_1OverlapBlockState.html#ad4b2399977ffe4e462b706fa42de098f",tooltip=" "];
  Node2 -> Node4 [dir="back",color="steelblue1",style="solid"];
  Node4 [label="graph_tool::OverlapBlock\lState::virtual_move",height=0.2,width=0.4,color="grey40", fillcolor="white", style="filled",URL="$classgraph__tool_1_1OverlapBlockState.html#a65d2b51183a3ffbcd9cfcc924a846d01",tooltip=" "];
  Node4 -> Node5 [dir="back",color="steelblue1",style="solid"];
  Node5 [label="graph_tool::OverlapBlock\lState::virtual_move",height=0.2,width=0.4,color="grey40", fillcolor="white", style="filled",URL="$classgraph__tool_1_1OverlapBlockState.html#adaf6c45629747fb4035bb7ce8787d8a3",tooltip=" "];
  Node1 -> Node6 [dir="back",color="steelblue1",style="solid"];
  Node6 [label="graph_tool::BlockState\l::get_move_entries",height=0.2,width=0.4,color="grey40", fillcolor="white", style="filled",URL="$classgraph__tool_1_1BlockState.html#aeb871f6e9db9e25a0f1e4d75464f5ffd",tooltip=" "];
  Node6 -> Node7 [dir="back",color="steelblue1",style="solid"];
  Node7 [label="graph_tool::BlockState\l::get_move_entries",height=0.2,width=0.4,color="grey40", fillcolor="white", style="filled",URL="$classgraph__tool_1_1BlockState.html#a0fce585b0daadafc7f1724f56c978648",tooltip=" "];
  Node6 -> Node8 [dir="back",color="steelblue1",style="solid"];
  Node8 [label="graph_tool::BlockState\l::get_move_prob",height=0.2,width=0.4,color="grey40", fillcolor="white", style="filled",URL="$classgraph__tool_1_1BlockState.html#af71b45549a16d0182625a2975592a8ad",tooltip=" "];
  Node6 -> Node9 [dir="back",color="steelblue1",style="solid"];
  Node9 [label="graph_tool::BlockState\l::modify_vertex",height=0.2,width=0.4,color="grey40", fillcolor="white", style="filled",URL="$classgraph__tool_1_1BlockState.html#a791816a532ef510d7b3a0bae26088b42",tooltip=" "];
  Node6 -> Node10 [dir="back",color="steelblue1",style="solid"];
  Node10 [label="graph_tool::BlockState\l::move_vertex",height=0.2,width=0.4,color="grey40", fillcolor="white", style="filled",URL="$classgraph__tool_1_1BlockState.html#a7f90ab5729180fe379abc912a407a515",tooltip=" "];
  Node10 -> Node11 [dir="back",color="steelblue1",style="solid"];
  Node11 [label="graph_tool::BlockState\l::move_vertex",height=0.2,width=0.4,color="grey40", fillcolor="white", style="filled",URL="$classgraph__tool_1_1BlockState.html#adc2aaf33b2c5950801d94b1f57fe28dc",tooltip=" "];
  Node10 -> Node12 [dir="back",color="steelblue1",style="solid"];
  Node12 [label="graph_tool::BlockState\l::move_vertices",height=0.2,width=0.4,color="grey40", fillcolor="white", style="filled",URL="$classgraph__tool_1_1BlockState.html#abc051468cdd761a2d81a0767296cdb75",tooltip=" "];
  Node12 -> Node13 [dir="back",color="steelblue1",style="solid"];
  Node13 [label="graph_tool::BlockState\l::move_vertices",height=0.2,width=0.4,color="grey40", fillcolor="white", style="filled",URL="$classgraph__tool_1_1BlockState.html#a7684338bbb111a33e6e0bbd69d5b0e7c",tooltip=" "];
  Node10 -> Node14 [dir="back",color="steelblue1",style="solid"];
  Node14 [label="graph_tool::BlockState\l::set_partition",height=0.2,width=0.4,color="grey40", fillcolor="white", style="filled",URL="$classgraph__tool_1_1BlockState.html#ad3297c3d52cbd9987f3da12ff91aea51",tooltip=" "];
  Node6 -> Node15 [dir="back",color="steelblue1",style="solid"];
  Node15 [label="graph_tool::BlockState\l::virtual_move",height=0.2,width=0.4,color="grey40", fillcolor="white", style="filled",URL="$classgraph__tool_1_1BlockState.html#a04982f72a2079c5f0f95f4d05641451c",tooltip=" "];
  Node15 -> Node16 [dir="back",color="steelblue1",style="solid"];
  Node16 [label="graph_tool::BlockState\l::virtual_move",height=0.2,width=0.4,color="grey40", fillcolor="white", style="filled",URL="$classgraph__tool_1_1BlockState.html#a501c5ade99b74b073d23ea898ca2c4c4",tooltip=" "];
}
