digraph "graph_tool::safelog_fast"
{
 // LATEX_PDF_SIZE
  bgcolor="transparent";
  edge [fontname=Helvetica,fontsize=10,labelfontname=Helvetica,labelfontsize=10];
  node [fontname=Helvetica,fontsize=10,shape=box,height=0.2,width=0.4];
  rankdir="RL";
  Node1 [label="graph_tool::safelog_fast",height=0.2,width=0.4,color="gray40", fillcolor="grey60", style="filled", fontcolor="black",tooltip=" "];
  Node1 -> Node2 [dir="back",color="steelblue1",style="solid"];
  Node2 [label="graph_tool::LatentClosure\l::LatentClosureState::entropy",height=0.2,width=0.4,color="grey40", fillcolor="white", style="filled",URL="$classgraph__tool_1_1LatentClosure_1_1LatentClosureState.html#ab3e7b827a46b252913dc2c1dade29331",tooltip=" "];
  Node1 -> Node3 [dir="back",color="steelblue1",style="solid"];
  Node3 [label="graph_tool::PPState\l::entropy",height=0.2,width=0.4,color="grey40", fillcolor="white", style="filled",URL="$classgraph__tool_1_1PPState.html#a3a7ec97197071b97f08eed83667afc88",tooltip=" "];
  Node1 -> Node4 [dir="back",color="steelblue1",style="solid"];
  Node4 [label="graph_tool::partition\l_stats::get_delta_partition_dl",height=0.2,width=0.4,color="grey40", fillcolor="white", style="filled",URL="$classgraph__tool_1_1partition__stats.html#ae7c96bbcee9c0eed6e6017dfc57be96a",tooltip=" "];
  Node4 -> Node5 [dir="back",color="steelblue1",style="solid"];
  Node5 [label="graph_tool::ModeClusterState\l::virtual_add_partition",height=0.2,width=0.4,color="grey40", fillcolor="white", style="filled",URL="$classgraph__tool_1_1ModeClusterState.html#a96313aceda7e48bdb22f8ea05ab6f8d8",tooltip=" "];
  Node4 -> Node6 [dir="back",color="steelblue1",style="solid"];
  Node6 [label="graph_tool::ModeClusterState\l::virtual_move",height=0.2,width=0.4,color="grey40", fillcolor="white", style="filled",URL="$classgraph__tool_1_1ModeClusterState.html#a91537389acb0f8c0c033ba493a13d3f9",tooltip=" "];
  Node6 -> Node7 [dir="back",color="steelblue1",style="solid"];
  Node7 [label="graph_tool::ModeClusterState\l::virtual_move",height=0.2,width=0.4,color="grey40", fillcolor="white", style="filled",URL="$classgraph__tool_1_1ModeClusterState.html#a5dbd25f8d600de77a9ce5024a92e8256",tooltip=" "];
  Node4 -> Node8 [dir="back",color="steelblue1",style="solid"];
  Node8 [label="graph_tool::PPState\l::virtual_move",height=0.2,width=0.4,color="grey40", fillcolor="white", style="filled",URL="$classgraph__tool_1_1PPState.html#a1b155dd6036f93e1f6765c2ceda85886",tooltip=" "];
  Node8 -> Node9 [dir="back",color="steelblue1",style="solid"];
  Node9 [label="graph_tool::PPState\l::virtual_move",height=0.2,width=0.4,color="grey40", fillcolor="white", style="filled",URL="$classgraph__tool_1_1PPState.html#a8deda65c192ac269114e07a0d28bb587",tooltip=" "];
  Node1 -> Node10 [dir="back",color="steelblue1",style="solid"];
  Node10 [label="graph_tool::HistD::\lHistState::get_mle_lpdf",height=0.2,width=0.4,color="grey40", fillcolor="white", style="filled",URL="$classgraph__tool_1_1HistD_1_1HistState.html#adc895333a20cfd4ef542a9b873657629",tooltip=" "];
  Node1 -> Node11 [dir="back",color="steelblue1",style="solid"];
  Node11 [label="graph_tool::MCMC::MCMCDynamics\lState::get_move_lprob",height=0.2,width=0.4,color="grey40", fillcolor="white", style="filled",URL="$classgraph__tool_1_1MCMC_1_1MCMCDynamicsState.html#a0d9b3bef52dc304a18f2d472ec7d40a3",tooltip=" "];
  Node11 -> Node12 [dir="back",color="steelblue1",style="solid"];
  Node12 [label="graph_tool::MCMC::MCMCDynamics\lState::virtual_move_dS",height=0.2,width=0.4,color="grey40", fillcolor="white", style="filled",URL="$classgraph__tool_1_1MCMC_1_1MCMCDynamicsState.html#a88f1182460dae79005c8cb477d9e1315",tooltip=" "];
  Node1 -> Node13 [dir="back",color="steelblue1",style="solid"];
  Node13 [label="graph_tool::MergeSplit\l::get_move_prob",height=0.2,width=0.4,color="grey40", fillcolor="white", style="filled",URL="$structgraph__tool_1_1MergeSplit.html#a589a0910811305b36fa49b23d914f061",tooltip=" "];
  Node13 -> Node14 [dir="back",color="steelblue1",style="solid"];
  Node14 [label="graph_tool::MergeSplit\l::merge_prob",height=0.2,width=0.4,color="grey40", fillcolor="white", style="filled",URL="$structgraph__tool_1_1MergeSplit.html#a13738cb41d4389b1098f973d9f28cc35",tooltip=" "];
  Node14 -> Node15 [dir="back",color="steelblue1",style="solid"];
  Node15 [label="graph_tool::MergeSplit\l::move_proposal",height=0.2,width=0.4,color="grey40", fillcolor="white", style="filled",URL="$structgraph__tool_1_1MergeSplit.html#a9210dbd9cd1e1c4fc931aaf692cb599f",tooltip=" "];
  Node14 -> Node16 [dir="back",color="steelblue1",style="solid"];
  Node16 [label="graph_tool::MergeSplit\l::sample_merge",height=0.2,width=0.4,color="grey40", fillcolor="white", style="filled",URL="$structgraph__tool_1_1MergeSplit.html#a06c5469bdf2e9f7a166fd6ee1dafcbbf",tooltip=" "];
  Node16 -> Node15 [dir="back",color="steelblue1",style="solid"];
  Node14 -> Node17 [dir="back",color="steelblue1",style="solid"];
  Node17 [label="graph_tool::MergeSplit\l::sample_split",height=0.2,width=0.4,color="grey40", fillcolor="white", style="filled",URL="$structgraph__tool_1_1MergeSplit.html#a9837e8e6ef43a81ff1abe41c88b4ebf4",tooltip=" "];
  Node17 -> Node15 [dir="back",color="steelblue1",style="solid"];
  Node1 -> Node18 [dir="back",color="steelblue1",style="solid"];
  Node18 [label="graph_tool::BlockState\l::get_move_prob",height=0.2,width=0.4,color="grey40", fillcolor="white", style="filled",URL="$classgraph__tool_1_1BlockState.html#a32e43e7305c76921a27ad8dfc1550319",tooltip=" "];
  Node18 -> Node19 [dir="back",color="steelblue1",style="solid"];
  Node19 [label="graph_tool::BlockState\l::get_move_prob",height=0.2,width=0.4,color="grey40", fillcolor="white", style="filled",URL="$classgraph__tool_1_1BlockState.html#a3b362fab0c64d7510c4c7a47dced8a96",tooltip=" "];
  Node1 -> Node20 [dir="back",color="steelblue1",style="solid"];
  Node20 [label="graph_tool::OverlapBlock\lState::get_move_prob",height=0.2,width=0.4,color="grey40", fillcolor="white", style="filled",URL="$classgraph__tool_1_1OverlapBlockState.html#a1e0ad5c26542dac1fabd8cba2cafa321",tooltip=" "];
  Node20 -> Node21 [dir="back",color="steelblue1",style="solid"];
  Node21 [label="graph_tool::OverlapBlock\lState::get_move_prob",height=0.2,width=0.4,color="grey40", fillcolor="white", style="filled",URL="$classgraph__tool_1_1OverlapBlockState.html#af74e3f85ece34dbc22bc386762206709",tooltip=" "];
  Node1 -> Node22 [dir="back",color="steelblue1",style="solid"];
  Node22 [label="graph_tool::VICenterState\l::get_move_prob",height=0.2,width=0.4,color="grey40", fillcolor="white", style="filled",URL="$classgraph__tool_1_1VICenterState.html#a86416fe59051eb0db385711d644f172e",tooltip=" "];
  Node22 -> Node23 [dir="back",color="steelblue1",style="solid"];
  Node23 [label="graph_tool::VICenterState\l::get_move_prob",height=0.2,width=0.4,color="grey40", fillcolor="white", style="filled",URL="$classgraph__tool_1_1VICenterState.html#ae32555a26389ee02594cb15008c99b66",tooltip=" "];
  Node1 -> Node24 [dir="back",color="steelblue1",style="solid"];
  Node24 [label="graph_tool::RMICenterState\l::get_move_prob",height=0.2,width=0.4,color="grey40", fillcolor="white", style="filled",URL="$classgraph__tool_1_1RMICenterState.html#aa50f5ee88f29f5c9e67fe575dc6839e3",tooltip=" "];
  Node24 -> Node25 [dir="back",color="steelblue1",style="solid"];
  Node25 [label="graph_tool::RMICenterState\l::get_move_prob",height=0.2,width=0.4,color="grey40", fillcolor="white", style="filled",URL="$classgraph__tool_1_1RMICenterState.html#a3973ac8094646d6452ff91904493535e",tooltip=" "];
  Node1 -> Node26 [dir="back",color="steelblue1",style="solid"];
  Node26 [label="graph_tool::ModeClusterState\l::get_move_prob",height=0.2,width=0.4,color="grey40", fillcolor="white", style="filled",URL="$classgraph__tool_1_1ModeClusterState.html#a9abd9b01990612e26e583b5a0b1d03ac",tooltip=" "];
  Node26 -> Node27 [dir="back",color="steelblue1",style="solid"];
  Node27 [label="graph_tool::ModeClusterState\l::get_move_prob",height=0.2,width=0.4,color="grey40", fillcolor="white", style="filled",URL="$classgraph__tool_1_1ModeClusterState.html#ae1e985864f02eeb0c6de3e9a23889f38",tooltip=" "];
  Node1 -> Node28 [dir="back",color="steelblue1",style="solid"];
  Node28 [label="graph_tool::partition\l_stats::get_partition_dl",height=0.2,width=0.4,color="grey40", fillcolor="white", style="filled",URL="$classgraph__tool_1_1partition__stats.html#a8fc83cf859391da1193c731fe96b7f64",tooltip=" "];
  Node28 -> Node29 [dir="back",color="steelblue1",style="solid"];
  Node29 [label="graph_tool::ModeClusterState\l::entropy",height=0.2,width=0.4,color="grey40", fillcolor="white", style="filled",URL="$classgraph__tool_1_1ModeClusterState.html#afa5c6b18fb57a3f58f373cebe1abfb66",tooltip=" "];
  Node28 -> Node3 [dir="back",color="steelblue1",style="solid"];
  Node1 -> Node30 [dir="back",color="steelblue1",style="solid"];
  Node30 [label="marginal_count_entropy",height=0.2,width=0.4,color="grey40", fillcolor="white", style="filled",URL="$graph__blockmodel__uncertain__marginal_8cc.html#a94e5ade176fccf3d16242e4d92835d70",tooltip=" "];
  Node30 -> Node31 [dir="back",color="steelblue1",style="solid"];
  Node31 [label="export_uncertain_state",height=0.2,width=0.4,color="grey40", fillcolor="white", style="filled",URL="$graph__blockmodel__uncertain_8cc.html#acfa6c36830a0a904dcbf017f82a07c40",tooltip=" "];
  Node31 -> Node32 [dir="back",color="steelblue1",style="solid"];
  Node32 [label="BOOST_PYTHON_MODULE",height=0.2,width=0.4,color="grey40", fillcolor="white", style="filled",URL="$graph__inference_8cc.html#aa52d8fe13d2a62317b6e603933a10b92",tooltip=" "];
  Node1 -> Node33 [dir="back",color="steelblue1",style="solid"];
  Node33 [label="graph_tool::Multilevel\l::mh_sweep",height=0.2,width=0.4,color="grey40", fillcolor="white", style="filled",URL="$structgraph__tool_1_1Multilevel.html#a4633ebfd73810ec9c8ef80a90d5d11cf",tooltip=" "];
  Node1 -> Node34 [dir="back",color="steelblue1",style="solid"];
  Node34 [label="graph_tool::Multilevel\l::mh_sweep_prob",height=0.2,width=0.4,color="grey40", fillcolor="white", style="filled",URL="$structgraph__tool_1_1Multilevel.html#aa481910dbb3989412fd57110f6c0752e",tooltip=" "];
  Node34 -> Node35 [dir="back",color="steelblue1",style="solid"];
  Node35 [label="graph_tool::Multilevel\l::stage_multilevel",height=0.2,width=0.4,color="grey40", fillcolor="white", style="filled",URL="$structgraph__tool_1_1Multilevel.html#ae5f2a1c73005717ee33c5f4de4acca8f",tooltip=" "];
  Node35 -> Node36 [dir="back",color="steelblue1",style="solid"];
  Node36 [label="graph_tool::Multilevel\l::move_proposal",height=0.2,width=0.4,color="grey40", fillcolor="white", style="filled",URL="$structgraph__tool_1_1Multilevel.html#a2d2fb774193324f6d242041f01d9aaf5",tooltip=" "];
  Node1 -> Node37 [dir="back",color="steelblue1",style="solid"];
  Node37 [label="graph_tool::LatentClosure\l::LatentClosureState::modify\l_edge_a_dS",height=0.2,width=0.4,color="grey40", fillcolor="white", style="filled",URL="$classgraph__tool_1_1LatentClosure_1_1LatentClosureState.html#aa9d80adb18cd30751b1a04ecfa33eb64",tooltip=" "];
  Node1 -> Node38 [dir="back",color="steelblue1",style="solid"];
  Node38 [label="graph_tool::LatentClosure\l::LatentClosureState::modify\l_edge_g_dS",height=0.2,width=0.4,color="grey40", fillcolor="white", style="filled",URL="$classgraph__tool_1_1LatentClosure_1_1LatentClosureState.html#a9eceee6157c91bcce5829014172d25b2",tooltip=" "];
  Node1 -> Node15 [dir="back",color="steelblue1",style="solid"];
  Node1 -> Node36 [dir="back",color="steelblue1",style="solid"];
  Node1 -> Node39 [dir="back",color="steelblue1",style="solid"];
  Node39 [label="graph_tool::PartitionMode\lState::virtual_change_partition",height=0.2,width=0.4,color="grey40", fillcolor="white", style="filled",URL="$classgraph__tool_1_1PartitionModeState.html#a9a176ace6f2ac1fce21a0b6adbf83f8f",tooltip=" "];
  Node1 -> Node8 [dir="back",color="steelblue1",style="solid"];
  Node1 -> Node40 [dir="back",color="steelblue1",style="solid"];
  Node40 [label="graph_tool::MCMC::MCMCLatent\lLayersState::virtual_move_dS",height=0.2,width=0.4,color="grey40", fillcolor="white", style="filled",URL="$classgraph__tool_1_1MCMC_1_1MCMCLatentLayersState.html#aed5135742891b1e184339eb7a42ecb85",tooltip=" "];
  Node1 -> Node41 [dir="back",color="steelblue1",style="solid"];
  Node41 [label="graph_tool::MCMC::MCMCHist\lState::virtual_move_dS",height=0.2,width=0.4,color="grey40", fillcolor="white", style="filled",URL="$classgraph__tool_1_1MCMC_1_1MCMCHistState.html#aad305b3e45f2ed64b0be23ba6cde60ee",tooltip=" "];
  Node1 -> Node42 [dir="back",color="steelblue1",style="solid"];
  Node42 [label="graph_tool::MCMC::MCMCUncertain\lState::virtual_move_dS",height=0.2,width=0.4,color="grey40", fillcolor="white", style="filled",URL="$classgraph__tool_1_1MCMC_1_1MCMCUncertainState.html#a403a7e9d017dbfce0d4192eb8d327fa7",tooltip=" "];
  Node1 -> Node43 [dir="back",color="steelblue1",style="solid"];
  Node43 [label="graph_tool::vterm",height=0.2,width=0.4,color="grey40", fillcolor="white", style="filled",URL="$namespacegraph__tool.html#a35534f3cc197667dfc937e91bfb99214",tooltip=" "];
  Node43 -> Node44 [dir="back",color="steelblue1",style="solid"];
  Node44 [label="graph_tool::BlockState\l::edge_entropy_term",height=0.2,width=0.4,color="grey40", fillcolor="white", style="filled",URL="$classgraph__tool_1_1BlockState.html#afef9843e4a12cdb436f000699c0804c5",tooltip=" "];
  Node43 -> Node45 [dir="back",color="steelblue1",style="solid"];
  Node45 [label="graph_tool::BlockState\l::sparse_entropy",height=0.2,width=0.4,color="grey40", fillcolor="white", style="filled",URL="$classgraph__tool_1_1BlockState.html#a5f454a7128d12a535744f6fc16e280bb",tooltip=" "];
  Node45 -> Node46 [dir="back",color="steelblue1",style="solid"];
  Node46 [label="graph_tool::BlockState\l::entropy",height=0.2,width=0.4,color="grey40", fillcolor="white", style="filled",URL="$classgraph__tool_1_1BlockState.html#a3fd3cfc773ac5ee09a8c8546018bfaad",tooltip=" "];
  Node43 -> Node47 [dir="back",color="steelblue1",style="solid"];
  Node47 [label="graph_tool::OverlapBlock\lState::sparse_entropy",height=0.2,width=0.4,color="red", fillcolor="#FFF0F0", style="filled",URL="$classgraph__tool_1_1OverlapBlockState.html#aa293fb2c5bedaa2425e2c408a2868a2a",tooltip=" "];
  Node43 -> Node49 [dir="back",color="steelblue1",style="solid"];
  Node49 [label="graph_tool::OverlapBlock\lState::virtual_move_sparse",height=0.2,width=0.4,color="grey40", fillcolor="white", style="filled",URL="$classgraph__tool_1_1OverlapBlockState.html#a49f42d56373237a86c5428b8874ceac5",tooltip=" "];
  Node43 -> Node50 [dir="back",color="steelblue1",style="solid"];
  Node50 [label="graph_tool::BlockState\l::virtual_move_sparse",height=0.2,width=0.4,color="grey40", fillcolor="white", style="filled",URL="$classgraph__tool_1_1BlockState.html#a272faad8ffbd1fb150c39d97284420a9",tooltip=" "];
  Node1 -> Node51 [dir="back",color="steelblue1",style="solid"];
  Node51 [label="graph_tool::vterm_exact",height=0.2,width=0.4,color="grey40", fillcolor="white", style="filled",URL="$namespacegraph__tool.html#a42583a69c3a6ded7e7465f1c2d4414b1",tooltip=" "];
  Node51 -> Node44 [dir="back",color="steelblue1",style="solid"];
  Node51 -> Node45 [dir="back",color="steelblue1",style="solid"];
  Node51 -> Node47 [dir="back",color="steelblue1",style="solid"];
  Node51 -> Node49 [dir="back",color="steelblue1",style="solid"];
  Node51 -> Node50 [dir="back",color="steelblue1",style="solid"];
}
