digraph "graph_tool::parallel_vertex_loop_no_spawn"
{
 // LATEX_PDF_SIZE
  bgcolor="transparent";
  edge [fontname=Helvetica,fontsize=10,labelfontname=Helvetica,labelfontsize=10];
  node [fontname=Helvetica,fontsize=10,shape=box,height=0.2,width=0.4];
  rankdir="RL";
  Node1 [label="graph_tool::parallel\l_vertex_loop_no_spawn",height=0.2,width=0.4,color="gray40", fillcolor="grey60", style="filled", fontcolor="black",tooltip=" "];
  Node1 -> Node2 [dir="back",color="steelblue1",style="solid"];
  Node2 [label="graph_tool::all_pairs\l_similarity",height=0.2,width=0.4,color="grey40", fillcolor="white", style="filled",URL="$namespacegraph__tool.html#a5b291af5b6270d95f3b914508694cf01",tooltip=" "];
  Node2 -> Node3 [dir="back",color="steelblue1",style="solid"];
  Node3 [label="get_dice_similarity",height=0.2,width=0.4,color="grey40", fillcolor="white", style="filled",URL="$graph__vertex__similarity_8cc.html#a8e9b10b3dc4070fe2de75812fd975c64",tooltip=" "];
  Node3 -> Node4 [dir="back",color="steelblue1",style="solid"];
  Node4 [label="export_vertex_similarity",height=0.2,width=0.4,color="grey40", fillcolor="white", style="filled",URL="$graph__vertex__similarity_8cc.html#a5e751f814852d735e1880957e98356d4",tooltip=" "];
  Node4 -> Node5 [dir="back",color="steelblue1",style="solid"];
  Node5 [label="BOOST_PYTHON_MODULE",height=0.2,width=0.4,color="grey40", fillcolor="white", style="filled",URL="$graph__topology_8cc.html#a1f8068349bfdbea49136a3447b5239ac",tooltip=" "];
  Node2 -> Node6 [dir="back",color="steelblue1",style="solid"];
  Node6 [label="get_hub_promoted_similarity",height=0.2,width=0.4,color="grey40", fillcolor="white", style="filled",URL="$graph__vertex__similarity_8cc.html#aa45f0d331a97ea2b36f65ec7884a7792",tooltip=" "];
  Node6 -> Node4 [dir="back",color="steelblue1",style="solid"];
  Node2 -> Node7 [dir="back",color="steelblue1",style="solid"];
  Node7 [label="get_hub_suppressed\l_similarity",height=0.2,width=0.4,color="grey40", fillcolor="white", style="filled",URL="$graph__vertex__similarity_8cc.html#a771f5a3334dd880ff7685b22e3f0a44b",tooltip=" "];
  Node7 -> Node4 [dir="back",color="steelblue1",style="solid"];
  Node2 -> Node8 [dir="back",color="steelblue1",style="solid"];
  Node8 [label="get_inv_log_weight\l_similarity",height=0.2,width=0.4,color="grey40", fillcolor="white", style="filled",URL="$graph__vertex__similarity_8cc.html#ad1484796189c26eb493811dae5ac6b04",tooltip=" "];
  Node8 -> Node4 [dir="back",color="steelblue1",style="solid"];
  Node2 -> Node9 [dir="back",color="steelblue1",style="solid"];
  Node9 [label="get_jaccard_similarity",height=0.2,width=0.4,color="grey40", fillcolor="white", style="filled",URL="$graph__vertex__similarity_8cc.html#aa4598ec9d4327d31ea8d548649c02a90",tooltip=" "];
  Node9 -> Node4 [dir="back",color="steelblue1",style="solid"];
  Node2 -> Node10 [dir="back",color="steelblue1",style="solid"];
  Node10 [label="get_leicht_holme_newman\l_similarity",height=0.2,width=0.4,color="grey40", fillcolor="white", style="filled",URL="$graph__vertex__similarity_8cc.html#a1e5d6e8d53ef60ddcd7ea10567cef68d",tooltip=" "];
  Node10 -> Node4 [dir="back",color="steelblue1",style="solid"];
  Node2 -> Node11 [dir="back",color="steelblue1",style="solid"];
  Node11 [label="get_r_allocation_similarity",height=0.2,width=0.4,color="grey40", fillcolor="white", style="filled",URL="$graph__vertex__similarity_8cc.html#a563e48638ded83fdb38a8ffd735a587c",tooltip=" "];
  Node11 -> Node4 [dir="back",color="steelblue1",style="solid"];
  Node2 -> Node12 [dir="back",color="steelblue1",style="solid"];
  Node12 [label="get_salton_similarity",height=0.2,width=0.4,color="grey40", fillcolor="white", style="filled",URL="$graph__vertex__similarity_8cc.html#a9150ce1ae5cf6000b92e9c95193f0fe0",tooltip=" "];
  Node12 -> Node4 [dir="back",color="steelblue1",style="solid"];
  Node1 -> Node13 [dir="back",color="steelblue1",style="solid"];
  Node13 [label="graph_tool::get_average\l::dispatch",height=0.2,width=0.4,color="grey40", fillcolor="white", style="filled",URL="$structgraph__tool_1_1get__average.html#a45c6f6b89ace2afe464ecc0c3d88cd16",tooltip=" "];
  Node13 -> Node14 [dir="back",color="steelblue1",style="solid"];
  Node14 [label="graph_tool::get_average\l::operator()",height=0.2,width=0.4,color="grey40", fillcolor="white", style="filled",URL="$structgraph__tool_1_1get__average.html#a7f7dd04399f0b6dbd601884aa2fd432b",tooltip=" "];
  Node1 -> Node15 [dir="back",color="steelblue1",style="solid"];
  Node15 [label="graph_tool::gen_knn",height=0.2,width=0.4,color="grey40", fillcolor="white", style="filled",URL="$namespacegraph__tool.html#aedecff9ccc775204c28a9c0594253fba",tooltip=" "];
  Node1 -> Node16 [dir="back",color="steelblue1",style="solid"];
  Node16 [label="graph_tool::gen_knn\l_exact",height=0.2,width=0.4,color="grey40", fillcolor="white", style="filled",URL="$namespacegraph__tool.html#afa130b5c547a08c7f9a5fe56f3c841c9",tooltip=" "];
  Node1 -> Node17 [dir="back",color="steelblue1",style="solid"];
  Node17 [label="graph_tool::gen_triadic\l_closure",height=0.2,width=0.4,color="grey40", fillcolor="white", style="filled",URL="$namespacegraph__tool.html#a17d2a5fbb51b7828eba646ddf34abd14",tooltip=" "];
  Node17 -> Node18 [dir="back",color="steelblue1",style="solid"];
  Node18 [label="generate_triadic_closure",height=0.2,width=0.4,color="grey40", fillcolor="white", style="filled",URL="$graph__triadic__closure_8cc.html#a104c84bca96c28d03a302f16596298f2",tooltip=" "];
  Node18 -> Node19 [dir="back",color="steelblue1",style="solid"];
  Node19 [label="BOOST_PYTHON_MODULE",height=0.2,width=0.4,color="grey40", fillcolor="white", style="filled",URL="$graph__generation_8cc.html#ad7bbbb1fc2ba89024c959696bbe3788a",tooltip=" "];
  Node1 -> Node20 [dir="back",color="steelblue1",style="solid"];
  Node20 [label="graph_tool::get_global\l_clustering",height=0.2,width=0.4,color="grey40", fillcolor="white", style="filled",URL="$namespacegraph__tool.html#ab3fb786dad98f486e45604f15109c5ba",tooltip=" "];
  Node20 -> Node21 [dir="back",color="steelblue1",style="solid"];
  Node21 [label="global_clustering",height=0.2,width=0.4,color="grey40", fillcolor="white", style="filled",URL="$graph__clustering_8cc.html#a5cf5cd0de433f761cbda2d91200a6cd0",tooltip=" "];
  Node21 -> Node22 [dir="back",color="steelblue1",style="solid"];
  Node22 [label="BOOST_PYTHON_MODULE",height=0.2,width=0.4,color="grey40", fillcolor="white", style="filled",URL="$graph__clustering_8cc.html#a1cf92c6cd92c580daf0e493b802a8beb",tooltip=" "];
  Node1 -> Node23 [dir="back",color="steelblue1",style="solid"];
  Node23 [label="graph_tool::get_latent\l_multigraph",height=0.2,width=0.4,color="grey40", fillcolor="white", style="filled",URL="$namespacegraph__tool.html#ad1b0c8e3d7515e70e9db49e187674c4d",tooltip=" "];
  Node23 -> Node24 [dir="back",color="steelblue1",style="solid"];
  Node24 [label="latent_multigraph",height=0.2,width=0.4,color="grey40", fillcolor="white", style="filled",URL="$graph__latent__multigraph_8cc.html#a08aaab4e2bcac4a754711d98e807c0e7",tooltip=" "];
  Node24 -> Node25 [dir="back",color="steelblue1",style="solid"];
  Node25 [label="export_latent_multigraph",height=0.2,width=0.4,color="grey40", fillcolor="white", style="filled",URL="$graph__latent__multigraph_8cc.html#a2cb5541ff07c44f60930cce629ec0b54",tooltip=" "];
  Node25 -> Node26 [dir="back",color="steelblue1",style="solid"];
  Node26 [label="BOOST_PYTHON_MODULE",height=0.2,width=0.4,color="grey40", fillcolor="white", style="filled",URL="$graph__inference_8cc.html#aa52d8fe13d2a62317b6e603933a10b92",tooltip=" "];
  Node1 -> Node27 [dir="back",color="steelblue1",style="solid"];
  Node27 [label="graph_tool::label_parallel\l_edges",height=0.2,width=0.4,color="grey40", fillcolor="white", style="filled",URL="$namespacegraph__tool.html#aed64ef1eafee152791df8b47bd1bfff8",tooltip=" "];
  Node27 -> Node28 [dir="back",color="steelblue1",style="solid"];
  Node28 [label="do_label_parallel_edges",height=0.2,width=0.4,color="grey40", fillcolor="white", style="filled",URL="$graph__parallel_8cc.html#a5f37f6d3f4381ba16479795f65556452",tooltip=" "];
  Node28 -> Node29 [dir="back",color="steelblue1",style="solid"];
  Node29 [label="export_parallel",height=0.2,width=0.4,color="grey40", fillcolor="white", style="filled",URL="$graph__parallel_8cc.html#a959e6ba11ff46d4e5d0149180a0ec106",tooltip=" "];
  Node29 -> Node30 [dir="back",color="steelblue1",style="solid"];
  Node30 [label="BOOST_PYTHON_MODULE",height=0.2,width=0.4,color="grey40", fillcolor="white", style="filled",URL="$graph__stats__bind_8cc.html#ab4fcdd6b9512b6e03dd77bbfd038ae10",tooltip=" "];
  Node1 -> Node31 [dir="back",color="steelblue1",style="solid"];
  Node31 [label="graph_tool::get_histogram\l::operator()",height=0.2,width=0.4,color="grey40", fillcolor="white", style="filled",URL="$structgraph__tool_1_1get__histogram.html#a358ce3221c0bad6187eb07292035762e",tooltip=" "];
  Node1 -> Node32 [dir="back",color="steelblue1",style="solid"];
  Node32 [label="graph_tool::get_assortativity\l_coefficient::operator()",height=0.2,width=0.4,color="grey40", fillcolor="white", style="filled",URL="$structgraph__tool_1_1get__assortativity__coefficient.html#ad4380c444e15e82c95aeebc2b770f264",tooltip=" "];
  Node1 -> Node33 [dir="back",color="steelblue1",style="solid"];
  Node33 [label="graph_tool::get_scalar\l_assortativity_coefficient\l::operator()",height=0.2,width=0.4,color="grey40", fillcolor="white", style="filled",URL="$structgraph__tool_1_1get__scalar__assortativity__coefficient.html#afe85e38888edf20ca04a87887067f854",tooltip=" "];
  Node1 -> Node34 [dir="back",color="steelblue1",style="solid"];
  Node34 [label="do_all_pairs_search\l_unweighted::operator()",height=0.2,width=0.4,color="grey40", fillcolor="white", style="filled",URL="$structdo__all__pairs__search__unweighted.html#a3db76b3e8c6f14ee5e44e4eab54196c9",tooltip=" "];
  Node1 -> Node35 [dir="back",color="steelblue1",style="solid"];
  Node35 [label="graph_tool::get_distance\l_histogram::operator()",height=0.2,width=0.4,color="grey40", fillcolor="white", style="filled",URL="$structgraph__tool_1_1get__distance__histogram.html#a6af9d7cdfea3d2ac6012aeab15f29f6a",tooltip=" "];
  Node1 -> Node36 [dir="back",color="steelblue1",style="solid"];
  Node36 [label="graph_tool::get_avg\l_correlation::operator()",height=0.2,width=0.4,color="grey40", fillcolor="white", style="filled",URL="$structgraph__tool_1_1get__avg__correlation.html#abe55f90fc197523a6996a6e3cf889580",tooltip=" "];
  Node1 -> Node37 [dir="back",color="steelblue1",style="solid"];
  Node37 [label="graph_tool::get_correlation\l_histogram::operator()",height=0.2,width=0.4,color="grey40", fillcolor="white", style="filled",URL="$structgraph__tool_1_1get__correlation__histogram.html#ac0b1c1430d08ff5c9408071f168d9f50",tooltip=" "];
  Node1 -> Node38 [dir="back",color="steelblue1",style="solid"];
  Node38 [label="do_edge_endpoint::operator()",height=0.2,width=0.4,color="grey40", fillcolor="white", style="filled",URL="$structdo__edge__endpoint.html#a7b691b4458a94a319a8ad43189936034",tooltip=" "];
  Node1 -> Node39 [dir="back",color="steelblue1",style="solid"];
  Node39 [label="do_out_edges_op::operator()",height=0.2,width=0.4,color="grey40", fillcolor="white", style="filled",URL="$structdo__out__edges__op.html#a416884a5f43ed003731fdcefe46953de",tooltip=" "];
  Node1 -> Node40 [dir="back",color="steelblue1",style="solid"];
  Node40 [label="graph_tool::find_vertices\l::operator()",height=0.2,width=0.4,color="grey40", fillcolor="white", style="filled",URL="$structgraph__tool_1_1find__vertices.html#ab97dbf718c402c64e879134f9d9b5cd4",tooltip=" "];
  Node1 -> Node41 [dir="back",color="steelblue1",style="solid"];
  Node41 [label="graph_tool::get_geometric\l::operator()",height=0.2,width=0.4,color="grey40", fillcolor="white", style="filled",URL="$structgraph__tool_1_1get__geometric.html#a783a9873c15a3c73c299392a2b5c821c",tooltip=" "];
  Node1 -> Node42 [dir="back",color="steelblue1",style="solid"];
  Node42 [label="do_avg_dist::operator()",height=0.2,width=0.4,color="grey40", fillcolor="white", style="filled",URL="$structdo__avg__dist.html#a619070849278108e4a754e1569fa1d3c",tooltip=" "];
  Node1 -> Node43 [dir="back",color="steelblue1",style="solid"];
  Node43 [label="graph_tool::get_arf\l_layout::operator()",height=0.2,width=0.4,color="grey40", fillcolor="white", style="filled",URL="$structgraph__tool_1_1get__arf__layout.html#a5cb8bd98bdd881addd95afba4bdd64ad",tooltip=" "];
  Node1 -> Node44 [dir="back",color="steelblue1",style="solid"];
  Node44 [label="graph_tool::get_eigentrust\l::operator()",height=0.2,width=0.4,color="grey40", fillcolor="white", style="filled",URL="$structgraph__tool_1_1get__eigentrust.html#a0577dd70c8da72555e92485757c2583d",tooltip=" "];
  Node1 -> Node45 [dir="back",color="steelblue1",style="solid"];
  Node45 [label="graph_tool::get_pagerank\l::operator()",height=0.2,width=0.4,color="grey40", fillcolor="white", style="filled",URL="$structgraph__tool_1_1get__pagerank.html#a3d864b2bdf7e90454c63c1cb79094eae",tooltip=" "];
  Node1 -> Node46 [dir="back",color="steelblue1",style="solid"];
  Node46 [label="graph_tool::get_eigenvector\l::operator()",height=0.2,width=0.4,color="grey40", fillcolor="white", style="filled",URL="$structgraph__tool_1_1get__eigenvector.html#aed83917a45d9185a8239dac2ea7a305b",tooltip=" "];
  Node1 -> Node47 [dir="back",color="steelblue1",style="solid"];
  Node47 [label="graph_tool::get_katz\l::operator()",height=0.2,width=0.4,color="grey40", fillcolor="white", style="filled",URL="$structgraph__tool_1_1get__katz.html#acef1227f08c209561cc16666a7a90855",tooltip=" "];
  Node1 -> Node48 [dir="back",color="steelblue1",style="solid"];
  Node48 [label="graph_tool::get_hits\l::operator()",height=0.2,width=0.4,color="grey40", fillcolor="white", style="filled",URL="$structgraph__tool_1_1get__hits.html#abda49b9a6238b185df5425f48b52c4a4",tooltip=" "];
  Node1 -> Node49 [dir="back",color="steelblue1",style="solid"];
  Node49 [label="graph_tool::set_clustering\l_to_property",height=0.2,width=0.4,color="grey40", fillcolor="white", style="filled",URL="$namespacegraph__tool.html#acd9367dc37e93d861b06c451613f12be",tooltip=" "];
  Node49 -> Node50 [dir="back",color="steelblue1",style="solid"];
  Node50 [label="local_clustering",height=0.2,width=0.4,color="grey40", fillcolor="white", style="filled",URL="$graph__clustering_8cc.html#a97ed05ee2d20249f042061dee49d50ae",tooltip=" "];
  Node50 -> Node22 [dir="back",color="steelblue1",style="solid"];
}
