digraph "boost::is_valid_vertex"
{
 // LATEX_PDF_SIZE
  bgcolor="transparent";
  edge [fontname=Helvetica,fontsize=10,labelfontname=Helvetica,labelfontsize=10];
  node [fontname=Helvetica,fontsize=10,shape=box,height=0.2,width=0.4];
  rankdir="RL";
  Node1 [label="boost::is_valid_vertex",height=0.2,width=0.4,color="gray40", fillcolor="grey60", style="filled", fontcolor="black",tooltip=" "];
  Node1 -> Node2 [dir="back",color="steelblue1",style="solid"];
  Node2 [label="graph_tool::get_degree_list",height=0.2,width=0.4,color="grey40", fillcolor="white", style="filled",URL="$namespacegraph__tool.html#accf9ac850ea9139ba3870a2e07e8ffee",tooltip=" "];
  Node2 -> Node3 [dir="back",color="steelblue1",style="solid"];
  Node3 [label="export_python_interface",height=0.2,width=0.4,color="grey40", fillcolor="white", style="filled",URL="$graph__python__interface_8cc.html#a1498ae5369c94819aa210b0c3c4020ee",tooltip=" "];
  Node3 -> Node4 [dir="back",color="steelblue1",style="solid"];
  Node4 [label="BOOST_PYTHON_MODULE",height=0.2,width=0.4,color="grey40", fillcolor="white", style="filled",URL="$graph__bind_8cc.html#a1cfcb8b2d5d1515e7dd3ffd8e831dae6",tooltip=" "];
  Node1 -> Node5 [dir="back",color="steelblue1",style="solid"];
  Node5 [label="boost::is_valid_vertex",height=0.2,width=0.4,color="grey40", fillcolor="white", style="filled",URL="$namespaceboost.html#a0f43891590929468be714aff436eb4c6",tooltip=" "];
  Node1 -> Node6 [dir="back",color="steelblue1",style="solid"];
  Node6 [label="clear_vertices::operator()",height=0.2,width=0.4,color="grey40", fillcolor="white", style="filled",URL="$structclear__vertices.html#ac2f7ec37bdf5374e8cfbc09750e1e6a0",tooltip=" "];
  Node1 -> Node7 [dir="back",color="steelblue1",style="solid"];
  Node7 [label="graph_tool::get_all\l_motifs::operator()",height=0.2,width=0.4,color="grey40", fillcolor="white", style="filled",URL="$structgraph__tool_1_1get__all__motifs.html#a0e75629b0fc9750a0b8fee68d22fc976",tooltip=" "];
  Node1 -> Node8 [dir="back",color="steelblue1",style="solid"];
  Node8 [label="graph_tool::get_trust\l_transitivity::operator()",height=0.2,width=0.4,color="grey40", fillcolor="white", style="filled",URL="$structgraph__tool_1_1get__trust__transitivity.html#ac827027c11f3711af2981a2e40deaad6",tooltip=" "];
  Node1 -> Node9 [dir="back",color="steelblue1",style="solid"];
  Node9 [label="graph_tool::parallel\l_vertex_loop_no_spawn",height=0.2,width=0.4,color="grey40", fillcolor="white", style="filled",URL="$namespacegraph__tool.html#a2725c01831f0c0950bad4a18a97f0e8c",tooltip=" "];
  Node9 -> Node10 [dir="back",color="steelblue1",style="solid"];
  Node10 [label="graph_tool::all_pairs\l_similarity",height=0.2,width=0.4,color="grey40", fillcolor="white", style="filled",URL="$namespacegraph__tool.html#a5b291af5b6270d95f3b914508694cf01",tooltip=" "];
  Node10 -> Node11 [dir="back",color="steelblue1",style="solid"];
  Node11 [label="get_dice_similarity",height=0.2,width=0.4,color="red", fillcolor="#FFF0F0", style="filled",URL="$graph__vertex__similarity_8cc.html#a8e9b10b3dc4070fe2de75812fd975c64",tooltip=" "];
  Node10 -> Node14 [dir="back",color="steelblue1",style="solid"];
  Node14 [label="get_hub_promoted_similarity",height=0.2,width=0.4,color="red", fillcolor="#FFF0F0", style="filled",URL="$graph__vertex__similarity_8cc.html#aa45f0d331a97ea2b36f65ec7884a7792",tooltip=" "];
  Node10 -> Node15 [dir="back",color="steelblue1",style="solid"];
  Node15 [label="get_hub_suppressed\l_similarity",height=0.2,width=0.4,color="red", fillcolor="#FFF0F0", style="filled",URL="$graph__vertex__similarity_8cc.html#a771f5a3334dd880ff7685b22e3f0a44b",tooltip=" "];
  Node10 -> Node16 [dir="back",color="steelblue1",style="solid"];
  Node16 [label="get_inv_log_weight\l_similarity",height=0.2,width=0.4,color="red", fillcolor="#FFF0F0", style="filled",URL="$graph__vertex__similarity_8cc.html#ad1484796189c26eb493811dae5ac6b04",tooltip=" "];
  Node10 -> Node17 [dir="back",color="steelblue1",style="solid"];
  Node17 [label="get_jaccard_similarity",height=0.2,width=0.4,color="red", fillcolor="#FFF0F0", style="filled",URL="$graph__vertex__similarity_8cc.html#aa4598ec9d4327d31ea8d548649c02a90",tooltip=" "];
  Node10 -> Node18 [dir="back",color="steelblue1",style="solid"];
  Node18 [label="get_leicht_holme_newman\l_similarity",height=0.2,width=0.4,color="red", fillcolor="#FFF0F0", style="filled",URL="$graph__vertex__similarity_8cc.html#a1e5d6e8d53ef60ddcd7ea10567cef68d",tooltip=" "];
  Node10 -> Node19 [dir="back",color="steelblue1",style="solid"];
  Node19 [label="get_r_allocation_similarity",height=0.2,width=0.4,color="red", fillcolor="#FFF0F0", style="filled",URL="$graph__vertex__similarity_8cc.html#a563e48638ded83fdb38a8ffd735a587c",tooltip=" "];
  Node10 -> Node20 [dir="back",color="steelblue1",style="solid"];
  Node20 [label="get_salton_similarity",height=0.2,width=0.4,color="red", fillcolor="#FFF0F0", style="filled",URL="$graph__vertex__similarity_8cc.html#a9150ce1ae5cf6000b92e9c95193f0fe0",tooltip=" "];
  Node9 -> Node21 [dir="back",color="steelblue1",style="solid"];
  Node21 [label="graph_tool::get_average\l::dispatch",height=0.2,width=0.4,color="grey40", fillcolor="white", style="filled",URL="$structgraph__tool_1_1get__average.html#a45c6f6b89ace2afe464ecc0c3d88cd16",tooltip=" "];
  Node21 -> Node22 [dir="back",color="steelblue1",style="solid"];
  Node22 [label="graph_tool::get_average\l::operator()",height=0.2,width=0.4,color="grey40", fillcolor="white", style="filled",URL="$structgraph__tool_1_1get__average.html#a7f7dd04399f0b6dbd601884aa2fd432b",tooltip=" "];
  Node9 -> Node23 [dir="back",color="steelblue1",style="solid"];
  Node23 [label="graph_tool::gen_knn",height=0.2,width=0.4,color="grey40", fillcolor="white", style="filled",URL="$namespacegraph__tool.html#aedecff9ccc775204c28a9c0594253fba",tooltip=" "];
  Node9 -> Node24 [dir="back",color="steelblue1",style="solid"];
  Node24 [label="graph_tool::gen_knn\l_exact",height=0.2,width=0.4,color="grey40", fillcolor="white", style="filled",URL="$namespacegraph__tool.html#afa130b5c547a08c7f9a5fe56f3c841c9",tooltip=" "];
  Node9 -> Node25 [dir="back",color="steelblue1",style="solid"];
  Node25 [label="graph_tool::gen_triadic\l_closure",height=0.2,width=0.4,color="grey40", fillcolor="white", style="filled",URL="$namespacegraph__tool.html#a17d2a5fbb51b7828eba646ddf34abd14",tooltip=" "];
  Node25 -> Node26 [dir="back",color="steelblue1",style="solid"];
  Node26 [label="generate_triadic_closure",height=0.2,width=0.4,color="red", fillcolor="#FFF0F0", style="filled",URL="$graph__triadic__closure_8cc.html#a104c84bca96c28d03a302f16596298f2",tooltip=" "];
  Node9 -> Node28 [dir="back",color="steelblue1",style="solid"];
  Node28 [label="graph_tool::get_global\l_clustering",height=0.2,width=0.4,color="grey40", fillcolor="white", style="filled",URL="$namespacegraph__tool.html#ab3fb786dad98f486e45604f15109c5ba",tooltip=" "];
  Node28 -> Node29 [dir="back",color="steelblue1",style="solid"];
  Node29 [label="global_clustering",height=0.2,width=0.4,color="red", fillcolor="#FFF0F0", style="filled",URL="$graph__clustering_8cc.html#a5cf5cd0de433f761cbda2d91200a6cd0",tooltip=" "];
  Node9 -> Node31 [dir="back",color="steelblue1",style="solid"];
  Node31 [label="graph_tool::get_latent\l_multigraph",height=0.2,width=0.4,color="grey40", fillcolor="white", style="filled",URL="$namespacegraph__tool.html#ad1b0c8e3d7515e70e9db49e187674c4d",tooltip=" "];
  Node31 -> Node32 [dir="back",color="steelblue1",style="solid"];
  Node32 [label="latent_multigraph",height=0.2,width=0.4,color="red", fillcolor="#FFF0F0", style="filled",URL="$graph__latent__multigraph_8cc.html#a08aaab4e2bcac4a754711d98e807c0e7",tooltip=" "];
  Node9 -> Node35 [dir="back",color="steelblue1",style="solid"];
  Node35 [label="graph_tool::label_parallel\l_edges",height=0.2,width=0.4,color="grey40", fillcolor="white", style="filled",URL="$namespacegraph__tool.html#aed64ef1eafee152791df8b47bd1bfff8",tooltip=" "];
  Node35 -> Node36 [dir="back",color="steelblue1",style="solid"];
  Node36 [label="do_label_parallel_edges",height=0.2,width=0.4,color="red", fillcolor="#FFF0F0", style="filled",URL="$graph__parallel_8cc.html#a5f37f6d3f4381ba16479795f65556452",tooltip=" "];
  Node9 -> Node39 [dir="back",color="steelblue1",style="solid"];
  Node39 [label="graph_tool::get_histogram\l::operator()",height=0.2,width=0.4,color="grey40", fillcolor="white", style="filled",URL="$structgraph__tool_1_1get__histogram.html#a358ce3221c0bad6187eb07292035762e",tooltip=" "];
  Node9 -> Node40 [dir="back",color="steelblue1",style="solid"];
  Node40 [label="graph_tool::get_assortativity\l_coefficient::operator()",height=0.2,width=0.4,color="grey40", fillcolor="white", style="filled",URL="$structgraph__tool_1_1get__assortativity__coefficient.html#ad4380c444e15e82c95aeebc2b770f264",tooltip=" "];
  Node9 -> Node41 [dir="back",color="steelblue1",style="solid"];
  Node41 [label="graph_tool::get_scalar\l_assortativity_coefficient\l::operator()",height=0.2,width=0.4,color="grey40", fillcolor="white", style="filled",URL="$structgraph__tool_1_1get__scalar__assortativity__coefficient.html#afe85e38888edf20ca04a87887067f854",tooltip=" "];
  Node9 -> Node42 [dir="back",color="steelblue1",style="solid"];
  Node42 [label="do_all_pairs_search\l_unweighted::operator()",height=0.2,width=0.4,color="grey40", fillcolor="white", style="filled",URL="$structdo__all__pairs__search__unweighted.html#a3db76b3e8c6f14ee5e44e4eab54196c9",tooltip=" "];
  Node9 -> Node43 [dir="back",color="steelblue1",style="solid"];
  Node43 [label="graph_tool::get_distance\l_histogram::operator()",height=0.2,width=0.4,color="grey40", fillcolor="white", style="filled",URL="$structgraph__tool_1_1get__distance__histogram.html#a6af9d7cdfea3d2ac6012aeab15f29f6a",tooltip=" "];
  Node9 -> Node44 [dir="back",color="steelblue1",style="solid"];
  Node44 [label="graph_tool::get_avg\l_correlation::operator()",height=0.2,width=0.4,color="grey40", fillcolor="white", style="filled",URL="$structgraph__tool_1_1get__avg__correlation.html#abe55f90fc197523a6996a6e3cf889580",tooltip=" "];
  Node9 -> Node45 [dir="back",color="steelblue1",style="solid"];
  Node45 [label="graph_tool::get_correlation\l_histogram::operator()",height=0.2,width=0.4,color="grey40", fillcolor="white", style="filled",URL="$structgraph__tool_1_1get__correlation__histogram.html#ac0b1c1430d08ff5c9408071f168d9f50",tooltip=" "];
  Node9 -> Node46 [dir="back",color="steelblue1",style="solid"];
  Node46 [label="do_edge_endpoint::operator()",height=0.2,width=0.4,color="grey40", fillcolor="white", style="filled",URL="$structdo__edge__endpoint.html#a7b691b4458a94a319a8ad43189936034",tooltip=" "];
  Node9 -> Node47 [dir="back",color="steelblue1",style="solid"];
  Node47 [label="do_out_edges_op::operator()",height=0.2,width=0.4,color="grey40", fillcolor="white", style="filled",URL="$structdo__out__edges__op.html#a416884a5f43ed003731fdcefe46953de",tooltip=" "];
  Node9 -> Node48 [dir="back",color="steelblue1",style="solid"];
  Node48 [label="graph_tool::find_vertices\l::operator()",height=0.2,width=0.4,color="grey40", fillcolor="white", style="filled",URL="$structgraph__tool_1_1find__vertices.html#ab97dbf718c402c64e879134f9d9b5cd4",tooltip=" "];
  Node9 -> Node49 [dir="back",color="steelblue1",style="solid"];
  Node49 [label="graph_tool::get_geometric\l::operator()",height=0.2,width=0.4,color="grey40", fillcolor="white", style="filled",URL="$structgraph__tool_1_1get__geometric.html#a783a9873c15a3c73c299392a2b5c821c",tooltip=" "];
  Node9 -> Node50 [dir="back",color="steelblue1",style="solid"];
  Node50 [label="do_avg_dist::operator()",height=0.2,width=0.4,color="grey40", fillcolor="white", style="filled",URL="$structdo__avg__dist.html#a619070849278108e4a754e1569fa1d3c",tooltip=" "];
  Node9 -> Node51 [dir="back",color="steelblue1",style="solid"];
  Node51 [label="graph_tool::get_arf\l_layout::operator()",height=0.2,width=0.4,color="grey40", fillcolor="white", style="filled",URL="$structgraph__tool_1_1get__arf__layout.html#a5cb8bd98bdd881addd95afba4bdd64ad",tooltip=" "];
  Node9 -> Node52 [dir="back",color="steelblue1",style="solid"];
  Node52 [label="graph_tool::get_eigentrust\l::operator()",height=0.2,width=0.4,color="grey40", fillcolor="white", style="filled",URL="$structgraph__tool_1_1get__eigentrust.html#a0577dd70c8da72555e92485757c2583d",tooltip=" "];
  Node9 -> Node53 [dir="back",color="steelblue1",style="solid"];
  Node53 [label="graph_tool::get_pagerank\l::operator()",height=0.2,width=0.4,color="grey40", fillcolor="white", style="filled",URL="$structgraph__tool_1_1get__pagerank.html#a3d864b2bdf7e90454c63c1cb79094eae",tooltip=" "];
  Node9 -> Node54 [dir="back",color="steelblue1",style="solid"];
  Node54 [label="graph_tool::get_eigenvector\l::operator()",height=0.2,width=0.4,color="grey40", fillcolor="white", style="filled",URL="$structgraph__tool_1_1get__eigenvector.html#aed83917a45d9185a8239dac2ea7a305b",tooltip=" "];
  Node9 -> Node55 [dir="back",color="steelblue1",style="solid"];
  Node55 [label="graph_tool::get_katz\l::operator()",height=0.2,width=0.4,color="grey40", fillcolor="white", style="filled",URL="$structgraph__tool_1_1get__katz.html#acef1227f08c209561cc16666a7a90855",tooltip=" "];
  Node9 -> Node56 [dir="back",color="steelblue1",style="solid"];
  Node56 [label="graph_tool::get_hits\l::operator()",height=0.2,width=0.4,color="grey40", fillcolor="white", style="filled",URL="$structgraph__tool_1_1get__hits.html#abda49b9a6238b185df5425f48b52c4a4",tooltip=" "];
  Node9 -> Node57 [dir="back",color="steelblue1",style="solid"];
  Node57 [label="graph_tool::set_clustering\l_to_property",height=0.2,width=0.4,color="grey40", fillcolor="white", style="filled",URL="$namespacegraph__tool.html#acd9367dc37e93d861b06c451613f12be",tooltip=" "];
  Node57 -> Node58 [dir="back",color="steelblue1",style="solid"];
  Node58 [label="local_clustering",height=0.2,width=0.4,color="red", fillcolor="#FFF0F0", style="filled",URL="$graph__clustering_8cc.html#a97ed05ee2d20249f042061dee49d50ae",tooltip=" "];
}
