digraph "graph_tool::label_parallel_edges"
{
 // LATEX_PDF_SIZE
  bgcolor="transparent";
  edge [fontname=Helvetica,fontsize=10,labelfontname=Helvetica,labelfontsize=10];
  node [fontname=Helvetica,fontsize=10,shape=box,height=0.2,width=0.4];
  rankdir="RL";
  Node1 [label="graph_tool::label_parallel\l_edges",height=0.2,width=0.4,color="gray40", fillcolor="grey60", style="filled", fontcolor="black",tooltip=" "];
  Node1 -> Node2 [dir="back",color="steelblue1",style="solid"];
  Node2 [label="do_label_parallel_edges",height=0.2,width=0.4,color="grey40", fillcolor="white", style="filled",URL="$graph__parallel_8cc.html#a5f37f6d3f4381ba16479795f65556452",tooltip=" "];
  Node2 -> Node3 [dir="back",color="steelblue1",style="solid"];
  Node3 [label="export_parallel",height=0.2,width=0.4,color="grey40", fillcolor="white", style="filled",URL="$graph__parallel_8cc.html#a959e6ba11ff46d4e5d0149180a0ec106",tooltip=" "];
  Node3 -> Node4 [dir="back",color="steelblue1",style="solid"];
  Node4 [label="BOOST_PYTHON_MODULE",height=0.2,width=0.4,color="grey40", fillcolor="white", style="filled",URL="$graph__stats__bind_8cc.html#ab4fcdd6b9512b6e03dd77bbfd038ae10",tooltip=" "];
}
