digraph "graph_tool::init_xlogx"
{
 // LATEX_PDF_SIZE
  bgcolor="transparent";
  edge [fontname=Helvetica,fontsize=10,labelfontname=Helvetica,labelfontsize=10];
  node [fontname=Helvetica,fontsize=10,shape=box,height=0.2,width=0.4];
  rankdir="RL";
  Node1 [label="graph_tool::init_xlogx",height=0.2,width=0.4,color="gray40", fillcolor="grey60", style="filled", fontcolor="black",tooltip=" "];
  Node1 -> Node2 [dir="back",color="steelblue1",style="solid"];
  Node2 [label="graph_tool::init_cache",height=0.2,width=0.4,color="grey40", fillcolor="white", style="filled",URL="$namespacegraph__tool.html#a6808927ffc06c4262729c1a76ec7690a",tooltip=" "];
  Node1 -> Node3 [dir="back",color="steelblue1",style="solid"];
  Node3 [label="graph_tool::xlogx_fast",height=0.2,width=0.4,color="grey40", fillcolor="white", style="filled",URL="$namespacegraph__tool.html#acd0efc0f2e935aea4becc57408917365",tooltip=" "];
  Node3 -> Node4 [dir="back",color="steelblue1",style="solid"];
  Node4 [label="graph_tool::VICenterState\l::entropy",height=0.2,width=0.4,color="grey40", fillcolor="white", style="filled",URL="$classgraph__tool_1_1VICenterState.html#a0f76b04b368ea7a001709a7873acd27e",tooltip=" "];
  Node3 -> Node5 [dir="back",color="steelblue1",style="solid"];
  Node5 [label="graph_tool::eterm",height=0.2,width=0.4,color="grey40", fillcolor="white", style="filled",URL="$namespacegraph__tool.html#a5e7f2d701ec8c68b9de0b384c7dd944b",tooltip=" "];
  Node5 -> Node6 [dir="back",color="steelblue1",style="solid"];
  Node6 [label="graph_tool::BlockState\l::edge_entropy_term",height=0.2,width=0.4,color="grey40", fillcolor="white", style="filled",URL="$classgraph__tool_1_1BlockState.html#afef9843e4a12cdb436f000699c0804c5",tooltip=" "];
  Node5 -> Node7 [dir="back",color="steelblue1",style="solid"];
  Node7 [label="graph_tool::entries_dS",height=0.2,width=0.4,color="grey40", fillcolor="white", style="filled",URL="$namespacegraph__tool.html#a9199753c76c4cf388537a7fa313f8048",tooltip=" "];
  Node5 -> Node8 [dir="back",color="steelblue1",style="solid"];
  Node8 [label="graph_tool::BlockState\l::sparse_entropy",height=0.2,width=0.4,color="grey40", fillcolor="white", style="filled",URL="$classgraph__tool_1_1BlockState.html#a5f454a7128d12a535744f6fc16e280bb",tooltip=" "];
  Node8 -> Node9 [dir="back",color="steelblue1",style="solid"];
  Node9 [label="graph_tool::BlockState\l::entropy",height=0.2,width=0.4,color="grey40", fillcolor="white", style="filled",URL="$classgraph__tool_1_1BlockState.html#a3fd3cfc773ac5ee09a8c8546018bfaad",tooltip=" "];
  Node5 -> Node10 [dir="back",color="steelblue1",style="solid"];
  Node10 [label="graph_tool::OverlapBlock\lState::sparse_entropy",height=0.2,width=0.4,color="grey40", fillcolor="white", style="filled",URL="$classgraph__tool_1_1OverlapBlockState.html#aa293fb2c5bedaa2425e2c408a2868a2a",tooltip=" "];
  Node10 -> Node11 [dir="back",color="steelblue1",style="solid"];
  Node11 [label="graph_tool::OverlapBlock\lState::entropy",height=0.2,width=0.4,color="grey40", fillcolor="white", style="filled",URL="$classgraph__tool_1_1OverlapBlockState.html#a33fd384f8d13fd872c90b57b5c6dbc80",tooltip=" "];
  Node3 -> Node12 [dir="back",color="steelblue1",style="solid"];
  Node12 [label="graph_tool::overlap\l_partition_stats_t::\lget_deg_dl_ent",height=0.2,width=0.4,color="grey40", fillcolor="white", style="filled",URL="$structgraph__tool_1_1overlap__partition__stats__t.html#a6835a96834ace3072685149e1859b2ff",tooltip=" "];
  Node12 -> Node13 [dir="back",color="steelblue1",style="solid"];
  Node13 [label="graph_tool::overlap\l_partition_stats_t::\lget_deg_dl",height=0.2,width=0.4,color="grey40", fillcolor="white", style="filled",URL="$structgraph__tool_1_1overlap__partition__stats__t.html#a4d0253fc82fc9768282158c5e947fe6e",tooltip=" "];
  Node3 -> Node14 [dir="back",color="steelblue1",style="solid"];
  Node14 [label="graph_tool::partition\l_stats::get_deg_dl_ent",height=0.2,width=0.4,color="grey40", fillcolor="white", style="filled",URL="$classgraph__tool_1_1partition__stats.html#ab7ac2689796fe376ef03981944a0d03f",tooltip=" "];
  Node14 -> Node15 [dir="back",color="steelblue1",style="solid"];
  Node15 [label="graph_tool::partition\l_stats::get_deg_dl",height=0.2,width=0.4,color="grey40", fillcolor="white", style="filled",URL="$classgraph__tool_1_1partition__stats.html#a7709f1e0085c2e2cf1a74851978311cb",tooltip=" "];
  Node15 -> Node6 [dir="back",color="steelblue1",style="solid"];
  Node15 -> Node16 [dir="back",color="steelblue1",style="solid"];
  Node16 [label="graph_tool::PPState\l::entropy",height=0.2,width=0.4,color="grey40", fillcolor="white", style="filled",URL="$classgraph__tool_1_1PPState.html#a3a7ec97197071b97f08eed83667afc88",tooltip=" "];
  Node15 -> Node17 [dir="back",color="steelblue1",style="solid"];
  Node17 [label="graph_tool::partition\l_stats::get_deg_dl",height=0.2,width=0.4,color="grey40", fillcolor="white", style="filled",URL="$classgraph__tool_1_1partition__stats.html#a232e0e78506c70e88c6901c84a22611d",tooltip=" "];
  Node3 -> Node18 [dir="back",color="steelblue1",style="solid"];
  Node18 [label="graph_tool::partition\l_stats::get_delta_deg\l_dl_ent_change",height=0.2,width=0.4,color="grey40", fillcolor="white", style="filled",URL="$classgraph__tool_1_1partition__stats.html#a90c579ccf1475314e7089797bb159ae9",tooltip=" "];
  Node18 -> Node19 [dir="back",color="steelblue1",style="solid"];
  Node19 [label="graph_tool::partition\l_stats::get_delta_deg_dl",height=0.2,width=0.4,color="grey40", fillcolor="white", style="filled",URL="$classgraph__tool_1_1partition__stats.html#a608e904f2922c65d04f610e04133d883",tooltip=" "];
  Node19 -> Node20 [dir="back",color="steelblue1",style="solid"];
  Node20 [label="graph_tool::PPState\l::virtual_move",height=0.2,width=0.4,color="grey40", fillcolor="white", style="filled",URL="$classgraph__tool_1_1PPState.html#a1b155dd6036f93e1f6765c2ceda85886",tooltip=" "];
  Node20 -> Node21 [dir="back",color="steelblue1",style="solid"];
  Node21 [label="graph_tool::PPState\l::virtual_move",height=0.2,width=0.4,color="grey40", fillcolor="white", style="filled",URL="$classgraph__tool_1_1PPState.html#a8deda65c192ac269114e07a0d28bb587",tooltip=" "];
  Node3 -> Node22 [dir="back",color="steelblue1",style="solid"];
  Node22 [label="marginal_count_entropy",height=0.2,width=0.4,color="grey40", fillcolor="white", style="filled",URL="$graph__blockmodel__uncertain__marginal_8cc.html#a94e5ade176fccf3d16242e4d92835d70",tooltip=" "];
  Node22 -> Node23 [dir="back",color="steelblue1",style="solid"];
  Node23 [label="export_uncertain_state",height=0.2,width=0.4,color="grey40", fillcolor="white", style="filled",URL="$graph__blockmodel__uncertain_8cc.html#acfa6c36830a0a904dcbf017f82a07c40",tooltip=" "];
  Node23 -> Node24 [dir="back",color="steelblue1",style="solid"];
  Node24 [label="BOOST_PYTHON_MODULE",height=0.2,width=0.4,color="grey40", fillcolor="white", style="filled",URL="$graph__inference_8cc.html#aa52d8fe13d2a62317b6e603933a10b92",tooltip=" "];
  Node3 -> Node25 [dir="back",color="steelblue1",style="solid"];
  Node25 [label="graph_tool::VICenterState\l::virtual_move",height=0.2,width=0.4,color="grey40", fillcolor="white", style="filled",URL="$classgraph__tool_1_1VICenterState.html#a0dbab64d3bfadffd12086ce121b3dea3",tooltip=" "];
  Node25 -> Node26 [dir="back",color="steelblue1",style="solid"];
  Node26 [label="graph_tool::VICenterState\l::virtual_move",height=0.2,width=0.4,color="grey40", fillcolor="white", style="filled",URL="$classgraph__tool_1_1VICenterState.html#adb0ceb1a9db2a08d13c281262bd2b773",tooltip=" "];
  Node3 -> Node27 [dir="back",color="steelblue1",style="solid"];
  Node27 [label="graph_tool::vterm",height=0.2,width=0.4,color="grey40", fillcolor="white", style="filled",URL="$namespacegraph__tool.html#a35534f3cc197667dfc937e91bfb99214",tooltip=" "];
  Node27 -> Node6 [dir="back",color="steelblue1",style="solid"];
  Node27 -> Node8 [dir="back",color="steelblue1",style="solid"];
  Node27 -> Node10 [dir="back",color="steelblue1",style="solid"];
  Node27 -> Node28 [dir="back",color="steelblue1",style="solid"];
  Node28 [label="graph_tool::OverlapBlock\lState::virtual_move_sparse",height=0.2,width=0.4,color="grey40", fillcolor="white", style="filled",URL="$classgraph__tool_1_1OverlapBlockState.html#a49f42d56373237a86c5428b8874ceac5",tooltip=" "];
  Node27 -> Node29 [dir="back",color="steelblue1",style="solid"];
  Node29 [label="graph_tool::BlockState\l::virtual_move_sparse",height=0.2,width=0.4,color="grey40", fillcolor="white", style="filled",URL="$classgraph__tool_1_1BlockState.html#a272faad8ffbd1fb150c39d97284420a9",tooltip=" "];
}
