digraph "graph_tool::get_dist"
{
 // LATEX_PDF_SIZE
  bgcolor="transparent";
  edge [fontname=Helvetica,fontsize=10,labelfontname=Helvetica,labelfontsize=10];
  node [fontname=Helvetica,fontsize=10,shape=box,height=0.2,width=0.4];
  rankdir="RL";
  Node1 [label="graph_tool::get_dist",height=0.2,width=0.4,color="gray40", fillcolor="grey60", style="filled", fontcolor="black",tooltip=" "];
  Node1 -> Node2 [dir="back",color="steelblue1",style="solid"];
  Node2 [label="graph_tool::get_geometric\l::operator()",height=0.2,width=0.4,color="grey40", fillcolor="white", style="filled",URL="$structgraph__tool_1_1get__geometric.html#a783a9873c15a3c73c299392a2b5c821c",tooltip=" "];
}
