digraph "boost::remove_vertex"
{
 // LATEX_PDF_SIZE
  bgcolor="transparent";
  edge [fontname=Helvetica,fontsize=10,labelfontname=Helvetica,labelfontsize=10];
  node [fontname=Helvetica,fontsize=10,shape=box,height=0.2,width=0.4];
  rankdir="RL";
  Node1 [label="boost::remove_vertex",height=0.2,width=0.4,color="gray40", fillcolor="grey60", style="filled", fontcolor="black",tooltip=" "];
  Node1 -> Node2 [dir="back",color="steelblue1",style="solid"];
  Node2 [label="export_overlap_blockmodel\l_state",height=0.2,width=0.4,color="grey40", fillcolor="white", style="filled",URL="$graph__blockmodel__overlap_8cc.html#ad0aeab8cb05608c82cb71eccc0ae8c99",tooltip=" "];
  Node2 -> Node3 [dir="back",color="steelblue1",style="solid"];
  Node3 [label="BOOST_PYTHON_MODULE",height=0.2,width=0.4,color="grey40", fillcolor="white", style="filled",URL="$graph__inference_8cc.html#aa52d8fe13d2a62317b6e603933a10b92",tooltip=" "];
  Node1 -> Node4 [dir="back",color="steelblue1",style="solid"];
  Node4 [label="export_python_interface",height=0.2,width=0.4,color="grey40", fillcolor="white", style="filled",URL="$graph__python__interface_8cc.html#a1498ae5369c94819aa210b0c3c4020ee",tooltip=" "];
  Node4 -> Node5 [dir="back",color="steelblue1",style="solid"];
  Node5 [label="BOOST_PYTHON_MODULE",height=0.2,width=0.4,color="grey40", fillcolor="white", style="filled",URL="$graph__bind_8cc.html#a1cfcb8b2d5d1515e7dd3ffd8e831dae6",tooltip=" "];
  Node1 -> Node6 [dir="back",color="steelblue1",style="solid"];
  Node6 [label="clear_vertices::operator()",height=0.2,width=0.4,color="grey40", fillcolor="white", style="filled",URL="$structclear__vertices.html#ac2f7ec37bdf5374e8cfbc09750e1e6a0",tooltip=" "];
  Node1 -> Node7 [dir="back",color="steelblue1",style="solid"];
  Node7 [label="graph_tool::GraphInterface\l::purge_vertices",height=0.2,width=0.4,color="grey40", fillcolor="white", style="filled",URL="$classgraph__tool_1_1GraphInterface.html#a4f516980809cf30d0345505582063c49",tooltip=" "];
  Node7 -> Node5 [dir="back",color="steelblue1",style="solid"];
  Node1 -> Node8 [dir="back",color="steelblue1",style="solid"];
  Node8 [label="graph_tool::remove\l_vertex",height=0.2,width=0.4,color="grey40", fillcolor="white", style="filled",URL="$namespacegraph__tool.html#a01e801a49e06475492011002174c9dae",tooltip=" "];
  Node1 -> Node1 [dir="back",color="steelblue1",style="solid"];
  Node1 -> Node9 [dir="back",color="steelblue1",style="solid"];
  Node9 [label="graph_tool::remove\l_vertex_array",height=0.2,width=0.4,color="grey40", fillcolor="white", style="filled",URL="$namespacegraph__tool.html#abcd9a7404393816856c20841ee0026d6",tooltip=" "];
  Node9 -> Node4 [dir="back",color="steelblue1",style="solid"];
}
