digraph "graph_tool::safelog"
{
 // LATEX_PDF_SIZE
  bgcolor="transparent";
  edge [fontname=Helvetica,fontsize=10,labelfontname=Helvetica,labelfontsize=10];
  node [fontname=Helvetica,fontsize=10,shape=box,height=0.2,width=0.4];
  rankdir="RL";
  Node1 [label="graph_tool::safelog",height=0.2,width=0.4,color="gray40", fillcolor="grey60", style="filled", fontcolor="black",tooltip=" "];
  Node1 -> Node2 [dir="back",color="steelblue1",style="solid"];
  Node2 [label="graph_tool::HistD::\lHistState::entropy",height=0.2,width=0.4,color="grey40", fillcolor="white", style="filled",URL="$classgraph__tool_1_1HistD_1_1HistState.html#ab963de68a1bbc301c86f36e4795e43e9",tooltip=" "];
  Node1 -> Node3 [dir="back",color="steelblue1",style="solid"];
  Node3 [label="graph_tool::PartitionMode\lState::entropy",height=0.2,width=0.4,color="grey40", fillcolor="white", style="filled",URL="$classgraph__tool_1_1PartitionModeState.html#a5673af0979c88aabfbb43e31577edb81",tooltip=" "];
  Node3 -> Node4 [dir="back",color="steelblue1",style="solid"];
  Node4 [label="export_partition_mode",height=0.2,width=0.4,color="grey40", fillcolor="white", style="filled",URL="$graph__partition__mode_8cc.html#a5d5ff6a7a64cf2a1c328796ed057c478",tooltip=" "];
  Node4 -> Node5 [dir="back",color="steelblue1",style="solid"];
  Node5 [label="BOOST_PYTHON_MODULE",height=0.2,width=0.4,color="grey40", fillcolor="white", style="filled",URL="$graph__inference_8cc.html#aa52d8fe13d2a62317b6e603933a10b92",tooltip=" "];
  Node1 -> Node6 [dir="back",color="steelblue1",style="solid"];
  Node6 [label="graph_tool::init_safelog",height=0.2,width=0.4,color="grey40", fillcolor="white", style="filled",URL="$namespacegraph__tool.html#a963421460fa76f55c786dff3f225ca7a",tooltip=" "];
  Node6 -> Node7 [dir="back",color="steelblue1",style="solid"];
  Node7 [label="export_rmi_center_state",height=0.2,width=0.4,color="grey40", fillcolor="white", style="filled",URL="$graph__partition__centroid__rmi_8cc.html#aa0e51b26dbe079473ab09ca57695e721",tooltip=" "];
  Node7 -> Node5 [dir="back",color="steelblue1",style="solid"];
  Node6 -> Node8 [dir="back",color="steelblue1",style="solid"];
  Node8 [label="graph_tool::init_cache",height=0.2,width=0.4,color="grey40", fillcolor="white", style="filled",URL="$namespacegraph__tool.html#a6808927ffc06c4262729c1a76ec7690a",tooltip=" "];
  Node6 -> Node9 [dir="back",color="steelblue1",style="solid"];
  Node9 [label="graph_tool::safelog_fast",height=0.2,width=0.4,color="grey40", fillcolor="white", style="filled",URL="$namespacegraph__tool.html#a79fcd257f84cbb496bcc1de77c0047d7",tooltip=" "];
  Node9 -> Node10 [dir="back",color="steelblue1",style="solid"];
  Node10 [label="graph_tool::LatentClosure\l::LatentClosureState::entropy",height=0.2,width=0.4,color="grey40", fillcolor="white", style="filled",URL="$classgraph__tool_1_1LatentClosure_1_1LatentClosureState.html#ab3e7b827a46b252913dc2c1dade29331",tooltip=" "];
  Node9 -> Node11 [dir="back",color="steelblue1",style="solid"];
  Node11 [label="graph_tool::PPState\l::entropy",height=0.2,width=0.4,color="grey40", fillcolor="white", style="filled",URL="$classgraph__tool_1_1PPState.html#a3a7ec97197071b97f08eed83667afc88",tooltip=" "];
  Node9 -> Node12 [dir="back",color="steelblue1",style="solid"];
  Node12 [label="graph_tool::partition\l_stats::get_delta_partition_dl",height=0.2,width=0.4,color="grey40", fillcolor="white", style="filled",URL="$classgraph__tool_1_1partition__stats.html#ae7c96bbcee9c0eed6e6017dfc57be96a",tooltip=" "];
  Node12 -> Node13 [dir="back",color="steelblue1",style="solid"];
  Node13 [label="graph_tool::ModeClusterState\l::virtual_add_partition",height=0.2,width=0.4,color="grey40", fillcolor="white", style="filled",URL="$classgraph__tool_1_1ModeClusterState.html#a96313aceda7e48bdb22f8ea05ab6f8d8",tooltip=" "];
  Node12 -> Node14 [dir="back",color="steelblue1",style="solid"];
  Node14 [label="graph_tool::ModeClusterState\l::virtual_move",height=0.2,width=0.4,color="red", fillcolor="#FFF0F0", style="filled",URL="$classgraph__tool_1_1ModeClusterState.html#a91537389acb0f8c0c033ba493a13d3f9",tooltip=" "];
  Node12 -> Node16 [dir="back",color="steelblue1",style="solid"];
  Node16 [label="graph_tool::PPState\l::virtual_move",height=0.2,width=0.4,color="red", fillcolor="#FFF0F0", style="filled",URL="$classgraph__tool_1_1PPState.html#a1b155dd6036f93e1f6765c2ceda85886",tooltip=" "];
  Node9 -> Node18 [dir="back",color="steelblue1",style="solid"];
  Node18 [label="graph_tool::HistD::\lHistState::get_mle_lpdf",height=0.2,width=0.4,color="grey40", fillcolor="white", style="filled",URL="$classgraph__tool_1_1HistD_1_1HistState.html#adc895333a20cfd4ef542a9b873657629",tooltip=" "];
  Node9 -> Node19 [dir="back",color="steelblue1",style="solid"];
  Node19 [label="graph_tool::MCMC::MCMCDynamics\lState::get_move_lprob",height=0.2,width=0.4,color="grey40", fillcolor="white", style="filled",URL="$classgraph__tool_1_1MCMC_1_1MCMCDynamicsState.html#a0d9b3bef52dc304a18f2d472ec7d40a3",tooltip=" "];
  Node19 -> Node20 [dir="back",color="steelblue1",style="solid"];
  Node20 [label="graph_tool::MCMC::MCMCDynamics\lState::virtual_move_dS",height=0.2,width=0.4,color="grey40", fillcolor="white", style="filled",URL="$classgraph__tool_1_1MCMC_1_1MCMCDynamicsState.html#a88f1182460dae79005c8cb477d9e1315",tooltip=" "];
  Node9 -> Node21 [dir="back",color="steelblue1",style="solid"];
  Node21 [label="graph_tool::MergeSplit\l::get_move_prob",height=0.2,width=0.4,color="grey40", fillcolor="white", style="filled",URL="$structgraph__tool_1_1MergeSplit.html#a589a0910811305b36fa49b23d914f061",tooltip=" "];
  Node21 -> Node22 [dir="back",color="steelblue1",style="solid"];
  Node22 [label="graph_tool::MergeSplit\l::merge_prob",height=0.2,width=0.4,color="red", fillcolor="#FFF0F0", style="filled",URL="$structgraph__tool_1_1MergeSplit.html#a13738cb41d4389b1098f973d9f28cc35",tooltip=" "];
  Node22 -> Node23 [dir="back",color="steelblue1",style="solid"];
  Node23 [label="graph_tool::MergeSplit\l::move_proposal",height=0.2,width=0.4,color="grey40", fillcolor="white", style="filled",URL="$structgraph__tool_1_1MergeSplit.html#a9210dbd9cd1e1c4fc931aaf692cb599f",tooltip=" "];
  Node9 -> Node26 [dir="back",color="steelblue1",style="solid"];
  Node26 [label="graph_tool::BlockState\l::get_move_prob",height=0.2,width=0.4,color="grey40", fillcolor="white", style="filled",URL="$classgraph__tool_1_1BlockState.html#a32e43e7305c76921a27ad8dfc1550319",tooltip=" "];
  Node26 -> Node27 [dir="back",color="steelblue1",style="solid"];
  Node27 [label="graph_tool::BlockState\l::get_move_prob",height=0.2,width=0.4,color="grey40", fillcolor="white", style="filled",URL="$classgraph__tool_1_1BlockState.html#a3b362fab0c64d7510c4c7a47dced8a96",tooltip=" "];
  Node9 -> Node28 [dir="back",color="steelblue1",style="solid"];
  Node28 [label="graph_tool::OverlapBlock\lState::get_move_prob",height=0.2,width=0.4,color="grey40", fillcolor="white", style="filled",URL="$classgraph__tool_1_1OverlapBlockState.html#a1e0ad5c26542dac1fabd8cba2cafa321",tooltip=" "];
  Node28 -> Node29 [dir="back",color="steelblue1",style="solid"];
  Node29 [label="graph_tool::OverlapBlock\lState::get_move_prob",height=0.2,width=0.4,color="grey40", fillcolor="white", style="filled",URL="$classgraph__tool_1_1OverlapBlockState.html#af74e3f85ece34dbc22bc386762206709",tooltip=" "];
  Node9 -> Node30 [dir="back",color="steelblue1",style="solid"];
  Node30 [label="graph_tool::VICenterState\l::get_move_prob",height=0.2,width=0.4,color="grey40", fillcolor="white", style="filled",URL="$classgraph__tool_1_1VICenterState.html#a86416fe59051eb0db385711d644f172e",tooltip=" "];
  Node30 -> Node31 [dir="back",color="steelblue1",style="solid"];
  Node31 [label="graph_tool::VICenterState\l::get_move_prob",height=0.2,width=0.4,color="grey40", fillcolor="white", style="filled",URL="$classgraph__tool_1_1VICenterState.html#ae32555a26389ee02594cb15008c99b66",tooltip=" "];
  Node9 -> Node32 [dir="back",color="steelblue1",style="solid"];
  Node32 [label="graph_tool::RMICenterState\l::get_move_prob",height=0.2,width=0.4,color="grey40", fillcolor="white", style="filled",URL="$classgraph__tool_1_1RMICenterState.html#aa50f5ee88f29f5c9e67fe575dc6839e3",tooltip=" "];
  Node32 -> Node33 [dir="back",color="steelblue1",style="solid"];
  Node33 [label="graph_tool::RMICenterState\l::get_move_prob",height=0.2,width=0.4,color="grey40", fillcolor="white", style="filled",URL="$classgraph__tool_1_1RMICenterState.html#a3973ac8094646d6452ff91904493535e",tooltip=" "];
  Node9 -> Node34 [dir="back",color="steelblue1",style="solid"];
  Node34 [label="graph_tool::ModeClusterState\l::get_move_prob",height=0.2,width=0.4,color="grey40", fillcolor="white", style="filled",URL="$classgraph__tool_1_1ModeClusterState.html#a9abd9b01990612e26e583b5a0b1d03ac",tooltip=" "];
  Node34 -> Node35 [dir="back",color="steelblue1",style="solid"];
  Node35 [label="graph_tool::ModeClusterState\l::get_move_prob",height=0.2,width=0.4,color="grey40", fillcolor="white", style="filled",URL="$classgraph__tool_1_1ModeClusterState.html#ae1e985864f02eeb0c6de3e9a23889f38",tooltip=" "];
  Node9 -> Node36 [dir="back",color="steelblue1",style="solid"];
  Node36 [label="graph_tool::partition\l_stats::get_partition_dl",height=0.2,width=0.4,color="red", fillcolor="#FFF0F0", style="filled",URL="$classgraph__tool_1_1partition__stats.html#a8fc83cf859391da1193c731fe96b7f64",tooltip=" "];
  Node36 -> Node11 [dir="back",color="steelblue1",style="solid"];
  Node9 -> Node38 [dir="back",color="steelblue1",style="solid"];
  Node38 [label="marginal_count_entropy",height=0.2,width=0.4,color="red", fillcolor="#FFF0F0", style="filled",URL="$graph__blockmodel__uncertain__marginal_8cc.html#a94e5ade176fccf3d16242e4d92835d70",tooltip=" "];
  Node9 -> Node40 [dir="back",color="steelblue1",style="solid"];
  Node40 [label="graph_tool::Multilevel\l::mh_sweep",height=0.2,width=0.4,color="grey40", fillcolor="white", style="filled",URL="$structgraph__tool_1_1Multilevel.html#a4633ebfd73810ec9c8ef80a90d5d11cf",tooltip=" "];
  Node9 -> Node41 [dir="back",color="steelblue1",style="solid"];
  Node41 [label="graph_tool::Multilevel\l::mh_sweep_prob",height=0.2,width=0.4,color="red", fillcolor="#FFF0F0", style="filled",URL="$structgraph__tool_1_1Multilevel.html#aa481910dbb3989412fd57110f6c0752e",tooltip=" "];
  Node9 -> Node44 [dir="back",color="steelblue1",style="solid"];
  Node44 [label="graph_tool::LatentClosure\l::LatentClosureState::modify\l_edge_a_dS",height=0.2,width=0.4,color="grey40", fillcolor="white", style="filled",URL="$classgraph__tool_1_1LatentClosure_1_1LatentClosureState.html#aa9d80adb18cd30751b1a04ecfa33eb64",tooltip=" "];
  Node9 -> Node45 [dir="back",color="steelblue1",style="solid"];
  Node45 [label="graph_tool::LatentClosure\l::LatentClosureState::modify\l_edge_g_dS",height=0.2,width=0.4,color="grey40", fillcolor="white", style="filled",URL="$classgraph__tool_1_1LatentClosure_1_1LatentClosureState.html#a9eceee6157c91bcce5829014172d25b2",tooltip=" "];
  Node9 -> Node23 [dir="back",color="steelblue1",style="solid"];
  Node9 -> Node43 [dir="back",color="steelblue1",style="solid"];
  Node43 [label="graph_tool::Multilevel\l::move_proposal",height=0.2,width=0.4,color="grey40", fillcolor="white", style="filled",URL="$structgraph__tool_1_1Multilevel.html#a2d2fb774193324f6d242041f01d9aaf5",tooltip=" "];
  Node9 -> Node46 [dir="back",color="steelblue1",style="solid"];
  Node46 [label="graph_tool::PartitionMode\lState::virtual_change_partition",height=0.2,width=0.4,color="grey40", fillcolor="white", style="filled",URL="$classgraph__tool_1_1PartitionModeState.html#a9a176ace6f2ac1fce21a0b6adbf83f8f",tooltip=" "];
  Node9 -> Node16 [dir="back",color="steelblue1",style="solid"];
  Node9 -> Node47 [dir="back",color="steelblue1",style="solid"];
  Node47 [label="graph_tool::MCMC::MCMCLatent\lLayersState::virtual_move_dS",height=0.2,width=0.4,color="grey40", fillcolor="white", style="filled",URL="$classgraph__tool_1_1MCMC_1_1MCMCLatentLayersState.html#aed5135742891b1e184339eb7a42ecb85",tooltip=" "];
  Node9 -> Node48 [dir="back",color="steelblue1",style="solid"];
  Node48 [label="graph_tool::MCMC::MCMCHist\lState::virtual_move_dS",height=0.2,width=0.4,color="grey40", fillcolor="white", style="filled",URL="$classgraph__tool_1_1MCMC_1_1MCMCHistState.html#aad305b3e45f2ed64b0be23ba6cde60ee",tooltip=" "];
  Node9 -> Node49 [dir="back",color="steelblue1",style="solid"];
  Node49 [label="graph_tool::MCMC::MCMCUncertain\lState::virtual_move_dS",height=0.2,width=0.4,color="grey40", fillcolor="white", style="filled",URL="$classgraph__tool_1_1MCMC_1_1MCMCUncertainState.html#a403a7e9d017dbfce0d4192eb8d327fa7",tooltip=" "];
  Node9 -> Node50 [dir="back",color="steelblue1",style="solid"];
  Node50 [label="graph_tool::vterm",height=0.2,width=0.4,color="red", fillcolor="#FFF0F0", style="filled",URL="$namespacegraph__tool.html#a35534f3cc197667dfc937e91bfb99214",tooltip=" "];
  Node9 -> Node58 [dir="back",color="steelblue1",style="solid"];
  Node58 [label="graph_tool::vterm_exact",height=0.2,width=0.4,color="red", fillcolor="#FFF0F0", style="filled",URL="$namespacegraph__tool.html#a42583a69c3a6ded7e7465f1c2d4414b1",tooltip=" "];
  Node1 -> Node9 [dir="back",color="steelblue1",style="solid"];
  Node1 -> Node59 [dir="back",color="steelblue1",style="solid"];
  Node59 [label="graph_tool::xlogx",height=0.2,width=0.4,color="grey40", fillcolor="white", style="filled",URL="$namespacegraph__tool.html#a9ed75f0f7d682110f07788df5dc472da",tooltip=" "];
  Node59 -> Node60 [dir="back",color="steelblue1",style="solid"];
  Node60 [label="graph_tool::partition\l_stats::get_deg_dl_ent",height=0.2,width=0.4,color="red", fillcolor="#FFF0F0", style="filled",URL="$classgraph__tool_1_1partition__stats.html#ab7ac2689796fe376ef03981944a0d03f",tooltip=" "];
  Node59 -> Node63 [dir="back",color="steelblue1",style="solid"];
  Node63 [label="graph_tool::init_xlogx",height=0.2,width=0.4,color="grey40", fillcolor="white", style="filled",URL="$namespacegraph__tool.html#a59a115ed7fe0b83bad2cae1b4cc6bcdd",tooltip=" "];
  Node63 -> Node8 [dir="back",color="steelblue1",style="solid"];
  Node63 -> Node64 [dir="back",color="steelblue1",style="solid"];
  Node64 [label="graph_tool::xlogx_fast",height=0.2,width=0.4,color="red", fillcolor="#FFF0F0", style="filled",URL="$namespacegraph__tool.html#acd0efc0f2e935aea4becc57408917365",tooltip=" "];
  Node64 -> Node60 [dir="back",color="steelblue1",style="solid"];
  Node64 -> Node38 [dir="back",color="steelblue1",style="solid"];
  Node64 -> Node50 [dir="back",color="steelblue1",style="solid"];
  Node59 -> Node74 [dir="back",color="steelblue1",style="solid"];
  Node74 [label="graph_tool::PartitionMode\lState::posterior_entropy",height=0.2,width=0.4,color="grey40", fillcolor="white", style="filled",URL="$classgraph__tool_1_1PartitionModeState.html#aeab240215343aef412dfc4f8c8f70b8e",tooltip=" "];
  Node74 -> Node4 [dir="back",color="steelblue1",style="solid"];
  Node59 -> Node75 [dir="back",color="steelblue1",style="solid"];
  Node75 [label="graph_tool::ModeClusterState\l::posterior_entropy",height=0.2,width=0.4,color="grey40", fillcolor="white", style="filled",URL="$classgraph__tool_1_1ModeClusterState.html#a94a3275656f322eb239576262de6e8e1",tooltip=" "];
  Node59 -> Node64 [dir="back",color="steelblue1",style="solid"];
}
