digraph "graph_tool::get_deg"
{
 // LATEX_PDF_SIZE
  bgcolor="transparent";
  edge [fontname=Helvetica,fontsize=10,labelfontname=Helvetica,labelfontsize=10];
  node [fontname=Helvetica,fontsize=10,shape=box,height=0.2,width=0.4];
  rankdir="RL";
  Node1 [label="graph_tool::get_deg",height=0.2,width=0.4,color="gray40", fillcolor="grey60", style="filled", fontcolor="black",tooltip=" "];
  Node1 -> Node2 [dir="back",color="steelblue1",style="solid"];
  Node2 [label="graph_tool::partition\l_stats::change_vertex_degs",height=0.2,width=0.4,color="grey40", fillcolor="white", style="filled",URL="$classgraph__tool_1_1partition__stats.html#aaae8474415c66e614178ac8a8cf5fd25",tooltip=" "];
  Node2 -> Node3 [dir="back",color="steelblue1",style="solid"];
  Node3 [label="graph_tool::partition\l_stats::add_vertex",height=0.2,width=0.4,color="grey40", fillcolor="white", style="filled",URL="$classgraph__tool_1_1partition__stats.html#a848812b9c3ea55a00b3955ce0420bf8e",tooltip=" "];
  Node3 -> Node4 [dir="back",color="steelblue1",style="solid"];
  Node4 [label="graph_tool::BlockState\l::add_partition_node",height=0.2,width=0.4,color="grey40", fillcolor="white", style="filled",URL="$classgraph__tool_1_1BlockState.html#a735739ee4bad76e70a2cae7d7cffcf69",tooltip=" "];
  Node4 -> Node5 [dir="back",color="steelblue1",style="solid"];
  Node5 [label="graph_tool::BlockState\l::modify_vertex",height=0.2,width=0.4,color="grey40", fillcolor="white", style="filled",URL="$classgraph__tool_1_1BlockState.html#a791816a532ef510d7b3a0bae26088b42",tooltip=" "];
  Node4 -> Node6 [dir="back",color="steelblue1",style="solid"];
  Node6 [label="graph_tool::BlockState\l::move_vertex",height=0.2,width=0.4,color="grey40", fillcolor="white", style="filled",URL="$classgraph__tool_1_1BlockState.html#a7f90ab5729180fe379abc912a407a515",tooltip=" "];
  Node6 -> Node7 [dir="back",color="steelblue1",style="solid"];
  Node7 [label="graph_tool::BlockState\l::move_vertex",height=0.2,width=0.4,color="grey40", fillcolor="white", style="filled",URL="$classgraph__tool_1_1BlockState.html#adc2aaf33b2c5950801d94b1f57fe28dc",tooltip=" "];
  Node6 -> Node8 [dir="back",color="steelblue1",style="solid"];
  Node8 [label="graph_tool::BlockState\l::move_vertices",height=0.2,width=0.4,color="grey40", fillcolor="white", style="filled",URL="$classgraph__tool_1_1BlockState.html#abc051468cdd761a2d81a0767296cdb75",tooltip=" "];
  Node8 -> Node9 [dir="back",color="steelblue1",style="solid"];
  Node9 [label="graph_tool::BlockState\l::move_vertices",height=0.2,width=0.4,color="grey40", fillcolor="white", style="filled",URL="$classgraph__tool_1_1BlockState.html#a7684338bbb111a33e6e0bbd69d5b0e7c",tooltip=" "];
  Node6 -> Node10 [dir="back",color="steelblue1",style="solid"];
  Node10 [label="graph_tool::BlockState\l::set_partition",height=0.2,width=0.4,color="grey40", fillcolor="white", style="filled",URL="$classgraph__tool_1_1BlockState.html#ad3297c3d52cbd9987f3da12ff91aea51",tooltip=" "];
  Node3 -> Node11 [dir="back",color="steelblue1",style="solid"];
  Node11 [label="graph_tool::BlockState\l::modify_edge",height=0.2,width=0.4,color="grey40", fillcolor="white", style="filled",URL="$classgraph__tool_1_1BlockState.html#a58c36036816047d556483a17e5df3343",tooltip=" "];
  Node3 -> Node12 [dir="back",color="steelblue1",style="solid"];
  Node12 [label="graph_tool::ModeClusterState\l::move_vertex",height=0.2,width=0.4,color="grey40", fillcolor="white", style="filled",URL="$classgraph__tool_1_1ModeClusterState.html#a140f64a54f6485914c27005dad5b9f28",tooltip=" "];
  Node3 -> Node13 [dir="back",color="steelblue1",style="solid"];
  Node13 [label="graph_tool::PPState\l::move_vertex",height=0.2,width=0.4,color="grey40", fillcolor="white", style="filled",URL="$classgraph__tool_1_1PPState.html#a1ca8a506c4afba3f882dc2ad3616bcbc",tooltip=" "];
  Node2 -> Node14 [dir="back",color="steelblue1",style="solid"];
  Node14 [label="graph_tool::partition\l_stats::remove_vertex",height=0.2,width=0.4,color="grey40", fillcolor="white", style="filled",URL="$classgraph__tool_1_1partition__stats.html#a97a3645b2141dc604f380f0ac4a4ed35",tooltip=" "];
  Node14 -> Node11 [dir="back",color="steelblue1",style="solid"];
  Node14 -> Node12 [dir="back",color="steelblue1",style="solid"];
  Node14 -> Node13 [dir="back",color="steelblue1",style="solid"];
  Node14 -> Node15 [dir="back",color="steelblue1",style="solid"];
  Node15 [label="graph_tool::BlockState\l::remove_partition_node",height=0.2,width=0.4,color="grey40", fillcolor="white", style="filled",URL="$classgraph__tool_1_1BlockState.html#aba7a7ed10433a1ac1c91a34beb44daf3",tooltip=" "];
  Node15 -> Node5 [dir="back",color="steelblue1",style="solid"];
  Node15 -> Node6 [dir="back",color="steelblue1",style="solid"];
  Node1 -> Node16 [dir="back",color="steelblue1",style="solid"];
  Node16 [label="graph_tool::BlockState\l::edge_entropy_term",height=0.2,width=0.4,color="grey40", fillcolor="white", style="filled",URL="$classgraph__tool_1_1BlockState.html#afef9843e4a12cdb436f000699c0804c5",tooltip=" "];
  Node1 -> Node17 [dir="back",color="steelblue1",style="solid"];
  Node17 [label="graph_tool::partition\l_stats::get_delta_deg_dl",height=0.2,width=0.4,color="grey40", fillcolor="white", style="filled",URL="$classgraph__tool_1_1partition__stats.html#a608e904f2922c65d04f610e04133d883",tooltip=" "];
  Node17 -> Node18 [dir="back",color="steelblue1",style="solid"];
  Node18 [label="graph_tool::PPState\l::virtual_move",height=0.2,width=0.4,color="grey40", fillcolor="white", style="filled",URL="$classgraph__tool_1_1PPState.html#a1b155dd6036f93e1f6765c2ceda85886",tooltip=" "];
  Node18 -> Node19 [dir="back",color="steelblue1",style="solid"];
  Node19 [label="graph_tool::PPState\l::virtual_move",height=0.2,width=0.4,color="grey40", fillcolor="white", style="filled",URL="$classgraph__tool_1_1PPState.html#a8deda65c192ac269114e07a0d28bb587",tooltip=" "];
  Node1 -> Node20 [dir="back",color="steelblue1",style="solid"];
  Node20 [label="graph_tool::BlockState\l::get_move_prob",height=0.2,width=0.4,color="grey40", fillcolor="white", style="filled",URL="$classgraph__tool_1_1BlockState.html#a32e43e7305c76921a27ad8dfc1550319",tooltip=" "];
  Node20 -> Node21 [dir="back",color="steelblue1",style="solid"];
  Node21 [label="graph_tool::BlockState\l::get_move_prob",height=0.2,width=0.4,color="grey40", fillcolor="white", style="filled",URL="$classgraph__tool_1_1BlockState.html#a3b362fab0c64d7510c4c7a47dced8a96",tooltip=" "];
  Node1 -> Node22 [dir="back",color="steelblue1",style="solid"];
  Node22 [label="graph_tool::SBMEdgeSampler\l::log_prob",height=0.2,width=0.4,color="grey40", fillcolor="white", style="filled",URL="$classgraph__tool_1_1SBMEdgeSampler.html#aad55bbf83e912f5790be8040e61ce75b",tooltip=" "];
  Node22 -> Node23 [dir="back",color="steelblue1",style="solid"];
  Node23 [label="graph_tool::MCMC::MCMCLatent\lLayersState::virtual_move_dS",height=0.2,width=0.4,color="grey40", fillcolor="white", style="filled",URL="$classgraph__tool_1_1MCMC_1_1MCMCLatentLayersState.html#aed5135742891b1e184339eb7a42ecb85",tooltip=" "];
  Node22 -> Node24 [dir="back",color="steelblue1",style="solid"];
  Node24 [label="graph_tool::MCMC::MCMCUncertain\lState::virtual_move_dS",height=0.2,width=0.4,color="grey40", fillcolor="white", style="filled",URL="$classgraph__tool_1_1MCMC_1_1MCMCUncertainState.html#a403a7e9d017dbfce0d4192eb8d327fa7",tooltip=" "];
  Node22 -> Node25 [dir="back",color="steelblue1",style="solid"];
  Node25 [label="graph_tool::MCMC::MCMCDynamics\lState::virtual_move_dS",height=0.2,width=0.4,color="grey40", fillcolor="white", style="filled",URL="$classgraph__tool_1_1MCMC_1_1MCMCDynamicsState.html#a88f1182460dae79005c8cb477d9e1315",tooltip=" "];
  Node1 -> Node26 [dir="back",color="steelblue1",style="solid"];
  Node26 [label="graph_tool::gen_graph\l::operator()",height=0.2,width=0.4,color="grey40", fillcolor="white", style="filled",URL="$structgraph__tool_1_1gen__graph.html#ae4918d50120d5fd123a5c363df532285",tooltip=" "];
  Node1 -> Node27 [dir="back",color="steelblue1",style="solid"];
  Node27 [label="graph_tool::partition\l_stats::partition_stats",height=0.2,width=0.4,color="grey40", fillcolor="white", style="filled",URL="$classgraph__tool_1_1partition__stats.html#abeee229796a1bc1c2327628e6ce64f8f",tooltip=" "];
  Node1 -> Node28 [dir="back",color="steelblue1",style="solid"];
  Node28 [label="graph_tool::SBMEdgeSampler\l::SBMEdgeSampler",height=0.2,width=0.4,color="grey40", fillcolor="white", style="filled",URL="$classgraph__tool_1_1SBMEdgeSampler.html#ac69af3d31cfe7245b3f7d86832305d1e",tooltip=" "];
  Node1 -> Node29 [dir="back",color="steelblue1",style="solid"];
  Node29 [label="graph_tool::SBMEdgeSampler\l::update_edge",height=0.2,width=0.4,color="grey40", fillcolor="white", style="filled",URL="$classgraph__tool_1_1SBMEdgeSampler.html#ab218bbd4bcb8af9381f33382811f0cd0",tooltip=" "];
  Node29 -> Node30 [dir="back",color="steelblue1",style="solid"];
  Node30 [label="graph_tool::MCMC::MCMCLatent\lLayersState::perform_move",height=0.2,width=0.4,color="grey40", fillcolor="white", style="filled",URL="$classgraph__tool_1_1MCMC_1_1MCMCLatentLayersState.html#a5cdade635f348124be3de20cfaf9cbd3",tooltip=" "];
  Node29 -> Node31 [dir="back",color="steelblue1",style="solid"];
  Node31 [label="graph_tool::MCMC::MCMCUncertain\lState::perform_move",height=0.2,width=0.4,color="grey40", fillcolor="white", style="filled",URL="$classgraph__tool_1_1MCMC_1_1MCMCUncertainState.html#a2e14451a695a7a5fbc6c09cfa330471a",tooltip=" "];
  Node29 -> Node32 [dir="back",color="steelblue1",style="solid"];
  Node32 [label="graph_tool::MCMC::MCMCDynamics\lState::perform_move",height=0.2,width=0.4,color="grey40", fillcolor="white", style="filled",URL="$classgraph__tool_1_1MCMC_1_1MCMCDynamicsState.html#a6eaae334bd95464f6e11cf4bd9d68efe",tooltip=" "];
  Node1 -> Node33 [dir="back",color="steelblue1",style="solid"];
  Node33 [label="graph_tool::BlockState\l::virtual_move_sparse",height=0.2,width=0.4,color="grey40", fillcolor="white", style="filled",URL="$classgraph__tool_1_1BlockState.html#a272faad8ffbd1fb150c39d97284420a9",tooltip=" "];
}
