digraph "graph_tool::get_similarity_fast"
{
 // LATEX_PDF_SIZE
  bgcolor="transparent";
  edge [fontname=Helvetica,fontsize=10,labelfontname=Helvetica,labelfontsize=10];
  node [fontname=Helvetica,fontsize=10,shape=box,height=0.2,width=0.4];
  rankdir="LR";
  Node1 [label="graph_tool::get_similarity_fast",height=0.2,width=0.4,color="gray40", fillcolor="grey60", style="filled", fontcolor="black",tooltip=" "];
  Node1 -> Node2 [color="steelblue1",style="solid"];
  Node2 [label="idx_map::clear",height=0.2,width=0.4,color="grey40", fillcolor="white", style="filled",URL="$classidx__map.html#a894b49c1fd2228a756ae5f4bf09bbb1a",tooltip=" "];
  Node2 -> Node3 [color="steelblue1",style="solid"];
  Node3 [label="idx_map::get_pos",height=0.2,width=0.4,color="grey40", fillcolor="white", style="filled",URL="$classidx__map.html#a1a6279629ebd6ef59a80b394d786a210",tooltip=" "];
  Node1 -> Node4 [color="steelblue1",style="solid"];
  Node4 [label="idx_set::clear",height=0.2,width=0.4,color="grey40", fillcolor="white", style="filled",URL="$classidx__set.html#a0da800934169bdf0e7335f648271cc5a",tooltip=" "];
  Node4 -> Node5 [color="steelblue1",style="solid"];
  Node5 [label="idx_set::get_pos",height=0.2,width=0.4,color="grey40", fillcolor="white", style="filled",URL="$classidx__set.html#a56e207910e0227f4eeccfd5de78d1220",tooltip=" "];
  Node1 -> Node6 [color="steelblue1",style="solid"];
  Node6 [label="boost::get",height=0.2,width=0.4,color="grey40", fillcolor="white", style="filled",URL="$namespaceboost.html#a16c10260e678081f48c16db5bdd0f5ea",tooltip=" "];
  Node6 -> Node6 [color="steelblue1",style="solid"];
  Node6 -> Node7 [color="steelblue1",style="solid"];
  Node7 [label="boost::undirected_adaptor\l::original_graph",height=0.2,width=0.4,color="grey40", fillcolor="white", style="filled",URL="$classboost_1_1undirected__adaptor.html#a11e557bb4f3d7c15354f98390f1d3644",tooltip=" "];
  Node1 -> Node8 [color="steelblue1",style="solid"];
  Node8 [label="graph_tool::parallel\l_loop_no_spawn",height=0.2,width=0.4,color="grey40", fillcolor="white", style="filled",URL="$namespacegraph__tool.html#aa2cf75c26b66de2d41606e25837d87b6",tooltip=" "];
  Node1 -> Node9 [color="steelblue1",style="solid"];
  Node9 [label="graph_tool::vertex\l_difference",height=0.2,width=0.4,color="grey40", fillcolor="white", style="filled",URL="$namespacegraph__tool.html#aa7ad1223ed39a933192cc515f25f199e",tooltip=" "];
  Node9 -> Node6 [color="steelblue1",style="solid"];
  Node9 -> Node10 [color="steelblue1",style="solid"];
  Node10 [label="graph_tool::out_edges\l_range",height=0.2,width=0.4,color="grey40", fillcolor="white", style="filled",URL="$namespacegraph__tool.html#a347f8a3e503c35e8a4d54184d8d90a6f",tooltip=" "];
  Node10 -> Node11 [color="steelblue1",style="solid"];
  Node11 [label="graph_tool::mk_range",height=0.2,width=0.4,color="grey40", fillcolor="white", style="filled",URL="$namespacegraph__tool.html#a6ecc1e46efb4f620acabfe5728f7a2a6",tooltip=" "];
  Node9 -> Node12 [color="steelblue1",style="solid"];
  Node12 [label="graph_tool::target",height=0.2,width=0.4,color="grey40", fillcolor="white", style="filled",URL="$namespacegraph__tool.html#aff9f07ca294560a9de57ab80deffa0cc",tooltip=" "];
  Node12 -> Node13 [color="steelblue1",style="solid"];
  Node13 [label="boost::edges",height=0.2,width=0.4,color="grey40", fillcolor="white", style="filled",URL="$namespaceboost.html#a3ac91f028a5f50644ba12e9e803bb2f8",tooltip=" "];
  Node13 -> Node13 [color="steelblue1",style="solid"];
  Node13 -> Node7 [color="steelblue1",style="solid"];
  Node12 -> Node14 [color="steelblue1",style="solid"];
  Node14 [label="graph_tool::source",height=0.2,width=0.4,color="grey40", fillcolor="white", style="filled",URL="$namespacegraph__tool.html#a0b44c0af404cec1513acb7b9602557f8",tooltip=" "];
  Node14 -> Node13 [color="steelblue1",style="solid"];
  Node14 -> Node14 [color="steelblue1",style="solid"];
  Node14 -> Node12 [color="steelblue1",style="solid"];
  Node12 -> Node12 [color="steelblue1",style="solid"];
  Node1 -> Node15 [color="steelblue1",style="solid"];
  Node15 [label="graph_tool::vertices\l_range",height=0.2,width=0.4,color="grey40", fillcolor="white", style="filled",URL="$namespacegraph__tool.html#a92ab479b81d8c9a030d42854fefabf1a",tooltip=" "];
  Node15 -> Node11 [color="steelblue1",style="solid"];
  Node15 -> Node16 [color="steelblue1",style="solid"];
  Node16 [label="boost::vertices",height=0.2,width=0.4,color="grey40", fillcolor="white", style="filled",URL="$namespaceboost.html#a0bc22071c353fa26cd0d16cc817ddde2",tooltip=" "];
  Node16 -> Node7 [color="steelblue1",style="solid"];
  Node16 -> Node16 [color="steelblue1",style="solid"];
}
