digraph "boost::source"
{
 // LATEX_PDF_SIZE
  bgcolor="transparent";
  edge [fontname=Helvetica,fontsize=10,labelfontname=Helvetica,labelfontsize=10];
  node [fontname=Helvetica,fontsize=10,shape=box,height=0.2,width=0.4];
  rankdir="RL";
  Node1 [label="boost::source",height=0.2,width=0.4,color="gray40", fillcolor="grey60", style="filled", fontcolor="black",tooltip=" "];
  Node1 -> Node2 [dir="back",color="steelblue1",style="solid"];
  Node2 [label="boost::detail::in_edge\l_pred::operator()",height=0.2,width=0.4,color="grey40", fillcolor="white", style="filled",URL="$structboost_1_1detail_1_1in__edge__pred.html#a74640fd0dd03cf346c9fef6d1b855783",tooltip=" "];
  Node1 -> Node3 [dir="back",color="steelblue1",style="solid"];
  Node3 [label="boost::detail::edge\l_pred::operator()",height=0.2,width=0.4,color="grey40", fillcolor="white", style="filled",URL="$structboost_1_1detail_1_1edge__pred.html#aac007cea4f806d84d6f0460259ef3347",tooltip=" "];
  Node1 -> Node4 [dir="back",color="steelblue1",style="solid"];
  Node4 [label="graph_tool::get_trust\l_transitivity::operator()",height=0.2,width=0.4,color="grey40", fillcolor="white", style="filled",URL="$structgraph__tool_1_1get__trust__transitivity.html#ac827027c11f3711af2981a2e40deaad6",tooltip=" "];
  Node1 -> Node1 [dir="back",color="steelblue1",style="solid"];
  Node1 -> Node5 [dir="back",color="steelblue1",style="solid"];
  Node5 [label="boost::target",height=0.2,width=0.4,color="grey40", fillcolor="white", style="filled",URL="$namespaceboost.html#adc67678fbca3aa7ab5b73606b26cd9ac",tooltip=" "];
}
