digraph "graph_tool::hub_promoted"
{
 // LATEX_PDF_SIZE
  bgcolor="transparent";
  edge [fontname=Helvetica,fontsize=10,labelfontname=Helvetica,labelfontsize=10];
  node [fontname=Helvetica,fontsize=10,shape=box,height=0.2,width=0.4];
  rankdir="RL";
  Node1 [label="graph_tool::hub_promoted",height=0.2,width=0.4,color="gray40", fillcolor="grey60", style="filled", fontcolor="black",tooltip=" "];
  Node1 -> Node2 [dir="back",color="steelblue1",style="solid"];
  Node2 [label="get_hub_promoted_similarity",height=0.2,width=0.4,color="grey40", fillcolor="white", style="filled",URL="$graph__vertex__similarity_8cc.html#aa45f0d331a97ea2b36f65ec7884a7792",tooltip=" "];
  Node2 -> Node3 [dir="back",color="steelblue1",style="solid"];
  Node3 [label="export_vertex_similarity",height=0.2,width=0.4,color="grey40", fillcolor="white", style="filled",URL="$graph__vertex__similarity_8cc.html#a5e751f814852d735e1880957e98356d4",tooltip=" "];
  Node3 -> Node4 [dir="back",color="steelblue1",style="solid"];
  Node4 [label="BOOST_PYTHON_MODULE",height=0.2,width=0.4,color="grey40", fillcolor="white", style="filled",URL="$graph__topology_8cc.html#a1f8068349bfdbea49136a3447b5239ac",tooltip=" "];
  Node1 -> Node5 [dir="back",color="steelblue1",style="solid"];
  Node5 [label="get_hub_promoted_similarity\l_pairs",height=0.2,width=0.4,color="grey40", fillcolor="white", style="filled",URL="$graph__vertex__similarity_8cc.html#a619d92f77c6b65f60b936b7f8c6f00c3",tooltip=" "];
  Node5 -> Node3 [dir="back",color="steelblue1",style="solid"];
}
