digraph "boost::add_edge"
{
 // LATEX_PDF_SIZE
  bgcolor="transparent";
  edge [fontname=Helvetica,fontsize=10,labelfontname=Helvetica,labelfontsize=10];
  node [fontname=Helvetica,fontsize=10,shape=box,height=0.2,width=0.4];
  rankdir="RL";
  Node1 [label="boost::add_edge",height=0.2,width=0.4,color="gray40", fillcolor="grey60", style="filled", fontcolor="black",tooltip=" "];
  Node1 -> Node2 [dir="back",color="steelblue1",style="solid"];
  Node2 [label="graph_tool::BlockState\l::add_edge",height=0.2,width=0.4,color="grey40", fillcolor="white", style="filled",URL="$classgraph__tool_1_1BlockState.html#adb5d6dd90995d63e2ec33a519db87a0f",tooltip=" "];
  Node1 -> Node3 [dir="back",color="steelblue1",style="solid"];
  Node3 [label="graph_tool::LatentLayers\l::LatentLayersState::add_edge",height=0.2,width=0.4,color="grey40", fillcolor="white", style="filled",URL="$classgraph__tool_1_1LatentLayers_1_1LatentLayersState.html#a16e0538a7fed82010d316ffc30810042",tooltip=" "];
  Node1 -> Node1 [dir="back",color="steelblue1",style="solid"];
  Node1 -> Node4 [dir="back",color="steelblue1",style="solid"];
  Node4 [label="graph_tool::BlockState\l::add_vertices",height=0.2,width=0.4,color="grey40", fillcolor="white", style="filled",URL="$classgraph__tool_1_1BlockState.html#aac9430ba2828396e41d13cf53c1c7b4f",tooltip=" "];
  Node4 -> Node5 [dir="back",color="steelblue1",style="solid"];
  Node5 [label="graph_tool::BlockState\l::add_vertices",height=0.2,width=0.4,color="grey40", fillcolor="white", style="filled",URL="$classgraph__tool_1_1BlockState.html#ac710b0325f399d5a162db9c8fde1205b",tooltip=" "];
  Node1 -> Node6 [dir="back",color="steelblue1",style="solid"];
  Node6 [label="graph_tool::augment\l_graph",height=0.2,width=0.4,color="red", fillcolor="#FFF0F0", style="filled",URL="$namespacegraph__tool.html#aaaf196584218d9fb8f28e8b808f54c24",tooltip=" "];
  Node6 -> Node7 [dir="back",color="steelblue1",style="solid"];
  Node7 [label="get_kolmogorov_max\l_flow::operator()",height=0.2,width=0.4,color="grey40", fillcolor="white", style="filled",URL="$structget__kolmogorov__max__flow.html#a274b028494255fd9b726981fdf655211",tooltip=" "];
  Node1 -> Node10 [dir="back",color="steelblue1",style="solid"];
  Node10 [label="graph_tool::collect\l_marginal",height=0.2,width=0.4,color="red", fillcolor="#FFF0F0", style="filled",URL="$namespacegraph__tool.html#a2b7b04d1e8d23d585f7648f77bf34a3f",tooltip=" "];
  Node1 -> Node16 [dir="back",color="steelblue1",style="solid"];
  Node16 [label="graph_tool::add_edge\l_list_hash::dispatch",height=0.2,width=0.4,color="red", fillcolor="#FFF0F0", style="filled",URL="$structgraph__tool_1_1add__edge__list__hash.html#aa63178cbfdc0b116200a749116746351",tooltip=" "];
  Node1 -> Node18 [dir="back",color="steelblue1",style="solid"];
  Node18 [label="export_python_interface",height=0.2,width=0.4,color="red", fillcolor="#FFF0F0", style="filled",URL="$graph__python__interface_8cc.html#a1498ae5369c94819aa210b0c3c4020ee",tooltip=" "];
  Node1 -> Node20 [dir="back",color="steelblue1",style="solid"];
  Node20 [label="graph_tool::gml_state\l::finish_list",height=0.2,width=0.4,color="grey40", fillcolor="white", style="filled",URL="$classgraph__tool_1_1gml__state.html#a8b6e477460112031edf28a21db72c44f",tooltip=" "];
  Node1 -> Node21 [dir="back",color="steelblue1",style="solid"];
  Node21 [label="graph_tool::gen_knn",height=0.2,width=0.4,color="grey40", fillcolor="white", style="filled",URL="$namespacegraph__tool.html#aedecff9ccc775204c28a9c0594253fba",tooltip=" "];
  Node1 -> Node22 [dir="back",color="steelblue1",style="solid"];
  Node22 [label="graph_tool::gen_knn\l_exact",height=0.2,width=0.4,color="grey40", fillcolor="white", style="filled",URL="$namespacegraph__tool.html#afa130b5c547a08c7f9a5fe56f3c841c9",tooltip=" "];
  Node1 -> Node23 [dir="back",color="steelblue1",style="solid"];
  Node23 [label="graph_tool::gen_maxent_sbm",height=0.2,width=0.4,color="grey40", fillcolor="white", style="filled",URL="$namespacegraph__tool.html#a6d194ff5d02ef976a3bd2676b97fe5c6",tooltip=" "];
  Node1 -> Node24 [dir="back",color="steelblue1",style="solid"];
  Node24 [label="graph_tool::gen_sbm",height=0.2,width=0.4,color="grey40", fillcolor="white", style="filled",URL="$namespacegraph__tool.html#a94a3aaa5bacd3f1c6da72f98f1e4514b",tooltip=" "];
  Node1 -> Node25 [dir="back",color="steelblue1",style="solid"];
  Node25 [label="graph_tool::gen_triadic\l_closure",height=0.2,width=0.4,color="red", fillcolor="#FFF0F0", style="filled",URL="$namespacegraph__tool.html#a17d2a5fbb51b7828eba646ddf34abd14",tooltip=" "];
  Node1 -> Node28 [dir="back",color="steelblue1",style="solid"];
  Node28 [label="graph_tool::get_contingency\l_graph",height=0.2,width=0.4,color="grey40", fillcolor="white", style="filled",URL="$namespacegraph__tool.html#a79e13c157d22c2aeb485491025192e51",tooltip=" "];
  Node1 -> Node29 [dir="back",color="steelblue1",style="solid"];
  Node29 [label="get_eg_overlap",height=0.2,width=0.4,color="red", fillcolor="#FFF0F0", style="filled",URL="$graph__blockmodel__overlap_8cc.html#a79e6e61f4a3378fe97619a1ad75f1758",tooltip=" "];
  Node1 -> Node31 [dir="back",color="steelblue1",style="solid"];
  Node31 [label="graph_tool::get_latent\l_multigraph",height=0.2,width=0.4,color="red", fillcolor="#FFF0F0", style="filled",URL="$namespacegraph__tool.html#ad1b0c8e3d7515e70e9db49e187674c4d",tooltip=" "];
  Node1 -> Node34 [dir="back",color="steelblue1",style="solid"];
  Node34 [label="graph_tool::graph_copy",height=0.2,width=0.4,color="red", fillcolor="#FFF0F0", style="filled",URL="$namespacegraph__tool.html#aa63eb2c27cb68f9881a18f0ddf4883b6",tooltip=" "];
  Node1 -> Node37 [dir="back",color="steelblue1",style="solid"];
  Node37 [label="iter_mh",height=0.2,width=0.4,color="red", fillcolor="#FFF0F0", style="filled",URL="$graph__clique__decomposition_8hh.html#adcaebfee7a9237faf258e03298261ac8",tooltip=" "];
  Node1 -> Node40 [dir="back",color="steelblue1",style="solid"];
  Node40 [label="graph_tool::make_subgraph",height=0.2,width=0.4,color="red", fillcolor="#FFF0F0", style="filled",URL="$namespacegraph__tool.html#a05f6109242f819150e9fd8a1f6e3c563",tooltip=" "];
  Node1 -> Node42 [dir="back",color="steelblue1",style="solid"];
  Node42 [label="graph_tool::maximum\l_bipartite_weighted\l_imperfect_matching",height=0.2,width=0.4,color="grey40", fillcolor="white", style="filled",URL="$namespacegraph__tool.html#a0c7a350aa83d4a65efed62a2db888884",tooltip=" "];
  Node42 -> Node43 [dir="back",color="steelblue1",style="solid"];
  Node43 [label="graph_tool::maximum\l_bipartite_weighted\l_matching",height=0.2,width=0.4,color="red", fillcolor="#FFF0F0", style="filled",URL="$namespacegraph__tool.html#adecc3b94387297164c5746bfbb1ff4ca",tooltip=" "];
  Node1 -> Node43 [dir="back",color="steelblue1",style="solid"];
  Node1 -> Node64 [dir="back",color="steelblue1",style="solid"];
  Node64 [label="graph_tool::maximum\l_bipartite_weighted\l_perfect_matching",height=0.2,width=0.4,color="grey40", fillcolor="white", style="filled",URL="$namespacegraph__tool.html#a35462bc5ea627d1ee91177535c680038",tooltip=" "];
  Node64 -> Node42 [dir="back",color="steelblue1",style="solid"];
  Node1 -> Node65 [dir="back",color="steelblue1",style="solid"];
  Node65 [label="graph_tool::BlockState\l::modify_edge",height=0.2,width=0.4,color="grey40", fillcolor="white", style="filled",URL="$classgraph__tool_1_1BlockState.html#a58c36036816047d556483a17e5df3343",tooltip=" "];
  Node1 -> Node66 [dir="back",color="steelblue1",style="solid"];
  Node66 [label="graph_tool::LatentClosure\l::LatentClosureState::modify_edge_g",height=0.2,width=0.4,color="grey40", fillcolor="white", style="filled",URL="$classgraph__tool_1_1LatentClosure_1_1LatentClosureState.html#a9faa5aeb149c088a31dc3395c3b066d0",tooltip=" "];
  Node1 -> Node67 [dir="back",color="steelblue1",style="solid"];
  Node67 [label="graph_tool::add_edge\l_list_hash::numpy_dispatch",height=0.2,width=0.4,color="red", fillcolor="#FFF0F0", style="filled",URL="$structgraph__tool_1_1add__edge__list__hash.html#a1657316e1d9a7835fc6e5ebc955d91ef",tooltip=" "];
  Node1 -> Node68 [dir="back",color="steelblue1",style="solid"];
  Node68 [label="graph_tool::get_community\l_network_edges::operator()",height=0.2,width=0.4,color="grey40", fillcolor="white", style="filled",URL="$structgraph__tool_1_1get__community__network__edges.html#a93462801658b339e5ec437b706119061",tooltip=" "];
  Node1 -> Node69 [dir="back",color="steelblue1",style="solid"];
  Node69 [label="get_line_graph::operator()",height=0.2,width=0.4,color="grey40", fillcolor="white", style="filled",URL="$structget__line__graph.html#ad850aecf3fc70177b5959ddabef33e67",tooltip=" "];
  Node1 -> Node70 [dir="back",color="steelblue1",style="solid"];
  Node70 [label="do_graph_copy::operator()",height=0.2,width=0.4,color="grey40", fillcolor="white", style="filled",URL="$structdo__graph__copy.html#a4cba601bccd3c8e9e22a732895455582",tooltip=" "];
  Node1 -> Node71 [dir="back",color="steelblue1",style="solid"];
  Node71 [label="graph_tool::add_new\l_edge::operator()",height=0.2,width=0.4,color="grey40", fillcolor="white", style="filled",URL="$structgraph__tool_1_1add__new__edge.html#a7f6596c2edbd440ca4a311c2e136a22b",tooltip=" "];
  Node1 -> Node72 [dir="back",color="steelblue1",style="solid"];
  Node72 [label="graph_tool::get_geometric\l::operator()",height=0.2,width=0.4,color="grey40", fillcolor="white", style="filled",URL="$structgraph__tool_1_1get__geometric.html#a783a9873c15a3c73c299392a2b5c821c",tooltip=" "];
  Node1 -> Node73 [dir="back",color="steelblue1",style="solid"];
  Node73 [label="graph_tool::get_predecessor\l_graph::operator()",height=0.2,width=0.4,color="grey40", fillcolor="white", style="filled",URL="$structgraph__tool_1_1get__predecessor__graph.html#a709eac9757daf2cc21506410a5c8c08d",tooltip=" "];
  Node1 -> Node74 [dir="back",color="steelblue1",style="solid"];
  Node74 [label="graph_tool::add_edge\l_list::dispatch::operator()",height=0.2,width=0.4,color="grey40", fillcolor="white", style="filled",URL="$structgraph__tool_1_1add__edge__list_1_1dispatch.html#a7d579caeaf53b3bf4138429a94621aab",tooltip=" "];
  Node1 -> Node75 [dir="back",color="steelblue1",style="solid"];
  Node75 [label="graph_tool::add_edge\l_list_iter::operator()",height=0.2,width=0.4,color="grey40", fillcolor="white", style="filled",URL="$structgraph__tool_1_1add__edge__list__iter.html#ad008fcc111270da4df2fd2c551eda34e",tooltip=" "];
  Node1 -> Node76 [dir="back",color="steelblue1",style="solid"];
  Node76 [label="graph_tool::get_complete\l::operator()",height=0.2,width=0.4,color="grey40", fillcolor="white", style="filled",URL="$structgraph__tool_1_1get__complete.html#a7ebd212e4c70056a49dd3b3ca5679d1c",tooltip=" "];
  Node1 -> Node77 [dir="back",color="steelblue1",style="solid"];
  Node77 [label="graph_tool::gen_graph\l::operator()",height=0.2,width=0.4,color="grey40", fillcolor="white", style="filled",URL="$structgraph__tool_1_1gen__graph.html#ae4918d50120d5fd123a5c363df532285",tooltip=" "];
  Node1 -> Node78 [dir="back",color="steelblue1",style="solid"];
  Node78 [label="graph_tool::get_price\l::operator()",height=0.2,width=0.4,color="grey40", fillcolor="white", style="filled",URL="$structgraph__tool_1_1get__price.html#a1093b495861da3741be957a002e121f7",tooltip=" "];
  Node1 -> Node79 [dir="back",color="steelblue1",style="solid"];
  Node79 [label="graph_tool::get_circular\l::operator()",height=0.2,width=0.4,color="grey40", fillcolor="white", style="filled",URL="$structgraph__tool_1_1get__circular.html#ab6465dfe328dc3c487acc658ede1c9c5",tooltip=" "];
  Node1 -> Node80 [dir="back",color="steelblue1",style="solid"];
  Node80 [label="graph_tool::get_lattice\l::operator()",height=0.2,width=0.4,color="grey40", fillcolor="white", style="filled",URL="$structgraph__tool_1_1get__lattice.html#ac28e82b53ad615410c7ad5e0389c49f5",tooltip=" "];
  Node1 -> Node81 [dir="back",color="steelblue1",style="solid"];
  Node81 [label="graph_tool::ErdosRewireStrategy\l::operator()",height=0.2,width=0.4,color="grey40", fillcolor="white", style="filled",URL="$classgraph__tool_1_1ErdosRewireStrategy.html#a2b0b9706ff5fa1d64f48cb1be9d737a6",tooltip=" "];
  Node1 -> Node82 [dir="back",color="steelblue1",style="solid"];
  Node82 [label="graph_tool::TradBlockRewire\lStrategy::operator()",height=0.2,width=0.4,color="grey40", fillcolor="white", style="filled",URL="$classgraph__tool_1_1TradBlockRewireStrategy.html#af24a17fd3cc42d011d755c64c77635ae",tooltip=" "];
  Node1 -> Node83 [dir="back",color="steelblue1",style="solid"];
  Node83 [label="graph_tool::graph_union\l::operator()",height=0.2,width=0.4,color="grey40", fillcolor="white", style="filled",URL="$structgraph__tool_1_1graph__union.html#af437eb1e55a83e6aab22770388461aba",tooltip=" "];
  Node1 -> Node84 [dir="back",color="steelblue1",style="solid"];
  Node84 [label="graph_tool::get_triangulation\l::edge_inserter::operator=",height=0.2,width=0.4,color="grey40", fillcolor="white", style="filled",URL="$classgraph__tool_1_1get__triangulation_1_1edge__inserter.html#a75b4998fa974afd509c07183c0cd403a",tooltip=" "];
  Node1 -> Node85 [dir="back",color="steelblue1",style="solid"];
  Node85 [label="graph_tool::read_adjacency\l_dispatch",height=0.2,width=0.4,color="grey40", fillcolor="white", style="filled",URL="$namespacegraph__tool.html#a6279fd84d4d07f0617778e0cceb2afaf",tooltip=" "];
  Node1 -> Node86 [dir="back",color="steelblue1",style="solid"];
  Node86 [label="graph_tool::residual\l_graph",height=0.2,width=0.4,color="red", fillcolor="#FFF0F0", style="filled",URL="$namespacegraph__tool.html#aa64d5a3c8b62d38840832a853feace1a",tooltip=" "];
  Node1 -> Node88 [dir="back",color="steelblue1",style="solid"];
  Node88 [label="split_layers",height=0.2,width=0.4,color="red", fillcolor="#FFF0F0", style="filled",URL="$graph__blockmodel__layers_8cc.html#ab94276cc6176a16ce16d46989d90af28",tooltip=" "];
  Node1 -> Node90 [dir="back",color="steelblue1",style="solid"];
  Node90 [label="graph_tool::swap_edge\l::swap_target",height=0.2,width=0.4,color="red", fillcolor="#FFF0F0", style="filled",URL="$structgraph__tool_1_1swap__edge.html#ae5fbde144632a9a8619c6c1ad41dabc8",tooltip=" "];
  Node1 -> Node92 [dir="back",color="steelblue1",style="solid"];
  Node92 [label="mark_planar_edge::visit\l_vertex_pair",height=0.2,width=0.4,color="grey40", fillcolor="white", style="filled",URL="$structmark__planar__edge.html#adcf33ad7cd9faab07631eb5cdd76a364",tooltip=" "];
}
