digraph "graph_tool::lap_matmat"
{
 // LATEX_PDF_SIZE
  bgcolor="transparent";
  edge [fontname=Helvetica,fontsize=10,labelfontname=Helvetica,labelfontsize=10];
  node [fontname=Helvetica,fontsize=10,shape=box,height=0.2,width=0.4];
  rankdir="RL";
  Node1 [label="graph_tool::lap_matmat",height=0.2,width=0.4,color="gray40", fillcolor="grey60", style="filled", fontcolor="black",tooltip=" "];
  Node1 -> Node2 [dir="back",color="steelblue1",style="solid"];
  Node2 [label="laplacian_matmat",height=0.2,width=0.4,color="grey40", fillcolor="white", style="filled",URL="$graph__laplacian_8cc.html#a99c2830f1473094c256d2e89206d457d",tooltip=" "];
  Node2 -> Node3 [dir="back",color="steelblue1",style="solid"];
  Node3 [label="BOOST_PYTHON_MODULE",height=0.2,width=0.4,color="grey40", fillcolor="white", style="filled",URL="$graph__matrix_8cc.html#abb6ea6e9f62ad318205ada4be5efd62b",tooltip=" "];
}
