digraph "boost::_all_edges_in"
{
 // LATEX_PDF_SIZE
  bgcolor="transparent";
  edge [fontname=Helvetica,fontsize=10,labelfontname=Helvetica,labelfontsize=10];
  node [fontname=Helvetica,fontsize=10,shape=box,height=0.2,width=0.4];
  rankdir="RL";
  Node1 [label="boost::_all_edges_in",height=0.2,width=0.4,color="gray40", fillcolor="grey60", style="filled", fontcolor="black",tooltip=" "];
  Node1 -> Node1 [dir="back",color="steelblue1",style="solid"];
  Node1 -> Node2 [dir="back",color="steelblue1",style="solid"];
  Node2 [label="boost::_all_edges_out",height=0.2,width=0.4,color="grey40", fillcolor="white", style="filled",URL="$namespaceboost.html#a1595d1d08a00b9bae83910108c991eb5",tooltip=" "];
  Node1 -> Node3 [dir="back",color="steelblue1",style="solid"];
  Node3 [label="graph_tool::_all_edges\l_in_iteratorS::get_edges",height=0.2,width=0.4,color="grey40", fillcolor="white", style="filled",URL="$structgraph__tool_1_1__all__edges__in__iteratorS.html#ab24fe90f6ef7482123a8e2bc22686f2b",tooltip=" "];
}
