digraph "graph_tool::get_latent_multigraph"
{
 // LATEX_PDF_SIZE
  bgcolor="transparent";
  edge [fontname=Helvetica,fontsize=10,labelfontname=Helvetica,labelfontsize=10];
  node [fontname=Helvetica,fontsize=10,shape=box,height=0.2,width=0.4];
  rankdir="RL";
  Node1 [label="graph_tool::get_latent\l_multigraph",height=0.2,width=0.4,color="gray40", fillcolor="grey60", style="filled", fontcolor="black",tooltip=" "];
  Node1 -> Node2 [dir="back",color="steelblue1",style="solid"];
  Node2 [label="latent_multigraph",height=0.2,width=0.4,color="grey40", fillcolor="white", style="filled",URL="$graph__latent__multigraph_8cc.html#a08aaab4e2bcac4a754711d98e807c0e7",tooltip=" "];
  Node2 -> Node3 [dir="back",color="steelblue1",style="solid"];
  Node3 [label="export_latent_multigraph",height=0.2,width=0.4,color="grey40", fillcolor="white", style="filled",URL="$graph__latent__multigraph_8cc.html#a2cb5541ff07c44f60930cce629ec0b54",tooltip=" "];
  Node3 -> Node4 [dir="back",color="steelblue1",style="solid"];
  Node4 [label="BOOST_PYTHON_MODULE",height=0.2,width=0.4,color="grey40", fillcolor="white", style="filled",URL="$graph__inference_8cc.html#aa52d8fe13d2a62317b6e603933a10b92",tooltip=" "];
}
