digraph "wrap_vector_owned"
{
 // LATEX_PDF_SIZE
  bgcolor="transparent";
  edge [fontname=Helvetica,fontsize=10,labelfontname=Helvetica,labelfontsize=10];
  node [fontname=Helvetica,fontsize=10,shape=box,height=0.2,width=0.4];
  rankdir="RL";
  Node1 [label="wrap_vector_owned",height=0.2,width=0.4,color="gray40", fillcolor="grey60", style="filled", fontcolor="black",tooltip=" "];
  Node1 -> Node2 [dir="back",color="steelblue1",style="solid"];
  Node2 [label="CircuitVisitor::cycle",height=0.2,width=0.4,color="grey40", fillcolor="white", style="filled",URL="$structCircuitVisitor.html#a278ac1e80d1cb9fea0441c14958df168",tooltip=" "];
  Node1 -> Node3 [dir="back",color="steelblue1",style="solid"];
  Node3 [label="do_label_biconnected\l_components",height=0.2,width=0.4,color="grey40", fillcolor="white", style="filled",URL="$graph__components_8cc.html#a30f9bdd90a026163123236cbe44018a6",tooltip=" "];
  Node3 -> Node4 [dir="back",color="steelblue1",style="solid"];
  Node4 [label="export_components",height=0.2,width=0.4,color="grey40", fillcolor="white", style="filled",URL="$graph__components_8cc.html#a21c5230bd90cdfcddeefe86a355a552d",tooltip=" "];
  Node4 -> Node5 [dir="back",color="steelblue1",style="solid"];
  Node5 [label="BOOST_PYTHON_MODULE",height=0.2,width=0.4,color="grey40", fillcolor="white", style="filled",URL="$graph__topology_8cc.html#a1f8068349bfdbea49136a3447b5239ac",tooltip=" "];
  Node1 -> Node6 [dir="back",color="steelblue1",style="solid"];
  Node6 [label="do_label_components",height=0.2,width=0.4,color="grey40", fillcolor="white", style="filled",URL="$graph__components_8cc.html#acb7981950559331266138735dd83d8a7",tooltip=" "];
  Node6 -> Node4 [dir="back",color="steelblue1",style="solid"];
  Node1 -> Node7 [dir="back",color="steelblue1",style="solid"];
  Node7 [label="export_mode_cluster\l_state",height=0.2,width=0.4,color="grey40", fillcolor="white", style="filled",URL="$graph__partition__mode__clustering_8cc.html#af92c76b15a878afa8ff37687cee36dd2",tooltip=" "];
  Node7 -> Node8 [dir="back",color="steelblue1",style="solid"];
  Node8 [label="BOOST_PYTHON_MODULE",height=0.2,width=0.4,color="grey40", fillcolor="white", style="filled",URL="$graph__inference_8cc.html#aa52d8fe13d2a62317b6e603933a10b92",tooltip=" "];
  Node1 -> Node9 [dir="back",color="steelblue1",style="solid"];
  Node9 [label="export_partition_mode",height=0.2,width=0.4,color="grey40", fillcolor="white", style="filled",URL="$graph__partition__mode_8cc.html#a5d5ff6a7a64cf2a1c328796ed057c478",tooltip=" "];
  Node9 -> Node8 [dir="back",color="steelblue1",style="solid"];
  Node1 -> Node10 [dir="back",color="steelblue1",style="solid"];
  Node10 [label="graph_tool::get_degree_list",height=0.2,width=0.4,color="grey40", fillcolor="white", style="filled",URL="$namespacegraph__tool.html#accf9ac850ea9139ba3870a2e07e8ffee",tooltip=" "];
  Node10 -> Node11 [dir="back",color="steelblue1",style="solid"];
  Node11 [label="export_python_interface",height=0.2,width=0.4,color="grey40", fillcolor="white", style="filled",URL="$graph__python__interface_8cc.html#a1498ae5369c94819aa210b0c3c4020ee",tooltip=" "];
  Node11 -> Node12 [dir="back",color="steelblue1",style="solid"];
  Node12 [label="BOOST_PYTHON_MODULE",height=0.2,width=0.4,color="grey40", fillcolor="white", style="filled",URL="$graph__bind_8cc.html#a1cfcb8b2d5d1515e7dd3ffd8e831dae6",tooltip=" "];
  Node1 -> Node13 [dir="back",color="steelblue1",style="solid"];
  Node13 [label="graph_tool::get_edge_list",height=0.2,width=0.4,color="grey40", fillcolor="white", style="filled",URL="$namespacegraph__tool.html#a6c2221d61d96503a8d1f0b0edb85e63d",tooltip=" "];
  Node1 -> Node14 [dir="back",color="steelblue1",style="solid"];
  Node14 [label="get_max_cliques",height=0.2,width=0.4,color="grey40", fillcolor="white", style="filled",URL="$graph__maximal__cliques_8cc.html#a57276f3c5f45afbd6e8fce53b8dd8277",tooltip=" "];
  Node14 -> Node15 [dir="back",color="steelblue1",style="solid"];
  Node15 [label="export_max_cliques",height=0.2,width=0.4,color="grey40", fillcolor="white", style="filled",URL="$graph__maximal__cliques_8cc.html#a6baf4fafabbeffd824e76492179533e4",tooltip=" "];
  Node15 -> Node5 [dir="back",color="steelblue1",style="solid"];
  Node1 -> Node16 [dir="back",color="steelblue1",style="solid"];
  Node16 [label="get_vector_state",height=0.2,width=0.4,color="grey40", fillcolor="white", style="filled",URL="$graph__bind_8cc.html#a9f7bf1fdc77e7bb6e6f9289a90dfbc8f",tooltip=" "];
  Node1 -> Node17 [dir="back",color="steelblue1",style="solid"];
  Node17 [label="graph_tool::get_vertex_list",height=0.2,width=0.4,color="grey40", fillcolor="white", style="filled",URL="$namespacegraph__tool.html#af01755df43badf7ae08d0c86cf4c9579",tooltip=" "];
  Node1 -> Node18 [dir="back",color="steelblue1",style="solid"];
  Node18 [label="graph_tool::get_histogram\l::operator()",height=0.2,width=0.4,color="grey40", fillcolor="white", style="filled",URL="$structgraph__tool_1_1get__histogram.html#a358ce3221c0bad6187eb07292035762e",tooltip=" "];
  Node1 -> Node19 [dir="back",color="steelblue1",style="solid"];
  Node19 [label="graph_tool::get_avg\l_correlation::operator()",height=0.2,width=0.4,color="grey40", fillcolor="white", style="filled",URL="$structgraph__tool_1_1get__avg__correlation.html#abe55f90fc197523a6996a6e3cf889580",tooltip=" "];
  Node1 -> Node20 [dir="back",color="steelblue1",style="solid"];
  Node20 [label="graph_tool::get_correlation\l_histogram::operator()",height=0.2,width=0.4,color="grey40", fillcolor="white", style="filled",URL="$structgraph__tool_1_1get__correlation__histogram.html#ac0b1c1430d08ff5c9408071f168d9f50",tooltip=" "];
  Node1 -> Node21 [dir="back",color="steelblue1",style="solid"];
  Node21 [label="wrap_vector_not_owned",height=0.2,width=0.4,color="grey40", fillcolor="white", style="filled",URL="$numpy__bind_8hh.html#a809ea18074734bbcb63d5bc12579142c",tooltip=" "];
  Node21 -> Node22 [dir="back",color="steelblue1",style="solid"];
  Node22 [label="WrappedState::get_active",height=0.2,width=0.4,color="grey40", fillcolor="white", style="filled",URL="$classWrappedState.html#abf186fbfb828d342094efd6db91307b1",tooltip=" "];
  Node21 -> Node23 [dir="back",color="steelblue1",style="solid"];
  Node23 [label="graph_tool::PythonProperty\lMap::get_array_dispatch",height=0.2,width=0.4,color="grey40", fillcolor="white", style="filled",URL="$classgraph__tool_1_1PythonPropertyMap.html#ae0e8da9d5aa16b6f2581e41f79696c2a",tooltip=" "];
  Node23 -> Node24 [dir="back",color="steelblue1",style="solid"];
  Node24 [label="graph_tool::PythonProperty\lMap::get_array",height=0.2,width=0.4,color="grey40", fillcolor="white", style="filled",URL="$classgraph__tool_1_1PythonPropertyMap.html#ad464275c5e01cd80bb3f9e07a759ea6b",tooltip=" "];
}
