digraph "wrap_vector_not_owned"
{
 // LATEX_PDF_SIZE
  bgcolor="transparent";
  edge [fontname=Helvetica,fontsize=10,labelfontname=Helvetica,labelfontsize=10];
  node [fontname=Helvetica,fontsize=10,shape=box,height=0.2,width=0.4];
  rankdir="RL";
  Node1 [label="wrap_vector_not_owned",height=0.2,width=0.4,color="gray40", fillcolor="grey60", style="filled", fontcolor="black",tooltip=" "];
  Node1 -> Node2 [dir="back",color="steelblue1",style="solid"];
  Node2 [label="WrappedState::get_active",height=0.2,width=0.4,color="grey40", fillcolor="white", style="filled",URL="$classWrappedState.html#abf186fbfb828d342094efd6db91307b1",tooltip=" "];
  Node1 -> Node3 [dir="back",color="steelblue1",style="solid"];
  Node3 [label="graph_tool::PythonProperty\lMap::get_array_dispatch",height=0.2,width=0.4,color="grey40", fillcolor="white", style="filled",URL="$classgraph__tool_1_1PythonPropertyMap.html#ae0e8da9d5aa16b6f2581e41f79696c2a",tooltip=" "];
  Node3 -> Node4 [dir="back",color="steelblue1",style="solid"];
  Node4 [label="graph_tool::PythonProperty\lMap::get_array",height=0.2,width=0.4,color="grey40", fillcolor="white", style="filled",URL="$classgraph__tool_1_1PythonPropertyMap.html#ad464275c5e01cd80bb3f9e07a759ea6b",tooltip=" "];
}
