digraph "/home/man/Documents/graph-tool-cmake/src/graph/parallel_rng.hh"
{
 // LATEX_PDF_SIZE
  bgcolor="transparent";
  edge [fontname=Helvetica,fontsize=10,labelfontname=Helvetica,labelfontsize=10];
  node [fontname=Helvetica,fontsize=10,shape=box,height=0.2,width=0.4];
  Node1 [label="/home/man/Documents\l/graph-tool-cmake/src\l/graph/parallel_rng.hh",height=0.2,width=0.4,color="gray40", fillcolor="grey60", style="filled", fontcolor="black",tooltip=" "];
  Node1 -> Node2 [dir="back",color="steelblue1",style="solid"];
  Node2 [label="/home/man/Documents\l/graph-tool-cmake/src\l/graph/dynamics/graph\l_continuous.hh",height=0.2,width=0.4,color="grey40", fillcolor="white", style="filled",URL="$graph__continuous_8hh.html",tooltip=" "];
  Node2 -> Node3 [dir="back",color="steelblue1",style="solid"];
  Node3 [label="/home/man/Documents\l/graph-tool-cmake/src\l/graph/dynamics/graph\l_continuous.cc",height=0.2,width=0.4,color="grey40", fillcolor="white", style="filled",URL="$graph__continuous_8cc.html",tooltip=" "];
  Node1 -> Node4 [dir="back",color="steelblue1",style="solid"];
  Node4 [label="/home/man/Documents\l/graph-tool-cmake/src\l/graph/dynamics/graph\l_discrete.hh",height=0.2,width=0.4,color="grey40", fillcolor="white", style="filled",URL="$graph__discrete_8hh.html",tooltip=" "];
  Node4 -> Node5 [dir="back",color="steelblue1",style="solid"];
  Node5 [label="/home/man/Documents\l/graph-tool-cmake/src\l/graph/dynamics/graph\l_discrete.cc",height=0.2,width=0.4,color="grey40", fillcolor="white", style="filled",URL="$graph__discrete_8cc.html",tooltip=" "];
  Node1 -> Node6 [dir="back",color="steelblue1",style="solid"];
  Node6 [label="/home/man/Documents\l/graph-tool-cmake/src\l/graph/generation/graph\l_knn.hh",height=0.2,width=0.4,color="grey40", fillcolor="white", style="filled",URL="$graph__knn_8hh.html",tooltip=" "];
  Node6 -> Node7 [dir="back",color="steelblue1",style="solid"];
  Node7 [label="/home/man/Documents\l/graph-tool-cmake/src\l/graph/generation/graph\l_knn.cc",height=0.2,width=0.4,color="grey40", fillcolor="white", style="filled",URL="$graph__knn_8cc.html",tooltip=" "];
  Node1 -> Node8 [dir="back",color="steelblue1",style="solid"];
  Node8 [label="/home/man/Documents\l/graph-tool-cmake/src\l/graph/inference/loops\l/gibbs_loop.hh",height=0.2,width=0.4,color="grey40", fillcolor="white", style="filled",URL="$gibbs__loop_8hh.html",tooltip=" "];
  Node8 -> Node9 [dir="back",color="steelblue1",style="solid"];
  Node9 [label="/home/man/Documents\l/graph-tool-cmake/src\l/graph/inference/blockmodel\l/graph_blockmodel_gibbs.cc",height=0.2,width=0.4,color="grey40", fillcolor="white", style="filled",URL="$graph__blockmodel__gibbs_8cc.html",tooltip=" "];
  Node8 -> Node10 [dir="back",color="steelblue1",style="solid"];
  Node10 [label="/home/man/Documents\l/graph-tool-cmake/src\l/graph/inference/layers\l/graph_blockmodel_layers\l_gibbs.cc",height=0.2,width=0.4,color="grey40", fillcolor="white", style="filled",URL="$graph__blockmodel__layers__gibbs_8cc.html",tooltip=" "];
  Node8 -> Node11 [dir="back",color="steelblue1",style="solid"];
  Node11 [label="/home/man/Documents\l/graph-tool-cmake/src\l/graph/inference/layers\l/graph_blockmodel_layers\l_overlap_gibbs.cc",height=0.2,width=0.4,color="grey40", fillcolor="white", style="filled",URL="$graph__blockmodel__layers__overlap__gibbs_8cc.html",tooltip=" "];
  Node8 -> Node12 [dir="back",color="steelblue1",style="solid"];
  Node12 [label="/home/man/Documents\l/graph-tool-cmake/src\l/graph/inference/modularity\l/graph_modularity_gibbs.cc",height=0.2,width=0.4,color="grey40", fillcolor="white", style="filled",URL="$graph__modularity__gibbs_8cc.html",tooltip=" "];
  Node8 -> Node13 [dir="back",color="steelblue1",style="solid"];
  Node13 [label="/home/man/Documents\l/graph-tool-cmake/src\l/graph/inference/norm\l_cut/graph_norm_cut_gibbs.cc",height=0.2,width=0.4,color="grey40", fillcolor="white", style="filled",URL="$graph__norm__cut__gibbs_8cc.html",tooltip=" "];
  Node8 -> Node14 [dir="back",color="steelblue1",style="solid"];
  Node14 [label="/home/man/Documents\l/graph-tool-cmake/src\l/graph/inference/overlap\l/graph_blockmodel_overlap\l_gibbs.cc",height=0.2,width=0.4,color="grey40", fillcolor="white", style="filled",URL="$graph__blockmodel__overlap__gibbs_8cc.html",tooltip=" "];
  Node8 -> Node15 [dir="back",color="steelblue1",style="solid"];
  Node15 [label="/home/man/Documents\l/graph-tool-cmake/src\l/graph/inference/planted\l_partition/graph_planted\l_partition_gibbs.cc",height=0.2,width=0.4,color="grey40", fillcolor="white", style="filled",URL="$graph__planted__partition__gibbs_8cc.html",tooltip=" "];
  Node8 -> Node16 [dir="back",color="steelblue1",style="solid"];
  Node16 [label="/home/man/Documents\l/graph-tool-cmake/src\l/graph/inference/ranked\l/graph_ranked_gibbs.cc",height=0.2,width=0.4,color="grey40", fillcolor="white", style="filled",URL="$graph__ranked__gibbs_8cc.html",tooltip=" "];
  Node1 -> Node17 [dir="back",color="steelblue1",style="solid"];
  Node17 [label="/home/man/Documents\l/graph-tool-cmake/src\l/graph/inference/loops\l/mcmc_loop.hh",height=0.2,width=0.4,color="red", fillcolor="#FFF0F0", style="filled",URL="$mcmc__loop_8hh.html",tooltip=" "];
  Node17 -> Node18 [dir="back",color="steelblue1",style="solid"];
  Node18 [label="/home/man/Documents\l/graph-tool-cmake/src\l/graph/inference/blockmodel\l/graph_blockmodel_mcmc.cc",height=0.2,width=0.4,color="grey40", fillcolor="white", style="filled",URL="$graph__blockmodel__mcmc_8cc.html",tooltip=" "];
  Node17 -> Node19 [dir="back",color="steelblue1",style="solid"];
  Node19 [label="/home/man/Documents\l/graph-tool-cmake/src\l/graph/inference/blockmodel\l/graph_blockmodel_multicanonical.cc",height=0.2,width=0.4,color="grey40", fillcolor="white", style="filled",URL="$graph__blockmodel__multicanonical_8cc.html",tooltip=" "];
  Node17 -> Node20 [dir="back",color="steelblue1",style="solid"];
  Node20 [label="/home/man/Documents\l/graph-tool-cmake/src\l/graph/inference/blockmodel\l/graph_blockmodel_multicanonical\l_multiflip.cc",height=0.2,width=0.4,color="grey40", fillcolor="white", style="filled",URL="$graph__blockmodel__multicanonical__multiflip_8cc.html",tooltip=" "];
  Node17 -> Node21 [dir="back",color="steelblue1",style="solid"];
  Node21 [label="/home/man/Documents\l/graph-tool-cmake/src\l/graph/inference/blockmodel\l/graph_blockmodel_multiflip_mcmc.cc",height=0.2,width=0.4,color="grey40", fillcolor="white", style="filled",URL="$graph__blockmodel__multiflip__mcmc_8cc.html",tooltip=" "];
  Node17 -> Node22 [dir="back",color="steelblue1",style="solid"];
  Node22 [label="/home/man/Documents\l/graph-tool-cmake/src\l/graph/inference/blockmodel\l/graph_blockmodel_multilevel_mcmc.cc",height=0.2,width=0.4,color="grey40", fillcolor="white", style="filled",URL="$graph__blockmodel__multilevel__mcmc_8cc.html",tooltip=" "];
  Node17 -> Node23 [dir="back",color="steelblue1",style="solid"];
  Node23 [label="/home/man/Documents\l/graph-tool-cmake/src\l/graph/inference/histogram\l/graph_histogram_mcmc.cc",height=0.2,width=0.4,color="grey40", fillcolor="white", style="filled",URL="$graph__histogram__mcmc_8cc.html",tooltip=" "];
  Node17 -> Node24 [dir="back",color="steelblue1",style="solid"];
  Node24 [label="/home/man/Documents\l/graph-tool-cmake/src\l/graph/inference/layers\l/graph_blockmodel_layers\l_mcmc.cc",height=0.2,width=0.4,color="grey40", fillcolor="white", style="filled",URL="$graph__blockmodel__layers__mcmc_8cc.html",tooltip=" "];
  Node17 -> Node25 [dir="back",color="steelblue1",style="solid"];
  Node25 [label="/home/man/Documents\l/graph-tool-cmake/src\l/graph/inference/layers\l/graph_blockmodel_layers\l_multicanonical.cc",height=0.2,width=0.4,color="grey40", fillcolor="white", style="filled",URL="$graph__blockmodel__layers__multicanonical_8cc.html",tooltip=" "];
  Node17 -> Node26 [dir="back",color="steelblue1",style="solid"];
  Node26 [label="/home/man/Documents\l/graph-tool-cmake/src\l/graph/inference/layers\l/graph_blockmodel_layers\l_multicanonical_multiflip.cc",height=0.2,width=0.4,color="grey40", fillcolor="white", style="filled",URL="$graph__blockmodel__layers__multicanonical__multiflip_8cc.html",tooltip=" "];
  Node17 -> Node27 [dir="back",color="steelblue1",style="solid"];
  Node27 [label="/home/man/Documents\l/graph-tool-cmake/src\l/graph/inference/layers\l/graph_blockmodel_layers\l_multiflip_mcmc.cc",height=0.2,width=0.4,color="grey40", fillcolor="white", style="filled",URL="$graph__blockmodel__layers__multiflip__mcmc_8cc.html",tooltip=" "];
  Node17 -> Node28 [dir="back",color="steelblue1",style="solid"];
  Node28 [label="/home/man/Documents\l/graph-tool-cmake/src\l/graph/inference/layers\l/graph_blockmodel_layers\l_multilevel_mcmc.cc",height=0.2,width=0.4,color="grey40", fillcolor="white", style="filled",URL="$graph__blockmodel__layers__multilevel__mcmc_8cc.html",tooltip=" "];
  Node17 -> Node29 [dir="back",color="steelblue1",style="solid"];
  Node29 [label="/home/man/Documents\l/graph-tool-cmake/src\l/graph/inference/layers\l/graph_blockmodel_layers\l_overlap_mcmc.cc",height=0.2,width=0.4,color="grey40", fillcolor="white", style="filled",URL="$graph__blockmodel__layers__overlap__mcmc_8cc.html",tooltip=" "];
  Node17 -> Node30 [dir="back",color="steelblue1",style="solid"];
  Node30 [label="/home/man/Documents\l/graph-tool-cmake/src\l/graph/inference/layers\l/graph_blockmodel_layers\l_overlap_mcmc_bundled.cc",height=0.2,width=0.4,color="grey40", fillcolor="white", style="filled",URL="$graph__blockmodel__layers__overlap__mcmc__bundled_8cc.html",tooltip=" "];
  Node17 -> Node31 [dir="back",color="steelblue1",style="solid"];
  Node31 [label="/home/man/Documents\l/graph-tool-cmake/src\l/graph/inference/layers\l/graph_blockmodel_layers\l_overlap_multicanonical.cc",height=0.2,width=0.4,color="grey40", fillcolor="white", style="filled",URL="$graph__blockmodel__layers__overlap__multicanonical_8cc.html",tooltip=" "];
  Node17 -> Node32 [dir="back",color="steelblue1",style="solid"];
  Node32 [label="/home/man/Documents\l/graph-tool-cmake/src\l/graph/inference/layers\l/graph_blockmodel_layers\l_overlap_multicanonical_multiflip.cc",height=0.2,width=0.4,color="grey40", fillcolor="white", style="filled",URL="$graph__blockmodel__layers__overlap__multicanonical__multiflip_8cc.html",tooltip=" "];
  Node17 -> Node33 [dir="back",color="steelblue1",style="solid"];
  Node33 [label="/home/man/Documents\l/graph-tool-cmake/src\l/graph/inference/layers\l/graph_blockmodel_layers\l_overlap_multiflip_mcmc.cc",height=0.2,width=0.4,color="grey40", fillcolor="white", style="filled",URL="$graph__blockmodel__layers__overlap__multiflip__mcmc_8cc.html",tooltip=" "];
  Node17 -> Node34 [dir="back",color="steelblue1",style="solid"];
  Node34 [label="/home/man/Documents\l/graph-tool-cmake/src\l/graph/inference/layers\l/graph_blockmodel_layers\l_overlap_multilevel_mcmc.cc",height=0.2,width=0.4,color="grey40", fillcolor="white", style="filled",URL="$graph__blockmodel__layers__overlap__multilevel__mcmc_8cc.html",tooltip=" "];
  Node17 -> Node35 [dir="back",color="steelblue1",style="solid"];
  Node35 [label="/home/man/Documents\l/graph-tool-cmake/src\l/graph/inference/loops\l/multilevel.hh",height=0.2,width=0.4,color="red", fillcolor="#FFF0F0", style="filled",URL="$multilevel_8hh.html",tooltip=" "];
  Node17 -> Node46 [dir="back",color="steelblue1",style="solid"];
  Node46 [label="/home/man/Documents\l/graph-tool-cmake/src\l/graph/inference/modularity\l/graph_modularity_mcmc.cc",height=0.2,width=0.4,color="grey40", fillcolor="white", style="filled",URL="$graph__modularity__mcmc_8cc.html",tooltip=" "];
  Node17 -> Node47 [dir="back",color="steelblue1",style="solid"];
  Node47 [label="/home/man/Documents\l/graph-tool-cmake/src\l/graph/inference/modularity\l/graph_modularity_multiflip_mcmc.cc",height=0.2,width=0.4,color="grey40", fillcolor="white", style="filled",URL="$graph__modularity__multiflip__mcmc_8cc.html",tooltip=" "];
  Node17 -> Node37 [dir="back",color="steelblue1",style="solid"];
  Node37 [label="/home/man/Documents\l/graph-tool-cmake/src\l/graph/inference/modularity\l/graph_modularity_multilevel_mcmc.cc",height=0.2,width=0.4,color="grey40", fillcolor="white", style="filled",URL="$graph__modularity__multilevel__mcmc_8cc.html",tooltip=" "];
  Node17 -> Node48 [dir="back",color="steelblue1",style="solid"];
  Node48 [label="/home/man/Documents\l/graph-tool-cmake/src\l/graph/inference/norm\l_cut/graph_norm_cut_mcmc.cc",height=0.2,width=0.4,color="grey40", fillcolor="white", style="filled",URL="$graph__norm__cut__mcmc_8cc.html",tooltip=" "];
  Node17 -> Node49 [dir="back",color="steelblue1",style="solid"];
  Node49 [label="/home/man/Documents\l/graph-tool-cmake/src\l/graph/inference/norm\l_cut/graph_norm_cut_multiflip\l_mcmc.cc",height=0.2,width=0.4,color="grey40", fillcolor="white", style="filled",URL="$graph__norm__cut__multiflip__mcmc_8cc.html",tooltip=" "];
  Node17 -> Node38 [dir="back",color="steelblue1",style="solid"];
  Node38 [label="/home/man/Documents\l/graph-tool-cmake/src\l/graph/inference/norm\l_cut/graph_norm_cut_multilevel\l_mcmc.cc",height=0.2,width=0.4,color="grey40", fillcolor="white", style="filled",URL="$graph__norm__cut__multilevel__mcmc_8cc.html",tooltip=" "];
  Node17 -> Node50 [dir="back",color="steelblue1",style="solid"];
  Node50 [label="/home/man/Documents\l/graph-tool-cmake/src\l/graph/inference/overlap\l/graph_blockmodel_overlap\l_mcmc.cc",height=0.2,width=0.4,color="grey40", fillcolor="white", style="filled",URL="$graph__blockmodel__overlap__mcmc_8cc.html",tooltip=" "];
  Node17 -> Node51 [dir="back",color="steelblue1",style="solid"];
  Node51 [label="/home/man/Documents\l/graph-tool-cmake/src\l/graph/inference/overlap\l/graph_blockmodel_overlap\l_mcmc_bundled.cc",height=0.2,width=0.4,color="grey40", fillcolor="white", style="filled",URL="$graph__blockmodel__overlap__mcmc__bundled_8cc.html",tooltip=" "];
  Node17 -> Node52 [dir="back",color="steelblue1",style="solid"];
  Node52 [label="/home/man/Documents\l/graph-tool-cmake/src\l/graph/inference/overlap\l/graph_blockmodel_overlap\l_multicanonical.cc",height=0.2,width=0.4,color="grey40", fillcolor="white", style="filled",URL="$graph__blockmodel__overlap__multicanonical_8cc.html",tooltip=" "];
  Node17 -> Node53 [dir="back",color="steelblue1",style="solid"];
  Node53 [label="/home/man/Documents\l/graph-tool-cmake/src\l/graph/inference/overlap\l/graph_blockmodel_overlap\l_multicanonical_multiflip.cc",height=0.2,width=0.4,color="grey40", fillcolor="white", style="filled",URL="$graph__blockmodel__overlap__multicanonical__multiflip_8cc.html",tooltip=" "];
  Node17 -> Node54 [dir="back",color="steelblue1",style="solid"];
  Node54 [label="/home/man/Documents\l/graph-tool-cmake/src\l/graph/inference/overlap\l/graph_blockmodel_overlap\l_multiflip_mcmc.cc",height=0.2,width=0.4,color="grey40", fillcolor="white", style="filled",URL="$graph__blockmodel__overlap__multiflip__mcmc_8cc.html",tooltip=" "];
  Node17 -> Node39 [dir="back",color="steelblue1",style="solid"];
  Node39 [label="/home/man/Documents\l/graph-tool-cmake/src\l/graph/inference/overlap\l/graph_blockmodel_overlap\l_multilevel_mcmc.cc",height=0.2,width=0.4,color="grey40", fillcolor="white", style="filled",URL="$graph__blockmodel__overlap__multilevel__mcmc_8cc.html",tooltip=" "];
  Node17 -> Node55 [dir="back",color="steelblue1",style="solid"];
  Node55 [label="/home/man/Documents\l/graph-tool-cmake/src\l/graph/inference/partition\l_centroid/graph_partition\l_centroid_mcmc.cc",height=0.2,width=0.4,color="grey40", fillcolor="white", style="filled",URL="$graph__partition__centroid__mcmc_8cc.html",tooltip=" "];
  Node1 -> Node76 [dir="back",color="steelblue1",style="solid"];
  Node76 [label="/home/man/Documents\l/graph-tool-cmake/src\l/graph/inference/uncertain\l/graph_blockmodel_uncertain\l_marginal.cc",height=0.2,width=0.4,color="grey40", fillcolor="white", style="filled",URL="$graph__blockmodel__uncertain__marginal_8cc.html",tooltip=" "];
  Node1 -> Node77 [dir="back",color="steelblue1",style="solid"];
  Node77 [label="/home/man/Documents\l/graph-tool-cmake/src\l/graph/random.cc",height=0.2,width=0.4,color="grey40", fillcolor="white", style="filled",URL="$random_8cc.html",tooltip=" "];
}
