digraph "export_vector_types::operator()"
{
 // LATEX_PDF_SIZE
  bgcolor="transparent";
  edge [fontname=Helvetica,fontsize=10,labelfontname=Helvetica,labelfontsize=10];
  node [fontname=Helvetica,fontsize=10,shape=box,height=0.2,width=0.4];
  rankdir="LR";
  Node1 [label="export_vector_types\l::operator()",height=0.2,width=0.4,color="gray40", fillcolor="grey60", style="filled", fontcolor="black",tooltip=" "];
  Node1 -> Node2 [color="steelblue1",style="solid"];
  Node2 [label="export_vector_types\l::wrap_array",height=0.2,width=0.4,color="grey40", fillcolor="white", style="filled",URL="$structexport__vector__types.html#a313dbe025ab2fd1fd5cc0b51ae2b7e1b",tooltip=" "];
}
