digraph "graph_tool::entropy_args_t"
{
 // LATEX_PDF_SIZE
  bgcolor="transparent";
  edge [fontname=Helvetica,fontsize=10,labelfontname=Helvetica,labelfontsize=10];
  node [fontname=Helvetica,fontsize=10,shape=box,height=0.2,width=0.4];
  Node1 [shape=record,label="{graph_tool::entropy\l_args_t\n|+ dense\l+ multigraph\l+ exact\l+ adjacency\l+ recs\l+ deg_entropy\l+ partition_dl\l+ degree_dl\l+ degree_dl_kind\l+ edges_dl\l+ recs_dl\l+ beta_dl\l+ Bfield\l|}",height=0.2,width=0.4,color="gray40", fillcolor="grey60", style="filled", fontcolor="black",tooltip=" "];
  Node1 -> Node2 [dir="back",color="steelblue1",style="solid",arrowtail="onormal"];
  Node2 [shape=record,label="{graph_tool::uentropy\l_args_t\n|+ latent_edges\l+ density\l|+ uentropy_args_t()\l}",height=0.2,width=0.4,color="gray40", fillcolor="white", style="filled",URL="$structgraph__tool_1_1uentropy__args__t.html",tooltip=" "];
}
