digraph "graph_tool::do_group_vector_property::operator()"
{
 // LATEX_PDF_SIZE
  bgcolor="transparent";
  edge [fontname=Helvetica,fontsize=10,labelfontname=Helvetica,labelfontsize=10];
  node [fontname=Helvetica,fontsize=10,shape=box,height=0.2,width=0.4];
  rankdir="LR";
  Node1 [label="graph_tool::do_group\l_vector_property::operator()",height=0.2,width=0.4,color="gray40", fillcolor="grey60", style="filled", fontcolor="black",tooltip=" "];
  Node1 -> Node2 [color="steelblue1",style="solid"];
  Node2 [label="graph_tool::do_group\l_vector_property::dispatch\l_descriptor",height=0.2,width=0.4,color="grey40", fillcolor="white", style="filled",URL="$structgraph__tool_1_1do__group__vector__property.html#aba270f1877314444183f9096bb90cec4",tooltip=" "];
  Node2 -> Node3 [color="steelblue1",style="solid"];
  Node3 [label="graph_tool::do_group\l_vector_property::group\l_or_ungroup",height=0.2,width=0.4,color="grey40", fillcolor="white", style="filled",URL="$structgraph__tool_1_1do__group__vector__property.html#a2470ca6c043c18b76e42a244cdaa7e2a",tooltip=" "];
  Node3 -> Node4 [color="steelblue1",style="solid"];
  Node4 [label="boost::get",height=0.2,width=0.4,color="grey40", fillcolor="white", style="filled",URL="$namespaceboost.html#a16c10260e678081f48c16db5bdd0f5ea",tooltip=" "];
  Node4 -> Node4 [color="steelblue1",style="solid"];
  Node4 -> Node5 [color="steelblue1",style="solid"];
  Node5 [label="boost::undirected_adaptor\l::original_graph",height=0.2,width=0.4,color="grey40", fillcolor="white", style="filled",URL="$classboost_1_1undirected__adaptor.html#a11e557bb4f3d7c15354f98390f1d3644",tooltip=" "];
  Node3 -> Node6 [color="steelblue1",style="solid"];
  Node6 [label="vector_map",height=0.2,width=0.4,color="grey40", fillcolor="white", style="filled",URL="$graph__inference_8cc.html#a2d28d28eae8a754a9ef2c96a25c11eda",tooltip=" "];
  Node2 -> Node7 [color="steelblue1",style="solid"];
  Node7 [label="graph_tool::out_edges\l_range",height=0.2,width=0.4,color="grey40", fillcolor="white", style="filled",URL="$namespacegraph__tool.html#a347f8a3e503c35e8a4d54184d8d90a6f",tooltip=" "];
  Node7 -> Node8 [color="steelblue1",style="solid"];
  Node8 [label="graph_tool::mk_range",height=0.2,width=0.4,color="grey40", fillcolor="white", style="filled",URL="$namespacegraph__tool.html#a6ecc1e46efb4f620acabfe5728f7a2a6",tooltip=" "];
  Node2 -> Node6 [color="steelblue1",style="solid"];
  Node1 -> Node9 [color="steelblue1",style="solid"];
  Node9 [label="graph_tool::parallel\l_vertex_loop",height=0.2,width=0.4,color="grey40", fillcolor="white", style="filled",URL="$namespacegraph__tool.html#ab935ff202da78b1e2356069ec687b630",tooltip=" "];
  Node1 -> Node6 [color="steelblue1",style="solid"];
}
