digraph "graph_tool::detail::get_all_graph_views::apply&lt; FiltType, AlwaysDirected, NeverDirected, AlwaysReversed, NeverReversed, NeverFiltered &gt;"
{
 // LATEX_PDF_SIZE
  bgcolor="transparent";
  edge [fontname=Helvetica,fontsize=10,labelfontname=Helvetica,labelfontsize=10];
  node [fontname=Helvetica,fontsize=10,shape=box,height=0.2,width=0.4];
  Node1 [shape=record,label="{graph_tool::detail\l::get_all_graph_views\l::apply\< FiltType, AlwaysDirected,\l NeverDirected, AlwaysReversed,\l NeverReversed, NeverFiltered \>\n||}",height=0.2,width=0.4,color="gray40", fillcolor="grey60", style="filled", fontcolor="black",tooltip=" "];
}
