digraph "boost::read_graphviz_detail::tokenizer::get_token"
{
 // LATEX_PDF_SIZE
  bgcolor="transparent";
  edge [fontname=Helvetica,fontsize=10,labelfontname=Helvetica,labelfontsize=10];
  node [fontname=Helvetica,fontsize=10,shape=box,height=0.2,width=0.4];
  rankdir="LR";
  Node1 [label="boost::read_graphviz\l_detail::tokenizer::get_token",height=0.2,width=0.4,color="gray40", fillcolor="grey60", style="filled", fontcolor="black",tooltip=" "];
  Node1 -> Node2 [color="steelblue1",style="solid"];
  Node2 [label="boost::read_graphviz\l_detail::tokenizer::get\l_token_raw",height=0.2,width=0.4,color="grey40", fillcolor="white", style="filled",URL="$structboost_1_1read__graphviz__detail_1_1tokenizer.html#a8d2a4c59d6ff5d97a1a92d7683adea73",tooltip=" "];
  Node2 -> Node3 [color="steelblue1",style="solid"];
  Node3 [label="boost::read_graphviz\l_detail::tokenizer::skip",height=0.2,width=0.4,color="grey40", fillcolor="white", style="filled",URL="$structboost_1_1read__graphviz__detail_1_1tokenizer.html#a71368e6d640bd183d868d78eb80b58c8",tooltip=" "];
  Node2 -> Node4 [color="steelblue1",style="solid"];
  Node4 [label="boost::read_graphviz\l_detail::tokenizer::throw\l_lex_error",height=0.2,width=0.4,color="grey40", fillcolor="white", style="filled",URL="$structboost_1_1read__graphviz__detail_1_1tokenizer.html#a2b11bcf9ce0ddfecf65efa109fb9b9da",tooltip=" "];
  Node1 -> Node5 [color="steelblue1",style="solid"];
  Node5 [label="boost::read_graphviz\l_detail::tokenizer::peek\l_token_raw",height=0.2,width=0.4,color="grey40", fillcolor="white", style="filled",URL="$structboost_1_1read__graphviz__detail_1_1tokenizer.html#abea5e50af8cddf115d362a7244b752a1",tooltip=" "];
  Node5 -> Node2 [color="steelblue1",style="solid"];
  Node1 -> Node4 [color="steelblue1",style="solid"];
}
