digraph "boost::adj_list::make_out_edge::def"
{
 // LATEX_PDF_SIZE
  bgcolor="transparent";
  edge [fontname=Helvetica,fontsize=10,labelfontname=Helvetica,labelfontsize=10];
  node [fontname=Helvetica,fontsize=10,shape=box,height=0.2,width=0.4];
  rankdir="RL";
  Node1 [label="boost::adj_list::make\l_out_edge::def",height=0.2,width=0.4,color="gray40", fillcolor="grey60", style="filled", fontcolor="black",tooltip=" "];
  Node1 -> Node2 [dir="back",color="steelblue1",style="solid"];
  Node2 [label="boost::clear_vertex",height=0.2,width=0.4,color="grey40", fillcolor="white", style="filled",URL="$namespaceboost.html#a7a66705480c879c240f10ba46a839d82",tooltip=" "];
  Node1 -> Node3 [dir="back",color="steelblue1",style="solid"];
  Node3 [label="boost::adj_list::make\l_out_edge::def",height=0.2,width=0.4,color="grey40", fillcolor="white", style="filled",URL="$structboost_1_1adj__list_1_1make__out__edge.html#ae426a3613f7c2749c5a0d080e98ebc98",tooltip=" "];
}
