digraph "boost::read_graphviz_detail::parser::parse_endpoint_rest"
{
 // LATEX_PDF_SIZE
  bgcolor="transparent";
  edge [fontname=Helvetica,fontsize=10,labelfontname=Helvetica,labelfontsize=10];
  node [fontname=Helvetica,fontsize=10,shape=box,height=0.2,width=0.4];
  rankdir="LR";
  Node1 [label="boost::read_graphviz\l_detail::parser::parse\l_endpoint_rest",height=0.2,width=0.4,color="gray40", fillcolor="grey60", style="filled", fontcolor="black",tooltip=" "];
  Node1 -> Node2 [color="steelblue1",style="solid"];
  Node2 [label="boost::read_graphviz\l_detail::edge_endpoint::node",height=0.2,width=0.4,color="grey40", fillcolor="white", style="filled",URL="$structboost_1_1read__graphviz__detail_1_1edge__endpoint.html#ad02d4e529f26d316baaa5ef028e9ea68",tooltip=" "];
  Node1 -> Node3 [color="steelblue1",style="solid"];
  Node3 [label="boost::read_graphviz\l_detail::parser::parse\l_node_and_port",height=0.2,width=0.4,color="grey40", fillcolor="white", style="filled",URL="$structboost_1_1read__graphviz__detail_1_1parser.html#a45ac713e8b8ea88ad5d92caf79d51e21",tooltip=" "];
  Node3 -> Node4 [color="steelblue1",style="solid"];
  Node4 [label="boost::read_graphviz\l_detail::parser::current",height=0.2,width=0.4,color="grey40", fillcolor="white", style="filled",URL="$structboost_1_1read__graphviz__detail_1_1parser.html#afd279e8cb1213109c8079788997ad2c2",tooltip=" "];
  Node3 -> Node5 [color="steelblue1",style="solid"];
  Node5 [label="boost::read_graphviz\l_detail::parser::error",height=0.2,width=0.4,color="grey40", fillcolor="white", style="filled",URL="$structboost_1_1read__graphviz__detail_1_1parser.html#a3ed8af566d8b58bea81d63f975bc6e37",tooltip=" "];
  Node5 -> Node6 [color="steelblue1",style="solid"];
  Node6 [label="boost::read_graphviz\l_detail::parse_error",height=0.2,width=0.4,color="grey40", fillcolor="white", style="filled",URL="$namespaceboost_1_1read__graphviz__detail.html#a3fae191e77d725027865772686a708a3",tooltip=" "];
  Node5 -> Node7 [color="steelblue1",style="solid"];
  Node7 [label="boost::read_graphviz\l_detail::parser::peek",height=0.2,width=0.4,color="grey40", fillcolor="white", style="filled",URL="$structboost_1_1read__graphviz__detail_1_1parser.html#acefa901ffd9dd433255cb17874a4f4ea",tooltip=" "];
  Node7 -> Node8 [color="steelblue1",style="solid"];
  Node8 [label="boost::read_graphviz\l_detail::tokenizer::get_token",height=0.2,width=0.4,color="grey40", fillcolor="white", style="filled",URL="$structboost_1_1read__graphviz__detail_1_1tokenizer.html#a586e2633a729ce4e76442f3d821d2673",tooltip=" "];
  Node8 -> Node9 [color="steelblue1",style="solid"];
  Node9 [label="boost::read_graphviz\l_detail::tokenizer::get\l_token_raw",height=0.2,width=0.4,color="grey40", fillcolor="white", style="filled",URL="$structboost_1_1read__graphviz__detail_1_1tokenizer.html#a8d2a4c59d6ff5d97a1a92d7683adea73",tooltip=" "];
  Node9 -> Node10 [color="steelblue1",style="solid"];
  Node10 [label="boost::read_graphviz\l_detail::tokenizer::skip",height=0.2,width=0.4,color="grey40", fillcolor="white", style="filled",URL="$structboost_1_1read__graphviz__detail_1_1tokenizer.html#a71368e6d640bd183d868d78eb80b58c8",tooltip=" "];
  Node9 -> Node11 [color="steelblue1",style="solid"];
  Node11 [label="boost::read_graphviz\l_detail::tokenizer::throw\l_lex_error",height=0.2,width=0.4,color="grey40", fillcolor="white", style="filled",URL="$structboost_1_1read__graphviz__detail_1_1tokenizer.html#a2b11bcf9ce0ddfecf65efa109fb9b9da",tooltip=" "];
  Node8 -> Node12 [color="steelblue1",style="solid"];
  Node12 [label="boost::read_graphviz\l_detail::tokenizer::peek\l_token_raw",height=0.2,width=0.4,color="grey40", fillcolor="white", style="filled",URL="$structboost_1_1read__graphviz__detail_1_1tokenizer.html#abea5e50af8cddf115d362a7244b752a1",tooltip=" "];
  Node12 -> Node9 [color="steelblue1",style="solid"];
  Node8 -> Node11 [color="steelblue1",style="solid"];
  Node3 -> Node13 [color="steelblue1",style="solid"];
  Node13 [label="boost::read_graphviz\l_detail::parser::get",height=0.2,width=0.4,color="grey40", fillcolor="white", style="filled",URL="$structboost_1_1read__graphviz__detail_1_1parser.html#a2a54e1117475cb9ed10e86d172d3c0ae",tooltip=" "];
  Node13 -> Node8 [color="steelblue1",style="solid"];
  Node3 -> Node7 [color="steelblue1",style="solid"];
  Node1 -> Node14 [color="steelblue1",style="solid"];
  Node14 [label="boost::read_graphviz\l_detail::parser::parse\l_subgraph",height=0.2,width=0.4,color="grey40", fillcolor="white", style="filled",URL="$structboost_1_1read__graphviz__detail_1_1parser.html#a29a00c07f1784548b8b34a34abaf3519",tooltip=" "];
  Node14 -> Node4 [color="steelblue1",style="solid"];
  Node14 -> Node5 [color="steelblue1",style="solid"];
  Node14 -> Node13 [color="steelblue1",style="solid"];
  Node14 -> Node15 [color="steelblue1",style="solid"];
  Node15 [label="boost::read_graphviz\l_detail::parser::parse\l_stmt_list",height=0.2,width=0.4,color="grey40", fillcolor="white", style="filled",URL="$structboost_1_1read__graphviz__detail_1_1parser.html#ab8bbe9c1cde155dfb9b4c90cd0ce11e9",tooltip=" "];
  Node15 -> Node13 [color="steelblue1",style="solid"];
  Node15 -> Node16 [color="steelblue1",style="solid"];
  Node16 [label="boost::read_graphviz\l_detail::parser::parse_stmt",height=0.2,width=0.4,color="grey40", fillcolor="white", style="filled",URL="$structboost_1_1read__graphviz__detail_1_1parser.html#ac7faae5649c1c30fde3def86f1a3aa40",tooltip=" "];
  Node16 -> Node17 [color="steelblue1",style="solid"];
  Node17 [label="boost::read_graphviz\l_detail::parser::current\l_graph_props",height=0.2,width=0.4,color="grey40", fillcolor="white", style="filled",URL="$structboost_1_1read__graphviz__detail_1_1parser.html#aeb74e796340cef467a709b1da9f67890",tooltip=" "];
  Node16 -> Node18 [color="steelblue1",style="solid"];
  Node18 [label="boost::read_graphviz\l_detail::parser::current\l_members",height=0.2,width=0.4,color="grey40", fillcolor="white", style="filled",URL="$structboost_1_1read__graphviz__detail_1_1parser.html#a4f40c06f1fb400396cfbcd240c2742da",tooltip=" "];
  Node18 -> Node4 [color="steelblue1",style="solid"];
  Node16 -> Node5 [color="steelblue1",style="solid"];
  Node16 -> Node13 [color="steelblue1",style="solid"];
  Node16 -> Node19 [color="steelblue1",style="solid"];
  Node19 [label="boost::read_graphviz\l_detail::parser::parse\l_attr_list",height=0.2,width=0.4,color="grey40", fillcolor="white", style="filled",URL="$structboost_1_1read__graphviz__detail_1_1parser.html#aec04600f84338100570dad85635700d6",tooltip=" "];
  Node19 -> Node5 [color="steelblue1",style="solid"];
  Node19 -> Node13 [color="steelblue1",style="solid"];
  Node19 -> Node7 [color="steelblue1",style="solid"];
  Node16 -> Node20 [color="steelblue1",style="solid"];
  Node20 [label="boost::read_graphviz\l_detail::parser::parse\l_attr_stmt",height=0.2,width=0.4,color="grey40", fillcolor="white", style="filled",URL="$structboost_1_1read__graphviz__detail_1_1parser.html#a03c98bb5391f189af257dcaf5fb3039d",tooltip=" "];
  Node20 -> Node4 [color="steelblue1",style="solid"];
  Node20 -> Node17 [color="steelblue1",style="solid"];
  Node20 -> Node13 [color="steelblue1",style="solid"];
  Node20 -> Node19 [color="steelblue1",style="solid"];
  Node16 -> Node21 [color="steelblue1",style="solid"];
  Node21 [label="boost::read_graphviz\l_detail::parser::parse\l_edge_stmt",height=0.2,width=0.4,color="grey40", fillcolor="white", style="filled",URL="$structboost_1_1read__graphviz__detail_1_1parser.html#ac42987c69c8c151aa699feabc6756491",tooltip=" "];
  Node21 -> Node4 [color="steelblue1",style="solid"];
  Node21 -> Node22 [color="steelblue1",style="solid"];
  Node22 [label="boost::read_graphviz\l_detail::parser::do_orig_edge",height=0.2,width=0.4,color="grey40", fillcolor="white", style="filled",URL="$structboost_1_1read__graphviz__detail_1_1parser.html#ab79a2c8777a89245e4a1a9e110c655fd",tooltip=" "];
  Node22 -> Node23 [color="steelblue1",style="solid"];
  Node23 [label="boost::read_graphviz\l_detail::parser::do_edge",height=0.2,width=0.4,color="grey40", fillcolor="white", style="filled",URL="$structboost_1_1read__graphviz__detail_1_1parser.html#a3e2eecb553f3d42a1bdea72ba8d87b34",tooltip=" "];
  Node22 -> Node24 [color="steelblue1",style="solid"];
  Node24 [label="boost::read_graphviz\l_detail::parser::get\l_recursive_members",height=0.2,width=0.4,color="grey40", fillcolor="white", style="filled",URL="$structboost_1_1read__graphviz__detail_1_1parser.html#a55a444db1916e0a80fc1f80be0dbbef1",tooltip=" "];
  Node24 -> Node2 [color="steelblue1",style="solid"];
  Node24 -> Node25 [color="steelblue1",style="solid"];
  Node25 [label="boost::read_graphviz\l_detail::edge_endpoint\l::subgraph",height=0.2,width=0.4,color="grey40", fillcolor="white", style="filled",URL="$structboost_1_1read__graphviz__detail_1_1edge__endpoint.html#ade9f929460ebda4e992a0107dedb4f86",tooltip=" "];
  Node21 -> Node5 [color="steelblue1",style="solid"];
  Node21 -> Node13 [color="steelblue1",style="solid"];
  Node21 -> Node19 [color="steelblue1",style="solid"];
  Node21 -> Node26 [color="steelblue1",style="solid"];
  Node26 [label="boost::read_graphviz\l_detail::parser::parse\l_endpoint",height=0.2,width=0.4,color="grey40", fillcolor="white", style="filled",URL="$structboost_1_1read__graphviz__detail_1_1parser.html#a09b059a0cc08ded931295460154dde9e",tooltip=" "];
  Node26 -> Node5 [color="steelblue1",style="solid"];
  Node26 -> Node13 [color="steelblue1",style="solid"];
  Node26 -> Node1 [color="steelblue1",style="solid"];
  Node26 -> Node7 [color="steelblue1",style="solid"];
  Node21 -> Node7 [color="steelblue1",style="solid"];
  Node16 -> Node1 [color="steelblue1",style="solid"];
  Node16 -> Node7 [color="steelblue1",style="solid"];
  Node15 -> Node7 [color="steelblue1",style="solid"];
  Node14 -> Node7 [color="steelblue1",style="solid"];
  Node1 -> Node25 [color="steelblue1",style="solid"];
}
