digraph "boost::detail::adj_edge_descriptor&lt; Vertex &gt;"
{
 // LATEX_PDF_SIZE
  bgcolor="transparent";
  edge [fontname=Helvetica,fontsize=10,labelfontname=Helvetica,labelfontsize=10];
  node [fontname=Helvetica,fontsize=10,shape=box,height=0.2,width=0.4];
  Node1 [shape=record,label="{boost::detail::adj\l_edge_descriptor\< Vertex \>\n|+ s\l+ t\l+ idx\l|+ adj_edge_descriptor()\l+ adj_edge_descriptor()\l+ operator==()\l+ operator!=()\l+ operator\<()\l}",height=0.2,width=0.4,color="gray40", fillcolor="grey60", style="filled", fontcolor="black",tooltip=" "];
}
