digraph "integer_from_convertible::integer_from_convertible"
{
 // LATEX_PDF_SIZE
  bgcolor="transparent";
  edge [fontname=Helvetica,fontsize=10,labelfontname=Helvetica,labelfontsize=10];
  node [fontname=Helvetica,fontsize=10,shape=box,height=0.2,width=0.4];
  rankdir="LR";
  Node1 [label="integer_from_convertible\l::integer_from_convertible",height=0.2,width=0.4,color="gray40", fillcolor="grey60", style="filled", fontcolor="black",tooltip=" "];
  Node1 -> Node2 [color="steelblue1",style="solid"];
  Node2 [label="integer_from_convertible\l::construct",height=0.2,width=0.4,color="grey40", fillcolor="white", style="filled",URL="$structinteger__from__convertible.html#a3f7424f40c8d30beaa1ec5e6f6779861",tooltip=" "];
  Node1 -> Node3 [color="steelblue1",style="solid"];
  Node3 [label="integer_from_convertible\l::convertible",height=0.2,width=0.4,color="grey40", fillcolor="white", style="filled",URL="$structinteger__from__convertible.html#ae9f9fd404f194452ba305896a2c1575c",tooltip=" "];
}
