digraph "do_get_radial::operator()"
{
 // LATEX_PDF_SIZE
  bgcolor="transparent";
  edge [fontname=Helvetica,fontsize=10,labelfontname=Helvetica,labelfontsize=10];
  node [fontname=Helvetica,fontsize=10,shape=box,height=0.2,width=0.4];
  rankdir="LR";
  Node1 [label="do_get_radial::operator()",height=0.2,width=0.4,color="gray40", fillcolor="grey60", style="filled", fontcolor="black",tooltip=" "];
  Node1 -> Node2 [color="steelblue1",style="solid"];
  Node2 [label="boost::get",height=0.2,width=0.4,color="grey40", fillcolor="white", style="filled",URL="$namespaceboost.html#a16c10260e678081f48c16db5bdd0f5ea",tooltip=" "];
  Node2 -> Node2 [color="steelblue1",style="solid"];
  Node2 -> Node3 [color="steelblue1",style="solid"];
  Node3 [label="boost::undirected_adaptor\l::original_graph",height=0.2,width=0.4,color="grey40", fillcolor="white", style="filled",URL="$classboost_1_1undirected__adaptor.html#a11e557bb4f3d7c15354f98390f1d3644",tooltip=" "];
  Node1 -> Node4 [color="steelblue1",style="solid"];
  Node4 [label="graph_tool::in_edges\l_range",height=0.2,width=0.4,color="grey40", fillcolor="white", style="filled",URL="$namespacegraph__tool.html#ae2bbfd4979b94ff2417605533d84aec9",tooltip=" "];
  Node4 -> Node5 [color="steelblue1",style="solid"];
  Node5 [label="graph_tool::mk_range",height=0.2,width=0.4,color="grey40", fillcolor="white", style="filled",URL="$namespacegraph__tool.html#a6ecc1e46efb4f620acabfe5728f7a2a6",tooltip=" "];
  Node1 -> Node6 [color="steelblue1",style="solid"];
  Node6 [label="boost::num_vertices",height=0.2,width=0.4,color="grey40", fillcolor="white", style="filled",URL="$namespaceboost.html#ac848f876a7fa2caa8fb1879b7c522ebc",tooltip=" "];
  Node6 -> Node6 [color="steelblue1",style="solid"];
  Node6 -> Node3 [color="steelblue1",style="solid"];
  Node1 -> Node7 [color="steelblue1",style="solid"];
  Node7 [label="boost::out_degree",height=0.2,width=0.4,color="grey40", fillcolor="white", style="filled",URL="$namespaceboost.html#ac2aab26c4c5fb471f6eef10ae4496089",tooltip=" "];
  Node7 -> Node8 [color="steelblue1",style="solid"];
  Node8 [label="boost::degree",height=0.2,width=0.4,color="grey40", fillcolor="white", style="filled",URL="$namespaceboost.html#ac08426adc887cd2f50850eb97baaae7d",tooltip=" "];
  Node8 -> Node7 [color="steelblue1",style="solid"];
  Node7 -> Node3 [color="steelblue1",style="solid"];
  Node1 -> Node9 [color="steelblue1",style="solid"];
  Node9 [label="graph_tool::out_edges\l_range",height=0.2,width=0.4,color="grey40", fillcolor="white", style="filled",URL="$namespacegraph__tool.html#a347f8a3e503c35e8a4d54184d8d90a6f",tooltip=" "];
  Node9 -> Node5 [color="steelblue1",style="solid"];
  Node1 -> Node10 [color="steelblue1",style="solid"];
  Node10 [label="boost::unchecked_vector\l_property_map::resize",height=0.2,width=0.4,color="grey40", fillcolor="white", style="filled",URL="$classboost_1_1unchecked__vector__property__map.html#a2c5ffbafa0dd5fac175345f78f72a8ef",tooltip=" "];
  Node10 -> Node11 [color="steelblue1",style="solid"];
  Node11 [label="boost::checked_vector\l_property_map::resize",height=0.2,width=0.4,color="grey40", fillcolor="white", style="filled",URL="$classboost_1_1checked__vector__property__map.html#af213e613604149eb176d360ecf271c69",tooltip=" "];
  Node1 -> Node12 [color="steelblue1",style="solid"];
  Node12 [label="graph_tool::source",height=0.2,width=0.4,color="grey40", fillcolor="white", style="filled",URL="$namespacegraph__tool.html#a0b44c0af404cec1513acb7b9602557f8",tooltip=" "];
  Node12 -> Node13 [color="steelblue1",style="solid"];
  Node13 [label="boost::edges",height=0.2,width=0.4,color="grey40", fillcolor="white", style="filled",URL="$namespaceboost.html#a3ac91f028a5f50644ba12e9e803bb2f8",tooltip=" "];
  Node13 -> Node13 [color="steelblue1",style="solid"];
  Node13 -> Node3 [color="steelblue1",style="solid"];
  Node12 -> Node12 [color="steelblue1",style="solid"];
  Node12 -> Node14 [color="steelblue1",style="solid"];
  Node14 [label="graph_tool::target",height=0.2,width=0.4,color="grey40", fillcolor="white", style="filled",URL="$namespacegraph__tool.html#aff9f07ca294560a9de57ab80deffa0cc",tooltip=" "];
  Node14 -> Node13 [color="steelblue1",style="solid"];
  Node14 -> Node12 [color="steelblue1",style="solid"];
  Node14 -> Node14 [color="steelblue1",style="solid"];
  Node1 -> Node14 [color="steelblue1",style="solid"];
  Node1 -> Node15 [color="steelblue1",style="solid"];
  Node15 [label="boost::vertices",height=0.2,width=0.4,color="grey40", fillcolor="white", style="filled",URL="$namespaceboost.html#a0bc22071c353fa26cd0d16cc817ddde2",tooltip=" "];
  Node15 -> Node3 [color="steelblue1",style="solid"];
  Node15 -> Node15 [color="steelblue1",style="solid"];
  Node1 -> Node16 [color="steelblue1",style="solid"];
  Node16 [label="graph_tool::vertices\l_range",height=0.2,width=0.4,color="grey40", fillcolor="white", style="filled",URL="$namespacegraph__tool.html#a92ab479b81d8c9a030d42854fefabf1a",tooltip=" "];
  Node16 -> Node5 [color="steelblue1",style="solid"];
  Node16 -> Node15 [color="steelblue1",style="solid"];
}
