digraph "graph_tool::get_circular::operator()"
{
 // LATEX_PDF_SIZE
  bgcolor="transparent";
  edge [fontname=Helvetica,fontsize=10,labelfontname=Helvetica,labelfontsize=10];
  node [fontname=Helvetica,fontsize=10,shape=box,height=0.2,width=0.4];
  rankdir="LR";
  Node1 [label="graph_tool::get_circular\l::operator()",height=0.2,width=0.4,color="gray40", fillcolor="grey60", style="filled", fontcolor="black",tooltip=" "];
  Node1 -> Node2 [color="steelblue1",style="solid"];
  Node2 [label="boost::add_edge",height=0.2,width=0.4,color="grey40", fillcolor="white", style="filled",URL="$namespaceboost.html#a2ca660300636fcb45d338069833665ae",tooltip=" "];
  Node2 -> Node2 [color="steelblue1",style="solid"];
  Node2 -> Node3 [color="steelblue1",style="solid"];
  Node3 [label="boost::undirected_adaptor\l::original_graph",height=0.2,width=0.4,color="grey40", fillcolor="white", style="filled",URL="$classboost_1_1undirected__adaptor.html#a11e557bb4f3d7c15354f98390f1d3644",tooltip=" "];
  Node1 -> Node4 [color="steelblue1",style="solid"];
  Node4 [label="boost::add_vertex",height=0.2,width=0.4,color="grey40", fillcolor="white", style="filled",URL="$namespaceboost.html#a9440b0ee2e6a885ba5cd53babca04ae8",tooltip=" "];
  Node4 -> Node4 [color="steelblue1",style="solid"];
  Node4 -> Node3 [color="steelblue1",style="solid"];
  Node1 -> Node5 [color="steelblue1",style="solid"];
  Node5 [label="boost::vertex",height=0.2,width=0.4,color="grey40", fillcolor="white", style="filled",URL="$namespaceboost.html#acf010cb431c640031d53bfe55c84ef46",tooltip=" "];
  Node5 -> Node3 [color="steelblue1",style="solid"];
  Node5 -> Node5 [color="steelblue1",style="solid"];
}
