digraph "export_vector_types::wrap_array"
{
 // LATEX_PDF_SIZE
  bgcolor="transparent";
  edge [fontname=Helvetica,fontsize=10,labelfontname=Helvetica,labelfontsize=10];
  node [fontname=Helvetica,fontsize=10,shape=box,height=0.2,width=0.4];
  rankdir="RL";
  Node1 [label="export_vector_types\l::wrap_array",height=0.2,width=0.4,color="gray40", fillcolor="grey60", style="filled", fontcolor="black",tooltip=" "];
  Node1 -> Node2 [dir="back",color="steelblue1",style="solid"];
  Node2 [label="export_vector_types\l::operator()",height=0.2,width=0.4,color="grey40", fillcolor="white", style="filled",URL="$structexport__vector__types.html#a3a45017176e6164a552335745e384278",tooltip=" "];
}
