digraph "graph_tool::overlap_partition_stats_t"
{
 // LATEX_PDF_SIZE
  bgcolor="transparent";
  edge [fontname=Helvetica,fontsize=10,labelfontname=Helvetica,labelfontsize=10];
  node [fontname=Helvetica,fontsize=10,shape=box,height=0.2,width=0.4];
  Node1 [shape=record,label="{graph_tool::overlap\l_partition_stats_t\n||+ overlap_partition_stats_t()\l+ get_v()\l+ get_r()\l+ get_bv_deg()\l+ get_partition_dl()\l+ get_deg_dl_ent()\l+ get_deg_dl_uniform()\l+ get_deg_dl_dist()\l+ get_deg_dl()\l+ get_n_bv()\land 9 more...\l}",height=0.2,width=0.4,color="gray40", fillcolor="grey60", style="filled", fontcolor="black",tooltip=" "];
}
