digraph "graph_tool::is_loop_overlap"
{
 // LATEX_PDF_SIZE
  bgcolor="transparent";
  edge [fontname=Helvetica,fontsize=10,labelfontname=Helvetica,labelfontsize=10];
  node [fontname=Helvetica,fontsize=10,shape=box,height=0.2,width=0.4];
  Node1 [shape=record,label="{graph_tool::is_loop\l_overlap\n||+ is_loop_overlap()\l+ operator()()\l}",height=0.2,width=0.4,color="gray40", fillcolor="grey60", style="filled", fontcolor="black",tooltip=" "];
  Node2 -> Node1 [color="grey25",style="solid",label=" +_overlap_stats" ,arrowhead="odiamond"];
  Node2 [shape=record,label="{graph_tool::overlap\l_stats_t\n|+ _null\l|+ overlap_stats_t()\l+ add_half_edge()\l+ remove_half_edge()\l+ get_block_size()\l+ virtual_remove_size()\l+ virtual_add_size()\l+ virtual_move_deg_dS()\l+ virtual_move_parallel_dS()\l+ sample_half_edge()\l+ get_node()\land 7 more...\l}",height=0.2,width=0.4,color="gray40", fillcolor="white", style="filled",URL="$classgraph__tool_1_1overlap__stats__t.html",tooltip=" "];
}
