digraph "boost::detail::out_edge_pred&lt; EdgePredicate, VertexPredicate, Graph &gt;"
{
 // LATEX_PDF_SIZE
  bgcolor="transparent";
  edge [fontname=Helvetica,fontsize=10,labelfontname=Helvetica,labelfontsize=10];
  node [fontname=Helvetica,fontsize=10,shape=box,height=0.2,width=0.4];
  Node1 [shape=record,label="{boost::detail::out\l_edge_pred\< EdgePredicate,\l VertexPredicate, Graph \>\n|+ _edge_pred\l+ _vertex_pred\l+ _g\l|+ out_edge_pred()\l+ out_edge_pred()\l+ operator()()\l}",height=0.2,width=0.4,color="gray40", fillcolor="grey60", style="filled", fontcolor="black",tooltip=" "];
}
