digraph "boost::read_graphviz_detail::parser::parse_stmt_list"
{
 // LATEX_PDF_SIZE
  bgcolor="transparent";
  edge [fontname=Helvetica,fontsize=10,labelfontname=Helvetica,labelfontsize=10];
  node [fontname=Helvetica,fontsize=10,shape=box,height=0.2,width=0.4];
  rankdir="RL";
  Node1 [label="boost::read_graphviz\l_detail::parser::parse\l_stmt_list",height=0.2,width=0.4,color="gray40", fillcolor="grey60", style="filled", fontcolor="black",tooltip=" "];
  Node1 -> Node2 [dir="back",color="steelblue1",style="solid"];
  Node2 [label="boost::read_graphviz\l_detail::parser::parse_graph",height=0.2,width=0.4,color="grey40", fillcolor="white", style="filled",URL="$structboost_1_1read__graphviz__detail_1_1parser.html#a21f11441bfc1e44e04d97785a10eee9c",tooltip=" "];
  Node2 -> Node3 [dir="back",color="steelblue1",style="solid"];
  Node3 [label="boost::read_graphviz\l_detail::parse_graphviz\l_from_string",height=0.2,width=0.4,color="grey40", fillcolor="white", style="filled",URL="$namespaceboost_1_1read__graphviz__detail.html#a64b45c35b1bd87b37a3fa667b35882b4",tooltip=" "];
  Node3 -> Node4 [dir="back",color="steelblue1",style="solid"];
  Node4 [label="boost::detail::graph\l::read_graphviz",height=0.2,width=0.4,color="grey40", fillcolor="white", style="filled",URL="$namespaceboost_1_1detail_1_1graph.html#ae79598d9f20dbde550ff5cf28b9137ea",tooltip=" "];
  Node1 -> Node5 [dir="back",color="steelblue1",style="solid"];
  Node5 [label="boost::read_graphviz\l_detail::parser::parse\l_subgraph",height=0.2,width=0.4,color="grey40", fillcolor="white", style="filled",URL="$structboost_1_1read__graphviz__detail_1_1parser.html#a29a00c07f1784548b8b34a34abaf3519",tooltip=" "];
  Node5 -> Node6 [dir="back",color="steelblue1",style="solid"];
  Node6 [label="boost::read_graphviz\l_detail::parser::parse\l_endpoint_rest",height=0.2,width=0.4,color="grey40", fillcolor="white", style="filled",URL="$structboost_1_1read__graphviz__detail_1_1parser.html#a12f688c052535ed960d34a90afc007ca",tooltip=" "];
  Node6 -> Node7 [dir="back",color="steelblue1",style="solid"];
  Node7 [label="boost::read_graphviz\l_detail::parser::parse\l_endpoint",height=0.2,width=0.4,color="grey40", fillcolor="white", style="filled",URL="$structboost_1_1read__graphviz__detail_1_1parser.html#a09b059a0cc08ded931295460154dde9e",tooltip=" "];
  Node7 -> Node8 [dir="back",color="steelblue1",style="solid"];
  Node8 [label="boost::read_graphviz\l_detail::parser::parse\l_edge_stmt",height=0.2,width=0.4,color="grey40", fillcolor="white", style="filled",URL="$structboost_1_1read__graphviz__detail_1_1parser.html#ac42987c69c8c151aa699feabc6756491",tooltip=" "];
  Node8 -> Node9 [dir="back",color="steelblue1",style="solid"];
  Node9 [label="boost::read_graphviz\l_detail::parser::parse_stmt",height=0.2,width=0.4,color="grey40", fillcolor="white", style="filled",URL="$structboost_1_1read__graphviz__detail_1_1parser.html#ac7faae5649c1c30fde3def86f1a3aa40",tooltip=" "];
  Node9 -> Node1 [dir="back",color="steelblue1",style="solid"];
  Node6 -> Node9 [dir="back",color="steelblue1",style="solid"];
}
