digraph "graph_tool::in_degreeS::get_in_degree"
{
 // LATEX_PDF_SIZE
  bgcolor="transparent";
  edge [fontname=Helvetica,fontsize=10,labelfontname=Helvetica,labelfontsize=10];
  node [fontname=Helvetica,fontsize=10,shape=box,height=0.2,width=0.4];
  rankdir="RL";
  Node1 [label="graph_tool::in_degreeS\l::get_in_degree",height=0.2,width=0.4,color="gray40", fillcolor="grey60", style="filled", fontcolor="black",tooltip=" "];
  Node1 -> Node2 [dir="back",color="steelblue1",style="solid"];
  Node2 [label="graph_tool::in_degreeS\l::operator()",height=0.2,width=0.4,color="grey40", fillcolor="white", style="filled",URL="$structgraph__tool_1_1in__degreeS.html#af04ff39d739e5ab1c60c8b368562c8be",tooltip=" "];
}
