digraph "graph_tool::do_group_vector_property&lt; Group, Edge &gt;"
{
 // LATEX_PDF_SIZE
  bgcolor="transparent";
  edge [fontname=Helvetica,fontsize=10,labelfontname=Helvetica,labelfontsize=10];
  node [fontname=Helvetica,fontsize=10,shape=box,height=0.2,width=0.4];
  Node1 [shape=record,label="{graph_tool::do_group\l_vector_property\< Group,\l Edge \>\n||+ operator()()\l+ dispatch_descriptor()\l+ dispatch_descriptor()\l+ group_or_ungroup()\l+ group_or_ungroup()\l+ convert()\l+ convert()\l+ convert()\l+ convert()\l+ convert()\l}",height=0.2,width=0.4,color="gray40", fillcolor="grey60", style="filled", fontcolor="black",tooltip=" "];
}
