digraph "graph_tool::overlap_partition_stats_t::get_bv_deg"
{
 // LATEX_PDF_SIZE
  bgcolor="transparent";
  edge [fontname=Helvetica,fontsize=10,labelfontname=Helvetica,labelfontsize=10];
  node [fontname=Helvetica,fontsize=10,shape=box,height=0.2,width=0.4];
  rankdir="LR";
  Node1 [label="graph_tool::overlap\l_partition_stats_t::\lget_bv_deg",height=0.2,width=0.4,color="gray40", fillcolor="grey60", style="filled", fontcolor="black",tooltip=" "];
  Node1 -> Node2 [color="steelblue1",style="solid"];
  Node2 [label="graph_tool::overlap\l_stats_t::get_half_edges",height=0.2,width=0.4,color="grey40", fillcolor="white", style="filled",URL="$classgraph__tool_1_1overlap__stats__t.html#ab4bb34a1bf7611827eee7e25175b51bc",tooltip=" "];
  Node1 -> Node3 [color="steelblue1",style="solid"];
  Node3 [label="graph_tool::overlap\l_partition_stats_t::get_r",height=0.2,width=0.4,color="grey40", fillcolor="white", style="filled",URL="$structgraph__tool_1_1overlap__partition__stats__t.html#a153db7911ee6c7ce48ff3b7018c1a296",tooltip=" "];
}
