digraph "do_avg_dist::operator()"
{
 // LATEX_PDF_SIZE
  bgcolor="transparent";
  edge [fontname=Helvetica,fontsize=10,labelfontname=Helvetica,labelfontsize=10];
  node [fontname=Helvetica,fontsize=10,shape=box,height=0.2,width=0.4];
  rankdir="LR";
  Node1 [label="do_avg_dist::operator()",height=0.2,width=0.4,color="gray40", fillcolor="grey60", style="filled", fontcolor="black",tooltip=" "];
  Node1 -> Node2 [color="steelblue1",style="solid"];
  Node2 [label="graph_tool::adjacent\l_vertices_range",height=0.2,width=0.4,color="grey40", fillcolor="white", style="filled",URL="$namespacegraph__tool.html#a834411325b3ac833b07a43e28d4c27be",tooltip=" "];
  Node2 -> Node3 [color="steelblue1",style="solid"];
  Node3 [label="boost::adjacent_vertices",height=0.2,width=0.4,color="grey40", fillcolor="white", style="filled",URL="$namespaceboost.html#a757a9023aa2aa9fa7276a93dd39a1f39",tooltip=" "];
  Node3 -> Node4 [color="steelblue1",style="solid"];
  Node4 [label="boost::out_neighbors",height=0.2,width=0.4,color="grey40", fillcolor="white", style="filled",URL="$namespaceboost.html#a57f92469ea1bdd1e62a67f2bbd781fea",tooltip=" "];
  Node4 -> Node5 [color="steelblue1",style="solid"];
  Node5 [label="boost::all_neighbors",height=0.2,width=0.4,color="grey40", fillcolor="white", style="filled",URL="$namespaceboost.html#aa79739d31ce142279771d2b585c3dc8a",tooltip=" "];
  Node5 -> Node4 [color="steelblue1",style="solid"];
  Node4 -> Node6 [color="steelblue1",style="solid"];
  Node6 [label="boost::undirected_adaptor\l::original_graph",height=0.2,width=0.4,color="grey40", fillcolor="white", style="filled",URL="$classboost_1_1undirected__adaptor.html#a11e557bb4f3d7c15354f98390f1d3644",tooltip=" "];
  Node2 -> Node7 [color="steelblue1",style="solid"];
  Node7 [label="graph_tool::mk_range",height=0.2,width=0.4,color="grey40", fillcolor="white", style="filled",URL="$namespacegraph__tool.html#a6ecc1e46efb4f620acabfe5728f7a2a6",tooltip=" "];
  Node1 -> Node8 [color="steelblue1",style="solid"];
  Node8 [label="graph_tool::parallel\l_vertex_loop_no_spawn",height=0.2,width=0.4,color="grey40", fillcolor="white", style="filled",URL="$namespacegraph__tool.html#a2725c01831f0c0950bad4a18a97f0e8c",tooltip=" "];
  Node8 -> Node9 [color="steelblue1",style="solid"];
  Node9 [label="boost::is_valid_vertex",height=0.2,width=0.4,color="grey40", fillcolor="white", style="filled",URL="$namespaceboost.html#a11c20bb91523ed21d4bd1a71b102fef7",tooltip=" "];
  Node8 -> Node10 [color="steelblue1",style="solid"];
  Node10 [label="boost::num_vertices",height=0.2,width=0.4,color="grey40", fillcolor="white", style="filled",URL="$namespaceboost.html#ac848f876a7fa2caa8fb1879b7c522ebc",tooltip=" "];
  Node10 -> Node10 [color="steelblue1",style="solid"];
  Node10 -> Node6 [color="steelblue1",style="solid"];
  Node8 -> Node11 [color="steelblue1",style="solid"];
  Node11 [label="boost::vertex",height=0.2,width=0.4,color="grey40", fillcolor="white", style="filled",URL="$namespaceboost.html#acf010cb431c640031d53bfe55c84ef46",tooltip=" "];
  Node11 -> Node6 [color="steelblue1",style="solid"];
  Node11 -> Node11 [color="steelblue1",style="solid"];
}
