digraph "graph_tool::overlap_partition_stats_t::move_vertex"
{
 // LATEX_PDF_SIZE
  bgcolor="transparent";
  edge [fontname=Helvetica,fontsize=10,labelfontname=Helvetica,labelfontsize=10];
  node [fontname=Helvetica,fontsize=10,shape=box,height=0.2,width=0.4];
  rankdir="LR";
  Node1 [label="graph_tool::overlap\l_partition_stats_t::\lmove_vertex",height=0.2,width=0.4,color="gray40", fillcolor="grey60", style="filled", fontcolor="black",tooltip=" "];
  Node1 -> Node2 [color="steelblue1",style="solid"];
  Node2 [label="graph_tool::overlap\l_partition_stats_t::\lget_n_bv",height=0.2,width=0.4,color="grey40", fillcolor="white", style="filled",URL="$structgraph__tool_1_1overlap__partition__stats__t.html#aab03de2aec626ad4c4affcb36bec762e",tooltip=" "];
  Node1 -> Node3 [color="steelblue1",style="solid"];
  Node3 [label="graph_tool::overlap\l_stats_t::get_node",height=0.2,width=0.4,color="grey40", fillcolor="white", style="filled",URL="$classgraph__tool_1_1overlap__stats__t.html#a22c1ab81602bc633ebe78ba8ca93f525",tooltip=" "];
  Node1 -> Node4 [color="steelblue1",style="solid"];
  Node4 [label="graph_tool::overlap\l_partition_stats_t::get_r",height=0.2,width=0.4,color="grey40", fillcolor="white", style="filled",URL="$structgraph__tool_1_1overlap__partition__stats__t.html#a153db7911ee6c7ce48ff3b7018c1a296",tooltip=" "];
  Node1 -> Node5 [color="steelblue1",style="solid"];
  Node5 [label="graph_tool::overlap\l_partition_stats_t::get_v",height=0.2,width=0.4,color="grey40", fillcolor="white", style="filled",URL="$structgraph__tool_1_1overlap__partition__stats__t.html#a8dd689e96204de8942cb549a38c89d09",tooltip=" "];
  Node1 -> Node6 [color="steelblue1",style="solid"];
  Node6 [label="gt_hash_map::resize",height=0.2,width=0.4,color="grey40", fillcolor="white", style="filled",URL="$classgt__hash__map.html#aca66a75ef42c793449239ba12aa92266",tooltip=" "];
}
