digraph "boost::read_graphviz_detail::parser::parse_graph"
{
 // LATEX_PDF_SIZE
  bgcolor="transparent";
  edge [fontname=Helvetica,fontsize=10,labelfontname=Helvetica,labelfontsize=10];
  node [fontname=Helvetica,fontsize=10,shape=box,height=0.2,width=0.4];
  rankdir="RL";
  Node1 [label="boost::read_graphviz\l_detail::parser::parse_graph",height=0.2,width=0.4,color="gray40", fillcolor="grey60", style="filled", fontcolor="black",tooltip=" "];
  Node1 -> Node2 [dir="back",color="steelblue1",style="solid"];
  Node2 [label="boost::read_graphviz\l_detail::parse_graphviz\l_from_string",height=0.2,width=0.4,color="grey40", fillcolor="white", style="filled",URL="$namespaceboost_1_1read__graphviz__detail.html#a64b45c35b1bd87b37a3fa667b35882b4",tooltip=" "];
  Node2 -> Node3 [dir="back",color="steelblue1",style="solid"];
  Node3 [label="boost::detail::graph\l::read_graphviz",height=0.2,width=0.4,color="grey40", fillcolor="white", style="filled",URL="$namespaceboost_1_1detail_1_1graph.html#ae79598d9f20dbde550ff5cf28b9137ea",tooltip=" "];
}
