digraph "boost::graph_traits&lt; undirected_adaptor&lt; Graph &gt; &gt;"
{
 // LATEX_PDF_SIZE
  bgcolor="transparent";
  edge [fontname=Helvetica,fontsize=10,labelfontname=Helvetica,labelfontsize=10];
  node [fontname=Helvetica,fontsize=10,shape=box,height=0.2,width=0.4];
  Node1 [shape=record,label="{boost::graph_traits\l\< undirected_adaptor\l\< Graph \> \>\n||+ null_vertex()\l}",height=0.2,width=0.4,color="gray40", fillcolor="grey60", style="filled", fontcolor="black",tooltip=" "];
  Node1 -> Node2 [dir="back",color="steelblue1",style="solid",arrowtail="onormal"];
  Node2 [shape=record,label="{boost::graph_traits\l\< const undirected_adaptor\l\< Graph \> \>\n||}",height=0.2,width=0.4,color="gray40", fillcolor="white", style="filled",URL="$structboost_1_1graph__traits_3_01const_01undirected__adaptor_3_01Graph_01_4_01_4.html",tooltip=" "];
}
