digraph "std::hash&lt; std::complex&lt; Value &gt; &gt;::operator()"
{
 // LATEX_PDF_SIZE
  bgcolor="transparent";
  edge [fontname=Helvetica,fontsize=10,labelfontname=Helvetica,labelfontsize=10];
  node [fontname=Helvetica,fontsize=10,shape=box,height=0.2,width=0.4];
  rankdir="LR";
  Node1 [label="std::hash\< std::complex\l\< Value \> \>::operator()",height=0.2,width=0.4,color="gray40", fillcolor="grey60", style="filled", fontcolor="black",tooltip=" "];
  Node1 -> Node2 [color="steelblue1",style="solid"];
  Node2 [label="std::_hash_combine",height=0.2,width=0.4,color="grey40", fillcolor="white", style="filled",URL="$namespacestd.html#a03f6b4a28a2de0a0e102f304f03f3d25",tooltip=" "];
}
