digraph "graph_tool::in_or_out_neighbors_iteratorS&lt; Graph &gt;"
{
 // LATEX_PDF_SIZE
  bgcolor="transparent";
  edge [fontname=Helvetica,fontsize=10,labelfontname=Helvetica,labelfontsize=10];
  node [fontname=Helvetica,fontsize=10,shape=box,height=0.2,width=0.4];
  Node1 [shape=record,label="{graph_tool::in_or_out\l_neighbors_iteratorS\l\< Graph \>\n||}",height=0.2,width=0.4,color="gray40", fillcolor="grey60", style="filled", fontcolor="black",tooltip=" "];
  Node2 -> Node1 [dir="back",color="steelblue1",style="solid",arrowtail="onormal"];
  Node2 [shape=record,label="{std::conditional\< std\l::is_convertible\< boost\l::graph_traits\< Graph \>\l::directed_category, boost\l::directed_tag \>::value, in\l_neighbor_iteratorS\< Graph \>\l, out_neighbor_iteratorS\< Graph\l \> \>::type\n||}",height=0.2,width=0.4,color="gray40", fillcolor="white", style="filled",tooltip=" "];
}
