digraph "graph_tool::MergeSplit::split_prob_gibbs"
{
 // LATEX_PDF_SIZE
  bgcolor="transparent";
  edge [fontname=Helvetica,fontsize=10,labelfontname=Helvetica,labelfontsize=10];
  node [fontname=Helvetica,fontsize=10,shape=box,height=0.2,width=0.4];
  rankdir="RL";
  Node1 [label="graph_tool::MergeSplit\l::split_prob_gibbs",height=0.2,width=0.4,color="gray40", fillcolor="grey60", style="filled", fontcolor="black",tooltip=" "];
  Node1 -> Node2 [dir="back",color="steelblue1",style="solid"];
  Node2 [label="graph_tool::MergeSplit\l::split",height=0.2,width=0.4,color="grey40", fillcolor="white", style="filled",URL="$structgraph__tool_1_1MergeSplit.html#a8437f5e484bafd87b4bac59d5df04349",tooltip=" "];
  Node1 -> Node3 [dir="back",color="steelblue1",style="solid"];
  Node3 [label="graph_tool::MergeSplit\l::split_prob",height=0.2,width=0.4,color="grey40", fillcolor="white", style="filled",URL="$structgraph__tool_1_1MergeSplit.html#a2db449f33a5bda8ffce4eb00a7c48c98",tooltip=" "];
  Node3 -> Node4 [dir="back",color="steelblue1",style="solid"];
  Node4 [label="graph_tool::MergeSplit\l::move_proposal",height=0.2,width=0.4,color="grey40", fillcolor="white", style="filled",URL="$structgraph__tool_1_1MergeSplit.html#a9210dbd9cd1e1c4fc931aaf692cb599f",tooltip=" "];
  Node3 -> Node5 [dir="back",color="steelblue1",style="solid"];
  Node5 [label="graph_tool::MergeSplit\l::sample_merge",height=0.2,width=0.4,color="grey40", fillcolor="white", style="filled",URL="$structgraph__tool_1_1MergeSplit.html#a06c5469bdf2e9f7a166fd6ee1dafcbbf",tooltip=" "];
  Node5 -> Node4 [dir="back",color="steelblue1",style="solid"];
}
