digraph "vector_from_list::convertible"
{
 // LATEX_PDF_SIZE
  bgcolor="transparent";
  edge [fontname=Helvetica,fontsize=10,labelfontname=Helvetica,labelfontsize=10];
  node [fontname=Helvetica,fontsize=10,shape=box,height=0.2,width=0.4];
  rankdir="RL";
  Node1 [label="vector_from_list::convertible",height=0.2,width=0.4,color="gray40", fillcolor="grey60", style="filled", fontcolor="black",tooltip=" "];
  Node1 -> Node2 [dir="back",color="steelblue1",style="solid"];
  Node2 [label="vector_from_list::vector\l_from_list",height=0.2,width=0.4,color="grey40", fillcolor="white", style="filled",URL="$structvector__from__list.html#aae2245656ded91c4176f32b00c20169e",tooltip=" "];
}
