digraph "retrieve_from_list::operator()"
{
 // LATEX_PDF_SIZE
  bgcolor="transparent";
  edge [fontname=Helvetica,fontsize=10,labelfontname=Helvetica,labelfontsize=10];
  node [fontname=Helvetica,fontsize=10,shape=box,height=0.2,width=0.4];
  rankdir="LR";
  Node1 [label="retrieve_from_list\l::operator()",height=0.2,width=0.4,color="gray40", fillcolor="grey60", style="filled", fontcolor="black",tooltip=" "];
  Node1 -> Node2 [color="steelblue1",style="solid"];
  Node2 [label="graph_tool::graph_copy",height=0.2,width=0.4,color="grey40", fillcolor="white", style="filled",URL="$namespacegraph__tool.html#aa63eb2c27cb68f9881a18f0ddf4883b6",tooltip=" "];
  Node2 -> Node3 [color="steelblue1",style="solid"];
  Node3 [label="boost::add_edge",height=0.2,width=0.4,color="grey40", fillcolor="white", style="filled",URL="$namespaceboost.html#a2ca660300636fcb45d338069833665ae",tooltip=" "];
  Node3 -> Node3 [color="steelblue1",style="solid"];
  Node3 -> Node4 [color="steelblue1",style="solid"];
  Node4 [label="boost::undirected_adaptor\l::original_graph",height=0.2,width=0.4,color="grey40", fillcolor="white", style="filled",URL="$classboost_1_1undirected__adaptor.html#a11e557bb4f3d7c15354f98390f1d3644",tooltip=" "];
  Node2 -> Node5 [color="steelblue1",style="solid"];
  Node5 [label="boost::add_vertex",height=0.2,width=0.4,color="grey40", fillcolor="white", style="filled",URL="$namespaceboost.html#a9440b0ee2e6a885ba5cd53babca04ae8",tooltip=" "];
  Node5 -> Node5 [color="steelblue1",style="solid"];
  Node5 -> Node4 [color="steelblue1",style="solid"];
  Node2 -> Node6 [color="steelblue1",style="solid"];
  Node6 [label="boost::edges",height=0.2,width=0.4,color="grey40", fillcolor="white", style="filled",URL="$namespaceboost.html#a3ac91f028a5f50644ba12e9e803bb2f8",tooltip=" "];
  Node6 -> Node6 [color="steelblue1",style="solid"];
  Node6 -> Node4 [color="steelblue1",style="solid"];
  Node2 -> Node7 [color="steelblue1",style="solid"];
  Node7 [label="boost::get",height=0.2,width=0.4,color="grey40", fillcolor="white", style="filled",URL="$namespaceboost.html#a16c10260e678081f48c16db5bdd0f5ea",tooltip=" "];
  Node7 -> Node7 [color="steelblue1",style="solid"];
  Node7 -> Node4 [color="steelblue1",style="solid"];
  Node2 -> Node8 [color="steelblue1",style="solid"];
  Node8 [label="boost::num_vertices",height=0.2,width=0.4,color="grey40", fillcolor="white", style="filled",URL="$namespaceboost.html#ac848f876a7fa2caa8fb1879b7c522ebc",tooltip=" "];
  Node8 -> Node8 [color="steelblue1",style="solid"];
  Node8 -> Node4 [color="steelblue1",style="solid"];
  Node2 -> Node9 [color="steelblue1",style="solid"];
  Node9 [label="graph_tool::source",height=0.2,width=0.4,color="grey40", fillcolor="white", style="filled",URL="$namespacegraph__tool.html#a0b44c0af404cec1513acb7b9602557f8",tooltip=" "];
  Node9 -> Node6 [color="steelblue1",style="solid"];
  Node9 -> Node9 [color="steelblue1",style="solid"];
  Node9 -> Node10 [color="steelblue1",style="solid"];
  Node10 [label="graph_tool::target",height=0.2,width=0.4,color="grey40", fillcolor="white", style="filled",URL="$namespacegraph__tool.html#aff9f07ca294560a9de57ab80deffa0cc",tooltip=" "];
  Node10 -> Node6 [color="steelblue1",style="solid"];
  Node10 -> Node9 [color="steelblue1",style="solid"];
  Node10 -> Node10 [color="steelblue1",style="solid"];
  Node2 -> Node10 [color="steelblue1",style="solid"];
  Node2 -> Node11 [color="steelblue1",style="solid"];
  Node11 [label="boost::vertices",height=0.2,width=0.4,color="grey40", fillcolor="white", style="filled",URL="$namespaceboost.html#a0bc22071c353fa26cd0d16cc817ddde2",tooltip=" "];
  Node11 -> Node4 [color="steelblue1",style="solid"];
  Node11 -> Node11 [color="steelblue1",style="solid"];
}
