digraph "empty_key&lt; boost::container::small_vector&lt; Value, N &gt; &gt;::get"
{
 // LATEX_PDF_SIZE
  bgcolor="transparent";
  edge [fontname=Helvetica,fontsize=10,labelfontname=Helvetica,labelfontsize=10];
  node [fontname=Helvetica,fontsize=10,shape=box,height=0.2,width=0.4];
  rankdir="LR";
  Node1 [label="empty_key\< boost::container\l::small_vector\< Value, N\l \> \>::get",height=0.2,width=0.4,color="gray40", fillcolor="grey60", style="filled", fontcolor="black",tooltip=" "];
  Node1 -> Node2 [color="steelblue1",style="solid"];
  Node2 [label="empty_key::get",height=0.2,width=0.4,color="grey40", fillcolor="white", style="filled",URL="$structempty__key.html#aa0119fa7ba67fcc7950e9a951b8b94ec",tooltip=" "];
  Node2 -> Node3 [color="steelblue1",style="solid"];
  Node3 [label="empty_key::dispatch",height=0.2,width=0.4,color="grey40", fillcolor="white", style="filled",URL="$structempty__key.html#a9fd6bd86739e7147627d5e0cc2f0a2e2",tooltip=" "];
}
