digraph "graph_tool::get_all_motifs::operator()"
{
 // LATEX_PDF_SIZE
  bgcolor="transparent";
  edge [fontname=Helvetica,fontsize=10,labelfontname=Helvetica,labelfontsize=10];
  node [fontname=Helvetica,fontsize=10,shape=box,height=0.2,width=0.4];
  rankdir="LR";
  Node1 [label="graph_tool::get_all\l_motifs::operator()",height=0.2,width=0.4,color="gray40", fillcolor="grey60", style="filled", fontcolor="black",tooltip=" "];
  Node1 -> Node2 [color="steelblue1",style="solid"];
  Node2 [label="boost::get",height=0.2,width=0.4,color="grey40", fillcolor="white", style="filled",URL="$namespaceboost.html#a16c10260e678081f48c16db5bdd0f5ea",tooltip=" "];
  Node2 -> Node2 [color="steelblue1",style="solid"];
  Node2 -> Node3 [color="steelblue1",style="solid"];
  Node3 [label="boost::undirected_adaptor\l::original_graph",height=0.2,width=0.4,color="grey40", fillcolor="white", style="filled",URL="$classboost_1_1undirected__adaptor.html#a11e557bb4f3d7c15354f98390f1d3644",tooltip=" "];
  Node1 -> Node4 [color="steelblue1",style="solid"];
  Node4 [label="graph_tool::get_sig",height=0.2,width=0.4,color="grey40", fillcolor="white", style="filled",URL="$namespacegraph__tool.html#a6fc5ad18441d2fb32df430e017327f69",tooltip=" "];
  Node4 -> Node5 [color="steelblue1",style="solid"];
  Node5 [label="graph_tool::is_directed",height=0.2,width=0.4,color="grey40", fillcolor="white", style="filled",URL="$namespacegraph__tool.html#a815c22620d9f5756b899dc94e405e2f3",tooltip=" "];
  Node4 -> Node6 [color="steelblue1",style="solid"];
  Node6 [label="boost::num_vertices",height=0.2,width=0.4,color="grey40", fillcolor="white", style="filled",URL="$namespaceboost.html#ac848f876a7fa2caa8fb1879b7c522ebc",tooltip=" "];
  Node6 -> Node6 [color="steelblue1",style="solid"];
  Node6 -> Node3 [color="steelblue1",style="solid"];
  Node4 -> Node7 [color="steelblue1",style="solid"];
  Node7 [label="boost::out_degree",height=0.2,width=0.4,color="grey40", fillcolor="white", style="filled",URL="$namespaceboost.html#ac2aab26c4c5fb471f6eef10ae4496089",tooltip=" "];
  Node7 -> Node8 [color="steelblue1",style="solid"];
  Node8 [label="boost::degree",height=0.2,width=0.4,color="grey40", fillcolor="white", style="filled",URL="$namespaceboost.html#ac08426adc887cd2f50850eb97baaae7d",tooltip=" "];
  Node8 -> Node7 [color="steelblue1",style="solid"];
  Node7 -> Node3 [color="steelblue1",style="solid"];
  Node4 -> Node9 [color="steelblue1",style="solid"];
  Node9 [label="boost::vertex",height=0.2,width=0.4,color="grey40", fillcolor="white", style="filled",URL="$namespaceboost.html#acf010cb431c640031d53bfe55c84ef46",tooltip=" "];
  Node9 -> Node3 [color="steelblue1",style="solid"];
  Node9 -> Node9 [color="steelblue1",style="solid"];
  Node1 -> Node10 [color="steelblue1",style="solid"];
  Node10 [label="graph_tool::graph_cmp",height=0.2,width=0.4,color="grey40", fillcolor="white", style="filled",URL="$namespacegraph__tool.html#aae8340b4c1725b5a10b695dd1c71b65e",tooltip=" "];
  Node10 -> Node11 [color="steelblue1",style="solid"];
  Node11 [label="boost::num_edges",height=0.2,width=0.4,color="grey40", fillcolor="white", style="filled",URL="$namespaceboost.html#a9ef174ef7936d602675bd09b6afe89f0",tooltip=" "];
  Node11 -> Node11 [color="steelblue1",style="solid"];
  Node11 -> Node3 [color="steelblue1",style="solid"];
  Node10 -> Node6 [color="steelblue1",style="solid"];
  Node10 -> Node7 [color="steelblue1",style="solid"];
  Node10 -> Node12 [color="steelblue1",style="solid"];
  Node12 [label="boost::out_edges",height=0.2,width=0.4,color="grey40", fillcolor="white", style="filled",URL="$namespaceboost.html#a865d9831fadf13b38d34016ef9e530ee",tooltip=" "];
  Node12 -> Node13 [color="steelblue1",style="solid"];
  Node13 [label="boost::_all_edges_out",height=0.2,width=0.4,color="grey40", fillcolor="white", style="filled",URL="$namespaceboost.html#aa82530169e5a3d0bcbbf44d0a41173ba",tooltip=" "];
  Node13 -> Node12 [color="steelblue1",style="solid"];
  Node12 -> Node3 [color="steelblue1",style="solid"];
  Node10 -> Node14 [color="steelblue1",style="solid"];
  Node14 [label="graph_tool::target",height=0.2,width=0.4,color="grey40", fillcolor="white", style="filled",URL="$namespacegraph__tool.html#aff9f07ca294560a9de57ab80deffa0cc",tooltip=" "];
  Node14 -> Node15 [color="steelblue1",style="solid"];
  Node15 [label="boost::edges",height=0.2,width=0.4,color="grey40", fillcolor="white", style="filled",URL="$namespaceboost.html#a3ac91f028a5f50644ba12e9e803bb2f8",tooltip=" "];
  Node15 -> Node15 [color="steelblue1",style="solid"];
  Node15 -> Node3 [color="steelblue1",style="solid"];
  Node14 -> Node16 [color="steelblue1",style="solid"];
  Node16 [label="graph_tool::source",height=0.2,width=0.4,color="grey40", fillcolor="white", style="filled",URL="$namespacegraph__tool.html#a0b44c0af404cec1513acb7b9602557f8",tooltip=" "];
  Node16 -> Node15 [color="steelblue1",style="solid"];
  Node16 -> Node16 [color="steelblue1",style="solid"];
  Node16 -> Node14 [color="steelblue1",style="solid"];
  Node14 -> Node14 [color="steelblue1",style="solid"];
  Node10 -> Node17 [color="steelblue1",style="solid"];
  Node17 [label="boost::vertices",height=0.2,width=0.4,color="grey40", fillcolor="white", style="filled",URL="$namespaceboost.html#a0bc22071c353fa26cd0d16cc817ddde2",tooltip=" "];
  Node17 -> Node3 [color="steelblue1",style="solid"];
  Node17 -> Node17 [color="steelblue1",style="solid"];
  Node1 -> Node18 [color="steelblue1",style="solid"];
  Node18 [label="boost::is_valid_vertex",height=0.2,width=0.4,color="grey40", fillcolor="white", style="filled",URL="$namespaceboost.html#a11c20bb91523ed21d4bd1a71b102fef7",tooltip=" "];
  Node1 -> Node19 [color="steelblue1",style="solid"];
  Node19 [label="graph_tool::make_subgraph",height=0.2,width=0.4,color="grey40", fillcolor="white", style="filled",URL="$namespacegraph__tool.html#a05f6109242f819150e9fd8a1f6e3c563",tooltip=" "];
  Node19 -> Node20 [color="steelblue1",style="solid"];
  Node20 [label="boost::add_edge",height=0.2,width=0.4,color="grey40", fillcolor="white", style="filled",URL="$namespaceboost.html#a2ca660300636fcb45d338069833665ae",tooltip=" "];
  Node20 -> Node20 [color="steelblue1",style="solid"];
  Node20 -> Node3 [color="steelblue1",style="solid"];
  Node19 -> Node21 [color="steelblue1",style="solid"];
  Node21 [label="boost::add_vertex",height=0.2,width=0.4,color="grey40", fillcolor="white", style="filled",URL="$namespaceboost.html#a9440b0ee2e6a885ba5cd53babca04ae8",tooltip=" "];
  Node21 -> Node21 [color="steelblue1",style="solid"];
  Node21 -> Node3 [color="steelblue1",style="solid"];
  Node19 -> Node5 [color="steelblue1",style="solid"];
  Node19 -> Node22 [color="steelblue1",style="solid"];
  Node22 [label="graph_tool::out_edges\l_range",height=0.2,width=0.4,color="grey40", fillcolor="white", style="filled",URL="$namespacegraph__tool.html#a347f8a3e503c35e8a4d54184d8d90a6f",tooltip=" "];
  Node22 -> Node23 [color="steelblue1",style="solid"];
  Node23 [label="graph_tool::mk_range",height=0.2,width=0.4,color="grey40", fillcolor="white", style="filled",URL="$namespacegraph__tool.html#a6ecc1e46efb4f620acabfe5728f7a2a6",tooltip=" "];
  Node19 -> Node14 [color="steelblue1",style="solid"];
  Node19 -> Node9 [color="steelblue1",style="solid"];
  Node1 -> Node6 [color="steelblue1",style="solid"];
  Node1 -> Node24 [color="steelblue1",style="solid"];
  Node24 [label="gt_hash_map::resize",height=0.2,width=0.4,color="grey40", fillcolor="white", style="filled",URL="$classgt__hash__map.html#aca66a75ef42c793449239ba12aa92266",tooltip=" "];
  Node1 -> Node25 [color="steelblue1",style="solid"];
  Node25 [label="graph_tool::skip",height=0.2,width=0.4,color="grey40", fillcolor="white", style="filled",URL="$namespacegraph__tool.html#a96b8a51b5131a5172928da18f7c83482",tooltip=" "];
  Node1 -> Node9 [color="steelblue1",style="solid"];
  Node1 -> Node26 [color="steelblue1",style="solid"];
  Node26 [label="graph_tool::vertices\l_range",height=0.2,width=0.4,color="grey40", fillcolor="white", style="filled",URL="$namespacegraph__tool.html#a92ab479b81d8c9a030d42854fefabf1a",tooltip=" "];
  Node26 -> Node23 [color="steelblue1",style="solid"];
  Node26 -> Node17 [color="steelblue1",style="solid"];
}
