digraph "graph_tool::Multilevel&lt; State, Node, Group, VSet, VMap, GSet, GMap, GSMap, allow_empty, labelled &gt;"
{
 // LATEX_PDF_SIZE
  bgcolor="transparent";
  edge [fontname=Helvetica,fontsize=10,labelfontname=Helvetica,labelfontsize=10];
  node [fontname=Helvetica,fontsize=10,shape=box,height=0.2,width=0.4];
  Node1 [shape=record,label="{graph_tool::Multilevel\l\< State, Node, Group,\l VSet, VMap, GSet, GMap,\l GSMap, allow_empty, labelled \>\n|+ _nodes\l+ _groups\l+ _nmoves\l+ _bstack\l+ _rlist\l+ _vs\l+ _move\l+ _rs\l+ _rs_prev\l+ _best_merge\land 12 more...\l+ _null_move\l+ _phi\l|+ Multilevel()\l+ push_b()\l+ pop_b()\l+ node_state()\l+ skip_node()\l+ move_node()\l+ get_group_vs()\l+ get_wr()\l+ mh_sweep()\l+ mh_sweep_prob()\land 20 more...\l}",height=0.2,width=0.4,color="gray40", fillcolor="grey60", style="filled", fontcolor="black",tooltip=" "];
  Node2 -> Node1 [dir="back",color="steelblue1",style="solid",arrowtail="onormal"];
  Node2 [shape=record,label="{State\n||}",height=0.2,width=0.4,color="gray40", fillcolor="white", style="filled",tooltip=" "];
  Node3 -> Node1 [color="grey25",style="solid",label=" +_move_sampler" ,arrowhead="odiamond"];
  Node3 [shape=record,label="{graph_tool::Sampler\l\< move_t, mpl::false_ \>\n||+ Sampler()\l+ Sampler()\l+ sample()\l+ size()\l+ empty()\l+ has_n()\l+ prob_sum()\l+ operator[]()\l+ items()\l+ begin()\l+ end()\l}",height=0.2,width=0.4,color="gray40", fillcolor="white", style="filled",URL="$classgraph__tool_1_1Sampler.html",tooltip=" "];
}
