digraph "pair_from_tuple::pair_from_tuple"
{
 // LATEX_PDF_SIZE
  bgcolor="transparent";
  edge [fontname=Helvetica,fontsize=10,labelfontname=Helvetica,labelfontsize=10];
  node [fontname=Helvetica,fontsize=10,shape=box,height=0.2,width=0.4];
  rankdir="LR";
  Node1 [label="pair_from_tuple::pair\l_from_tuple",height=0.2,width=0.4,color="gray40", fillcolor="grey60", style="filled", fontcolor="black",tooltip=" "];
  Node1 -> Node2 [color="steelblue1",style="solid"];
  Node2 [label="pair_from_tuple::construct",height=0.2,width=0.4,color="grey40", fillcolor="white", style="filled",URL="$structpair__from__tuple.html#a54b15b64684ff7dbbe8462b08e6cef53",tooltip=" "];
  Node1 -> Node3 [color="steelblue1",style="solid"];
  Node3 [label="pair_from_tuple::convertible",height=0.2,width=0.4,color="grey40", fillcolor="white", style="filled",URL="$structpair__from__tuple.html#a4c52549272412c4862785c4dc323676e",tooltip=" "];
}
