digraph "LibInfo"
{
 // LATEX_PDF_SIZE
  bgcolor="transparent";
  edge [fontname=Helvetica,fontsize=10,labelfontname=Helvetica,labelfontsize=10];
  node [fontname=Helvetica,fontsize=10,shape=box,height=0.2,width=0.4];
  Node1 [shape=record,label="{LibInfo\n||+ GetName()\l+ GetAuthor()\l+ GetCopyright()\l+ GetVersion()\l+ GetLicense()\l+ GetCXXFLAGS()\l+ GetInstallPrefix()\l+ GetPythonDir()\l+ GetGCCVersion()\l}",height=0.2,width=0.4,color="gray40", fillcolor="grey60", style="filled", fontcolor="black",tooltip=" "];
}
