digraph "boost::read_graphviz_detail::edge_endpoint"
{
 // LATEX_PDF_SIZE
  bgcolor="transparent";
  edge [fontname=Helvetica,fontsize=10,labelfontname=Helvetica,labelfontsize=10];
  node [fontname=Helvetica,fontsize=10,shape=box,height=0.2,width=0.4];
  Node1 [shape=record,label="{boost::read_graphviz\l_detail::edge_endpoint\n|+ is_subgraph\l+ node_ep\l+ subgraph_ep\l|+ node()\l+ subgraph()\l}",height=0.2,width=0.4,color="gray40", fillcolor="grey60", style="filled", fontcolor="black",tooltip=" "];
}
