digraph "empty_key::get"
{
 // LATEX_PDF_SIZE
  bgcolor="transparent";
  edge [fontname=Helvetica,fontsize=10,labelfontname=Helvetica,labelfontsize=10];
  node [fontname=Helvetica,fontsize=10,shape=box,height=0.2,width=0.4];
  rankdir="RL";
  Node1 [label="empty_key::get",height=0.2,width=0.4,color="gray40", fillcolor="grey60", style="filled", fontcolor="black",tooltip=" "];
  Node1 -> Node2 [dir="back",color="steelblue1",style="solid"];
  Node2 [label="empty_key\< std::vector\l\< Key, Allocator \> \>::get",height=0.2,width=0.4,color="grey40", fillcolor="white", style="filled",URL="$structempty__key_3_01std_1_1vector_3_01Key_00_01Allocator_01_4_01_4.html#a65decdb231952d824a55c5a2e094afc3",tooltip=" "];
  Node1 -> Node3 [dir="back",color="steelblue1",style="solid"];
  Node3 [label="empty_key\< std::tuple\l\< Val, Vals... \> \>::get",height=0.2,width=0.4,color="grey40", fillcolor="white", style="filled",URL="$structempty__key_3_01std_1_1tuple_3_01Val_00_01Vals_8_8_8_01_4_01_4.html#ac8f45dcec34a30837330f30f79814d21",tooltip=" "];
  Node1 -> Node4 [dir="back",color="steelblue1",style="solid"];
  Node4 [label="empty_key\< boost::container\l::small_vector\< Value, N\l \> \>::get",height=0.2,width=0.4,color="grey40", fillcolor="white", style="filled",URL="$structempty__key_3_01boost_1_1container_1_1small__vector_3_01Value_00_01N_01_4_01_4.html#a6494b43b1309cbd06fe1f4c586ca5939",tooltip=" "];
}
