digraph "boost::adj_list&lt; Vertex &gt;::all_edge_iterator"
{
 // LATEX_PDF_SIZE
  bgcolor="transparent";
  edge [fontname=Helvetica,fontsize=10,labelfontname=Helvetica,labelfontsize=10];
  node [fontname=Helvetica,fontsize=10,shape=box,height=0.2,width=0.4];
  Node1 [shape=record,label="{boost::adj_list\< Vertex\l \>::all_edge_iterator\n||+ all_edge_iterator()\l+ all_edge_iterator()\l}",height=0.2,width=0.4,color="gray40", fillcolor="grey60", style="filled", fontcolor="black",tooltip=" "];
  Node2 -> Node1 [dir="back",color="steelblue1",style="solid",arrowtail="onormal"];
  Node2 [shape=record,label="{boost::adj_list\< Vertex\l \>::base_edge_iterator\l\< make_in_or_out_edge\<\l all_edge_iterator \> \>\n|# _v\l# _iter\l|+ base_edge_iterator()\l+ base_edge_iterator()\l+ operator*()\l}",height=0.2,width=0.4,color="gray40", fillcolor="white", style="filled",URL="$structboost_1_1adj__list_1_1base__edge__iterator.html",tooltip=" "];
  Node3 -> Node2 [dir="back",color="steelblue1",style="solid",arrowtail="onormal"];
  Node3 [shape=record,label="{boost::adj_list\< Vertex\l \>::edge_iter_facade\<\l Base \>\n||}",height=0.2,width=0.4,color="gray40", fillcolor="white", style="filled",URL="$structboost_1_1adj__list_1_1edge__iter__facade.html",tooltip=" "];
  Node4 -> Node3 [dir="back",color="steelblue1",style="solid",arrowtail="onormal"];
  Node4 [shape=record,label="{boost::iterator_facade\l\< Base, edge_descriptor,\l std::random_access_iterator\l_tag, edge_descriptor \>\n||}",height=0.2,width=0.4,color="gray40", fillcolor="white", style="filled",tooltip=" "];
}
