digraph "graph_tool::detail::never_filtered"
{
 // LATEX_PDF_SIZE
  bgcolor="transparent";
  edge [fontname=Helvetica,fontsize=10,labelfontname=Helvetica,labelfontsize=10];
  node [fontname=Helvetica,fontsize=10,shape=box,height=0.2,width=0.4];
  Node1 [shape=record,label="{graph_tool::detail\l::never_filtered\n||}",height=0.2,width=0.4,color="gray40", fillcolor="grey60", style="filled", fontcolor="black",tooltip=" "];
  Node2 -> Node1 [dir="back",color="steelblue1",style="solid",arrowtail="onormal"];
  Node2 [shape=record,label="{get_all_graph_views\l::apply\< filt_scalar\l_type, boost::mpl::bool\l_\< false \>, boost::mpl\l::bool_\< false \>, boost\l::mpl::bool_\< false \>, boost\l::mpl::bool_\< false \>, boost\l::mpl::bool_\< true \> \>::type\n||}",height=0.2,width=0.4,color="gray40", fillcolor="white", style="filled",URL="$structgraph__tool_1_1detail_1_1get__all__graph__views_1_1apply_1_1filtered__graphs.html",tooltip=" "];
  Node3 -> Node2 [dir="back",color="steelblue1",style="solid",arrowtail="onormal"];
  Node3 [shape=record,label="{boost::mpl::if_\< NeverFiltered,\l undirected_graphs, boost\l::mpl::transform\< undirected\l_graphs, get_graph_filtered,\l boost::mpl::back_inserter\< undirected\l_graphs \> \>::type \>::type\n||}",height=0.2,width=0.4,color="gray40", fillcolor="white", style="filled",tooltip=" "];
}
