digraph "get_push_relabel_max_flow::operator()"
{
 // LATEX_PDF_SIZE
  bgcolor="transparent";
  edge [fontname=Helvetica,fontsize=10,labelfontname=Helvetica,labelfontsize=10];
  node [fontname=Helvetica,fontsize=10,shape=box,height=0.2,width=0.4];
  rankdir="LR";
  Node1 [label="get_push_relabel_max\l_flow::operator()",height=0.2,width=0.4,color="gray40", fillcolor="grey60", style="filled", fontcolor="black",tooltip=" "];
  Node1 -> Node2 [color="steelblue1",style="solid"];
  Node2 [label="graph_tool::augment\l_graph",height=0.2,width=0.4,color="grey40", fillcolor="white", style="filled",URL="$namespacegraph__tool.html#aaaf196584218d9fb8f28e8b808f54c24",tooltip=" "];
  Node2 -> Node3 [color="steelblue1",style="solid"];
  Node3 [label="boost::add_edge",height=0.2,width=0.4,color="grey40", fillcolor="white", style="filled",URL="$namespaceboost.html#a2ca660300636fcb45d338069833665ae",tooltip=" "];
  Node3 -> Node3 [color="steelblue1",style="solid"];
  Node3 -> Node4 [color="steelblue1",style="solid"];
  Node4 [label="boost::undirected_adaptor\l::original_graph",height=0.2,width=0.4,color="grey40", fillcolor="white", style="filled",URL="$classboost_1_1undirected__adaptor.html#a11e557bb4f3d7c15354f98390f1d3644",tooltip=" "];
  Node2 -> Node5 [color="steelblue1",style="solid"];
  Node5 [label="graph_tool::edges_range",height=0.2,width=0.4,color="grey40", fillcolor="white", style="filled",URL="$namespacegraph__tool.html#a84f027f8994c1005336b0a12eb0c9dc4",tooltip=" "];
  Node5 -> Node6 [color="steelblue1",style="solid"];
  Node6 [label="boost::edges",height=0.2,width=0.4,color="grey40", fillcolor="white", style="filled",URL="$namespaceboost.html#a3ac91f028a5f50644ba12e9e803bb2f8",tooltip=" "];
  Node6 -> Node6 [color="steelblue1",style="solid"];
  Node6 -> Node4 [color="steelblue1",style="solid"];
  Node5 -> Node7 [color="steelblue1",style="solid"];
  Node7 [label="graph_tool::mk_range",height=0.2,width=0.4,color="grey40", fillcolor="white", style="filled",URL="$namespacegraph__tool.html#a6ecc1e46efb4f620acabfe5728f7a2a6",tooltip=" "];
  Node2 -> Node8 [color="steelblue1",style="solid"];
  Node8 [label="graph_tool::out_edges\l_range",height=0.2,width=0.4,color="grey40", fillcolor="white", style="filled",URL="$namespacegraph__tool.html#a347f8a3e503c35e8a4d54184d8d90a6f",tooltip=" "];
  Node8 -> Node7 [color="steelblue1",style="solid"];
  Node2 -> Node9 [color="steelblue1",style="solid"];
  Node9 [label="graph_tool::source",height=0.2,width=0.4,color="grey40", fillcolor="white", style="filled",URL="$namespacegraph__tool.html#a0b44c0af404cec1513acb7b9602557f8",tooltip=" "];
  Node9 -> Node6 [color="steelblue1",style="solid"];
  Node9 -> Node9 [color="steelblue1",style="solid"];
  Node9 -> Node10 [color="steelblue1",style="solid"];
  Node10 [label="graph_tool::target",height=0.2,width=0.4,color="grey40", fillcolor="white", style="filled",URL="$namespacegraph__tool.html#aff9f07ca294560a9de57ab80deffa0cc",tooltip=" "];
  Node10 -> Node6 [color="steelblue1",style="solid"];
  Node10 -> Node9 [color="steelblue1",style="solid"];
  Node10 -> Node10 [color="steelblue1",style="solid"];
  Node2 -> Node10 [color="steelblue1",style="solid"];
  Node1 -> Node11 [color="steelblue1",style="solid"];
  Node11 [label="graph_tool::deaugment\l_graph",height=0.2,width=0.4,color="grey40", fillcolor="white", style="filled",URL="$namespacegraph__tool.html#a0a7e65d16c92811de365ae0310bbb204",tooltip=" "];
  Node11 -> Node8 [color="steelblue1",style="solid"];
  Node11 -> Node12 [color="steelblue1",style="solid"];
  Node12 [label="boost::remove_edge",height=0.2,width=0.4,color="grey40", fillcolor="white", style="filled",URL="$namespaceboost.html#a45af224fa845fa533ba00155abf50467",tooltip=" "];
  Node12 -> Node13 [color="steelblue1",style="solid"];
  Node13 [label="boost::edge",height=0.2,width=0.4,color="grey40", fillcolor="white", style="filled",URL="$namespaceboost.html#a598b4480c610319f1d97be25667c6e56",tooltip=" "];
  Node13 -> Node13 [color="steelblue1",style="solid"];
  Node13 -> Node4 [color="steelblue1",style="solid"];
  Node12 -> Node12 [color="steelblue1",style="solid"];
  Node11 -> Node14 [color="steelblue1",style="solid"];
  Node14 [label="graph_tool::vertices\l_range",height=0.2,width=0.4,color="grey40", fillcolor="white", style="filled",URL="$namespacegraph__tool.html#a92ab479b81d8c9a030d42854fefabf1a",tooltip=" "];
  Node14 -> Node7 [color="steelblue1",style="solid"];
  Node14 -> Node15 [color="steelblue1",style="solid"];
  Node15 [label="boost::vertices",height=0.2,width=0.4,color="grey40", fillcolor="white", style="filled",URL="$namespaceboost.html#a0bc22071c353fa26cd0d16cc817ddde2",tooltip=" "];
  Node15 -> Node4 [color="steelblue1",style="solid"];
  Node15 -> Node15 [color="steelblue1",style="solid"];
  Node1 -> Node16 [color="steelblue1",style="solid"];
  Node16 [label="boost::unchecked_vector\l_property_map::get_checked",height=0.2,width=0.4,color="grey40", fillcolor="white", style="filled",URL="$classboost_1_1unchecked__vector__property__map.html#ac85dd75f6155358ec0c8bb3708d5cee2",tooltip=" "];
  Node1 -> Node17 [color="steelblue1",style="solid"];
  Node17 [label="boost::get_unchecked",height=0.2,width=0.4,color="grey40", fillcolor="white", style="filled",URL="$namespaceboost.html#a8b45e47b2375b8d1cd889c5acf59c200",tooltip=" "];
  Node17 -> Node18 [color="steelblue1",style="solid"];
  Node18 [label="boost::checked_vector\l_property_map::get_unchecked",height=0.2,width=0.4,color="grey40", fillcolor="white", style="filled",URL="$classboost_1_1checked__vector__property__map.html#afc8aa547b3e8b4df8662342d55f6fd15",tooltip=" "];
  Node18 -> Node19 [color="steelblue1",style="solid"];
  Node19 [label="boost::checked_vector\l_property_map::reserve",height=0.2,width=0.4,color="grey40", fillcolor="white", style="filled",URL="$classboost_1_1checked__vector__property__map.html#ad42f677fcb713ec7f22a3f9629fd40db",tooltip=" "];
  Node1 -> Node20 [color="steelblue1",style="solid"];
  Node20 [label="boost::vertex",height=0.2,width=0.4,color="grey40", fillcolor="white", style="filled",URL="$namespaceboost.html#acf010cb431c640031d53bfe55c84ef46",tooltip=" "];
  Node20 -> Node4 [color="steelblue1",style="solid"];
  Node20 -> Node20 [color="steelblue1",style="solid"];
}
