digraph "graph_tool::detail::get_all_graph_views::apply&lt; FiltType, AlwaysDirected, NeverDirected, AlwaysReversed, NeverReversed, NeverFiltered &gt;::filtered_graphs"
{
 // LATEX_PDF_SIZE
  bgcolor="transparent";
  edge [fontname=Helvetica,fontsize=10,labelfontname=Helvetica,labelfontsize=10];
  node [fontname=Helvetica,fontsize=10,shape=box,height=0.2,width=0.4];
  Node1 [shape=record,label="{graph_tool::detail\l::get_all_graph_views\l::apply\< FiltType, AlwaysDirected,\l NeverDirected, AlwaysReversed,\l NeverReversed, NeverFiltered \>\l::filtered_graphs\n||}",height=0.2,width=0.4,color="gray40", fillcolor="grey60", style="filled", fontcolor="black",tooltip=" "];
  Node2 -> Node1 [dir="back",color="steelblue1",style="solid",arrowtail="onormal"];
  Node2 [shape=record,label="{boost::mpl::if_\< NeverFiltered,\l undirected_graphs, boost\l::mpl::transform\< undirected\l_graphs, get_graph_filtered,\l boost::mpl::back_inserter\< undirected\l_graphs \> \>::type \>::type\n||}",height=0.2,width=0.4,color="gray40", fillcolor="white", style="filled",tooltip=" "];
}
