digraph "pair_from_tuple::convertible"
{
 // LATEX_PDF_SIZE
  bgcolor="transparent";
  edge [fontname=Helvetica,fontsize=10,labelfontname=Helvetica,labelfontsize=10];
  node [fontname=Helvetica,fontsize=10,shape=box,height=0.2,width=0.4];
  rankdir="RL";
  Node1 [label="pair_from_tuple::convertible",height=0.2,width=0.4,color="gray40", fillcolor="grey60", style="filled", fontcolor="black",tooltip=" "];
  Node1 -> Node2 [dir="back",color="steelblue1",style="solid"];
  Node2 [label="pair_from_tuple::pair\l_from_tuple",height=0.2,width=0.4,color="grey40", fillcolor="white", style="filled",URL="$structpair__from__tuple.html#a6667af9c5d31eef2d34393e01ea73868",tooltip=" "];
}
