digraph "graph_tool::graph_union::operator()"
{
 // LATEX_PDF_SIZE
  bgcolor="transparent";
  edge [fontname=Helvetica,fontsize=10,labelfontname=Helvetica,labelfontsize=10];
  node [fontname=Helvetica,fontsize=10,shape=box,height=0.2,width=0.4];
  rankdir="LR";
  Node1 [label="graph_tool::graph_union\l::operator()",height=0.2,width=0.4,color="gray40", fillcolor="grey60", style="filled", fontcolor="black",tooltip=" "];
  Node1 -> Node2 [color="steelblue1",style="solid"];
  Node2 [label="boost::add_edge",height=0.2,width=0.4,color="grey40", fillcolor="white", style="filled",URL="$namespaceboost.html#a2ca660300636fcb45d338069833665ae",tooltip=" "];
  Node2 -> Node2 [color="steelblue1",style="solid"];
  Node2 -> Node3 [color="steelblue1",style="solid"];
  Node3 [label="boost::undirected_adaptor\l::original_graph",height=0.2,width=0.4,color="grey40", fillcolor="white", style="filled",URL="$classboost_1_1undirected__adaptor.html#a11e557bb4f3d7c15354f98390f1d3644",tooltip=" "];
  Node1 -> Node4 [color="steelblue1",style="solid"];
  Node4 [label="boost::add_vertex",height=0.2,width=0.4,color="grey40", fillcolor="white", style="filled",URL="$namespaceboost.html#a9440b0ee2e6a885ba5cd53babca04ae8",tooltip=" "];
  Node4 -> Node4 [color="steelblue1",style="solid"];
  Node4 -> Node3 [color="steelblue1",style="solid"];
  Node1 -> Node5 [color="steelblue1",style="solid"];
  Node5 [label="graph_tool::edges_range",height=0.2,width=0.4,color="grey40", fillcolor="white", style="filled",URL="$namespacegraph__tool.html#a84f027f8994c1005336b0a12eb0c9dc4",tooltip=" "];
  Node5 -> Node6 [color="steelblue1",style="solid"];
  Node6 [label="boost::edges",height=0.2,width=0.4,color="grey40", fillcolor="white", style="filled",URL="$namespaceboost.html#a3ac91f028a5f50644ba12e9e803bb2f8",tooltip=" "];
  Node6 -> Node6 [color="steelblue1",style="solid"];
  Node6 -> Node3 [color="steelblue1",style="solid"];
  Node5 -> Node7 [color="steelblue1",style="solid"];
  Node7 [label="graph_tool::mk_range",height=0.2,width=0.4,color="grey40", fillcolor="white", style="filled",URL="$namespacegraph__tool.html#a6ecc1e46efb4f620acabfe5728f7a2a6",tooltip=" "];
  Node1 -> Node8 [color="steelblue1",style="solid"];
  Node8 [label="boost::num_vertices",height=0.2,width=0.4,color="grey40", fillcolor="white", style="filled",URL="$namespaceboost.html#ac848f876a7fa2caa8fb1879b7c522ebc",tooltip=" "];
  Node8 -> Node8 [color="steelblue1",style="solid"];
  Node8 -> Node3 [color="steelblue1",style="solid"];
  Node1 -> Node9 [color="steelblue1",style="solid"];
  Node9 [label="graph_tool::source",height=0.2,width=0.4,color="grey40", fillcolor="white", style="filled",URL="$namespacegraph__tool.html#a0b44c0af404cec1513acb7b9602557f8",tooltip=" "];
  Node9 -> Node6 [color="steelblue1",style="solid"];
  Node9 -> Node9 [color="steelblue1",style="solid"];
  Node9 -> Node10 [color="steelblue1",style="solid"];
  Node10 [label="graph_tool::target",height=0.2,width=0.4,color="grey40", fillcolor="white", style="filled",URL="$namespacegraph__tool.html#aff9f07ca294560a9de57ab80deffa0cc",tooltip=" "];
  Node10 -> Node6 [color="steelblue1",style="solid"];
  Node10 -> Node9 [color="steelblue1",style="solid"];
  Node10 -> Node10 [color="steelblue1",style="solid"];
  Node1 -> Node10 [color="steelblue1",style="solid"];
  Node1 -> Node11 [color="steelblue1",style="solid"];
  Node11 [label="boost::vertex",height=0.2,width=0.4,color="grey40", fillcolor="white", style="filled",URL="$namespaceboost.html#acf010cb431c640031d53bfe55c84ef46",tooltip=" "];
  Node11 -> Node3 [color="steelblue1",style="solid"];
  Node11 -> Node11 [color="steelblue1",style="solid"];
  Node1 -> Node12 [color="steelblue1",style="solid"];
  Node12 [label="graph_tool::vertices\l_range",height=0.2,width=0.4,color="grey40", fillcolor="white", style="filled",URL="$namespacegraph__tool.html#a92ab479b81d8c9a030d42854fefabf1a",tooltip=" "];
  Node12 -> Node7 [color="steelblue1",style="solid"];
  Node12 -> Node13 [color="steelblue1",style="solid"];
  Node13 [label="boost::vertices",height=0.2,width=0.4,color="grey40", fillcolor="white", style="filled",URL="$namespaceboost.html#a0bc22071c353fa26cd0d16cc817ddde2",tooltip=" "];
  Node13 -> Node3 [color="steelblue1",style="solid"];
  Node13 -> Node13 [color="steelblue1",style="solid"];
}
