digraph "graph_tool::overlap_partition_stats_t::get_deg_dl"
{
 // LATEX_PDF_SIZE
  bgcolor="transparent";
  edge [fontname=Helvetica,fontsize=10,labelfontname=Helvetica,labelfontsize=10];
  node [fontname=Helvetica,fontsize=10,shape=box,height=0.2,width=0.4];
  rankdir="LR";
  Node1 [label="graph_tool::overlap\l_partition_stats_t::\lget_deg_dl",height=0.2,width=0.4,color="gray40", fillcolor="grey60", style="filled", fontcolor="black",tooltip=" "];
  Node1 -> Node2 [color="steelblue1",style="solid"];
  Node2 [label="graph_tool::overlap\l_partition_stats_t::\lget_deg_dl_dist",height=0.2,width=0.4,color="grey40", fillcolor="white", style="filled",URL="$structgraph__tool_1_1overlap__partition__stats__t.html#afeb8f5e1bab7bca007a150e219d942e8",tooltip=" "];
  Node2 -> Node3 [color="steelblue1",style="solid"];
  Node3 [label="graph_tool::lbinom",height=0.2,width=0.4,color="grey40", fillcolor="white", style="filled",URL="$namespacegraph__tool.html#ad1244d21d5eda52968d7e7c4cee5f1b3",tooltip=" "];
  Node2 -> Node4 [color="steelblue1",style="solid"];
  Node4 [label="graph_tool::lgamma_fast",height=0.2,width=0.4,color="grey40", fillcolor="white", style="filled",URL="$namespacegraph__tool.html#ae308495dc111f97fa85b7b4ab66bc264",tooltip=" "];
  Node4 -> Node5 [color="steelblue1",style="solid"];
  Node5 [label="graph_tool::init_lgamma",height=0.2,width=0.4,color="grey40", fillcolor="white", style="filled",URL="$namespacegraph__tool.html#aab67a0fc53c44fafc91b5cb2911aff3b",tooltip=" "];
  Node2 -> Node6 [color="steelblue1",style="solid"];
  Node6 [label="graph_tool::log_q",height=0.2,width=0.4,color="grey40", fillcolor="white", style="filled",URL="$namespacegraph__tool.html#ab7b4c34f651f8552cba79faaacab5379",tooltip=" "];
  Node6 -> Node7 [color="steelblue1",style="solid"];
  Node7 [label="graph_tool::log_q_approx",height=0.2,width=0.4,color="grey40", fillcolor="white", style="filled",URL="$namespacegraph__tool.html#acec354edbb177e696f58b731fbf566a7",tooltip=" "];
  Node7 -> Node8 [color="steelblue1",style="solid"];
  Node8 [label="graph_tool::get_v",height=0.2,width=0.4,color="grey40", fillcolor="white", style="filled",URL="$namespacegraph__tool.html#ab20f0f9adaa38f050d8fbb5ab1990603",tooltip=" "];
  Node8 -> Node9 [color="steelblue1",style="solid"];
  Node9 [label="spence",height=0.2,width=0.4,color="grey40", fillcolor="white", style="filled",URL="$spence_8cc.html#a58e4dbbddc449c0fb78441a58d0b0976",tooltip=" "];
  Node9 -> Node10 [color="steelblue1",style="solid"];
  Node10 [label="polevl",height=0.2,width=0.4,color="grey40", fillcolor="white", style="filled",URL="$spence_8cc.html#ac9906d546ede7b7744019f302128fdc5",tooltip=" "];
  Node7 -> Node11 [color="steelblue1",style="solid"];
  Node11 [label="graph_tool::log_q_approx\l_small",height=0.2,width=0.4,color="grey40", fillcolor="white", style="filled",URL="$namespacegraph__tool.html#a7cc87c6a409d93cb6d607ae6668514a9",tooltip=" "];
  Node11 -> Node12 [color="steelblue1",style="solid"];
  Node12 [label="graph_tool::lbinom_fast",height=0.2,width=0.4,color="grey40", fillcolor="white", style="filled",URL="$namespacegraph__tool.html#a4a66630b83698bbf94a6245f602237df",tooltip=" "];
  Node11 -> Node4 [color="steelblue1",style="solid"];
  Node1 -> Node13 [color="steelblue1",style="solid"];
  Node13 [label="graph_tool::overlap\l_partition_stats_t::\lget_deg_dl_ent",height=0.2,width=0.4,color="grey40", fillcolor="white", style="filled",URL="$structgraph__tool_1_1overlap__partition__stats__t.html#a6835a96834ace3072685149e1859b2ff",tooltip=" "];
  Node13 -> Node14 [color="steelblue1",style="solid"];
  Node14 [label="graph_tool::xlogx_fast",height=0.2,width=0.4,color="grey40", fillcolor="white", style="filled",URL="$namespacegraph__tool.html#acd0efc0f2e935aea4becc57408917365",tooltip=" "];
  Node14 -> Node15 [color="steelblue1",style="solid"];
  Node15 [label="graph_tool::init_xlogx",height=0.2,width=0.4,color="grey40", fillcolor="white", style="filled",URL="$namespacegraph__tool.html#a59a115ed7fe0b83bad2cae1b4cc6bcdd",tooltip=" "];
  Node15 -> Node16 [color="steelblue1",style="solid"];
  Node16 [label="graph_tool::xlogx",height=0.2,width=0.4,color="grey40", fillcolor="white", style="filled",URL="$namespacegraph__tool.html#a9ed75f0f7d682110f07788df5dc472da",tooltip=" "];
  Node16 -> Node17 [color="steelblue1",style="solid"];
  Node17 [label="graph_tool::safelog",height=0.2,width=0.4,color="grey40", fillcolor="white", style="filled",URL="$namespacegraph__tool.html#a2775c645bfb6f1026c90168f54315c51",tooltip=" "];
  Node14 -> Node16 [color="steelblue1",style="solid"];
  Node1 -> Node18 [color="steelblue1",style="solid"];
  Node18 [label="graph_tool::overlap\l_partition_stats_t::\lget_deg_dl_uniform",height=0.2,width=0.4,color="grey40", fillcolor="white", style="filled",URL="$structgraph__tool_1_1overlap__partition__stats__t.html#af6d7305843418b28fe13b05ad2564ade",tooltip=" "];
  Node18 -> Node3 [color="steelblue1",style="solid"];
}
