digraph "graph_tool::Multilevel::move_node"
{
 // LATEX_PDF_SIZE
  bgcolor="transparent";
  edge [fontname=Helvetica,fontsize=10,labelfontname=Helvetica,labelfontsize=10];
  node [fontname=Helvetica,fontsize=10,shape=box,height=0.2,width=0.4];
  rankdir="RL";
  Node1 [label="graph_tool::Multilevel\l::move_node",height=0.2,width=0.4,color="gray40", fillcolor="grey60", style="filled", fontcolor="black",tooltip=" "];
  Node1 -> Node2 [dir="back",color="steelblue1",style="solid"];
  Node2 [label="graph_tool::Multilevel\l::gibbs_sweep",height=0.2,width=0.4,color="grey40", fillcolor="white", style="filled",URL="$structgraph__tool_1_1Multilevel.html#ac15abbb6e44eb62fd06e44b609e0112e",tooltip=" "];
  Node1 -> Node3 [dir="back",color="steelblue1",style="solid"];
  Node3 [label="graph_tool::Multilevel\l::merge",height=0.2,width=0.4,color="grey40", fillcolor="white", style="filled",URL="$structgraph__tool_1_1Multilevel.html#ae04ff0a104714a26dff1aa92e1e512a1",tooltip=" "];
  Node3 -> Node4 [dir="back",color="steelblue1",style="solid"];
  Node4 [label="graph_tool::Multilevel\l::merge_sweep",height=0.2,width=0.4,color="grey40", fillcolor="white", style="filled",URL="$structgraph__tool_1_1Multilevel.html#ae851855f27441d6759c67fe3d0f959ed",tooltip=" "];
  Node4 -> Node5 [dir="back",color="steelblue1",style="solid"];
  Node5 [label="graph_tool::Multilevel\l::stage_multilevel",height=0.2,width=0.4,color="grey40", fillcolor="white", style="filled",URL="$structgraph__tool_1_1Multilevel.html#ae5f2a1c73005717ee33c5f4de4acca8f",tooltip=" "];
  Node5 -> Node6 [dir="back",color="steelblue1",style="solid"];
  Node6 [label="graph_tool::Multilevel\l::move_proposal",height=0.2,width=0.4,color="grey40", fillcolor="white", style="filled",URL="$structgraph__tool_1_1Multilevel.html#a2d2fb774193324f6d242041f01d9aaf5",tooltip=" "];
  Node1 -> Node7 [dir="back",color="steelblue1",style="solid"];
  Node7 [label="graph_tool::Multilevel\l::mh_sweep",height=0.2,width=0.4,color="grey40", fillcolor="white", style="filled",URL="$structgraph__tool_1_1Multilevel.html#a4633ebfd73810ec9c8ef80a90d5d11cf",tooltip=" "];
  Node1 -> Node8 [dir="back",color="steelblue1",style="solid"];
  Node8 [label="graph_tool::Multilevel\l::mh_sweep_prob",height=0.2,width=0.4,color="grey40", fillcolor="white", style="filled",URL="$structgraph__tool_1_1Multilevel.html#aa481910dbb3989412fd57110f6c0752e",tooltip=" "];
  Node8 -> Node5 [dir="back",color="steelblue1",style="solid"];
  Node1 -> Node6 [dir="back",color="steelblue1",style="solid"];
  Node1 -> Node9 [dir="back",color="steelblue1",style="solid"];
  Node9 [label="graph_tool::Multilevel\l::perform_move",height=0.2,width=0.4,color="grey40", fillcolor="white", style="filled",URL="$structgraph__tool_1_1Multilevel.html#ae27f8c345e11f6b531ab1759aee58238",tooltip=" "];
  Node1 -> Node10 [dir="back",color="steelblue1",style="solid"];
  Node10 [label="graph_tool::Multilevel\l::pop_b",height=0.2,width=0.4,color="grey40", fillcolor="white", style="filled",URL="$structgraph__tool_1_1Multilevel.html#adb42c2a98013fb695704ffa98998143c",tooltip=" "];
  Node10 -> Node5 [dir="back",color="steelblue1",style="solid"];
  Node1 -> Node5 [dir="back",color="steelblue1",style="solid"];
}
