digraph "graph_tool::MergeSplit::move_proposal"
{
 // LATEX_PDF_SIZE
  bgcolor="transparent";
  edge [fontname=Helvetica,fontsize=10,labelfontname=Helvetica,labelfontsize=10];
  node [fontname=Helvetica,fontsize=10,shape=box,height=0.2,width=0.4];
  rankdir="LR";
  Node1 [label="graph_tool::MergeSplit\l::move_proposal",height=0.2,width=0.4,color="gray40", fillcolor="grey60", style="filled", fontcolor="black",tooltip=" "];
  Node1 -> Node2 [color="steelblue1",style="solid"];
  Node2 [label="graph_tool::MergeSplit\l::allow_merge",height=0.2,width=0.4,color="grey40", fillcolor="white", style="filled",URL="$structgraph__tool_1_1MergeSplit.html#a3e93f98512e366edc04c66f03a7d1d0c",tooltip=" "];
  Node1 -> Node3 [color="steelblue1",style="solid"];
  Node3 [label="graph_tool::MergeSplit\l::get_wr",height=0.2,width=0.4,color="grey40", fillcolor="white", style="filled",URL="$structgraph__tool_1_1MergeSplit.html#a401f65b193e96848f617d0ae7451846a",tooltip=" "];
  Node1 -> Node4 [color="steelblue1",style="solid"];
  Node4 [label="graph_tool::MergeSplit\l::merge_prob",height=0.2,width=0.4,color="grey40", fillcolor="white", style="filled",URL="$structgraph__tool_1_1MergeSplit.html#a13738cb41d4389b1098f973d9f28cc35",tooltip=" "];
  Node4 -> Node5 [color="steelblue1",style="solid"];
  Node5 [label="graph_tool::MergeSplit\l::get_move_prob",height=0.2,width=0.4,color="grey40", fillcolor="white", style="filled",URL="$structgraph__tool_1_1MergeSplit.html#a589a0910811305b36fa49b23d914f061",tooltip=" "];
  Node5 -> Node6 [color="steelblue1",style="solid"];
  Node6 [label="graph_tool::log_sum_exp",height=0.2,width=0.4,color="grey40", fillcolor="white", style="filled",URL="$namespacegraph__tool.html#a77c498f2d210d50149ed2c892bb7cf14",tooltip=" "];
  Node5 -> Node7 [color="steelblue1",style="solid"];
  Node7 [label="graph_tool::safelog_fast",height=0.2,width=0.4,color="grey40", fillcolor="white", style="filled",URL="$namespacegraph__tool.html#a79fcd257f84cbb496bcc1de77c0047d7",tooltip=" "];
  Node7 -> Node8 [color="steelblue1",style="solid"];
  Node8 [label="graph_tool::init_safelog",height=0.2,width=0.4,color="grey40", fillcolor="white", style="filled",URL="$namespacegraph__tool.html#a963421460fa76f55c786dff3f225ca7a",tooltip=" "];
  Node8 -> Node9 [color="steelblue1",style="solid"];
  Node9 [label="graph_tool::safelog",height=0.2,width=0.4,color="grey40", fillcolor="white", style="filled",URL="$namespacegraph__tool.html#a2775c645bfb6f1026c90168f54315c51",tooltip=" "];
  Node7 -> Node9 [color="steelblue1",style="solid"];
  Node1 -> Node10 [color="steelblue1",style="solid"];
  Node10 [label="graph_tool::MergeSplit\l::pop_b",height=0.2,width=0.4,color="grey40", fillcolor="white", style="filled",URL="$structgraph__tool_1_1MergeSplit.html#a6f69374dee33240d3bb55cc84290a628",tooltip=" "];
  Node10 -> Node11 [color="steelblue1",style="solid"];
  Node11 [label="graph_tool::MergeSplit\l::move_node",height=0.2,width=0.4,color="grey40", fillcolor="white", style="filled",URL="$structgraph__tool_1_1MergeSplit.html#adac92861150419b8a3b332ca4b7ca5cc",tooltip=" "];
  Node1 -> Node12 [color="steelblue1",style="solid"];
  Node12 [label="graph_tool::MergeSplit\l::push_b",height=0.2,width=0.4,color="grey40", fillcolor="white", style="filled",URL="$structgraph__tool_1_1MergeSplit.html#ab476fbb72c0f5197d614a58933f908e6",tooltip=" "];
  Node12 -> Node13 [color="steelblue1",style="solid"];
  Node13 [label="graph_tool::MergeSplit\l::_push_b_dispatch",height=0.2,width=0.4,color="grey40", fillcolor="white", style="filled",URL="$structgraph__tool_1_1MergeSplit.html#a3a3425dc9833d2e6a2757efdf3921e73",tooltip=" "];
  Node1 -> Node7 [color="steelblue1",style="solid"];
  Node1 -> Node14 [color="steelblue1",style="solid"];
  Node14 [label="graph_tool::Sampler\l::sample",height=0.2,width=0.4,color="grey40", fillcolor="white", style="filled",URL="$classgraph__tool_1_1Sampler.html#af3e807cbef2bbf3e5226e428bc6fc3b3",tooltip=" "];
  Node1 -> Node15 [color="steelblue1",style="solid"];
  Node15 [label="graph_tool::MergeSplit\l::sample_merge",height=0.2,width=0.4,color="grey40", fillcolor="white", style="filled",URL="$structgraph__tool_1_1MergeSplit.html#a06c5469bdf2e9f7a166fd6ee1dafcbbf",tooltip=" "];
  Node15 -> Node2 [color="steelblue1",style="solid"];
  Node15 -> Node3 [color="steelblue1",style="solid"];
  Node15 -> Node4 [color="steelblue1",style="solid"];
  Node15 -> Node12 [color="steelblue1",style="solid"];
  Node15 -> Node16 [color="steelblue1",style="solid"];
  Node16 [label="graph_tool::MergeSplit\l::sample_move",height=0.2,width=0.4,color="grey40", fillcolor="white", style="filled",URL="$structgraph__tool_1_1MergeSplit.html#ab86fe1538bdeb8c01488f614e30775f2",tooltip=" "];
  Node16 -> Node17 [color="steelblue1",style="solid"];
  Node17 [label="graph_tool::uniform\l_sample",height=0.2,width=0.4,color="grey40", fillcolor="white", style="filled",URL="$namespacegraph__tool.html#ac2ce214a2fffea5829defd8952abf538",tooltip=" "];
  Node17 -> Node18 [color="steelblue1",style="solid"];
  Node18 [label="graph_tool::uniform\l_sample_iter",height=0.2,width=0.4,color="grey40", fillcolor="white", style="filled",URL="$namespacegraph__tool.html#a6c076e169c88286ce322852b779e1cdf",tooltip=" "];
  Node15 -> Node19 [color="steelblue1",style="solid"];
  Node19 [label="graph_tool::MergeSplit\l::split_prob",height=0.2,width=0.4,color="grey40", fillcolor="white", style="filled",URL="$structgraph__tool_1_1MergeSplit.html#a2db449f33a5bda8ffce4eb00a7c48c98",tooltip=" "];
  Node19 -> Node6 [color="steelblue1",style="solid"];
  Node19 -> Node11 [color="steelblue1",style="solid"];
  Node19 -> Node10 [color="steelblue1",style="solid"];
  Node19 -> Node12 [color="steelblue1",style="solid"];
  Node19 -> Node20 [color="steelblue1",style="solid"];
  Node20 [label="graph_tool::MergeSplit\l::split_prob_gibbs",height=0.2,width=0.4,color="grey40", fillcolor="white", style="filled",URL="$structgraph__tool_1_1MergeSplit.html#a023b624502f705e17d4432c3a2f8d749",tooltip=" "];
  Node20 -> Node3 [color="steelblue1",style="solid"];
  Node20 -> Node6 [color="steelblue1",style="solid"];
  Node20 -> Node11 [color="steelblue1",style="solid"];
  Node1 -> Node16 [color="steelblue1",style="solid"];
  Node1 -> Node21 [color="steelblue1",style="solid"];
  Node21 [label="graph_tool::MergeSplit\l::sample_split",height=0.2,width=0.4,color="grey40", fillcolor="white", style="filled",URL="$structgraph__tool_1_1MergeSplit.html#a9837e8e6ef43a81ff1abe41c88b4ebf4",tooltip=" "];
  Node21 -> Node3 [color="steelblue1",style="solid"];
  Node21 -> Node4 [color="steelblue1",style="solid"];
  Node1 -> Node19 [color="steelblue1",style="solid"];
  Node1 -> Node17 [color="steelblue1",style="solid"];
}
