digraph "boost::adj_list::make_in_edge::def"
{
 // LATEX_PDF_SIZE
  bgcolor="transparent";
  edge [fontname=Helvetica,fontsize=10,labelfontname=Helvetica,labelfontsize=10];
  node [fontname=Helvetica,fontsize=10,shape=box,height=0.2,width=0.4];
  rankdir="LR";
  Node1 [label="boost::adj_list::make\l_in_edge::def",height=0.2,width=0.4,color="gray40", fillcolor="grey60", style="filled", fontcolor="black",tooltip=" "];
  Node1 -> Node2 [color="steelblue1",style="solid"];
  Node2 [label="boost::adj_list::make\l_in_edge::def",height=0.2,width=0.4,color="grey40", fillcolor="white", style="filled",URL="$structboost_1_1adj__list_1_1make__in__edge.html#a163aed21fc1e9f5332e302e0db5108cf",tooltip=" "];
}
