digraph "graph_tool::RandomRewireStrategy&lt; Graph, EdgeIndexMap, CorrProb, BlockDeg &gt;::random_index"
{
 // LATEX_PDF_SIZE
  bgcolor="transparent";
  edge [fontname=Helvetica,fontsize=10,labelfontname=Helvetica,labelfontsize=10];
  node [fontname=Helvetica,fontsize=10,shape=box,height=0.2,width=0.4];
  Node1 [shape=record,label="{graph_tool::RandomRewire\lStrategy\< Graph, EdgeIndexMap,\l CorrProb, BlockDeg \>::random_index\n||}",height=0.2,width=0.4,color="gray40", fillcolor="grey60", style="filled", fontcolor="black",tooltip=" "];
}
