digraph "graph_tool::MergeSplit::move_node"
{
 // LATEX_PDF_SIZE
  bgcolor="transparent";
  edge [fontname=Helvetica,fontsize=10,labelfontname=Helvetica,labelfontsize=10];
  node [fontname=Helvetica,fontsize=10,shape=box,height=0.2,width=0.4];
  rankdir="RL";
  Node1 [label="graph_tool::MergeSplit\l::move_node",height=0.2,width=0.4,color="gray40", fillcolor="grey60", style="filled", fontcolor="black",tooltip=" "];
  Node1 -> Node2 [dir="back",color="steelblue1",style="solid"];
  Node2 [label="graph_tool::MergeSplit\l::gibbs_sweep",height=0.2,width=0.4,color="grey40", fillcolor="white", style="filled",URL="$structgraph__tool_1_1MergeSplit.html#a2958fcc59a6eb142b6918545b8003c90",tooltip=" "];
  Node2 -> Node3 [dir="back",color="steelblue1",style="solid"];
  Node3 [label="graph_tool::MergeSplit\l::split",height=0.2,width=0.4,color="grey40", fillcolor="white", style="filled",URL="$structgraph__tool_1_1MergeSplit.html#a8437f5e484bafd87b4bac59d5df04349",tooltip=" "];
  Node1 -> Node4 [dir="back",color="steelblue1",style="solid"];
  Node4 [label="graph_tool::MergeSplit\l::merge",height=0.2,width=0.4,color="grey40", fillcolor="white", style="filled",URL="$structgraph__tool_1_1MergeSplit.html#a5aa216327d82958036819d7cda6e9cad",tooltip=" "];
  Node1 -> Node5 [dir="back",color="steelblue1",style="solid"];
  Node5 [label="graph_tool::MergeSplit\l::perform_move",height=0.2,width=0.4,color="grey40", fillcolor="white", style="filled",URL="$structgraph__tool_1_1MergeSplit.html#a301ca295f6934f91c922982af93d3d23",tooltip=" "];
  Node1 -> Node6 [dir="back",color="steelblue1",style="solid"];
  Node6 [label="graph_tool::MergeSplit\l::pop_b",height=0.2,width=0.4,color="grey40", fillcolor="white", style="filled",URL="$structgraph__tool_1_1MergeSplit.html#a6f69374dee33240d3bb55cc84290a628",tooltip=" "];
  Node6 -> Node7 [dir="back",color="steelblue1",style="solid"];
  Node7 [label="graph_tool::MergeSplit\l::move_proposal",height=0.2,width=0.4,color="grey40", fillcolor="white", style="filled",URL="$structgraph__tool_1_1MergeSplit.html#a9210dbd9cd1e1c4fc931aaf692cb599f",tooltip=" "];
  Node6 -> Node3 [dir="back",color="steelblue1",style="solid"];
  Node6 -> Node8 [dir="back",color="steelblue1",style="solid"];
  Node8 [label="graph_tool::MergeSplit\l::split_prob",height=0.2,width=0.4,color="grey40", fillcolor="white", style="filled",URL="$structgraph__tool_1_1MergeSplit.html#a2db449f33a5bda8ffce4eb00a7c48c98",tooltip=" "];
  Node8 -> Node7 [dir="back",color="steelblue1",style="solid"];
  Node8 -> Node9 [dir="back",color="steelblue1",style="solid"];
  Node9 [label="graph_tool::MergeSplit\l::sample_merge",height=0.2,width=0.4,color="grey40", fillcolor="white", style="filled",URL="$structgraph__tool_1_1MergeSplit.html#a06c5469bdf2e9f7a166fd6ee1dafcbbf",tooltip=" "];
  Node9 -> Node7 [dir="back",color="steelblue1",style="solid"];
  Node1 -> Node3 [dir="back",color="steelblue1",style="solid"];
  Node1 -> Node8 [dir="back",color="steelblue1",style="solid"];
  Node1 -> Node10 [dir="back",color="steelblue1",style="solid"];
  Node10 [label="graph_tool::MergeSplit\l::split_prob_gibbs",height=0.2,width=0.4,color="grey40", fillcolor="white", style="filled",URL="$structgraph__tool_1_1MergeSplit.html#a023b624502f705e17d4432c3a2f8d749",tooltip=" "];
  Node10 -> Node3 [dir="back",color="steelblue1",style="solid"];
  Node10 -> Node8 [dir="back",color="steelblue1",style="solid"];
  Node1 -> Node11 [dir="back",color="steelblue1",style="solid"];
  Node11 [label="graph_tool::MergeSplit\l::stage_split_coalesce",height=0.2,width=0.4,color="grey40", fillcolor="white", style="filled",URL="$structgraph__tool_1_1MergeSplit.html#af6dafacb4b7c235f19d23e44d2b28f68",tooltip=" "];
  Node1 -> Node12 [dir="back",color="steelblue1",style="solid"];
  Node12 [label="graph_tool::MergeSplit\l::stage_split_random",height=0.2,width=0.4,color="grey40", fillcolor="white", style="filled",URL="$structgraph__tool_1_1MergeSplit.html#a413252374365c42b583a257e6e956e45",tooltip=" "];
  Node1 -> Node13 [dir="back",color="steelblue1",style="solid"];
  Node13 [label="graph_tool::MergeSplit\l::stage_split_scatter",height=0.2,width=0.4,color="grey40", fillcolor="white", style="filled",URL="$structgraph__tool_1_1MergeSplit.html#a7a776920f396ec15c992e263bf20b2b9",tooltip=" "];
}
