digraph "graph_tool::get_in_edges&lt; Graph, IsDirected &gt;"
{
 // LATEX_PDF_SIZE
  bgcolor="transparent";
  edge [fontname=Helvetica,fontsize=10,labelfontname=Helvetica,labelfontsize=10];
  node [fontname=Helvetica,fontsize=10,shape=box,height=0.2,width=0.4];
  Node1 [shape=record,label="{graph_tool::get_in\l_edges\< Graph, IsDirected \>\n||+ BOOST_MPL_ASSERT()\l+ BOOST_MPL_ASSERT()\l+ get_edges()\l}",height=0.2,width=0.4,color="gray40", fillcolor="grey60", style="filled", fontcolor="black",tooltip=" "];
}
