digraph "graph_tool::convert&lt; Type1, Type2 &gt;::specific_convert&lt; std::vector&lt; T1 &gt;, std::vector&lt; T2 &gt; &gt;"
{
 // LATEX_PDF_SIZE
  bgcolor="transparent";
  edge [fontname=Helvetica,fontsize=10,labelfontname=Helvetica,labelfontsize=10];
  node [fontname=Helvetica,fontsize=10,shape=box,height=0.2,width=0.4];
  Node1 [shape=record,label="{graph_tool::convert\l\< Type1, Type2 \>::specific\l_convert\< std::vector\< T1\l \>, std::vector\< T2 \> \>\n||+ operator()()\l}",height=0.2,width=0.4,color="gray40", fillcolor="grey60", style="filled", fontcolor="black",tooltip=" "];
}
