digraph "export_dists"
{
 // LATEX_PDF_SIZE
  bgcolor="transparent";
  edge [fontname=Helvetica,fontsize=10,labelfontname=Helvetica,labelfontsize=10];
  node [fontname=Helvetica,fontsize=10,shape=box,height=0.2,width=0.4];
  rankdir="LR";
  Node1 [label="export_dists",height=0.2,width=0.4,color="gray40", fillcolor="grey60", style="filled", fontcolor="black",tooltip=" "];
  Node1 -> Node2 [color="steelblue1",style="solid"];
  Node2 [label="do_get_all_paths",height=0.2,width=0.4,color="grey40", fillcolor="white", style="filled",URL="$topology_2graph__distance_8cc.html#a130800f27329e29c99131506765eca14",tooltip=" "];
  Node2 -> Node3 [color="steelblue1",style="solid"];
  Node3 [label="boost::edges",height=0.2,width=0.4,color="grey40", fillcolor="white", style="filled",URL="$namespaceboost.html#a3ac91f028a5f50644ba12e9e803bb2f8",tooltip=" "];
  Node3 -> Node3 [color="steelblue1",style="solid"];
  Node3 -> Node4 [color="steelblue1",style="solid"];
  Node4 [label="boost::undirected_adaptor\l::original_graph",height=0.2,width=0.4,color="grey40", fillcolor="white", style="filled",URL="$classboost_1_1undirected__adaptor.html#a11e557bb4f3d7c15354f98390f1d3644",tooltip=" "];
  Node1 -> Node5 [color="steelblue1",style="solid"];
  Node5 [label="do_get_all_preds",height=0.2,width=0.4,color="grey40", fillcolor="white", style="filled",URL="$topology_2graph__distance_8cc.html#a2a211c9026158765ad154df0c68b8c9a",tooltip=" "];
  Node5 -> Node6 [color="steelblue1",style="solid"];
  Node6 [label="get_all_preds",height=0.2,width=0.4,color="grey40", fillcolor="white", style="filled",URL="$topology_2graph__distance_8cc.html#a4c1528212f26ea39747905053a3107bf",tooltip=" "];
  Node6 -> Node7 [color="steelblue1",style="solid"];
  Node7 [label="boost::get",height=0.2,width=0.4,color="grey40", fillcolor="white", style="filled",URL="$namespaceboost.html#a16c10260e678081f48c16db5bdd0f5ea",tooltip=" "];
  Node7 -> Node7 [color="steelblue1",style="solid"];
  Node7 -> Node4 [color="steelblue1",style="solid"];
  Node6 -> Node8 [color="steelblue1",style="solid"];
  Node8 [label="graph_tool::in_or_out\l_edges_range",height=0.2,width=0.4,color="grey40", fillcolor="white", style="filled",URL="$namespacegraph__tool.html#a655821049f44eb75c433c9f5ec85e9cf",tooltip=" "];
  Node8 -> Node9 [color="steelblue1",style="solid"];
  Node9 [label="graph_tool::mk_range",height=0.2,width=0.4,color="grey40", fillcolor="white", style="filled",URL="$namespacegraph__tool.html#a6ecc1e46efb4f620acabfe5728f7a2a6",tooltip=" "];
  Node6 -> Node10 [color="steelblue1",style="solid"];
  Node10 [label="graph_tool::parallel\l_vertex_loop",height=0.2,width=0.4,color="grey40", fillcolor="white", style="filled",URL="$namespacegraph__tool.html#ab935ff202da78b1e2356069ec687b630",tooltip=" "];
  Node6 -> Node11 [color="steelblue1",style="solid"];
  Node11 [label="graph_tool::source",height=0.2,width=0.4,color="grey40", fillcolor="white", style="filled",URL="$namespacegraph__tool.html#a0b44c0af404cec1513acb7b9602557f8",tooltip=" "];
  Node11 -> Node3 [color="steelblue1",style="solid"];
  Node11 -> Node11 [color="steelblue1",style="solid"];
  Node11 -> Node12 [color="steelblue1",style="solid"];
  Node12 [label="graph_tool::target",height=0.2,width=0.4,color="grey40", fillcolor="white", style="filled",URL="$namespacegraph__tool.html#aff9f07ca294560a9de57ab80deffa0cc",tooltip=" "];
  Node12 -> Node3 [color="steelblue1",style="solid"];
  Node12 -> Node11 [color="steelblue1",style="solid"];
  Node12 -> Node12 [color="steelblue1",style="solid"];
  Node5 -> Node13 [color="steelblue1",style="solid"];
  Node13 [label="boost::num_vertices",height=0.2,width=0.4,color="grey40", fillcolor="white", style="filled",URL="$namespaceboost.html#ac848f876a7fa2caa8fb1879b7c522ebc",tooltip=" "];
  Node13 -> Node13 [color="steelblue1",style="solid"];
  Node13 -> Node4 [color="steelblue1",style="solid"];
  Node1 -> Node14 [color="steelblue1",style="solid"];
  Node14 [label="do_get_all_shortest\l_paths",height=0.2,width=0.4,color="grey40", fillcolor="white", style="filled",URL="$topology_2graph__distance_8cc.html#ae94c872c04935209b5dfd62089108d5c",tooltip=" "];
  Node14 -> Node3 [color="steelblue1",style="solid"];
  Node14 -> Node15 [color="steelblue1",style="solid"];
  Node15 [label="get_all_shortest_paths",height=0.2,width=0.4,color="grey40", fillcolor="white", style="filled",URL="$topology_2graph__distance_8cc.html#a7a8e36a40bd917e9ae94f5c452e23112",tooltip=" "];
  Node15 -> Node16 [color="steelblue1",style="solid"];
  Node16 [label="boost::edge",height=0.2,width=0.4,color="grey40", fillcolor="white", style="filled",URL="$namespaceboost.html#a598b4480c610319f1d97be25667c6e56",tooltip=" "];
  Node16 -> Node16 [color="steelblue1",style="solid"];
  Node16 -> Node4 [color="steelblue1",style="solid"];
  Node15 -> Node3 [color="steelblue1",style="solid"];
  Node1 -> Node17 [color="steelblue1",style="solid"];
  Node17 [label="get_dists",height=0.2,width=0.4,color="grey40", fillcolor="white", style="filled",URL="$topology_2graph__distance_8cc.html#aa7f3c376c0fa9c7af937e9c182b7e0f2",tooltip=" "];
  Node17 -> Node18 [color="steelblue1",style="solid"];
  Node18 [label="graph_tool::GraphInterface\l::get_graph",height=0.2,width=0.4,color="grey40", fillcolor="white", style="filled",URL="$classgraph__tool_1_1GraphInterface.html#a732ab352eadc8f67ac80c07b7dcf9bdd",tooltip=" "];
  Node17 -> Node19 [color="steelblue1",style="solid"];
  Node19 [label="graph_tool::GraphInterface\l::get_vertex_index",height=0.2,width=0.4,color="grey40", fillcolor="white", style="filled",URL="$classgraph__tool_1_1GraphInterface.html#a4a8b2130874eb17e73e578e39b851b64",tooltip=" "];
  Node17 -> Node13 [color="steelblue1",style="solid"];
  Node17 -> Node11 [color="steelblue1",style="solid"];
  Node1 -> Node20 [color="steelblue1",style="solid"];
  Node20 [label="get_random_shortest_path",height=0.2,width=0.4,color="grey40", fillcolor="white", style="filled",URL="$topology_2graph__distance_8cc.html#a46d5e3e52b35635cf13bf781920517f7",tooltip=" "];
  Node20 -> Node21 [color="steelblue1",style="solid"];
  Node21 [label="graph_tool::Sampler\l::sample",height=0.2,width=0.4,color="grey40", fillcolor="white", style="filled",URL="$classgraph__tool_1_1Sampler.html#af3e807cbef2bbf3e5226e428bc6fc3b3",tooltip=" "];
  Node1 -> Node22 [color="steelblue1",style="solid"];
  Node22 [label="get_weighted_succs",height=0.2,width=0.4,color="grey40", fillcolor="white", style="filled",URL="$topology_2graph__distance_8cc.html#a91186a76c1df1ce8f6f352f09a2b6324",tooltip=" "];
}
